-6.89818 -3.77065 -13.8803 1.3354 9.36429 1.71621 9.60065 5.68563 9.74225 1.73631 0.838482 9.44665 11.2913 0.415207 0.911884 0.616955 0.26247 -0.380625 -1.01337 0.0234005 0.401992 -0.461153 0.303604 -0.711508 -1.80645 -0.0447369 
-5.90789 -1.97428 -11.9531 3.12904 12.0583 -0.517585 9.706 10.2547 11.0418 5.7263 -0.833161 9.68655 11.2488 0.0542334 1.01088 0.432071 1.29533 -0.283279 -1.60213 0.372988 -1.84177 -0.607148 -0.656418 -0.474617 -1.55815 0.162162 
-5.31729 -0.109407 -11.7591 1.75093 6.11413 -2.23374 9.66498 5.41104 6.78668 1.25933 -1.88324 0.294447 11.0889 -0.325445 0.754002 -0.226581 1.00238 -0.457682 -1.78255 0.275277 -1.95567 -0.639738 -1.55918 -0.197002 -1.01013 0.303074 
-7.41746 -0.546863 -12.7805 7.6043 9.57297 -4.31946 11.4334 -3.38594 8.18429 -1.30729 -0.173744 6.23201 12.2033 -1.06444 0.134482 -0.962186 0.591403 -0.53047 -1.22252 0.242534 -1.35767 0.864561 -0.84919 0.143198 -1.37658 0.499265 
-7.77062 -0.714344 -14.5995 4.10968 8.31856 -5.29561 10.1133 2.72762 7.97233 -2.54279 -0.476238 6.12329 12.3294 -0.34279 -0.254603 -0.1958 -0.482927 -0.116413 0.254466 -0.0511462 1.08405 1.29638 0.681034 -0.725554 -0.0867073 0.157854 
-10.0034 -0.999403 -15.3438 4.90668 8.30377 -5.09926 10.6945 4.80812 14.7718 3.38141 -0.820669 -0.110779 13.1249 -0.294136 -0.342358 -0.174877 -0.987574 -0.951463 -0.465891 -1.4351 2.18047 -0.412265 1.70295 0.357262 -1.30375 0.0774259 
-5.73826 -1.15615 -11.4564 0.685106 6.16666 -0.571519 9.77871 6.73427 9.9748 2.32015 -5.18754 3.0323 11.4174 0.49482 0.044719 1.44916 -0.377598 -0.537014 -0.73547 -1.89517 2.07987 -1.4443 0.904196 0.915754 -1.03794 -0.119666 
-9.90432 -2.03775 -15.2264 4.37873 5.8916 -9.01097 4.42521 5.51308 5.12173 4.77597 3.96822 1.25874 13.0465 2.58177 2.44628 3.95343 -0.0988532 0.331374 -0.265746 -3.18041 -0.388354 -3.31805 -0.900461 -0.609276 -0.985483 -0.180019 
-5.34607 0.0284243 -7.41236 2.48567 6.83958 -7.0171 3.77213 12.7745 5.57589 1.28091 1.70809 0.248826 11.7703 3.58317 3.67263 5.6065 0.257106 -0.731193 -0.262438 -3.20571 -2.60239 -3.04027 -1.36336 -0.550894 -0.947977 0.284418 
2.70935 10.6397 2.4013 3.51213 9.62419 -3.20519 -2.20426 -0.153746 0.381042 -0.60127 -7.31486 -3.64645 12.0483 4.16891 3.21929 6.05863 -0.509654 -1.79962 1.10122 -1.83436 -3.46168 -1.96056 -2.84754 -1.09624 -0.275126 0.405158 
5.87076 10.8683 7.76226 2.40393 0.644405 -4.78659 -2.93511 -3.44427 -2.8562 -1.80801 -2.30047 0.74502 13.3386 2.42975 0.674023 4.58484 -0.894616 -2.73148 0.958182 -1.30599 -3.03865 -2.46397 -1.40553 0.213091 0.236586 0.941379 
5.33182 8.63879 7.47943 1.87133 -0.0089283 -4.62012 -1.39295 -3.68596 -0.465014 -7.91728 0.49128 -0.364984 14.2881 0.389095 -2.42231 2.98072 -1.62366 -2.17594 1.06314 -0.354941 0.205664 -1.38544 -0.212594 0.973476 0.428416 1.06186 
5.49146 4.39899 12.9728 -1.167 -2.00128 -1.51873 -3.16349 -0.652689 -6.32096 -2.08872 -1.12953 -0.208978 15.3573 -0.732633 -2.57989 2.58569 -1.61688 -0.270916 1.28531 -0.645564 1.33481 -0.682254 0.570896 0.0994875 -0.733218 0.992616 
4.84447 1.76279 14.6997 -2.82069 0.0673265 0.476583 -3.86477 -0.521218 -4.8138 -1.52389 -3.03296 -1.02738 16.3483 -1.06716 -1.62308 1.81122 -0.940802 -0.107858 1.22192 -0.89073 0.838181 -0.472777 1.20031 -0.209279 -0.133571 0.850443 
2.45127 1.4068 17.0806 -3.33449 -0.748301 -0.908389 -4.92702 1.64738 -4.09307 -2.15023 -0.0409193 -2.58987 17.2716 -1.42146 -0.240185 0.506581 -0.0613718 -0.416234 0.234455 -0.263203 0.423577 1.08064 -0.49776 0.195024 0.167601 0.62594 
1.51612 2.01949 14.4816 -1.74894 -1.17471 1.18429 -4.96484 -0.64509 -3.94284 -1.88496 -1.09942 0.157608 17.5832 -1.49581 0.705396 -0.126997 -0.0480865 -0.0718672 -0.405566 0.787203 -0.244584 0.73563 -0.578087 0.355063 0.265945 0.31946 
0.0483093 3.06971 15.6147 -2.00974 -3.46143 -0.700311 -3.92948 1.52713 -1.35323 -4.39698 -1.12118 0.0365334 17.8696 -1.65293 1.68441 -0.946051 0.0418857 0.674213 -1.09804 1.29944 0.191366 1.14839 -1.19414 -1.09751 -0.109893 0.0355576 
-1.43308 4.45831 14.7976 -3.7235 1.06456 -1.65529 -0.42753 -1.68401 -2.50557 -3.29095 -0.717511 -1.01086 17.6466 -1.7635 2.96537 -1.87005 0.45053 2.22427 -2.06708 2.28759 -0.422328 1.64023 -0.126239 -1.32091 -0.693752 -0.365722 
-4.33879 8.60945 12.1923 -2.13778 1.50313 -4.97878 -0.698462 3.12367 0.930237 -7.41794 -5.71944 -2.55511 17.4176 -1.37692 3.08568 -4.54559 1.85569 4.78383 -0.519499 2.19914 -0.227096 0.609904 0.152081 -0.210293 -0.556814 -0.902579 
-5.10781 14.0765 6.84257 0.567732 7.46436 -7.01185 4.85761 -3.555 3.11656 -1.00567 -5.40484 -2.01533 15.9805 -0.52072 0.380567 -5.80593 2.63092 3.90512 1.03842 1.13663 0.267417 0.467513 -0.110271 -0.521484 1.10605 -1.50151 
-4.99893 13.6891 -3.13571 5.12312 17.2578 -0.619528 4.42367 1.32714 -1.11478 -4.77921 0.171024 -2.2453 14.1897 -0.688402 -2.36549 -5.91911 1.3271 1.75211 0.783315 0.320119 0.752988 0.340789 1.71564 0.540824 1.11178 -1.39735 
-3.70661 3.82133 -6.56799 5.80067 12.7128 1.35718 2.69454 0.551335 0.854501 -5.16166 -6.27017 4.36451 11.753 -0.545577 -4.42417 -4.61031 0.308196 -0.595288 0.448354 0.523756 2.03321 1.48564 1.8037 0.16945 1.21554 -1.10617 
-8.4814 1.90955 -10.6979 1.88124 7.63945 -5.24672 1.98367 4.83545 3.76521 3.23828 -2.58266 -0.186126 12.5446 -1.73603 -2.60425 -0.90777 -1.49928 -0.797313 -0.960703 0.61922 1.35671 1.92527 1.60165 -0.304291 0.0723438 -0.00092926 
-6.09446 -2.15464 -12.4279 3.72965 9.29711 -2.45648 8.69639 4.85691 8.10477 4.00407 -3.18075 3.0328 11.2722 -3.65955 -0.819193 0.166482 -2.27869 0.998137 -0.817151 0.560632 -0.00791565 0.225454 1.12045 2.69594 -0.441505 1.58442 
-12.4851 3.65579 -4.74462 -1.33778 14.9791 -3.51621 4.51885 5.95792 4.88644 -1.35383 -2.89514 -1.21773 14.4255 -3.01216 0.305846 1.00802 -1.8297 1.47596 0.0693197 -0.333113 -1.47469 -1.01938 -0.47091 2.38741 0.148821 1.82157 
-20.0025 -1.14775 -8.71222 -3.98327 14.0337 -3.59383 4.23011 -0.0494814 1.42115 2.73666 7.3658 2.67278 18.7347 -1.66228 2.19193 1.06544 -2.06535 0.184323 -0.814941 -0.922099 -0.496192 -1.22787 -1.28895 0.352679 -0.787334 1.47785 
-16.5882 2.93533 -7.51562 -3.41082 12.651 -4.33145 2.55124 -0.084825 2.01012 1.51743 4.08113 0.73799 17.9212 1.89772 2.79386 1.86094 0.082029 -1.25101 -0.585235 -1.23849 -1.11503 -1.16047 -1.78498 -1.71439 -0.54528 0.313685 
-12.3543 9.16525 -5.71514 -5.56058 11.3828 -6.12357 5.0697 5.39732 3.40357 -3.87633 -4.90549 -1.88173 16.9135 4.33607 1.80009 5.23102 0.617288 -3.67437 -0.108729 -1.93802 -1.41761 -1.74652 -2.69281 -2.95899 -0.461817 -0.277269 
-6.82064 12.4686 3.06154 -0.138973 10.0495 -5.17752 -2.09341 -2.34065 -1.90713 -6.97222 -5.33146 -1.66687 16.9045 4.23793 -1.80053 6.36525 0.691946 -5.7415 1.0099 -3.35964 -1.81836 -2.41421 -1.77836 -0.932936 0.978008 0.331252 
-3.20595 3.08607 12.1543 -2.53275 -3.03746 -3.71444 -3.13769 -6.00961 -5.35283 -6.48257 -2.72288 1.56613 17.8567 3.46947 -4.49207 5.09183 1.09508 -7.33739 1.97298 -4.21182 -2.18649 -2.13549 -0.504828 1.22479 1.43372 0.754725 
0.0272646 -3.02776 15.3759 -1.46501 -8.84638 -0.486522 -10.1432 -3.47318 -5.6827 -6.07124 -1.67485 3.9041 19.1059 2.2151 -4.4099 1.84186 0.912857 -7.15364 1.59556 -2.4848 -0.950642 -0.860989 0.243394 0.754723 1.15966 0.73138 
1.56904 -5.54694 13.5868 0.577847 -15.8562 1.39582 -11.9645 -4.96884 -5.38611 -6.85096 -0.60984 2.50136 19.5864 1.11354 -1.98447 -0.53025 1.82536 -4.74605 0.327889 -1.12905 -0.872246 -0.418665 0.519815 0.229572 0.0107484 0.402233 
1.86736 -5.2644 11.5546 2.87001 -19.3093 0.245129 -10.104 -7.61425 -6.19543 -5.57106 -2.61437 3.6638 19.6965 0.380625 -0.667738 -1.37301 1.98959 -2.95052 -1.29514 1.32057 -1.11857 -0.937761 0.787131 0.511631 -0.344947 0.040201 
1.44169 -5.71793 11.4137 4.42654 -21.5362 -2.44082 -8.80257 -8.3003 -7.18979 -4.13359 -1.10527 1.74002 19.5726 0.398628 -0.507089 -1.7479 1.77401 -0.3925 -2.16764 1.93313 -0.169607 -1.12023 1.01124 1.38624 -0.0166693 -0.108702 
1.99406 -6.28095 9.59743 6.55859 -20.759 -5.0439 -5.12133 -7.4003 -9.46967 -3.49427 1.13102 2.56003 19.3138 0.565559 -0.813186 -2.98249 0.800817 0.834986 -1.85832 0.861371 1.20769 -0.815108 0.994149 2.11374 -1.08115 -0.0908823 
3.49883 -7.57411 5.8259 7.60359 -17.0939 -6.79786 -4.79021 -5.92385 -9.35013 -2.83317 4.44868 2.9699 19.2343 0.76299 -1.04424 -4.20688 -0.289255 1.3959 -0.803283 -0.402594 1.77776 0.214715 1.42715 1.41163 -2.17317 0.000378036 
3.66659 -8.40224 -0.564008 5.28557 -17.3556 -6.86797 -7.80333 -2.764 -9.1908 -1.25052 5.17735 -2.35689 19.4113 0.812522 -1.02669 -4.4737 -0.973862 1.24208 1.08364 -1.28679 1.30602 1.3111 2.27913 0.592138 -3.40705 0.0431204 
4.42038 -9.87849 -4.53995 3.61677 -16.2584 -5.5452 -9.47454 -1.72966 -6.25565 1.88028 3.92969 -6.66734 19.5258 0.762499 -0.605253 -3.94159 -1.39427 1.05449 2.77798 -0.469705 -0.0749588 1.69409 2.88241 0.354902 -3.53473 0.0135374 
5.5959 -10.2622 -7.58814 3.68269 -14.9663 -0.252013 -9.21314 -2.96728 -4.46144 5.54465 4.3512 -9.65662 19.3837 0.814193 -0.151833 -2.80681 -1.86441 0.890326 4.1689 0.481324 -1.25386 1.52806 2.29751 0.534793 -1.98626 -0.0556717 
6.34667 -9.67038 -10.37 1.43366 -13.016 3.78405 -6.43383 -6.197 -3.24438 8.18131 6.63627 -11.0539 19.3157 0.745766 0.0788541 -2.41092 -2.63643 0.106427 4.45945 0.847624 -2.16993 1.01441 0.44628 0.715185 -0.245667 -0.0436501 
6.77441 -9.26545 -11.683 -2.94491 -14.5251 9.31192 -6.91707 -6.79964 -3.05614 7.08653 6.49803 -10.0949 19.2379 0.782324 0.358968 -1.57053 -3.17382 0.0783184 3.93163 1.4702 -2.10112 1.75025 -0.954603 1.04103 1.62201 0.0364149 
7.55995 -9.9826 -14.5471 -6.25158 -15.9469 11.9701 -6.38445 -10.6631 -1.88626 3.34074 6.43221 -7.67653 19.3804 0.577707 0.356259 -1.008 -2.96384 -0.296912 1.95926 1.49046 -1.53079 1.78185 -1.84107 0.336746 2.11594 0.0351547 
8.90088 -8.31128 -13.3523 -8.34379 -13.1093 15.3131 -1.88683 -11.2398 3.61077 3.19192 9.6584 -3.23526 19.5334 0.49185 0.316571 -0.0854444 -2.20657 -0.308012 0.0557131 2.0634 -0.851344 1.6444 -1.51115 -0.241138 1.72904 0.0177963 
8.17197 -8.36618 -14.5754 -10.6861 -15.2085 10.5798 -1.49665 -11.6308 2.33139 0.923291 6.73981 -3.904 19.3438 0.387789 0.564404 0.584892 -1.20396 -0.581378 -0.544607 2.1009 0.184249 1.22137 -0.54033 -0.669115 1.25131 -0.0384283 
8.92765 -8.49081 -12.0961 -11.7605 -16.4344 10.2856 0.956017 -10.5725 3.05705 0.739501 5.13854 -3.33599 19.3452 0.204406 0.0911431 0.698621 -0.985313 -0.773851 -0.973253 0.978525 0.265914 -0.193946 -0.376084 -1.38922 0.756764 -0.0530514 
9.48551 -7.07081 -12.2507 -10.563 -17.1912 11.7608 2.69863 -10.0755 4.49746 1.8653 5.34656 -1.36964 19.2824 0.311185 0.069477 1.04194 -0.414816 0.500229 0.236906 0.439358 0.725084 -0.38287 0.646687 -0.00970154 1.10824 -0.00330849 
9.26614 -8.50324 -11.0215 -13.3319 -15.9872 9.85634 0.908159 -10.6879 1.55801 0.840498 3.40893 -0.718623 19.2989 0.0617121 -0.099743 0.30912 0.247637 1.62317 0.383799 -0.938564 0.6901 -0.585228 1.48068 1.14936 0.586966 0.027006 
9.55866 -8.01258 -9.90298 -11.9745 -12.931 11.9789 0.724073 -7.94772 1.16656 4.10623 7.55611 0.328543 19.3504 -0.145685 -0.617176 -0.0226947 0.925207 1.84501 -0.446592 -2.26206 0.38932 -0.457198 2.53142 1.08728 -0.708563 0.0208601 
9.19964 -8.51865 -11.7244 -9.8166 -10.4486 12.0955 -2.74953 -8.1859 1.79635 7.02245 9.78057 -1.25025 19.4462 -0.209066 -0.854962 0.0425731 2.28514 1.47505 -1.0201 -3.05855 0.751579 0.451438 3.95055 0.310847 -2.04614 0.0383926 
8.79033 -10.149 -12.0127 -7.69463 -10.7355 8.40822 -6.78284 -9.37994 2.09229 11.4314 7.59712 -4.64664 19.313 -0.388296 -1.00167 1.22145 3.13944 0.721186 -3.42835 -2.63304 1.26777 0.921469 3.00781 -1.07732 -2.42407 0.0148996 
8.60497 -11.7098 -9.75372 -4.04611 -9.70966 6.54122 -10.6311 -6.2139 3.35233 16.9306 4.94266 -8.46172 19.5095 -0.203923 -1.0302 3.35263 3.74438 -0.56354 -4.40895 -1.96831 2.61027 -0.128784 0.858787 -1.25321 -0.998772 -0.00685806 
7.91451 -11.4253 -4.78107 0.837458 -9.69452 -2.38563 -8.50034 -2.59485 4.99592 14.1912 4.58847 -8.18608 19.3932 -0.266165 -0.321328 5.18551 2.79362 -0.927077 -3.60032 -0.647467 2.89445 -2.4758 -1.90236 -0.40425 1.65861 -0.0631477 
8.61794 -13.0315 1.42293 4.63927 -13.7868 -4.55227 -11.7323 1.47292 -0.299376 9.93651 5.01885 -4.47439 19.3718 -0.71929 0.921474 6.06719 0.780203 -1.1545 -1.4364 0.833564 1.18409 -3.42526 -3.83347 -0.385713 3.9465 -0.0851151 
7.45303 -11.0948 8.32647 1.93077 -13.3323 -4.04664 -9.46957 1.24892 -8.46086 5.4167 5.53777 1.65275 19.0661 -1.19672 2.12184 5.66444 -1.03136 -0.703636 1.95871 0.775715 0.475931 -2.88671 -3.8743 -1.51537 3.72804 -0.067881 
5.23926 -7.26774 14.0285 -0.691755 -13.6633 0.189709 -5.97869 -2.21532 -7.04559 2.1505 2.53944 6.35134 19.2475 -1.38712 2.95972 4.21068 -1.63937 0.688338 2.42142 1.18238 -0.232418 -0.229192 -3.30379 -1.66666 1.75843 -0.205111 
3.62023 -3.69802 17.2383 -1.65385 -13.2745 5.03692 -7.49859 1.62893 -6.06453 -1.2873 -1.74867 5.04125 19.116 -1.08701 2.69345 2.53146 -0.962111 1.82169 1.29553 0.391442 0.412614 1.30255 -2.40131 -0.92347 -0.414899 -0.358331 
3.59872 -1.93128 18.0204 -1.76525 -10.374 3.01305 -6.80593 0.120827 -2.6435 -3.23044 0.328762 2.62349 18.3213 -0.310681 2.2208 0.533057 -0.226867 2.54833 0.2031 -0.151907 0.558409 0.600167 -1.06781 -0.337903 -1.20136 -0.686913 
2.83826 -0.295819 18.9878 -2.34303 -5.86844 1.01935 -7.09874 2.14392 -4.14918 -3.89937 2.02576 1.44218 17.7376 -0.0788503 2.08317 -0.250732 -0.374484 3.01967 -0.408491 0.736177 -0.273818 -0.218328 -0.691813 0.247746 -1.30218 -0.77273 
4.07684 2.13515 15.819 -1.4815 -4.62465 3.21399 -6.93815 0.319231 -5.00243 -1.88249 -1.03729 2.14409 16.5022 -0.234218 2.13191 -0.563079 -0.789337 2.70615 -0.145362 1.52349 -0.0111249 -1.63019 -0.35647 -0.35702 -1.13678 -0.660988 
2.98692 4.68461 17.0854 -3.66815 -1.05078 2.89399 -3.75159 0.160638 -5.97671 -5.42034 0.173083 -1.22993 16.1619 -0.108276 2.1186 -0.562156 -0.322677 1.23458 -0.28891 2.03231 0.432524 -1.50529 -1.07784 -0.85101 -0.608455 -0.618122 
2.3533 6.23806 16.1562 -5.04938 0.747861 1.34892 -0.862049 1.05684 -9.88068 -4.25231 -0.529999 -1.72433 15.8042 -0.404517 1.33519 0.0451056 -0.374834 1.49473 -1.34109 1.03577 0.906509 -1.22337 0.308306 -0.677663 -0.793911 -0.348386 
3.15865 8.2457 16.0084 -2.17248 -2.38181 0.507335 0.0247707 3.93773 -9.2365 -8.10365 -2.48294 0.334114 14.9959 -0.0357743 0.858015 -0.701085 0.420468 1.40023 -1.12379 -0.167078 -0.192827 -0.77935 1.64208 -1.27929 0.315482 -0.421202 
1.96839 7.03058 16.583 -4.1035 3.51451 -2.29814 -3.64746 2.96323 -9.48937 1.00069 -3.09759 -2.60749 15.3432 0.284195 0.441557 -1.08254 0.817882 1.25097 -0.502756 -0.695543 -1.08537 -0.0513891 0.914689 -0.46693 0.239648 -0.452372 
3.0005 8.57843 13.3665 -2.03875 4.56702 -0.901442 -3.19428 -1.75669 -10.0691 0.16358 -4.93959 0.789054 14.2864 -0.0372773 0.43363 -1.09884 -0.111717 1.26378 -0.190701 -1.01573 -0.649556 0.014195 0.574146 0.32777 -0.8855 -0.236745 
3.85335 8.27948 12.0645 -1.02684 3.5283 -0.460468 -2.73024 -1.52279 -9.72132 -3.81248 -1.63632 -0.753561 13.8971 0.00587626 0.642979 -1.3663 0.284773 0.657454 -0.0145943 -0.674307 -0.156719 0.657964 -1.52396 0.0391903 -0.974595 -0.239985 
2.02979 9.7894 12.7735 -4.2694 3.93017 -1.365 -5.51249 2.93296 -9.04955 -2.82633 -1.57473 -5.02035 14.5353 0.0725765 -0.0154197 -1.16123 0.405631 0.613999 -0.442566 -1.33605 0.327861 2.27982 -0.74607 -0.531346 -0.648089 -0.164154 
2.48313 9.63999 10.048 -1.56431 7.1202 -2.13933 -5.85989 -0.165189 -6.70933 -5.12415 -4.58407 -4.57576 14.0189 -0.350284 -0.287892 0.13492 0.912528 0.139036 0.0130958 -1.99086 -0.716352 3.65573 0.02226 -0.858403 0.269218 -0.0440702 
4.04849 7.82108 8.56863 0.258148 5.84107 -2.27484 -8.30969 -0.796189 -0.176011 -2.91093 -6.12245 -0.54029 13.4047 -0.184343 -0.50661 -0.115872 1.31782 0.064673 0.184431 -0.77164 -1.29941 3.19673 0.473292 0.290358 0.275957 -0.191991 
1.09258 7.82418 14.8415 1.27203 3.26803 0.0599272 -11.2859 -3.23998 4.12057 -3.65888 -3.65447 -1.6475 14.242 -0.61667 -0.316029 -1.49542 2.01807 1.8641 0.948316 1.20013 -0.876481 0.953051 1.00464 0.780002 0.275935 -0.395818 
1.80335 8.16425 9.79741 0.90153 6.17962 -1.54248 -6.65767 -2.02668 1.51917 -1.19251 -0.587736 -5.1047 13.4637 -0.44588 0.409104 -2.57146 1.75737 2.06436 0.338348 2.11217 -0.0936439 -0.762753 0.176227 0.763845 0.518534 -0.445198 
0.522354 7.88825 1.95654 8.20435 16.2714 2.23607 -0.685232 -3.93235 -2.79167 -0.960158 -3.45142 -0.913883 12.0103 -0.138288 -0.215421 -4.14168 1.61252 2.21948 0.337677 3.30342 2.16841 -2.32063 -0.912188 0.636406 1.79633 -0.601687 
2.1042 9.83457 2.15384 5.57884 9.66116 -1.67117 -3.0492 -0.918224 -0.533661 -3.37916 -2.40475 1.68557 12.2946 -0.681258 -1.53539 -3.39233 1.01102 0.887073 1.12644 4.69744 3.66707 -0.0307319 -1.29305 -0.461726 1.93246 -0.429524 
0.250709 5.91192 -2.04509 6.99594 12.6247 1.81266 3.42696 7.04785 -6.45615 -7.12649 0.436062 3.93903 11.8181 -0.922204 -1.66936 -1.85811 -0.447994 -0.59519 1.09589 4.73757 3.29322 1.62229 -0.0385884 0.358262 1.28253 -0.224216 
-1.46712 1.47548 -5.1634 6.56084 12.4384 4.30143 14.7734 10.8186 3.19775 -4.57457 -4.8401 2.13117 11.4122 -1.2614 -1.39369 -1.2667 0.259788 1.08445 0.83235 3.89396 1.45232 1.65665 1.50048 -0.304421 -0.267803 -0.217456 
-2.303 3.72097 -3.67536 5.47338 11.9069 4.72924 14.0913 6.66533 3.45409 -0.555393 -0.442433 5.27597 11.3304 -0.91978 -0.162539 -0.190328 -0.167031 0.886202 -0.350576 0.995236 -0.385932 2.93126 1.74172 -1.06306 -0.786275 -0.0404562 
-2.92594 3.96158 -3.3645 7.63907 15.4423 1.03229 11.0884 6.53465 2.79449 0.837706 -3.48761 -0.321913 11.4512 -0.578603 -0.067455 -0.264175 -0.045345 0.551148 -1.24138 -1.18427 -0.472619 1.60079 1.31986 -0.25659 0.235674 0.0657422 
-3.61878 3.85617 -3.89618 5.62167 15.5537 1.69435 10.2457 7.26015 8.4018 -1.12404 -5.55548 1.23419 11.5964 -0.455987 -1.2311 -1.01209 -0.442264 -0.455691 -0.597654 -0.968274 -0.329079 0.353359 0.0800456 0.0563552 0.837536 0.0392383 
-3.70225 1.0706 -6.37387 6.25997 13.3707 -0.388032 10.7749 8.15807 8.72783 2.30906 -3.56653 5.33043 11.6079 -0.520595 -1.68395 -2.02169 -1.63352 -1.63066 -0.738927 -0.811051 -0.199279 0.860686 0.921644 1.77306 0.604891 -0.0631936 
-4.19478 -0.989033 -7.23113 3.95161 10.6642 2.45113 9.4067 4.20823 2.25421 -0.890843 -0.121195 6.63748 11.4483 -0.570176 -1.56502 -2.37626 -1.2115 -1.82636 -0.818763 0.472635 0.498883 0.305661 0.721568 1.72463 -0.489564 -0.114441 
-5.24091 -2.03559 -11.8055 0.306492 9.73373 -3.04074 7.45262 7.06422 10.1717 5.32933 2.66057 0.000896931 11.2093 -0.557132 -0.912336 -1.9347 -1.47132 -1.56269 -0.17124 0.345021 -0.110836 0.74516 1.02409 0.867222 -0.909545 -0.0922838 
-5.70033 -2.41581 -13.0617 2.54089 8.24037 -1.07311 14.27 10.3015 9.20817 0.973669 -0.0458832 1.45114 11.2235 -0.285007 0.02788 -0.908099 -0.245155 -0.802368 -1.49885 0.0675356 0.25118 1.20323 0.969352 -0.813167 -0.263942 -0.030181 
-5.73514 -2.77768 -13.1321 -0.39129 6.76915 0.517893 10.0684 4.55726 8.97665 6.49728 0.731923 3.37587 11.2589 -0.287434 -0.00522676 -0.0696585 0.132884 -0.237811 -0.751171 0.342834 -0.101543 -0.830826 -0.209733 -0.915637 1.37537 -0.0264597 
-5.37271 -0.478586 -11.1083 3.07473 8.13467 -6.82242 8.43651 6.71761 8.86789 3.37194 -3.22271 3.63029 11.2725 -0.0720556 0.557305 -0.114739 -0.582691 0.175177 -0.229366 -0.420429 -0.61563 -2.02097 -0.914841 -0.934635 0.705409 -0.0275368 
-6.8419 -3.03034 -13.1305 0.703992 8.59752 -3.92194 12.0835 8.34844 6.18772 3.08153 -0.329206 5.78817 11.0524 -0.149329 0.199691 0.00828652 0.0473773 -0.0672854 0.624485 0.898963 0.147008 -1.63909 -0.915945 -1.57048 -0.596701 -0.00997686 
-5.50723 0.497035 -13.6362 -0.920206 8.20207 -2.5928e-05 11.1602 5.32775 0.497766 -1.89266 -4.18849 3.77203 11.189 -0.165625 -0.28136 -0.0133065 -0.132426 -0.56698 1.82542 1.06474 -0.382198 -0.902473 0.382416 -1.31381 -1.20843 0.0154806 
-6.41452 -2.26704 -11.8267 1.84306 6.39902 0.229123 13.2013 5.98723 4.96626 4.54985 -6.63757 0.321491 11.2508 -0.00525398 -0.123747 0.441693 0.504141 -0.620005 0.853127 0.427667 -0.406296 0.202557 0.937917 -1.50658 -1.43839 0.0458443 
