-5.96881 2.62617 -7.58264 1.90378 12.8512 1.04129 6.96785 5.19508 4.39868 7.25581 -0.140858 4.94849 11.3488 -0.495197 -1.38217 -1.09115 -0.221115 -1.09516 -1.05998 -0.0380129 0.304303 0.038554 0.487747 -1.6415 -0.872699 -0.0096282 
-7.25502 0.637319 -10.6393 1.72964 9.17312 -3.90327 7.83311 3.68091 2.46595 8.04591 -3.9353 3.02572 11.3395 -0.771329 -1.25114 -0.865666 -0.884179 -1.12022 -1.66182 -0.881777 -0.199924 0.27443 -0.813039 -1.92653 -1.02669 0.0254152 
-7.80169 -3.29026 -11.5101 0.885274 9.2144 -1.78631 6.34515 7.47368 5.55782 9.2995 -6.45111 1.54637 11.3053 -0.551284 -0.857653 -0.565096 -0.639134 -1.09667 -2.02633 -2.21419 -0.959793 -0.674992 -1.24466 -0.493982 -0.452365 0.0322152 
-8.90901 -0.671293 -9.94726 -2.00786 9.06847 -5.854 2.87031 3.05617 5.19126 2.16878 -6.61839 1.51612 11.4976 0.0257282 0.360567 0.963582 0.089811 0.551417 0.179097 -1.58682 -0.683761 -1.55474 -1.33333 0.495693 0.232852 0.0478825 
-7.89823 -1.00779 -10.7541 0.576864 7.42018 -8.11501 -1.62172 0.708492 -0.338933 3.97106 -1.26922 3.44147 11.4308 0.353438 1.40879 1.15997 0.0634759 1.44776 1.35538 -0.183669 -0.823627 -1.06039 -0.015693 0.481465 -0.146111 0.0302534 
-7.0781 1.29891 -6.19933 2.3329 12.8273 0.15656 3.88244 3.6447 -2.35938 4.0435 -4.04778 3.24244 11.5162 0.173706 0.495708 0.616224 -0.056383 1.077 2.0792 0.4636 1.00113 0.501685 0.221585 0.37403 -0.425186 0.0114491 
-6.94995 2.76856 -7.58419 -0.967727 14.5738 1.98532 4.92074 3.06127 4.03121 8.28367 -5.32909 -0.0473418 11.4473 0.620566 1.15479 1.74916 -0.128313 1.65641 1.77787 0.134427 1.92034 1.29698 -1.10704 -0.492682 -2.22951 0.128595 
-8.51462 -0.0809226 -8.45111 -1.51748 10.8767 -0.508148 1.91708 6.8854 5.51461 1.1204 -2.71831 1.13459 11.5466 2.12606 2.5635 3.6871 0.945672 -0.998431 -0.0642537 -1.94028 0.360864 -0.863933 -1.6308 -0.0872461 -0.938173 0.290258 
-4.07714 5.45609 -0.882432 1.86049 16.6775 1.10668 0.0330954 8.68985 2.20899 -0.102583 -4.39737 -6.65217 12.0586 2.93862 2.87024 6.36745 1.81238 -2.7434 -0.908779 -2.96632 -0.665366 -2.53262 -2.72379 0.253442 -0.408671 0.692736 
2.11581 12.7727 8.88527 5.64715 6.78328 0.27461 -3.37514 2.63474 -5.76793 0.0826492 -4.94987 1.85398 12.6618 2.52482 2.42095 7.24571 1.28862 -2.96293 -0.0420434 -1.79478 -2.04262 -3.11034 -1.43639 -0.685426 -0.457337 0.95856 
2.42795 10.693 15.5849 4.51184 2.90346 -2.94996 -7.26473 1.85977 -2.99062 -4.81642 -2.9461 -2.45039 14.3534 0.763618 0.260616 4.47049 -0.104485 -2.69922 0.146871 0.113855 -2.02001 -2.57039 -1.26435 -0.349845 0.572544 0.968423 
0.856923 9.40538 19.5438 3.59996 2.94909 1.30995 -3.40789 0.0873437 -7.43729 -3.70461 -6.87107 -3.25298 15.192 -1.05968 -0.922279 1.39909 -1.13589 -0.458245 0.462672 1.93097 -0.842756 -1.27479 -0.99849 -0.414241 0.544646 0.89978 
0.370391 8.4428 16.1408 2.36166 5.09851 1.32337 0.61875 -0.136526 -9.80826 -4.5307 -5.18599 -1.23597 15.6356 -1.4901 0.00736847 -0.215782 -1.13304 0.308805 0.353631 2.52816 -0.522361 -0.636521 -0.695016 -0.148456 1.29859 0.668812 
-2.15379 9.28635 15.6028 1.04281 3.39453 0.451307 2.33798 -0.580889 -8.73305 -5.05266 -5.90113 3.97 16.5196 -1.26591 -0.12704 -0.0530809 -0.38569 -0.608189 0.131354 0.503967 -0.762931 0.903022 -1.30688 1.38635 0.630503 0.618638 
-3.5172 10.7893 16.4765 0.125196 4.22476 -0.752481 2.50311 -0.417913 -5.52535 -7.61748 -4.17335 0.431089 17.0336 -0.993401 -0.251099 0.949017 0.185475 -1.48932 0.69028 -0.374528 -1.24245 0.340366 -1.40811 1.16041 0.301419 0.528288 
-3.52882 7.59691 19.1105 2.78974 0.34501 3.00465 -1.83024 -3.58662 -5.06363 -8.69564 -0.445664 -0.933991 17.5862 -0.436281 -0.825681 1.21542 0.531619 -0.645932 1.08013 -1.09168 -1.79537 -1.03143 -0.799189 0.564086 -0.266677 0.394324 
-3.9091 8.03203 19.132 2.41557 -0.823318 3.4981 0.830221 -4.84591 -9.94113 -9.74977 -2.11169 2.72312 17.7437 -0.0272616 -1.69019 1.38845 1.25263 -0.722914 1.05917 -2.9966 -1.5661 -1.56844 0.0364757 0.0851925 0.186571 0.427453 
-4.13925 6.5366 20.3521 2.55572 2.68891 3.72667 -2.28395 -7.34372 -11.6823 -7.98246 -4.11153 1.4906 18.1362 0.530236 -2.30322 0.870288 0.994181 -1.76285 0.492074 -3.39848 -0.68003 -0.094879 0.122835 -0.286998 0.41206 0.564985 
-3.3483 2.86853 22.798 6.50533 -0.561755 4.18236 -12.253 -6.36984 -10.0582 -7.79169 -1.91445 0.151652 18.8959 1.15402 -3.53046 0.115419 0.975035 -4.13814 -0.137112 -3.02163 -0.222154 2.01743 0.144582 0.549186 -0.38096 0.732686 
-1.15804 -1.33744 21.629 5.71576 -8.60002 5.12289 -12.281 -6.2248 -5.47948 -9.06051 -1.97927 2.41204 19.835 1.15153 -3.34317 -2.03611 1.01182 -5.25591 -1.81449 0.269203 0.254802 2.52353 0.740399 1.307 -0.0468721 0.671012 
0.370395 -5.68326 19.0706 5.71072 -15.8696 2.11443 -9.27938 -6.51614 -2.95539 -8.48784 -0.431892 0.357596 20.5578 0.830168 -2.53969 -4.46668 1.02084 -3.64393 -3.25871 3.28126 0.585808 2.24211 1.61171 1.23818 -0.529386 0.451582 
-0.240961 -5.90337 12.0352 8.01214 -15.9367 -4.31184 -2.42478 -5.99656 -2.61607 -3.93239 1.68218 1.15326 20.6603 0.601307 -2.00232 -5.31541 0.889169 -1.31196 -2.74781 2.40432 0.898155 1.81887 1.28237 1.88033 -2.45837 0.160402 
0.344002 -7.54697 5.26142 10.4614 -15.1131 -7.39381 -0.774867 -3.55492 -0.279368 -2.29717 2.44574 -1.86589 20.7412 0.676448 -1.52052 -5.45576 -0.333806 1.22179 -1.21887 -0.437645 1.02953 2.36812 1.245 0.867482 -3.27568 -0.140138 
1.86169 -10.4172 1.95652 7.78628 -15.5381 -3.86207 -4.51166 -3.21463 2.27688 -5.74402 5.98356 -8.76807 20.5453 0.96622 -1.29401 -4.68401 -2.19565 2.21816 0.867713 -2.91986 -0.430047 2.92689 0.784489 0.0362061 -3.90295 -0.302193 
2.70131 -11.0289 -3.16882 4.15462 -9.95993 -4.20482 -10.4242 -2.75943 6.43873 -1.35703 1.75483 -11.0601 19.9146 0.93319 -0.459552 -4.19851 -3.29208 2.87051 1.56862 -3.08475 -1.93169 2.2382 0.682262 0.670797 -2.97811 -0.365338 
3.41148 -10.6325 -7.16971 0.187279 -7.42249 -1.56777 -12.1994 -8.54454 8.65931 -0.480021 2.20867 -13.7644 19.5627 0.750614 0.617946 -2.95723 -2.61925 2.99606 1.64824 -0.290155 -1.31716 0.886623 1.1788 2.55284 -0.494509 -0.292948 
4.23505 -9.7371 -11.168 -2.19951 -4.81831 -0.69788 -12.3548 -10.5484 7.72043 -1.51786 7.68717 -14.2583 19.4058 0.471163 0.834834 -1.62781 -1.81338 1.66703 1.76538 1.9748 -0.865199 -0.960209 0.720968 4.39664 0.777202 -0.0784636 
4.84789 -7.97339 -8.83001 -2.1329 -3.12861 2.62565 -4.99713 -5.90593 6.06914 0.230377 15.7816 -9.64153 19.335 0.0561112 0.610028 -0.930731 -1.25084 0.441119 1.1399 2.03345 -0.22809 -2.42521 0.396427 3.37352 0.949987 0.0467926 
4.33892 -8.1843 -10.4777 -3.75217 -3.77174 2.52538 -4.15127 -8.40473 2.93277 1.89261 16.9516 -9.23555 19.6361 -0.109127 0.107826 -0.185325 -0.635706 0.0884378 0.719699 1.20891 -0.403691 -1.5028 1.30296 1.17812 1.03922 0.0744949 
3.64011 -8.35872 -12.1685 -5.29058 -5.74019 2.52008 -6.13388 -10.7568 -1.07292 -0.203121 14.4441 -11.5258 19.6815 -0.438833 0.072096 -0.173558 -0.275 0.118653 -0.459821 -0.799778 -0.799828 -0.281919 0.215302 -1.65542 0.257237 -0.0170303 
4.29331 -9.0053 -10.4254 -3.79921 -3.07033 2.9534 -5.74183 -10.1414 3.77745 5.21371 14.2466 -8.12006 19.605 -0.503458 0.230792 0.796887 0.545869 0.627748 -0.967175 -1.51809 -0.0471198 1.89893 -0.057601 -2.75016 -0.0556171 -0.072183 
2.67653 -7.2024 -9.72396 -3.48439 -2.88604 0.112537 -8.20074 -9.03672 4.23721 -0.353661 8.85701 -8.91309 19.2654 -0.745042 0.0716806 1.58416 1.63889 0.544826 -1.93622 -1.75263 0.666949 2.44733 -0.105244 -3.4449 -0.383189 -0.0109787 
2.30342 -7.60849 -7.71556 -1.92592 -2.06007 -1.10672 -10.7083 -9.50039 9.77237 1.67987 5.99429 -10.82 19.4832 -0.891829 -0.138797 2.50164 2.55686 -1.08695 -2.88314 -0.587289 1.44199 0.422537 -1.75981 -3.11147 -0.363528 0.173969 
0.90984 -8.69872 -5.60262 1.96725 -3.52119 -5.13095 -12.4138 -7.74262 8.16625 1.03757 1.34571 -12.0918 19.6875 -0.949559 -0.574653 4.10476 2.60602 -2.75496 -2.3573 1.1156 0.671466 -2.0964 -2.16387 -1.52994 0.457304 0.406801 
0.717512 -8.95114 0.022136 6.25927 -8.18749 -8.84058 -6.57174 -3.57853 3.92561 -4.28094 2.44487 -8.34835 20.2638 -1.09902 0.356002 5.42686 2.05019 -3.42924 -0.107163 2.24225 -0.465825 -3.98475 -2.68766 -0.627645 1.9886 0.387536 
-1.27831 -9.40435 6.93101 5.45314 -13.5971 -7.80705 -4.69101 -8.64032 -3.32143 -8.19261 2.98204 -7.86239 20.9091 -0.85293 1.42208 6.05004 0.497897 -2.43896 2.43616 1.43383 -1.68196 -2.93004 -2.25556 -0.349814 2.83434 0.269765 
-2.09762 -5.47566 13.1519 6.58208 -14.1683 -0.304486 -3.35841 -11.3807 -4.40752 -7.14335 2.0379 -2.9917 20.8101 -0.667559 2.4389 5.26026 -0.547448 -0.622116 3.8277 -0.748808 -1.38231 -1.42941 -1.9411 -0.94865 2.93216 -0.0131769 
-1.94725 -3.32607 18.0827 4.29533 -12.7256 2.78181 -6.85134 -12.2514 -2.31741 -8.80904 -0.199872 -0.598392 20.7632 -0.225847 2.63992 3.41433 -0.351475 0.798173 3.49294 -1.7599 0.662013 0.0650225 -1.62953 -1.20526 2.46216 -0.234947 
-2.28581 0.204229 20.7476 4.10093 -11.7339 5.00347 -9.23561 -8.68454 -3.72344 -13.6782 -0.707419 2.68046 20.2709 0.0121891 1.80365 1.4977 -0.233414 1.34098 1.53884 -1.71628 1.60274 0.051483 -1.49531 -0.757917 0.908514 -0.32981 
-2.31345 0.955326 20.2048 4.93634 -10.8235 7.00366 -10.5519 -6.67832 -3.33835 -13.0728 -1.67161 1.61235 20.004 -0.0347857 1.36277 0.637561 0.147035 1.23418 0.104853 -0.792396 1.71541 -0.609131 -0.830566 0.0480582 -0.0891621 -0.379725 
-1.85357 1.40191 19.5794 5.09451 -8.41446 5.27877 -10.0895 -6.15349 -3.63963 -12.488 -1.01581 0.445503 19.5407 0.110539 0.605527 0.287628 -0.0276597 1.17358 -0.173188 0.0899077 0.651783 -0.817127 0.150211 -0.0648553 -0.581955 -0.282459 
-2.33729 2.88893 21.8546 4.53372 -8.21437 3.16842 -10.3864 -4.93982 -5.40497 -13.557 0.194616 0.0732784 19.2296 0.134356 0.480211 0.609731 -0.400577 1.06732 -0.534419 0.0446438 0.138465 -1.06197 -0.0255859 0.184631 -0.315676 -0.223774 
-1.72119 2.26506 21.3608 4.16394 -7.1705 6.05515 -8.86884 -6.29487 -6.77577 -12.6851 -1.96481 0.540224 19.2457 0.138496 0.229316 0.642007 -0.533285 0.533316 -0.0134763 -0.109072 0.245359 -0.273062 0.0213789 -0.208129 -0.047706 -0.0649683 
-1.70786 2.9248 22.3627 3.39873 -6.10889 3.94338 -10.939 -5.9153 -7.08013 -13.1022 -0.273958 -0.0133901 19.0326 0.126697 -0.206115 0.122501 -0.282935 -0.249503 0.146857 0.0235444 0.0820008 0.294396 0.66486 -0.218502 -0.0692607 0.080731 
-1.47581 2.53055 22.5353 2.99558 -6.80062 4.82391 -10.3585 -4.43895 -4.16736 -12.6085 -1.82217 0.250307 19.3144 0.194599 -0.431451 -0.0721071 -0.146831 -1.22673 -0.0468994 0.18806 0.599389 0.639749 1.10796 0.147062 -0.101589 0.131913 
-1.8265 1.72561 21.8799 3.70323 -9.64682 4.51833 -9.5238 -5.45778 -5.23719 -10.271 -0.969214 -0.128067 19.599 0.384832 -0.868252 -0.264117 0.0540421 -2.02012 0.152823 0.87768 0.569014 0.725782 1.92529 0.172324 0.0309233 0.155848 
-0.688876 0.707407 21.2417 3.27754 -11.5352 5.53318 -8.63614 -3.52669 -4.49849 -8.56088 -0.881868 0.0896173 19.6221 0.581451 -0.926945 -0.653457 0.141465 -2.04424 -0.576511 1.12976 0.145591 -0.134064 2.23761 1.56161 -0.264104 -0.0103359 
-0.177162 -0.504882 21.689 3.52796 -13.8422 4.35285 -7.41182 -3.52636 -3.28566 -5.49956 0.117512 0.221571 19.6579 1.12028 -1.28676 -1.51434 0.513937 -0.933365 -2.02158 1.14799 0.184134 0.225656 2.71591 1.90794 -0.03653 -0.169247 
0.606777 -0.988926 19.3635 3.79053 -14.9241 2.02409 -5.76572 -4.6767 -5.81345 -3.80612 5.44252 -1.24503 19.2332 1.6256 -1.76295 -2.68669 0.305943 0.293614 -2.99729 1.07182 1.15384 -0.307886 3.87103 1.83054 0.0392446 -0.269096 
3.12709 -3.86 15.2473 6.01642 -12.6192 -3.83502 -5.21909 -3.9621 -3.45143 0.931214 5.40829 0.356609 18.9472 1.64904 -1.38617 -4.60904 0.0589503 2.15612 -2.87744 0.361805 2.25742 0.434925 4.42396 1.72717 -1.23848 -0.374946 
5.78702 -6.42979 11.0291 3.56303 -10.6786 -5.35934 -4.37339 2.46038 -5.95503 7.57887 5.62543 0.218321 18.632 1.68775 -0.838961 -5.17454 -1.31807 3.4953 -2.02633 -0.507878 2.09297 2.66583 4.5294 0.153243 -1.87228 -0.400215 
5.4779 -4.71532 2.81095 3.93647 -5.18436 -6.34263 -6.29896 4.19221 -1.04024 10.9277 8.66189 -6.70251 18.0838 1.34088 0.566961 -5.32624 -2.48106 3.97766 0.408266 -0.844697 1.43083 2.70024 2.76884 0.0466146 -2.27904 -0.517694 
7.87013 -4.75607 -0.291021 -1.75985 -1.16501 -6.85375 -7.76517 1.71098 6.3101 13.8426 4.58194 -7.0769 17.6638 1.11996 0.572981 -4.94635 -1.79395 2.82573 2.30868 0.0616403 -0.0330637 2.37681 0.647371 0.563486 -2.0674 -0.382639 
8.78993 -1.86206 -5.72386 -3.72746 2.51233 -1.04649 -7.74668 3.56676 3.9172 11.6435 6.16311 -7.39099 16.8428 1.14957 0.117451 -3.7296 -1.67867 1.063 3.28401 2.50783 -0.788439 0.665173 -0.4395 0.33123 -0.318577 -0.198794 
9.73083 -4.99151 -9.43528 -1.57476 -0.398329 3.53598 -3.34133 2.60779 3.4503 10.4578 9.69225 -9.77446 17.3393 0.744509 0.14636 -2.90071 -0.64422 -0.133454 3.21979 4.43868 -1.29675 -0.939344 -1.08709 0.606385 0.821713 -0.11548 
10.2954 -4.01034 -11.2649 -4.54944 -0.252682 4.88256 4.02827 -0.198386 3.71553 10.4226 7.76288 -6.94661 17.2521 0.661305 0.318949 -1.72509 -0.924745 -0.468472 1.28943 5.19717 -1.83859 -0.4142 -0.950199 -0.69505 2.06855 -0.0899672 
10.84 -2.95013 -12.024 -4.56996 -0.449777 6.28066 8.54075 -2.89017 1.71422 9.01761 6.81398 -3.19052 16.8818 0.595898 0.847415 -0.570753 -1.77109 0.0642464 0.1989 4.23997 -1.14279 -0.929267 -1.22043 -1.48442 2.95029 -0.208076 
11.5419 -1.288 -13.055 -6.85359 0.195692 4.02832 12.2981 -2.87721 2.71425 7.61265 4.12699 -0.340198 16.6217 0.457098 0.738331 -0.0538177 -1.37875 -0.352189 -0.247299 2.35053 0.214429 -1.52328 -1.07363 -1.74209 2.56467 -0.186494 
12.0871 -2.11561 -11.394 -9.27811 -0.301284 4.9576 13.7236 -1.76675 -0.695397 5.76066 4.0881 1.67377 16.6141 0.467616 0.71651 0.0899545 -1.03793 -0.743632 -0.272848 1.53959 0.901568 -1.67399 -0.781288 -1.39882 1.60371 -0.132568 
11.9573 -0.735947 -11.849 -9.08909 -2.08787 4.30759 13.1895 0.31205 -2.69607 6.68293 0.415361 3.44462 16.4535 0.25229 0.898823 -0.00843821 -0.668426 -0.897652 0.19448 0.711594 1.19262 -1.92882 -0.830894 -0.864962 0.778018 -0.151167 
12.9703 0.356395 -12.1772 -8.64185 -3.02615 4.77678 15.793 0.0230432 -3.95057 5.57604 1.67568 2.93562 16.3031 0.0158043 1.29964 -0.476622 -0.445604 -0.177887 -0.55658 0.626121 1.19338 -1.40256 -0.694533 -0.953445 0.106691 -0.208346 
12.3617 1.97011 -12.7055 -10.5138 -2.93013 5.09113 14.8214 2.19098 -5.30225 3.55049 1.0084 2.91897 16.0214 -0.094778 1.34495 -0.75591 -0.386865 0.229533 -0.015651 0.315393 0.231546 -0.318033 -1.15289 -0.61183 -0.743704 -0.256173 
11.9639 3.02957 -13.3489 -10.7938 -0.769592 1.78293 16.0382 3.26069 -6.40509 3.85421 -0.975646 2.47005 15.7884 -0.488538 1.51203 -0.498125 -0.776121 0.651724 -0.285571 -0.303443 0.609137 0.277889 -1.51043 -1.34532 0.0744499 -0.332985 
11.9866 4.65223 -15.0427 -9.94747 -2.06849 5.72626 14.6438 -0.149042 -3.05898 1.77941 -1.31813 -0.0411191 15.4299 -0.815874 1.33083 0.144169 -0.0849518 0.443239 -0.763243 -0.760751 0.809523 2.08765 -1.17167 -0.837263 0.344319 -0.498521 
10.7152 6.57551 -13.4993 -12.8056 -0.198354 3.03136 14.3646 4.23874 -3.68275 -1.09057 -3.88767 4.78792 14.9339 -1.86475 0.146875 0.589498 -0.766649 0.079414 -0.576237 -0.739585 2.12799 1.77266 -0.421665 -0.76197 1.34728 -0.509682 
8.90671 6.85128 -11.9095 -9.93266 -0.999555 0.650702 11.8545 5.74957 3.77483 0.16451 -1.7219 3.48163 13.9561 -2.52365 -0.103144 0.794073 -0.401321 0.382559 -0.611651 -0.217815 2.43279 0.742998 1.14217 -0.584989 1.60317 -0.588014 
4.1801 2.66441 -11.968 -14.6344 -0.906989 1.43953 13.735 10.9513 -0.958702 2.55333 -4.58361 7.44505 13.9769 -2.64458 -0.217342 0.285182 1.35904 1.25093 -0.758927 -0.283945 1.83548 0.412624 0.925788 -1.18745 -0.15739 -0.689159 
2.63594 6.09205 -11.838 -11.0397 0.198625 3.46392 13.8695 8.65859 -0.706014 5.6683 -3.8951 6.64616 12.9683 -2.19916 0.420366 -0.193848 1.60077 2.16431 -1.21205 -1.88932 0.512845 -0.336998 0.318618 -0.841819 -0.408684 -0.66316 
0.627643 5.86841 -12.1091 -5.45692 5.45719 -2.16989 11.9373 11.9616 0.620786 0.786476 -8.73832 2.4187 11.982 -1.45933 0.799541 0.140201 2.46672 1.24444 -2.01005 -2.88464 -0.121074 1.70404 0.0751184 0.101035 -0.00322849 -0.567176 
-0.31285 7.35112 -12.8082 -6.51753 6.63992 -3.60487 3.30673 7.80866 1.30009 2.64103 -3.85365 3.95138 11.6378 -1.43879 -0.400459 0.397563 1.22813 0.722982 -2.64224 -3.1343 0.624365 2.4326 0.65729 0.474534 0.808315 -0.302717 
-1.64217 6.03259 -10.7819 -4.56186 2.09458 -5.07631 4.59317 10.7709 6.55845 4.44256 -4.09916 8.7763 11.8063 -1.83527 -1.15673 0.430196 0.299551 -0.32407 -0.797174 -2.73732 -0.817724 1.02468 0.872151 -0.317446 0.424683 -0.164152 
-3.42311 4.00767 -10.5138 -5.34658 5.49484 -8.29407 1.87009 12.3758 8.48814 7.12671 -3.84201 7.50893 11.5426 -1.57335 -1.62552 0.934168 1.48413 0.662868 0.596821 -0.0681148 -0.219233 0.818448 0.410159 -0.855319 0.00979971 -0.126945 
-6.99355 1.75647 -11.1053 -4.54465 4.40938 -3.81115 -1.03096 5.58944 2.15016 2.90439 -10.3314 2.76334 11.2088 -1.19262 -1.42339 0.343733 1.33539 2.21332 0.788086 0.479719 -0.754095 -0.536585 -0.0163542 0.969901 0.295758 -0.108498 
-5.5039 1.36157 -7.97563 0.894507 8.79686 -1.25334 5.77823 9.30325 7.59648 5.46091 -5.01414 7.00686 11.3018 -0.779267 -0.642252 0.700704 1.56461 1.07975 0.717036 0.838594 -1.47003 -1.68815 -1.18486 2.27194 0.562542 -0.0396537 
-6.56487 0.238698 -10.3323 -1.00546 11.5102 -4.65625 5.0377 8.53671 4.32136 5.19369 1.33641 10.5061 11.3842 -0.173197 -0.148979 0.431959 1.30776 2.16748 0.625512 1.99864 0.559256 -1.59003 -1.18042 2.01009 0.3048 0.0474204 
-7.53379 1.55529 -7.39678 0.706894 7.34321 -4.28635 3.02873 3.55197 -1.03819 0.0577414 1.68382 6.45025 11.2566 -0.37892 -0.317861 -0.491259 0.530421 0.914254 0.39426 1.16224 0.176876 -2.03844 -0.151816 0.366211 -0.124688 0.00736656 
-6.84459 0.91471 -9.23494 2.08796 15.9736 0.832911 10.337 11.2614 -1.48267 -0.296132 -3.62992 4.56564 11.4685 -0.0580139 -0.157041 -0.287863 0.84968 0.708643 1.05256 0.134161 -0.23375 -0.435117 1.23307 -0.327152 -0.965097 -0.0135893 
-7.25864 -0.565744 -10.9806 1.99991 11.1364 -2.02662 8.93978 8.8253 0.306314 7.44674 -0.699919 9.35366 11.2965 0.19878 -0.0455378 -0.209843 0.694676 0.431126 -0.148568 -1.35384 -1.46973 1.25727 1.71611 -0.262155 0.213552 0.00027504 
-6.99252 0.51401 -9.9797 2.59644 13.1568 -0.523312 2.75298 4.7313 1.47352 7.66453 0.892518 4.22893 11.2963 -0.316867 0.113152 0.247487 0.51882 -1.13087 -2.19976 -2.92201 -1.41699 2.80293 0.578088 -0.184421 0.1508 -0.00174141 
-6.46592 1.52795 -8.07361 3.92603 10.9073 -4.35107 0.0515342 -0.531632 3.77004 4.65796 -1.88817 7.68637 11.344 0.0152828 0.229997 0.393464 0.348462 0.301597 -0.241292 -0.949213 -0.1437 2.73319 -1.20352 -1.6576 -0.219523 0.0523485 
-8.82528 0.43362 -9.45101 3.71899 10.4338 -9.00365 0.171042 8.85488 10.8001 3.9887 -3.95789 6.15329 11.436 0.474951 0.206044 -0.239994 -0.898849 0.250274 0.977645 0.458237 0.166206 1.48238 -1.07003 -1.60441 0.794405 0.000209808 
-6.26584 0.624435 -9.27764 3.18094 14.0059 1.00709 5.48468 6.04501 9.30897 3.26707 -6.56274 7.29386 11.4884 0.537919 0.21592 -0.740263 -1.89072 0.298015 1.84712 1.13876 0.13126 -0.03697 -0.72301 -0.943519 1.50408 -0.0323316 
-4.7178 1.99599 -10.5777 -1.52526 12.8588 1.68583 2.32759 2.274 6.11598 3.00981 -4.79225 8.39721 11.2252 0.621708 0.387801 0.212035 -1.09036 -0.456157 1.68889 1.20899 -1.07271 -1.65495 -0.0149896 -1.45786 -0.288914 -0.0757602 
-5.83007 1.82637 -11.2116 -2.90544 11.1848 -0.460191 4.66708 3.41511 5.92726 1.53235 -6.18859 14.0848 11.2878 0.031056 0.203831 0.329446 -0.743161 -1.56179 -0.292996 0.610979 0.0481888 -1.91208 0.274519 0.648714 -2.07493 -0.0667347 
-5.93463 1.77166 -7.42385 1.31038 9.56357 0.174423 6.62481 4.80628 4.21624 4.78111 -11.4342 1.31325 11.1575 -0.36313 -0.10725 0.156029 0.704089 -1.05201 -1.00769 1.35178 1.65519 -1.55955 -0.12403 1.66166 -1.66931 0.0142902 
-5.50214 1.75575 -9.20731 -1.95268 7.84455 0.297812 6.39097 5.01982 0.698452 3.75402 0.00183201 0.461213 11.1886 0.00691261 0.259561 0.523525 1.44127 -0.527761 -1.63709 0.859581 1.58491 -1.11033 -0.601688 1.20093 -1.89906 -0.0189624 
-6.69742 1.49505 -10.7997 1.51881 9.26895 -3.7316 8.22454 9.74758 0.932612 1.27883 0.420852 6.86247 11.3463 0.112906 0.448836 0.33368 1.19221 -0.0891681 -2.07245 0.485478 1.19747 -0.30787 -1.24911 0.453212 0.235703 -0.0207747 
-5.41411 3.26248 -6.90608 4.19671 8.69334 -6.69261 8.16512 8.86902 2.01741 0.275056 -6.11151 1.81491 11.0986 0.145937 0.478088 0.849606 1.49767 0.112196 -1.69419 0.348889 0.681985 0.372271 -0.796169 -1.87591 -0.234016 -0.0427538 
