-6.36232 -6.25476 -5.14502 -4.74897 -5.58173 5.02219 5.20104 4.8363 7.22492 1.51546 -1.7262 1.90262 11.5133 -0.441569 0.0911501 -0.249753 0.694306 2.06044 1.90744 0.51681 -0.538237 1.06133 0.470795 -0.0797272 0.0227076 0.0862739 
-7.33441 -5.3198 -3.41725 -3.03293 0.0625138 12.6167 6.54342 0.511432 8.44749 -0.377875 -3.43448 6.79504 11.5558 -0.262716 0.84218 0.435343 1.25174 2.68348 1.64748 0.671262 -0.504774 1.49719 0.197872 -0.83243 -2.33477 0.166679 
-8.08412 -6.26648 -7.25767 -2.13546 1.89835 10.7621 7.11391 4.30754 11.9203 4.81611 -1.2707 -0.430048 11.9234 1.21046 2.61676 2.13792 2.03276 2.39727 -0.530379 -0.475198 -1.74492 1.04477 -0.607195 -1.05195 -2.45147 0.271609 
-6.815 -2.03799 -1.91198 0.202954 4.09565 10.3896 7.60092 2.5768 12.3632 0.854504 -6.1161 -8.60487 12.1417 2.41369 3.76276 3.58662 1.73804 2.17694 -2.95057 -2.05422 -0.412341 -2.29951 -1.94984 -2.32833 -1.72641 0.357852 
-0.569704 5.18814 4.79194 3.79689 4.38807 3.48382 2.2963 -4.92101 10.4909 -2.1367 -5.64516 -2.65476 12.5785 2.33181 3.52927 4.55776 2.02527 2.14477 -2.45603 -3.37673 -1.19862 -4.98705 -3.01275 -1.21211 1.41621 0.393859 
0.976821 7.76672 8.49104 2.69109 9.70238 1.50297 -1.3189 3.064 -2.33539 -6.65067 -12.8889 -0.724655 13.0176 1.47254 1.8382 2.66633 0.65921 2.44496 -1.89396 -3.15991 0.451142 -4.40596 -2.1088 0.403565 1.41737 0.403187 
-0.320951 6.47751 10.3296 6.74682 9.81884 2.92533 -5.30985 -1.92914 -5.66566 -6.49506 -3.94485 2.7109 13.4548 -0.0510101 0.441781 0.986343 -0.290872 1.52691 -0.679582 -0.478309 1.43788 -2.56207 -0.93118 -0.0926457 0.385285 0.374022 
0.423345 6.50832 8.6508 2.02404 13.6051 1.19907 -4.39554 3.33658 -1.58831 -7.51034 -4.94843 -4.20086 13.7194 -0.494815 0.417885 0.314407 0.125701 0.353311 -1.37722 0.638143 -0.0836893 -0.0354874 0.95368 0.617917 0.107539 0.364081 
-0.548017 8.02624 9.64377 2.67605 10.0713 0.237862 1.44308 2.13212 -2.69297 -6.36277 -10.0786 1.00977 14.0976 -0.589037 0.780158 0.334925 0.0725172 0.238964 -0.800104 0.230541 0.0746752 -0.661061 1.42861 -0.0895167 -0.331742 0.313403 
-1.38372 9.08178 10.406 5.35498 11.3427 -4.0394 -1.50464 0.614927 -3.99918 -1.94842 -6.73244 0.663604 14.5166 -0.840557 0.952487 0.630233 -0.148583 -0.669469 -0.0979903 -0.154345 -0.144922 -1.40164 0.758435 1.30526 -0.0865073 0.350494 
-2.36261 9.09158 11.1267 5.44393 12.1448 1.54405 -5.60259 -0.194938 -7.76554 -2.13296 -3.50043 -1.38004 14.6232 -0.790902 0.563755 0.829844 -0.285264 -0.464694 -0.625268 -0.948552 0.795954 -0.838716 -0.851207 2.44612 -1.0385 0.326444 
-2.87215 10.7381 11.0605 -0.102815 9.22094 0.0560303 -1.64443 3.77549 -6.06022 -5.83307 -1.71124 -3.43849 15.2091 -0.239509 0.137807 0.996123 -0.579263 -1.70268 -0.055504 -0.418131 2.05254 -0.597525 -2.98969 1.83537 -1.41809 0.18097 
-3.75831 10.0169 13.4657 3.97863 8.8087 -4.9362 -3.22979 4.5316 -5.85602 -8.67648 -0.358642 -2.1317 15.3836 0.489652 -0.417913 0.833003 -0.241072 -2.0308 -0.361525 0.367589 0.903782 -1.13996 -2.87383 0.657319 -0.273387 0.0528639 
-1.88341 9.30818 14.2171 3.19131 4.49739 -1.0768 -4.7817 8.51433 -7.94156 -13.6251 0.8735 -6.05104 15.0412 0.833381 -1.19447 0.0817754 0.350612 -1.94926 -0.227401 0.298407 -2.28775 -1.53285 -1.21178 0.258089 0.513117 0.0297171 
-0.408717 7.71697 13.7134 2.59151 4.35258 0.302837 -2.19601 1.95455 -12.5247 -12.6061 -1.50621 -1.44071 14.9715 1.18325 -1.73634 -0.776328 -0.424671 -3.17759 -1.30395 1.49511 -3.80236 -1.55838 1.1776 0.554699 0.766134 0.171595 
-0.380039 5.91568 11.3456 2.34381 1.70271 -3.70049 -0.66928 -6.37474 -10.3901 -9.92714 0.152985 -1.21841 15.5638 1.1556 -2.33754 -1.58167 0.513534 -3.56587 -4.33358 1.24281 -2.83075 -0.507723 3.82123 0.693354 0.419235 0.337502 
1.40627 3.0314 11.0199 2.27903 -5.68193 -10.1441 2.18954 -7.03566 -12.4236 -4.63745 2.77511 -0.717348 15.9803 1.39958 -2.53621 -2.37285 1.76566 -3.53865 -5.86842 -0.685638 1.13448 2.04743 3.0409 1.1685 -0.310126 0.32426 
2.98711 -0.0367211 7.65549 5.91522 -8.31469 -17.5212 -0.760427 -1.14432 -10.5307 1.49673 2.19961 -4.31654 16.2243 1.73379 -2.26061 -3.39737 1.51651 -0.954708 -4.71702 -2.66461 3.26032 3.81108 2.92963 -0.699776 -0.59325 0.147551 
4.90559 -1.98786 3.69418 9.63412 -8.33195 -22.1289 -5.57863 5.01174 -2.21726 -3.11357 3.31299 -1.44227 16.2625 1.52536 -1.15494 -4.34409 -0.114906 2.32427 -2.26138 -3.32864 1.19345 4.54101 4.28072 -1.92912 -1.58704 0.0428219 
6.53927 -2.87776 -1.97847 6.24882 -1.74582 -21.2932 -10.1083 3.90316 3.56205 3.95907 -3.61483 -3.8222 16.1604 1.21263 0.0441582 -3.97487 -3.29203 3.28044 1.48464 -1.13002 -2.17421 1.73839 5.22356 -0.264637 -1.81793 0.00855103 
7.25699 -1.32276 -5.88361 1.5377 2.65499 -19.565 -9.77973 -3.59216 3.23506 15.535 -3.96328 -8.89974 16.2264 0.894012 0.798101 -2.97739 -4.93861 2.17688 4.40817 1.35397 -4.31736 -1.63515 5.52825 1.95518 -2.32735 0.0247519 
7.87456 -0.14848 -7.42997 -6.49673 2.59405 -11.38 -4.30997 -7.71343 -4.56493 18.2902 4.51455 -9.67745 16.2852 0.905195 0.89499 -1.86197 -4.44408 0.0378502 5.24902 3.49529 -4.07361 -3.57386 2.81997 3.39765 -0.602056 0.0389889 
8.70801 0.638008 -8.467 -8.68615 0.382501 -5.04465 -1.70791 -10.7668 -6.3295 17.3621 9.02419 -10.1514 16.3239 0.902112 0.639758 -1.20535 -2.88056 -0.874786 4.72682 3.06854 -2.03601 -3.04196 -0.480488 2.68279 1.70449 0.0167772 
10.3397 0.616803 -9.99663 -10.8597 -0.420331 -2.30829 3.33229 -12.8776 -9.52497 17.1453 6.87968 -6.20666 16.3066 0.625166 0.357474 -1.05111 -0.646269 -0.365387 2.64776 1.46117 -0.850658 -1.03711 -2.42565 1.3493 2.56453 0.0154604 
10.535 1.49339 -10.627 -10.6836 -0.211753 -0.466777 1.74184 -11.1901 -9.4947 13.705 8.2681 -2.11269 16.2995 0.168336 -0.122236 -0.567795 0.737199 0.509398 0.6298 -0.0476442 0.504782 0.251424 -3.08814 0.58934 2.42516 0.00966148 
10.0869 1.2112 -11.6055 -8.72932 1.06424 -0.430139 1.27101 -11.755 -8.16788 7.99054 11.6391 -0.874147 16.3746 -0.296729 -0.604473 0.546467 2.36418 0.922344 -1.53072 -1.06221 1.97987 1.28782 -2.9422 -0.302057 1.48732 -0.0148115 
9.6761 -0.270373 -10.5015 -6.06532 2.1872 -2.83472 -0.915499 -8.80414 -5.75092 6.49878 9.59117 -0.691852 16.3382 -0.583549 -1.38954 1.83049 4.08027 0.130697 -4.05633 -0.392421 3.13854 1.09322 -2.98031 -1.89568 1.0565 0.0188648 
9.28552 -1.52368 -7.32702 -1.3479 2.99191 -8.77789 -0.650068 -4.1712 -4.95776 6.03744 4.70786 0.519501 16.2132 -0.9804 -1.49442 3.90818 4.27418 -1.61107 -4.50641 1.47448 2.45461 0.406871 -3.42169 -1.55677 1.079 0.0336319 
8.0179 -4.08688 -3.61381 6.027 -0.522105 -16.5746 0.740282 0.710659 -5.63364 -0.220031 2.25535 2.47301 16.4746 -1.70396 -0.226722 5.6888 2.37059 -3.01308 -1.48412 3.24579 -0.492572 -0.455058 -2.84851 -1.63792 0.940715 -0.0323612 
6.01402 -4.35265 4.49153 6.59541 -5.63646 -16.0923 7.81551 -4.23937 -6.19217 -5.75851 7.52316 2.93844 16.4746 -2.31439 1.71174 5.48079 -0.196833 -1.8481 1.60413 2.43742 -1.34782 -0.237284 -3.0944 -1.02903 0.768605 -0.16173 
2.79205 0.0104992 12.0332 1.81599 -8.56401 -6.59813 11.0807 -11.2329 -7.40901 -1.84581 -0.00609905 2.80225 16.0457 -2.48187 3.47139 3.92978 -1.8648 1.28717 2.99121 0.289978 -0.467816 0.212505 -2.83706 -0.231607 0.727746 -0.237619 
0.326509 4.98631 12.2534 -0.226565 -2.22763 -5.74546 6.36683 -4.93851 -5.2565 -8.62166 0.693433 4.1979 15.619 -2.32236 3.70544 1.50146 -1.64929 4.31141 1.74682 -1.63259 1.17805 0.352752 -1.93995 -0.112382 0.379119 -0.0631707 
-1.54769 8.6006 12.1541 0.114007 4.20932 -6.79193 2.91451 -1.27885 -5.03895 -12.9737 4.51218 5.48201 15.7143 -1.41025 2.19251 -0.0364886 -0.448002 4.25535 0.387315 -2.74622 3.3804 0.454119 -1.42231 0.407234 -0.512558 -0.0180893 
-3.42794 9.87949 11.9384 -0.800056 9.53394 -7.26127 3.73563 -3.32614 -5.61344 -9.89429 4.70212 3.49416 16.3245 -0.379056 0.589164 -0.251509 0.359534 1.3846 1.69408 -2.34082 1.78668 0.517941 -0.199311 -0.567863 -1.45973 -0.148543 
-2.38198 8.52648 12.0083 -0.137278 6.83194 -3.90365 -1.33487 4.86291 -4.95995 -8.32107 0.0257286 0.591333 15.6025 0.221796 -0.236205 -0.895043 0.893086 -0.470475 2.32587 -1.788 0.576659 0.330419 0.25445 -1.62122 -1.56135 -0.270086 
-1.15163 7.96919 11.0688 1.69675 3.38404 1.2808 -3.21259 0.92402 -2.70629 -11.9445 0.0973403 -0.655405 14.9322 0.43334 -0.00711412 -1.27485 1.64779 -1.79228 0.879351 -0.164502 0.125555 0.649885 -1.71641 -1.98112 -0.150664 -0.277836 
-1.57686 8.37473 8.1137 3.33103 4.9319 0.566392 -2.5514 -0.520637 -4.84042 -10.6763 -1.29155 -0.249975 15.06 0.419608 -0.374875 -0.511082 1.68285 -0.982659 -0.516508 0.41367 -1.60967 0.0690254 -1.66661 -0.425707 0.551498 -0.199112 
-1.66379 9.9198 7.5114 5.70473 1.52255 -5.09953 3.52138 -0.00659609 -2.42377 -17.2987 -4.54486 3.16149 15.2065 0.393508 -0.659161 -0.158428 1.86641 -1.16527 -1.05811 0.0118807 -2.23706 -0.201509 -0.559795 -0.0554506 1.53129 -0.151588 
-0.027853 5.67681 11.2316 6.27299 2.8494 -3.29603 -2.63351 -2.72016 -4.75608 -13.977 0.218291 1.44037 14.4698 0.878567 -1.64116 -0.253559 1.75352 -2.63393 0.0188604 -0.996573 -2.38147 -0.79496 0.568906 -0.244369 0.839572 -0.162809 
0.0414124 6.02235 8.71774 9.5578 -1.40106 -2.07855 -3.11213 -9.16152 -3.75601 -13.0932 -0.934835 6.15586 14.4693 1.09962 -2.14734 -0.914199 1.06056 -3.23398 -0.666332 -1.37211 -1.73716 -1.57009 2.87929 0.178058 0.365738 -0.099044 
1.96337 2.11768 6.24273 10.1721 -6.77597 -0.849797 -4.2175 -7.8505 -8.14911 -9.93458 -4.31841 2.4507 14.6145 1.16547 -2.14057 -2.36515 0.625413 -3.49154 -2.8833 0.310255 1.10807 -0.978278 2.39747 0.918938 0.908884 0.129212 
2.83871 0.962649 5.43484 9.05799 -9.83467 -9.65431 -2.54716 -6.12721 -8.57769 -4.92346 -1.38622 4.48502 14.639 1.35072 -2.76008 -2.9969 -0.268321 -1.71552 -4.03672 -0.38673 3.51467 1.47461 2.85427 2.16694 0.383427 0.119509 
4.40084 -2.49622 1.0473 9.64996 -10.3915 -13.9246 -1.36472 1.30305 -7.23663 -6.07455 5.03867 6.82021 15.031 0.877822 -2.26794 -3.79428 -1.62959 0.299548 -2.70125 -1.27044 3.04091 4.40458 3.62461 2.76897 0.901558 -0.115035 
5.57629 -5.47111 -3.66903 8.47727 -8.1709 -15.7248 -6.47217 3.83505 3.16082 -0.751858 5.22133 5.88824 14.8586 0.879322 -1.49952 -4.22231 -2.66699 1.38394 1.53969 -2.23356 0.895566 4.94124 3.29953 1.94586 -0.642229 -0.292095 
4.98369 -6.00515 -8.17672 2.31451 -6.11012 -11.3208 -8.6072 2.3729 8.00453 6.10268 6.22267 6.25688 13.9295 0.758397 0.368649 -2.58218 -3.89769 0.505403 4.67387 0.686667 -2.38104 1.77452 3.65292 -0.817178 -2.72753 -0.424556 
6.94389 -4.7805 -11.0647 -0.609219 -5.05563 -3.25778 -10.0937 -2.18431 8.50796 5.48556 7.75107 1.55554 13.7292 0.381558 1.0283 -1.27837 -4.1251 0.381913 5.83677 2.33618 -2.28534 -1.80785 1.80404 -1.17177 -2.66911 -0.479927 
7.50902 -0.998283 -8.16575 -5.29524 -9.4221 3.21122 3.87939 -7.59247 -1.03759 9.07133 -0.31209 -4.65106 13.4729 -0.823383 1.08501 1.26654 -2.09154 0.405676 5.29752 3.14028 0.00398517 -1.89874 -0.931743 -1.86088 -1.81307 -0.587938 
6.22141 -2.83303 -10.0664 -8.34335 -4.60535 6.19306 -1.03457 -2.60896 -1.35738 6.78401 2.62988 -2.00332 12.6873 -0.65679 0.882752 1.32615 -1.85601 0.0514931 3.50723 2.76483 2.04718 -0.0193576 -2.0948 -2.82521 0.36282 -0.447817 
1.22802 -1.55383 -2.34319 -4.27612 -4.30687 10.4414 2.56462 2.60516 3.44351 0.794738 -0.521144 -1.02906 11.5108 -1.9088 -0.294049 0.421176 -0.143282 0.494304 1.17679 0.831164 4.16583 2.84986 -2.02361 -1.30268 2.48809 -0.395895 
6.80045 -0.0889621 -7.3452 -10.3988 -7.35578 10.6633 4.38784 2.95279 6.17062 -0.850155 -6.27045 1.55864 12.4712 -2.59418 -1.01826 -0.133782 0.584131 -0.397748 -0.258508 0.928142 2.81348 2.6728 -0.188778 -1.09617 1.17557 -0.221191 
-2.32451 -3.84056 -7.42046 -4.98392 -5.57537 6.86003 5.32402 10.4558 9.44772 2.77036 -2.37531 6.00843 11.6015 -2.28342 -1.2687 -0.908152 0.468045 0.112556 -0.35152 0.517655 1.91106 1.89595 1.15744 -0.504672 -0.0288089 -0.130245 
-4.97321 -6.78094 -8.19664 -5.0688 -5.95984 6.69118 2.22644 7.53308 9.00453 4.85231 -1.92389 0.355778 11.536 -2.55931 -0.929117 0.773132 1.53903 1.82175 0.826186 -0.110617 -0.446259 -0.383105 0.560569 -0.0391294 -1.35662 -0.285037 
-4.30223 -4.55136 -6.45823 -4.6009 -4.44206 10.6698 6.23359 9.8703 11.5063 3.73071 -5.21778 -0.571673 11.3272 -0.589856 -0.144892 1.22255 1.20785 1.8888 2.55573 0.194453 -2.26662 -0.867448 0.225579 0.625557 -2.45342 -0.0554287 
-5.00722 -4.37915 -3.96066 -2.89515 1.18632 12.8893 3.37997 1.01425 3.22581 1.47252 -5.04486 -1.93443 11.1832 -0.136203 0.0359911 0.649886 1.23649 1.45219 2.03522 -0.426051 -0.546368 -0.857315 -0.0439736 0.0827869 -1.55614 -0.0219552 
-5.25678 -5.76592 -3.42568 -0.0314779 0.295563 16.5396 5.71952 2.38214 7.99984 5.58815 2.31296 -5.11355 11.5008 -0.340121 -0.618035 -0.30485 0.555804 0.648937 0.7814 -1.60449 0.320963 -0.248534 -0.00145875 1.63309 0.356223 0.0198222 
-5.17694 -5.9937 -6.46349 -1.17103 -1.06771 13.9324 0.353221 8.54532 6.47118 3.70372 -5.27533 -5.15398 11.3394 -0.272629 -0.550232 -0.897131 -0.536964 -0.585403 -1.07022 -1.98001 0.999697 0.933857 0.990602 1.0615 1.18913 0.0161613 
-5.91797 -6.83425 -6.73106 -2.68394 -0.0703602 14.0553 -0.275491 7.70958 8.64094 2.60781 3.06289 2.81922 11.3482 -0.274807 -0.0245423 -1.00208 -0.78533 -0.643592 -1.82569 -0.871662 1.02892 0.0726107 0.360966 0.0674279 2.32086 -0.0512446 
-6.03977 -6.59614 -6.79362 -4.25374 -1.55774 8.78042 -3.52257 3.34902 7.57454 7.9157 -0.112307 0.0448537 11.3403 -0.349014 0.281197 -0.188956 0.0320324 -0.215304 -1.41797 0.0784369 -1.1931 0.2088 -0.111049 0.695782 1.762 -0.0165643 
-6.19941 -5.58741 -8.27101 -2.41678 -2.67739 9.98713 3.2991 10.1249 7.81121 5.28699 0.0685893 3.89132 11.2441 -0.102062 0.286238 -0.599085 0.630316 -0.282725 -0.711881 0.141236 -1.46298 0.561957 0.320252 -0.0232601 1.18028 -0.0120403 
-6.7813 -5.21114 -6.63829 -1.14445 -0.840721 8.87665 -1.04189 1.37219 7.93005 1.80888 -0.299268 3.11997 11.3086 0.019994 -0.107987 -0.294253 1.07824 0.895645 0.436124 0.884936 -1.32297 -1.05907 -0.336779 -0.25418 0.835987 0.0264369 
-6.05752 -6.09557 -9.80415 -1.08701 -1.84249 10.4478 -0.809648 1.38308 11.273 7.26248 3.04007 7.18307 11.3038 0.0538885 -0.447109 0.113432 -0.0432066 0.374644 0.0390319 -0.148372 -2.02273 -1.12257 0.0780837 -0.518766 -0.541367 -0.0256653 
-6.01074 -6.882 -7.49831 0.472587 2.50304 10.7307 2.95649 1.10507 0.548289 5.24405 -2.86895 2.57892 11.4426 0.187409 -0.300638 -0.146071 -0.978941 -0.463139 0.220361 -0.507707 -0.302075 -0.98459 1.10965 -1.3349 -1.43098 0.00590696 
-6.31524 -6.98752 -7.27384 -3.44133 -2.47605 9.25525 0.558053 0.144812 5.88925 3.95982 -1.2404 1.45501 11.0488 -0.113647 -0.482811 0.196126 -1.48938 0.245477 0.509234 0.418413 1.63667 0.489484 0.683034 -1.42912 -2.16434 0.0417745 
-5.71539 -6.26835 -8.6338 -4.862 -2.83964 10.5747 -4.26428 0.480947 5.69896 9.00846 -4.83351 -1.17092 11.4657 -0.240439 -0.431608 0.142138 -1.16299 -1.13016 -1.65749 0.0301749 1.1423 2.00202 0.556597 -0.0601673 -1.19351 0.0294744 
-6.77342 -8.81644 -8.25578 -5.86661 2.05623 13.0719 4.8928 9.87848 11.1451 8.79545 -3.12323 -1.76369 11.5011 -0.0825106 -0.259467 0.35609 0.751411 0.346702 -0.829034 -0.000828588 0.847421 1.23407 -1.00447 0.90377 -0.110044 0.034793 
-6.98385 -8.12558 -6.29665 -4.12971 -5.41393 0.534925 0.93999 1.94976 7.93048 5.60922 -2.22837 -1.77926 11.3638 0.0373617 -0.417888 0.0697913 0.303164 0.015948 -0.930057 0.555483 0.615724 0.0709208 -1.51855 2.33239 1.18048 -0.0827278 
-6.09357 -7.35624 -6.66197 -0.0504203 0.544607 10.13 -2.04822 3.64751 10.9439 0.637108 1.97588 1.20895 11.2737 0.292516 -0.150522 -0.443704 -0.289987 -0.47108 -0.449257 -0.477465 -0.168157 -1.17581 -0.671553 2.13115 1.50421 -0.0868808 
-5.86851 -9.08789 -9.08175 -6.25427 -2.00409 7.39541 1.98365 6.67505 6.15416 5.49487 4.27891 3.24516 11.1658 0.245573 -0.365628 -0.798997 -1.0453 0.427099 1.09864 0.611919 1.24781 -0.834233 0.462904 1.53176 1.20851 -0.0504047 
