-4.66405 -4.23402 2.85792 1.40485 1.23841 9.75509 3.83867 1.05129 1.65473 0.0379981 -0.439363 -0.720702 11.7211 1.59103 2.04712 0.707946 0.853882 -0.378076 -0.183379 -0.186211 -0.932423 -0.456127 0.114836 0.108047 0.648308 -0.0985173 
-2.30375 -1.9369 1.88889 2.42268 -1.59532 10.284 11.7698 0.640894 -1.85872 3.0125 -2.19693 -0.302768 11.3922 1.9046 1.76591 0.469042 3.06005 -0.0205743 -1.39726 -3.11697 0.456916 -0.753524 -1.83783 -0.42541 1.47891 0.217952 
2.11093 4.85301 6.88217 5.16534 0.764894 8.57373 -1.05796 -3.40563 1.13082 -0.875071 0.979653 2.31187 11.393 2.05436 1.41266 0.653677 4.25164 -0.372649 -3.04265 -4.5107 1.27331 -0.554146 -2.52812 -0.432888 1.73233 0.334471 
1.47146 0.0520332 3.19101 14.8249 1.37229 3.35945 -9.29786 5.56433 -1.85094 -8.69464 -3.27592 5.15757 12.975 1.70536 0.723174 1.21375 3.35702 -0.00508861 -4.59508 -4.47746 1.72037 -0.374333 -2.65382 0.00646062 1.27964 0.380781 
3.72016 1.83484 5.47525 16.462 -2.10864 -1.99587 -8.18098 4.95612 -1.1199 -6.74903 -2.06431 5.2108 12.6021 1.0791 0.0869994 0.99702 2.03057 -0.650071 -5.07629 -1.15975 1.38003 -0.26429 -1.74242 0.495149 0.558863 0.403931 
5.41842 3.18806 8.6611 13.5595 -0.183997 -7.40659 -7.05597 5.06185 -2.60503 -7.3196 -0.642647 4.64596 12.6916 1.27536 0.808169 1.21848 -0.360193 -0.160521 -3.89806 0.183159 -0.425661 0.162493 0.31347 1.099 -0.460716 0.233371 
5.53293 3.72 9.13223 15.9509 -1.70732 -11.4247 -7.97767 3.74574 0.186417 -10.2747 2.13876 5.36199 13.5543 0.736499 0.330401 0.118938 -1.01984 0.7968 -2.10452 -1.07747 -0.217884 -0.0722556 0.523335 1.08568 -0.665642 0.40289 
6.94189 3.1503 7.4549 13.2794 0.369026 -11.4164 -8.48372 4.04121 -1.69163 -5.36445 0.117529 2.7784 13.6657 0.645808 0.016697 -0.654841 -1.33321 0.655698 -0.854365 -1.32981 -0.0596163 -0.146385 1.28547 0.638723 -0.408669 0.351474 
6.64092 3.50573 6.67304 11.5028 1.59884 -10.5135 -12.8544 4.37702 -1.93788 -5.10993 2.984 2.81637 14.1295 0.517839 -0.0268085 -0.940209 -1.98551 0.572561 -0.124103 -1.03851 0.421821 -0.65516 1.56075 0.85015 -0.55495 0.255116 
8.09346 3.37868 6.61649 9.11746 1.44141 -12.134 -11.2667 4.44813 -2.27481 -3.47465 2.12835 3.87542 14.1614 0.0724185 -0.235013 -0.80502 -1.48982 0.416933 -1.12345 -0.313479 0.980741 -0.766605 1.0827 1.07802 -0.349282 0.368661 
7.54634 3.47176 4.85038 8.10436 0.619297 -11.6864 -11.7787 5.65138 -2.79779 -3.41584 5.3841 2.03873 14.5821 0.0461312 -0.238681 -1.10876 -1.26098 -0.881203 -0.309651 0.624228 -0.0126863 -0.0334689 1.49726 0.440513 -0.964606 0.333017 
6.85127 1.99221 4.34112 7.52955 2.94347 -16.4472 -10.589 8.30773 -5.09469 -0.79801 4.30756 1.42081 15.2827 -0.0183994 -0.311551 -1.29732 -1.52726 -0.914854 0.196894 0.793204 -0.638671 0.305491 1.38511 0.551566 -1.32938 0.336805 
7.49267 3.00555 2.26694 5.99189 -3.55819 -9.90518 -10.0721 2.38378 -0.695279 1.03802 4.09696 -0.779349 15.2339 0.178636 -0.533186 -0.993547 -2.16854 -0.640204 0.555866 1.30379 -1.64304 1.20991 1.4802 0.0462281 -1.0127 0.281063 
8.0283 2.05403 1.42161 2.53741 -1.04411 -12.0402 -8.15393 2.88857 -1.79861 1.22396 5.52975 -1.36246 15.5195 0.25843 -0.371138 -1.06831 -2.58194 -0.574906 1.35164 1.28211 -1.90828 1.97464 0.990359 0.00385725 -0.806539 0.230253 
7.85101 0.774925 1.3424 -0.24226 -0.587936 -11.1106 -6.47733 0.14574 1.60371 2.97416 5.00415 -1.63312 15.869 0.125784 -0.48474 -1.21681 -2.85477 0.645635 0.668418 1.63783 -0.928354 1.54206 0.933826 -0.77195 -0.944673 0.303715 
7.96425 1.25184 -0.538148 -2.26307 -1.41619 -9.08631 -5.97583 -0.114666 3.62902 3.18571 3.87325 -2.185 16.1164 0.0525512 -0.0761891 -1.68392 -2.72741 0.748361 1.62004 1.78726 -1.5743 2.12482 1.35999 -1.84771 -1.52657 0.290948 
8.15361 0.982948 -2.83721 -5.88173 -0.143976 -8.04001 -2.97206 -0.756366 4.30123 4.72627 1.06546 -5.09144 16.454 -0.0520602 0.512583 -2.30776 -2.5299 1.41673 2.06007 1.6814 -1.34647 1.37096 0.652699 -1.41171 -1.37622 0.260274 
8.13975 1.56907 -4.90819 -8.27991 2.47571 -5.47528 -0.970276 -4.53186 7.47672 7.14786 -1.73948 -7.26613 16.6817 -0.142592 0.475724 -2.08916 -2.24051 1.57077 2.4996 1.90806 -1.75372 0.49248 0.141291 -0.202759 -1.49687 0.247241 
7.50296 3.17922 -8.01137 -9.88334 4.54978 -2.61584 -0.573115 -4.37801 6.53467 4.25658 0.75195 -5.97368 16.8877 -0.0186176 0.0602331 -1.45125 -2.02272 1.94617 2.20207 1.60345 -1.81778 -0.0255171 -0.0997849 0.543239 -1.06319 0.235263 
7.57662 2.53232 -8.39686 -11.4648 4.09078 0.699584 2.36499 -7.07245 4.97469 4.12702 3.01621 -9.22823 17.1358 0.118034 -0.337397 -0.851296 -1.89727 1.73001 1.6811 1.17876 -1.07432 -1.02049 0.1391 0.899877 -1.76946 0.238974 
8.34209 0.802488 -8.34913 -14.4029 8.77934 -0.117081 3.37755 -8.57495 5.42466 5.73777 1.40381 -9.42635 17.4033 0.123931 -0.66656 -0.404198 -1.40902 1.16977 1.21061 1.18543 -1.26738 -0.867466 1.0969 -0.111692 -2.42951 0.227875 
8.31036 1.07045 -8.99579 -15.5065 9.01097 1.68086 2.9482 -7.80497 2.92928 7.10277 2.43398 -14.3871 17.6188 0.0605938 -0.546555 -0.436108 -0.711567 0.809619 0.935229 0.21633 -0.117253 -1.08399 1.1047 -0.532681 -2.05389 0.194776 
7.75575 0.577359 -9.73289 -14.9076 7.93851 2.94655 5.06242 -10.3486 3.22005 8.25319 0.484606 -15.5418 17.7856 -0.0910548 -0.249956 -0.698775 0.108242 0.444118 0.493712 -0.175893 0.431044 -0.930433 0.692267 -0.970179 -1.29746 0.16029 
8.17276 -0.087886 -9.88552 -14.7703 8.55929 3.84391 2.60421 -6.77187 0.657063 8.39283 0.812406 -16.4399 17.9185 -0.266092 0.0635595 -0.806852 0.761335 1.17091 -1.12267 -0.221781 1.12234 -0.220541 -0.498518 -0.539624 -0.436786 0.128267 
7.95561 0.131877 -11.3981 -14.2298 11.2258 1.26996 2.67008 -6.93628 1.9086 8.55408 -2.6363 -14.8872 18.0549 -0.142877 0.0221288 -0.49067 1.18781 0.887527 -1.55362 -0.990932 1.86767 0.0809985 -0.636053 -0.697669 0.606438 0.0604574 
6.87997 1.61099 -12.1974 -12.0387 13.2219 -3.09421 3.03546 -3.89943 2.48229 4.45973 1.29631 -16.8983 18.1255 -0.329869 0.168103 0.104625 1.33031 0.0759695 -1.59245 -0.854564 1.22371 1.23078 -0.754478 -1.73808 2.02998 0.0118994 
7.68776 -0.161436 -11.0303 -10.3343 10.0449 -1.3525 -0.107871 -2.44653 2.71242 7.03947 -3.24569 -12.2804 17.9844 -0.32741 0.172968 0.572706 1.77113 -1.05117 -1.86871 -0.674255 1.72978 1.06263 -1.19836 -1.57045 2.54094 -0.0299891 
6.65735 0.899288 -9.54633 -10.0665 9.5296 -2.80711 -0.279634 -2.89818 6.40907 5.37775 -7.57332 -7.59342 18.0133 -0.317852 0.158556 0.894263 2.2017 -2.16014 -2.22854 -0.177434 1.746 0.986188 -1.38116 -2.14767 3.79785 -0.0391895 
6.42988 1.35257 -9.86016 -6.36024 7.81609 -8.21712 0.956355 1.21201 5.25837 2.10325 -6.05375 -6.83496 17.9611 -0.623074 0.593437 1.46719 2.06074 -2.46018 -2.7776 0.312666 1.33258 0.817246 -2.07015 -0.924484 4.10438 -0.0323118 
5.91965 1.64677 -8.31118 -3.01731 3.53558 -10.8046 1.61618 3.0013 6.14026 0.0220264 -8.03803 -0.631783 17.9412 -0.523558 0.561406 2.50824 1.78803 -2.81723 -2.39834 0.00429921 0.465466 0.121829 -2.03397 0.572391 4.56315 -0.109505 
4.94124 2.43201 -4.3119 -3.5552 0.740944 -11.2418 0.507554 1.26662 6.93306 -0.633431 -7.63576 4.76065 17.8589 -0.639387 0.974711 3.88765 0.486316 -2.7245 -0.835368 -1.20038 -0.846505 -0.446639 -1.79673 0.566067 4.99388 -0.192654 
4.78387 3.1666 0.220737 -2.52884 -1.01897 -13.2865 -0.0337381 -0.598151 6.18087 -3.42373 -3.92036 9.42455 17.5168 -0.866194 1.64818 4.50375 -0.330699 -1.61595 -0.337406 -1.90589 -1.63002 -1.26762 -2.51367 1.61472 3.86458 -0.232271 
3.80083 5.46621 5.31214 -4.1729 -3.52915 -11.153 -4.22058 -1.2208 3.00487 -5.15751 -5.28226 13.1063 17.21 -1.0087 2.16574 4.16048 -0.0295328 -0.31876 -0.154531 -2.28872 -1.76361 -1.53938 -3.28745 1.87642 2.1145 -0.323166 
2.15888 8.37056 9.39556 -4.36196 -2.40914 -12.536 -5.54918 -3.90511 1.76628 -10.2843 -1.14116 14.5183 17.1043 -1.17465 2.45571 3.50624 -0.023007 1.04142 0.233265 -1.22371 -1.48203 -1.98017 -3.47859 1.98674 0.00528593 -0.364284 
1.21024 10.6587 11.9031 -2.7863 -0.157772 -12.3897 -8.17833 -5.89794 1.44345 -13.6404 0.356745 12.7863 16.4493 -0.806561 1.76173 3.06878 0.413811 2.42764 -0.687916 -0.401351 -0.448323 -1.78702 -1.60389 1.03697 -2.01868 -0.412243 
0.205896 12.8489 14.4565 -3.33717 2.50243 -11.5018 -4.17343 -5.66972 -2.93927 -16.5752 3.19383 9.61098 16.0758 -0.290625 0.77478 2.18897 0.669216 2.52417 -0.294051 -0.248753 -0.159206 -1.98464 1.15902 -0.517328 -3.21832 -0.472513 
0.744514 12.0357 18.1256 -2.61624 6.15329 -15.1097 -6.91521 -2.58011 -3.57747 -10.0315 -2.26493 5.46655 15.663 0.185808 0.230413 0.833525 0.386803 1.46492 1.23355 0.543237 -0.101068 -2.74916 2.0375 -1.23266 -3.00962 -0.507169 
0.938618 11.556 17.2292 -1.10091 7.0562 -12.6463 -7.4245 -6.36006 -5.64644 -6.29363 -2.41697 2.08657 15.1349 0.593934 -0.444133 -0.798522 0.953336 0.403915 2.04447 0.32082 -0.210058 -1.86862 3.02247 -1.40321 -3.11295 -0.653608 
1.77292 12.4572 14.6844 -1.97042 4.88995 -5.64971 -3.83661 -6.05811 -10.9488 -8.59371 -3.00117 1.50039 14.3839 0.548952 -1.17669 -2.38417 1.16469 -1.57598 3.76456 1.20481 -0.343698 -1.62058 1.37534 -0.0827988 -1.65057 -0.924667 
2.66136 10.4175 12.1845 1.1066 5.15367 -6.00948 -4.10864 -4.98101 -8.59671 -2.18175 -3.45409 -3.97071 13.4473 0.0975113 -1.93862 -3.04733 1.34071 -2.57536 3.99024 1.47052 0.397556 -0.829804 0.0250756 0.542956 -0.231155 -0.986839 
2.6279 6.7215 8.72706 2.10344 -0.775318 0.39475 -2.54908 -4.98813 -10.2052 -5.21075 -2.16036 0.242358 11.8835 -0.405411 -2.80707 -2.27467 2.30136 -2.49713 3.7688 1.54846 0.790446 0.0614567 -1.58122 0.32574 -0.196464 -0.824952 
0.998683 4.73073 4.97119 3.56572 -2.98796 4.28273 -0.715672 -4.90728 -10.1672 -7.85973 -0.122594 1.55981 11.4509 -0.92341 -2.53582 -1.0579 0.73563 -2.49156 3.32582 2.11653 1.50824 0.224656 -2.59945 -0.364942 -0.143378 -0.513784 
0.577203 1.26523 6.91767 8.30681 -3.52486 8.04818 2.20922 -2.14275 -9.85623 -13.6608 -3.03822 -2.24719 11.2574 -1.519 -2.51727 -1.53028 -0.501512 -1.34088 2.57693 2.3954 1.97803 1.76093 1.73716 -0.30164 -0.916512 -0.184928 
-0.930336 0.466516 7.79964 1.68307 -5.92936 6.79291 4.09486 1.13751 -7.64793 -10.954 -4.83987 -3.44283 11.1914 -1.42421 -2.08584 -1.80103 -1.48446 -0.460273 0.734297 1.30363 2.2138 2.5681 5.01299 1.58936 -0.0389823 -0.0812964 
-4.00257 -3.73274 -0.338579 0.537204 -6.00904 12.0243 7.02267 1.87961 -2.66023 5.02217 -1.30992 -1.83888 11.0886 -1.35568 -1.96237 -2.65958 -1.80354 0.0843445 -0.260548 -0.882344 -0.0227356 2.18662 6.63847 2.32301 0.635244 0.0149335 
-3.8325 -3.19947 -0.405849 0.0282373 -4.04723 5.96616 3.39575 4.15054 -0.924721 7.86374 6.96005 1.16075 11.1288 -0.967057 -1.39477 -2.15241 -1.15181 0.504229 -0.862775 -0.853428 -0.663377 1.66482 2.94531 0.611355 0.41597 0.0890537 
-4.75013 -6.71365 -2.27747 0.116512 -4.0442 7.15881 -1.85295 -3.76294 -2.28474 10.1227 2.67687 -1.37275 11.3633 -0.275944 -0.333133 -0.713529 0.0206779 0.563538 -0.708611 -0.399917 -1.08484 1.357 -0.95632 -1.26844 0.476864 0.0905685 
-5.39184 -5.01689 -1.99297 -3.86564 -4.39064 4.91178 4.26553 0.641898 0.488428 1.22232 -3.77649 -1.59604 11.4993 -0.0230444 0.0418774 -0.823914 0.247752 -0.340262 0.406703 0.710423 -1.43746 0.619649 -2.04667 -1.45125 0.759701 0.0545688 
-4.60262 -4.48969 -3.11266 2.58753 -3.01965 9.00843 4.58819 -1.79028 3.41819 3.56128 -2.28382 1.92384 11.3562 0.411075 0.816891 -0.540089 -0.154475 -0.252581 0.517651 1.20844 0.838929 0.534399 -2.58181 -0.256861 0.992195 -0.0191515 
-4.02148 -4.10206 -4.10782 0.0314908 -6.26082 7.07487 3.72729 -4.02308 -0.677941 0.911087 2.18413 3.31096 11.4052 0.108075 -0.167526 -0.192739 0.227719 -0.368561 0.224501 -0.155401 1.61364 0.641184 -0.09062 1.22761 0.233727 -0.0497945 
-3.37993 -3.08661 -3.92049 -2.60443 -4.37201 8.66552 4.45837 2.76419 0.97044 -2.63075 -1.58775 1.13472 11.3146 -0.226832 -0.458524 0.899092 -0.246504 0.0290704 -1.17963 -0.484775 2.03045 0.28546 -0.693421 0.210882 1.04756 0.00269308 
-5.46281 -6.55606 -2.55276 -0.131063 -5.55726 6.20574 3.55343 6.43285 4.91822 3.86524 2.01352 -0.0328491 11.2711 -0.0846134 -0.1309 1.06993 0.745323 0.625778 -0.623673 -0.786318 0.749416 0.238674 0.0562044 -0.64541 0.150243 -0.0550957 
-5.01612 -5.55531 0.605264 1.43629 -3.22608 3.54484 2.25125 3.13398 2.04741 -1.3829 -1.14411 8.83355 11.4367 0.0687948 0.261241 0.483196 0.732878 0.0886792 -0.656494 -0.384105 -0.348458 -0.0327354 -0.292918 -0.6348 -0.684874 -0.0637939 
-3.62646 -3.52221 -1.02104 1.73775 -3.7049 6.51684 0.899265 -0.460891 -0.0230538 0.568186 -1.26474 0.212761 11.0687 0.30557 0.984998 -0.0189964 1.03592 1.15211 0.342039 0.211978 -1.64031 -0.912122 -0.619902 -0.673836 -1.14155 -0.0283396 
-3.95414 -3.29733 -2.27036 0.125556 -4.8548 5.2275 3.86493 4.46877 3.2774 -2.44682 -3.12261 -2.41245 11.0969 0.00627003 0.487629 -0.205925 0.230692 1.03004 -0.182312 0.418091 -1.03134 -0.790728 0.514007 -0.12553 -2.10673 0.0266434 
-4.46595 -2.76006 -1.20992 5.70392 1.01767 7.0746 3.80648 -2.43611 -0.257389 1.29768 -0.366407 -0.117602 11.2993 -0.726744 0.347189 0.585388 -0.426926 1.61595 -0.948376 -0.513769 -1.56061 -0.729382 1.17757 0.0216806 0.590535 0.246347 
-4.56502 -3.49824 -0.329918 0.606659 -0.437155 2.3544 2.88809 -1.03511 -1.78907 0.822383 -2.22092 -1.53492 11.4546 -1.93597 1.33957 -0.0594517 0.597908 0.0249589 -1.87349 -1.01258 0.256072 -1.93497 1.45125 0.189841 1.26069 0.897236 
-6.95474 -1.68581 0.935676 -0.637436 2.16604 3.21151 -1.18116 -5.51202 -1.13673 4.82141 -1.60719 2.72667 12.1216 -2.405 1.26368 -0.802034 -0.27864 -0.801181 -1.10183 0.697711 3.12971 -0.908348 -0.154881 0.478365 0.427161 1.21339 
-12.3896 2.86339 -3.64042 6.28577 -5.30419 -2.20839 1.29586 7.28709 -5.95777 3.04755 -1.55302 2.46885 15.1719 -1.85241 0.665712 -0.801918 0.218233 0.00253035 0.194163 1.88309 1.47117 -1.75873 -1.12883 1.43189 0.805446 0.975326 
-12.5787 0.377525 -3.56484 1.47116 -0.554719 3.84685 8.09115 9.05137 -2.71478 -0.589309 1.69146 0.0163188 15.5076 -0.0639011 -0.67412 -0.525786 -0.369735 0.309799 0.213908 0.690526 0.459149 -0.168491 -0.55442 1.66287 -0.37361 0.159202 
-11.0151 -1.20134 -2.08925 0.643522 0.935874 3.00754 7.66736 -0.960942 -9.79369 -2.11642 3.28919 3.84748 14.6382 1.36223 -1.24369 0.689826 -0.147004 0.977736 0.1816 -0.573326 -1.39493 2.87698 0.776604 0.318428 0.557772 -0.712628 
-7.96148 -3.02404 -2.46884 0.335015 0.595003 1.67309 -0.914285 0.90774 -0.0612236 4.6313 4.28607 0.169304 13.1844 1.64372 -0.301665 0.228656 1.0127 -0.0378374 -0.0374328 -1.31987 -1.06584 2.77932 1.97755 -0.451617 1.13233 -0.837659 
-7.88706 -1.65426 -0.739294 6.11883 -0.990367 -0.213503 2.93195 4.38427 7.10038 4.32027 -1.25818 5.18122 12.7704 1.25208 0.0409401 0.12279 0.959952 -0.0804109 0.845968 -0.355398 0.695206 2.24042 1.04623 -0.398398 -0.253054 -0.608591 
-5.92411 -0.904343 -3.09654 3.79702 0.219215 5.27021 3.85953 1.04956 2.73478 6.08007 1.70707 5.01108 12.2532 1.09188 0.120856 0.0176818 -0.322044 -0.939798 1.21709 0.673437 0.0664156 -0.167014 -0.644198 0.168496 0.194447 -0.393388 
-5.77339 -2.05649 -1.16145 3.71228 0.721714 5.43882 3.50346 2.44418 0.0103925 2.39035 2.5867 0.161323 12.0608 0.87725 -0.504322 -0.153837 -1.39338 -0.577439 1.15183 0.798109 0.0724725 -0.603438 -0.998545 0.656708 -0.700956 -0.30346 
-3.55893 -2.21864 -2.16935 -0.0719337 -4.96003 4.93236 2.16714 2.20987 2.6487 2.37527 3.20611 3.65149 11.5722 0.580926 -0.748188 0.677913 -0.787943 -0.664266 0.505909 -0.0542063 0.123334 0.0273437 -1.71585 0.299995 -0.213755 -0.249988 
-4.6834 -3.51872 -1.97207 1.08642 -1.28794 5.71455 7.76869 4.16648 4.12623 1.17994 1.27584 2.35624 11.5936 0.132741 -0.432131 0.220666 -0.27613 0.222673 1.637 0.187711 -0.158238 -0.100068 0.240488 0.184987 -0.0336802 -0.16367 
-3.56447 -3.91417 0.698334 1.17024 -2.09729 7.66189 1.45588 0.805079 0.813584 -1.89398 3.86247 2.84485 11.2369 -0.418259 -0.491879 -0.14118 0.308052 0.953145 1.1295 -0.683446 -0.613734 -0.235853 0.259042 -0.834709 -0.736351 -0.0543566 
-5.10691 -3.36939 -1.49196 1.71054 0.403707 12.259 4.79765 2.35538 0.427608 5.72742 3.18346 0.39624 11.4101 0.0302399 -0.341038 -0.612826 -0.4725 -0.761451 -0.445768 -1.72677 -1.30542 -0.485399 -0.440151 -1.39606 -0.652553 -0.0610808 
-5.43847 -4.75271 -3.11531 1.15626 -1.04013 7.30759 0.235432 0.0467469 3.31874 1.39674 -1.92124 0.94973 11.3922 -0.0686949 -0.264509 -0.498828 -0.597071 -0.996502 -1.97905 -1.16497 -1.44448 -0.769135 -0.314039 -0.920304 -0.560756 -0.0277824 
-3.5952 -4.80464 -3.12938 -1.26909 -5.62377 3.66286 -0.254953 -1.98146 0.446654 -2.66617 -2.81258 0.0410318 11.2105 0.0773157 -0.255176 0.574423 -0.000831413 -0.782914 -2.23539 -0.923328 -0.672187 -0.0600147 -1.40026 -0.343722 0.603311 -0.0323688 
-4.6638 -4.51909 -0.977095 -0.325296 -4.06606 2.06472 -1.84268 -4.24891 -3.04162 0.732619 2.25897 0.218673 11.1978 -0.120365 -0.357719 0.756573 0.095983 -0.370138 -0.58439 1.63024 1.38684 -0.0315071 1.16291 0.0298262 -0.207057 -0.0254659 
-5.10766 -4.76207 0.311042 2.44717 -1.9979 3.70355 1.22007 1.14227 3.30771 -0.941841 -0.625261 3.77832 11.3455 -0.336006 -0.250715 0.320682 0.599181 0.725748 1.84174 3.08585 1.65587 0.667753 1.38423 0.2649 -0.100435 0.00473242 
-5.28406 -6.56258 -1.05266 -0.221949 -4.70376 4.3653 7.64914 5.41906 1.73068 6.34911 -2.86577 -1.9542 11.1974 0.0693672 0.500652 -0.167757 0.0103105 0.168034 1.65458 2.74895 2.12922 1.2931 0.520769 0.14065 -0.18959 0.0274391 
-4.9651 -5.03647 -1.48819 1.67514 -1.67618 11.7213 10.4284 1.46389 1.39927 1.44674 1.07429 0.625294 11.2344 -0.322219 0.0562602 -0.243788 -0.638955 0.20611 0.976667 -0.216533 0.615166 -0.605114 1.18779 2.09283 -0.0462843 0.0812792 
-4.38825 -1.87863 -0.916263 0.112269 -3.38674 6.32876 7.29789 6.23638 4.37808 2.14217 2.11245 0.847237 11.3906 -0.29796 -0.127255 -0.367999 -0.655629 0.432908 -0.540704 -2.49847 -0.00364246 -1.64257 -0.296414 1.65121 0.404368 0.0837224 
-7.16667 -6.82275 -0.976096 -0.914718 -1.62585 7.60515 0.313027 3.80944 -1.04156 7.10056 7.34976 2.14618 11.6553 0.137206 -0.65632 -0.91525 -0.457688 -0.0589794 -1.81283 -1.81802 -0.132307 -2.5472 -0.449257 -0.883899 -1.50555 -0.00428104 
-5.67307 -6.30572 -3.1487 -2.20517 -2.56438 3.71983 0.214477 4.22807 -5.26175 2.04014 2.25256 -0.692804 11.4056 0.5366 -0.299223 -0.778707 -0.588928 -0.846853 -1.57902 -0.725817 -1.53787 -1.48934 -0.849002 -1.46759 -0.393316 -0.0843882 
-3.63666 -6.10452 -4.94822 0.545419 -2.38226 3.96155 4.87999 1.80651 -6.51682 -0.748525 -3.41526 -6.13243 11.2055 1.35404 0.468037 -0.233789 0.157958 -0.679952 -0.873842 0.0883124 -0.734613 1.28784 -1.3794 -0.497682 0.488327 -0.168699 
-3.47025 -3.73386 -2.82374 -3.56244 -7.2428 0.255457 1.38532 -0.451502 -0.331013 1.82171 0.157021 3.01997 11.1935 0.740154 0.685342 0.397293 0.882085 -0.599304 0.07698 -0.148113 -0.429626 1.44199 -0.578989 0.774517 1.07054 -0.0863285 
-1.49788 -5.7685 -2.30752 0.553707 -2.6864 4.96813 0.169167 2.47616 2.93229 0.312766 5.90912 2.73143 10.9178 -0.151031 0.577106 0.631223 1.03952 1.10586 1.72268 -0.216574 -0.640832 0.581744 -0.386982 0.459989 1.75262 -0.00330143 
-3.04169 -3.04702 -2.48258 2.20112 -5.40883 3.60144 1.82932 1.74511 -2.77637 -1.38545 1.46296 0.227959 11.1178 -0.350343 -0.0853908 -0.192765 1.03835 1.19821 1.89983 0.736204 -0.00281255 0.432176 -0.00108345 -0.953627 -0.0526598 0.0524433 
-4.6061 -3.56241 -1.96268 2.86125 2.23008 10.902 3.57512 -2.49596 -2.38542 -1.07986 -1.76828 4.02668 11.2269 -0.496613 -0.120755 -0.478232 -0.188196 -0.0348389 0.682537 0.792244 -0.0635949 1.0378 0.829772 -1.55984 0.0636303 0.0950128 
-3.66786 -5.26385 -3.95998 0.475522 -3.71001 6.78769 3.36336 2.0205 4.48872 2.5126 -0.772415 2.10904 11.3012 -0.0314108 -0.613511 -0.495211 -0.583692 -0.254243 0.225823 0.285633 0.506722 2.14043 1.13886 -0.347489 0.184453 0.0441132 
