-4.00621 -4.14987 -2.19419 6.58535 5.4998 17.1303 1.40125 0.150454 6.41116 3.05684 -2.08369 0.673305 11.7001 1.53287 2.4333 2.79037 -0.341679 -0.104738 -4.0366 -0.613408 -1.84345 -1.45438 -1.07692 -0.49056 -0.314875 0.347352 
1.40104 1.03366 1.1844 6.34796 7.06263 7.84902 -4.12777 -7.20664 3.75621 3.24725 -2.26548 -0.139092 12.0516 1.42416 3.35693 3.41053 -1.00053 -0.293835 -4.9566 -0.26733 -0.93935 -1.0861 -1.59233 -0.164182 -1.14726 0.592476 
0.954489 5.4249 10.0684 4.99564 4.19469 1.58785 1.09872 -5.38826 0.466719 -2.42294 -4.44559 -0.494872 13.2611 0.922804 3.26495 2.73362 -1.26108 -0.421944 -4.67696 -0.13955 0.229947 -0.393036 -1.09927 0.754889 -0.959218 0.675557 
0.634214 7.84741 8.7272 2.37753 4.68318 0.118437 0.215867 -1.77694 3.95286 -2.16489 -1.72365 -4.47889 13.882 -0.371976 2.31059 0.984238 -1.86453 0.45619 -2.76237 0.617078 1.88014 0.0145493 -1.14914 0.838228 -0.205735 0.714744 
0.99122 8.768 7.7025 2.26517 4.57981 -2.38924 -1.46832 -1.41467 4.34765 0.266569 1.41984 -1.95289 14.1627 -0.353752 1.53223 -0.00830936 -1.70203 0.189057 -1.2586 -0.473545 2.4462 0.270227 -1.20205 1.00407 0.0769171 0.45561 
-0.477203 10.9151 7.28852 -1.60944 9.15102 -3.97429 0.241136 0.207242 1.88849 -3.84323 -1.00705 -0.438761 15.1745 -0.242537 0.901485 0.385399 -1.218 -0.00572848 -0.116856 -0.18586 1.98756 -1.34665 -2.02694 0.293794 1.30056 0.288617 
-0.258564 11.5522 10.7462 -1.521 2.90605 -2.65879 -1.28164 5.85063 2.85004 -7.59402 0.216486 -2.13035 14.8929 -0.098854 0.501769 0.451583 0.00664701 -0.541385 0.338825 -0.999542 1.96459 -1.11594 -1.51704 -0.004951 0.610553 0.116855 
0.046422 10.9627 9.13236 -1.81939 5.49141 -0.331072 -0.806774 4.52821 -2.03156 -8.3693 0.347001 2.11266 14.96 0.380289 -0.529964 0.125039 1.4696 -0.0111763 -0.0299734 -2.06148 0.496101 -1.03567 -0.0486383 0.0809531 0.981933 -0.0770459 
0.235137 11.253 9.03849 2.40338 3.70269 -2.51672 -5.94208 6.2478 0.727964 -5.05558 0.718059 -0.175836 14.8543 0.35765 -0.756926 -0.5711 1.84365 0.35793 0.487812 -1.33847 -1.20961 -2.58607 0.243689 0.519735 0.423938 -0.0539793 
1.17739 8.41486 8.76755 3.77635 8.69682 -4.19518 -7.73602 2.48916 -2.22881 -5.35564 -0.853075 3.49365 14.8086 0.397085 -0.892686 0.428604 1.62469 -1.00605 0.217131 -1.20188 -1.2418 -2.67757 -1.25406 1.08055 -0.318009 -0.0668849 
0.964203 9.04153 8.07306 4.89938 3.093 1.71233 -4.50938 0.822123 -9.98171 -7.88241 3.4152 -0.701152 14.6987 0.28416 -1.27565 1.32304 0.475855 -2.23237 -0.153822 0.0614265 -1.73208 -2.83099 -1.84222 0.073536 0.811484 0.0429331 
1.66732 7.60503 11.7581 5.05606 0.766019 -1.35994 -7.5325 1.03206 -10.0646 -13.2262 4.40119 0.785275 14.7033 0.320535 -1.81611 1.34302 -0.146706 -3.01631 -1.17985 0.514922 -1.97569 -1.87671 -0.941251 -0.112749 0.783357 0.220437 
1.41098 5.27967 14.1584 4.1428 -3.49377 -4.70345 -5.7367 -1.68407 -9.50909 -10.3314 -1.54139 5.23577 15.1216 0.500646 -2.72068 0.505959 -0.341315 -2.41873 -3.83711 1.33718 -1.63437 -0.675813 0.557836 -0.0526413 0.559727 0.484123 
2.55668 1.21526 12.44 3.42111 -3.09136 -6.88653 -4.54775 -6.13621 -11.8487 -8.8374 1.06148 4.44197 15.6994 0.612644 -2.92577 -1.86476 -0.121372 -2.43397 -4.53398 2.37832 0.12101 -0.697307 1.61755 0.888639 -1.17243 0.630798 
3.02275 -1.36701 10.2619 4.01028 -7.07195 -14.7099 0.684159 -3.7656 -12.4687 -7.28763 4.82185 0.269136 16.6213 0.893897 -2.63971 -3.62086 -0.0113706 -1.1429 -3.83636 0.810363 2.37364 0.343501 2.28115 0.471193 -2.56089 0.503303 
3.92465 -3.70047 4.38256 4.51546 -9.61473 -19.0266 1.14865 2.67788 -12.0713 -6.66034 5.66276 -2.59354 17.1075 1.00211 -1.57954 -4.97843 -0.427504 1.26922 -2.23074 -0.794195 2.34204 2.33742 3.83071 -1.46233 -4.01451 0.251362 
5.19648 -5.46104 0.0828089 3.53877 -5.94659 -17.8152 -4.53309 5.77709 -7.68026 -0.014158 -1.48607 -4.05093 16.934 1.0898 -0.287652 -5.20041 -1.91494 3.56077 1.81301 -2.17718 -0.530739 3.2642 5.0753 -2.07768 -3.947 -0.02115 
6.48035 -4.63541 -7.36261 1.51934 2.69207 -16.4876 -5.9101 0.802623 -2.55581 6.67942 -3.09624 -13.4705 16.7998 0.908772 1.01754 -4.45513 -3.41201 3.58664 4.54796 -1.25386 -3.58395 1.92764 4.66821 -0.432971 -2.95396 -0.103611 
7.19389 -2.33779 -9.86753 -4.06638 4.57849 -6.91438 -6.67236 -5.48167 -0.905463 11.419 -1.18704 -14.0274 16.6694 0.445239 1.6713 -3.30126 -3.78349 1.4783 5.51504 0.105501 -4.24188 -0.274594 2.29694 1.98548 -0.90452 -0.0109657 
7.4698 -0.174393 -12.9179 -8.74203 3.05591 -1.73724 -4.05101 -9.61251 -5.82049 10.9642 3.34839 -12.3751 16.7217 0.0215724 1.12167 -1.74736 -3.37389 -0.498809 4.58225 -0.154125 -3.43728 -1.41763 -0.179423 2.07404 1.40483 0.0873663 
6.92795 0.664972 -13.6458 -10.248 1.263 2.38482 -4.93513 -10.2248 -7.42089 9.32819 5.21904 -9.12123 16.9182 -0.190122 0.583913 -0.739626 -1.13294 -0.599675 2.23561 -0.421869 -1.62245 -0.6801 -0.58825 1.07203 1.65327 0.118597 
6.72118 -0.528427 -14.2102 -12.2593 1.85577 1.77408 -7.54935 -14.0122 -6.38624 6.8277 4.07092 -8.89946 17.1122 -0.340173 -0.080341 0.471036 1.04483 -0.162773 -0.61432 -1.37353 0.369454 0.980339 -0.299004 -1.04312 0.496996 0.0638096 
6.61759 0.758787 -12.9195 -7.97243 2.18018 2.50802 -7.03254 -11.3941 -4.02309 10.546 3.81184 -7.49886 17.0671 -0.446425 -0.646571 1.25559 2.6955 -0.133554 -4.1458 -0.710963 1.38136 1.22761 -1.20344 -2.22099 -0.644113 0.00524216 
5.92412 -0.623006 -10.9259 -4.65566 1.78345 -4.87044 -9.86998 -7.18058 -2.6177 8.86025 -1.1636 -10.7013 16.9663 -0.631566 -1.01649 3.20601 3.8256 -1.26692 -5.8547 1.31496 2.99743 0.0117438 -3.41567 -1.23683 0.0434292 -0.00233192 
5.09436 -2.52059 -9.01005 -0.5723 0.631386 -15.0219 -7.32963 -6.73377 -3.1671 2.29471 -3.26865 -11.4409 17.0174 -1.13536 -1.07255 5.83185 3.12755 -2.33947 -5.23838 3.18519 1.12471 -1.51299 -4.61256 0.240212 0.802769 0.0377748 
4.32497 -3.9712 -0.134938 3.16859 -3.70444 -18.7344 -0.826018 -1.35524 -6.75551 -6.12503 1.42704 -6.71132 17.1254 -1.66422 0.519091 7.68771 1.04421 -2.18447 -1.7064 3.80165 -0.394427 -0.265303 -3.25933 1.56309 2.32211 0.0111692 
1.74039 -2.92988 10.8443 3.75319 -6.77323 -16.7519 4.37141 -8.6832 -9.51914 -5.0242 3.71758 -5.48003 17.1765 -2.06204 2.46642 6.62554 -1.71184 0.889192 1.16223 0.989432 0.318132 1.88999 -1.92233 1.14645 2.67052 0.0359936 
-0.720006 2.17709 17.5855 -1.59733 -5.43657 -12.5374 3.28777 -8.178 -0.768192 -3.77696 3.15872 -2.07121 16.9426 -1.97335 3.67856 3.28512 -2.82172 3.31044 1.87991 -1.19469 1.4276 1.17678 -0.603339 0.501518 2.24952 0.0671831 
-2.69335 6.73736 15.2575 -6.74853 5.94341 -12.3093 -4.43936 -1.73173 3.28918 -8.491 1.59775 -0.408313 17.2887 -1.16048 3.49607 -0.620983 -2.11554 4.39547 1.40972 -1.84651 2.90886 0.379724 0.158788 -0.762431 1.17675 0.0452173 
-3.32489 9.58797 14.0841 -5.68916 6.48943 -11.5562 -2.39406 2.30705 -7.27576 -7.40832 4.99454 2.00042 17.4052 -0.29909 2.6969 -2.34616 -0.510219 3.31731 1.05394 0.401693 1.82952 -2.23324 1.08394 -1.16822 -0.138884 -0.0477036 
-2.75957 10.845 9.49005 -4.7786 9.24112 -10.1939 -2.02021 0.618573 -4.36674 -2.41458 -1.01248 -1.63209 17.1713 0.0737705 1.61964 -1.85641 1.28909 1.32121 1.16043 1.77029 -0.223739 -2.0842 1.73815 -1.30294 -0.340094 -0.202502 
-2.18234 13.6077 8.73835 -5.13339 9.50111 -8.32541 4.08666 -0.205555 -8.10643 -1.39547 -1.37724 -2.15374 16.7628 0.0281343 0.821753 -0.999476 2.03638 1.43554 1.57599 0.591179 -1.64766 -0.652223 1.4978 -0.866678 -0.359076 -0.281242 
-2.89577 12.8257 8.64828 -0.580971 11.0436 -8.12248 1.17174 -1.59413 -6.71647 -2.80669 -1.73107 -0.0317075 16.5974 0.0959154 0.0765743 -0.131683 1.80272 0.484726 1.56426 1.17464 -0.372135 -1.31195 -0.334442 -0.371109 -0.133065 -0.305484 
-3.11612 12.7064 9.50759 2.39392 12.7659 -4.71198 -1.03414 -4.82492 -9.36201 0.276743 1.02044 -0.595151 16.2859 0.0255772 -0.628494 -0.160216 1.37084 0.188454 1.33473 0.200215 1.31133 0.107491 -1.19941 -1.27703 -0.501271 -0.200737 
-1.81311 11.6786 8.44702 0.471338 10.0324 -4.1793 6.41341 1.06758 -10.2987 -4.92289 -4.06687 -3.07671 15.8823 0.242447 -0.735719 0.0224582 0.159608 -0.522261 1.53872 1.27835 1.99095 -0.0259277 -1.59029 -0.749859 -1.18704 -0.205087 
-2.59579 11.0388 8.0379 1.19466 10.949 -3.62335 2.4669 5.02024 -5.77787 -6.33444 -6.5945 -3.13759 16.1167 0.110093 -0.5591 -0.0813995 0.0560414 -1.06599 0.725465 -0.0549686 2.95818 1.94829 -2.53066 -1.04488 -1.10057 -0.152018 
-1.9437 9.98086 9.49542 0.816701 9.34077 -0.973179 5.81296 3.43804 -8.63818 -7.45255 -1.67289 -4.69569 15.6566 0.0241881 -0.692742 0.247318 0.50299 -1.06113 1.47357 -2.13522 0.621485 2.07881 -1.65851 0.91793 -0.00828309 -0.128138 
-2.50036 10.7598 8.57639 2.50145 7.78171 -2.68771 -1.00876 8.78075 -0.450806 -11.1117 -5.40092 -5.28852 15.6387 0.410379 -1.02416 0.958434 0.750131 -2.40987 1.13956 -2.23797 -0.877076 0.574654 -2.48512 1.24531 1.9623 -0.176954 
-1.73988 8.35438 9.41436 2.33289 6.31037 2.72074 -2.52487 2.29475 -2.56818 -10.8268 -0.0740077 -2.04266 15.4806 0.828503 -1.72022 0.885605 1.0328 -3.24482 -0.213274 -2.79303 -2.4446 0.241042 -0.639926 0.731859 4.64834 -0.0750103 
-0.645805 6.73128 12.8706 4.18722 0.414849 0.227483 -4.55405 1.20651 -5.93961 -17.0729 -1.16738 5.3474 15.3199 1.76764 -2.73605 -0.133392 0.674153 -4.33815 -2.55942 -0.269324 -2.79301 -0.429295 1.73363 0.876273 5.68058 0.0613519 
1.27154 3.394 11.7763 5.13782 -3.19991 -3.49715 -6.37954 -4.99786 -4.68857 -7.67159 -0.130368 13.2281 15.4409 2.30666 -3.31192 -2.03461 0.796526 -3.87115 -5.01792 0.574925 -0.597615 1.1077 2.54684 0.877115 3.95674 0.183763 
4.83213 -0.44031 6.72844 4.46975 -9.15389 -12.3759 -0.428043 -1.53801 -1.53709 -4.0212 -0.991374 15.479 15.9653 1.97655 -3.16023 -4.51885 -0.172089 -1.18483 -4.42736 0.579115 1.29118 3.60233 2.99519 1.09017 -0.918572 0.202184 
7.05444 -4.61943 2.3124 6.17425 -8.26101 -16.0672 -1.71324 0.67894 0.769081 -4.61844 4.22356 12.6752 16.0767 1.01346 -1.92204 -5.65218 -1.60682 1.2574 -0.423222 -0.556894 1.39081 5.40306 1.21906 0.595704 -4.64548 0.0876503 
6.34547 -5.06315 -4.99166 2.80855 -2.97873 -15.6243 -3.99162 4.82402 9.3432 -3.62356 2.10649 1.03096 16.0129 0.160219 -0.523145 -5.73496 -2.08794 2.40617 4.82355 -1.29587 -1.53254 2.52763 3.11989 0.699832 -4.20053 -0.154217 
5.58217 -3.90476 -10.6245 -2.06566 -0.000498652 -3.98904 -7.38222 -1.22484 16.8866 -1.77511 1.29922 -2.77533 15.8554 -0.194967 0.198812 -4.81332 -3.66393 1.29245 6.9005 -0.128076 -2.84309 0.379787 5.69479 0.941183 -1.89547 -0.417272 
6.36936 -3.41337 -15.4779 -1.84998 -1.2533 5.70281 -4.07291 -8.24883 3.04234 10.1566 3.96996 2.20164 15.3049 -1.06818 -0.425046 -2.45407 -3.32785 -0.933352 6.78811 2.70735 -1.52409 -0.96359 4.33066 1.09836 1.80416 -0.90308 
6.06766 -4.45026 -16.5111 -9.81611 -2.66148 7.77176 -2.31298 -7.00006 5.81844 16.9654 7.99774 2.61251 14.3444 -0.885667 -0.176409 -0.172023 -2.76383 -2.5416 4.77841 5.03115 1.75673 -1.40396 -0.110862 -0.920483 2.15493 -0.955382 
0.761827 -6.91563 -14.3187 -9.95547 -6.315 12.4359 7.01051 0.0911937 10.0593 8.65946 4.24901 7.35784 12.253 -1.47607 -0.448534 1.56112 -0.955125 -1.82007 1.8972 4.14214 4.8585 0.684077 -4.04903 -1.63054 0.830272 -0.905083 
3.9576 -3.03567 -12.0642 -11.8321 -10.1776 16.5365 12.2318 3.3888 6.35832 -1.58085 -3.44272 5.42122 12.6044 -2.28219 -0.618807 2.44619 2.33525 -0.491907 0.713936 2.03788 3.44063 -0.356388 -3.67266 -2.13701 -0.631029 -0.629102 
0.0440569 -6.36333 -9.89572 -5.61764 -6.59555 10.8064 9.36538 10.8493 6.19279 -0.815385 1.53749 4.94864 11.6495 -2.3019 -1.28988 1.58645 3.16244 1.03824 -0.480143 -0.844172 0.621383 -0.786573 0.4396 -0.409402 -1.54832 -0.307662 
-4.9844 -7.82044 -6.49163 -0.308791 -4.98074 12.1561 6.69901 4.82405 5.96977 3.33954 -1.33156 0.661963 11.5006 -2.57258 -1.72111 1.54704 3.3335 1.1723 -1.03195 -1.40313 -0.00296389 -0.819042 1.67083 0.918777 -0.823918 -0.323654 
-6.27666 -10.9727 -9.17276 0.0951028 -3.72223 12.2253 5.55606 2.48049 6.32073 8.39727 1.14643 1.99589 11.2666 -0.992428 -0.676534 0.937438 2.15103 1.38089 0.176827 -1.54054 -0.923497 0.000856912 1.4858 0.504996 0.0275427 -0.102889 
-5.74492 -9.33654 -4.6905 1.97908 -5.7528 10.6673 7.12083 7.55837 2.19914 2.16699 1.34669 2.77801 11.1776 0.103519 0.0295987 0.0292805 0.720003 0.6853 -0.866287 -0.0897705 1.51361 1.45291 1.29373 0.36213 0.118603 -0.0131938 
-4.53782 -8.98795 -6.1091 3.99356 0.694953 12.435 1.45179 4.86461 8.08239 7.1999 2.72334 4.02833 11.2966 0.336719 0.838016 0.376244 0.23108 -0.0465702 -0.869711 0.0065761 1.04698 0.847314 -0.300879 -1.65347 -0.624126 0.0568315 
-5.33622 -8.6648 -7.87706 1.34199 -3.76283 7.71988 8.3023 11.2001 12.3535 10.4069 -0.309369 0.238755 11.4197 0.476533 0.313203 -0.474769 -0.18355 -0.257039 0.719947 -0.351521 -0.464567 0.71168 0.26802 -1.18393 -0.704446 0.0403997 
-4.79742 -7.11844 -5.69826 1.56905 -4.95007 9.35047 4.99821 5.89456 5.48011 2.77294 -6.29288 0.144883 11.4297 0.207676 0.415779 0.187392 -0.316936 -0.757522 0.000525761 -0.404519 -1.86637 -0.79433 -1.36605 -1.13916 -0.304477 0.0318194 
-3.23246 -8.70528 -7.26976 2.27359 -4.21549 15.8093 3.59001 4.72056 7.05867 5.72057 -0.0648246 1.1975 11.313 0.0848894 0.0958351 -0.0255319 0.299966 0.191841 0.605418 -1.06055 -2.94044 -1.22693 -1.41977 0.889193 0.925939 -0.0532175 
-4.55133 -6.88881 -5.47579 1.94309 -2.86632 8.39291 1.78533 -1.22751 6.75815 2.71281 -3.09471 2.02657 11.509 -0.221898 -0.0822074 0.186915 0.412528 0.218196 -0.298986 -0.796208 -1.95696 -0.551965 0.396511 1.41064 0.860015 -0.0142962 
-5.03482 -8.30044 -8.11596 2.6548 -3.84549 11.2257 4.60596 0.0589027 5.57982 3.33809 2.53751 3.92761 11.1139 -0.255982 -0.24319 0.136569 -0.511842 -0.276544 -1.02011 -0.148849 -0.915358 -0.499072 1.11058 -0.165663 0.831088 0.0168501 
-5.00572 -7.7319 -4.34059 3.44108 -4.04409 10.1473 0.50919 -1.55943 3.45972 5.94673 -0.540844 3.0799 11.4578 -0.23776 -0.821202 -0.414545 -0.831837 -1.43356 0.00301335 1.16078 0.790943 -0.353067 0.715444 -0.457218 0.882074 -0.0196526 
-4.28517 -9.49969 -7.15452 -1.03462 -5.00933 9.83152 3.48384 0.309725 6.21253 9.65649 -2.17007 4.82627 11.4229 0.022859 -0.137902 0.182177 -0.651976 -0.752745 -0.791049 0.127797 1.51091 0.378559 -0.0175867 -1.61624 0.429371 -0.010624 
-6.11495 -10.3952 -8.02924 -0.371382 -9.45222 9.10509 8.15027 2.60179 4.67646 3.13083 -3.02701 5.98761 11.2563 0.10611 0.226246 -0.751468 -0.576523 -0.0979293 -0.770131 0.0807932 1.67083 0.679162 -0.893273 0.000519838 0.638902 -0.0425103 
-4.36591 -7.6583 -5.36075 1.30116 -4.90515 7.79161 1.4244 5.53285 6.86424 4.65811 -4.30061 4.62061 11.1616 -0.0680489 0.232739 -0.713555 -0.0315333 0.209581 0.295583 0.419935 1.50545 0.363958 -1.00687 0.362325 -0.0810041 0.009062 
-4.4348 -7.52136 -8.99481 -0.609422 -4.58582 7.31661 1.94287 4.18314 6.52967 3.97956 0.527023 6.37724 11.3759 0.443091 0.124973 -0.496605 0.110572 0.940813 1.14824 0.548125 0.266344 0.825317 0.87726 0.235417 -0.0424259 0.0142395 
-5.46549 -9.77291 -10.2395 -1.07327 -6.39463 12.2037 8.68721 7.0463 7.10571 4.19776 -2.13547 4.22644 11.4084 0.0458754 -0.397972 -0.370315 -0.366342 0.253427 1.45054 1.69335 -0.516966 0.457154 0.890391 0.39627 0.0359053 0.0128578 
-3.34971 -8.71303 -8.07288 1.36869 -4.00342 12.6403 7.2595 3.17679 8.68231 7.74731 -2.9325 5.97257 11.2041 -0.0459129 0.200206 1.56373 0.538841 0.45853 0.686778 0.215071 -0.592757 -0.130907 0.621551 -0.334681 -1.6683 0.00873899 
-4.67908 -9.05233 -7.67329 -1.51961 -3.92922 12.3825 7.23282 3.4512 8.07369 7.22619 -0.589496 5.00247 11.3118 0.114968 0.830558 1.54354 0.411351 0.78656 -0.932556 -2.2687 -1.76324 -1.63172 -0.937866 -0.9921 -1.53054 0.0457398 
-5.05757 -6.88063 -2.45927 2.30795 -3.52588 10.6611 3.74542 3.01691 5.39114 5.5731 -1.91937 -2.35229 11.4679 -0.0731646 0.686942 0.783327 0.0323787 0.383427 -1.20716 -2.44495 -1.48747 -2.36602 -2.09342 -1.63531 -1.47392 0.0795665 
-4.03672 -6.53633 -5.3286 0.513854 -2.70059 8.53049 -0.89923 -1.68996 0.592689 0.595531 -7.60253 0.73614 11.5052 0.230559 0.537631 0.182005 0.227283 0.328253 -0.983462 -2.09088 -1.49892 -1.97605 -1.82389 -1.97092 -0.544424 0.0424144 
