-4.25504 -2.98616 0.0717607 3.26461 1.21238 9.04357 4.84048 1.55293 6.78969 11.3552 0.110341 -5.07717 11.8359 -1.54768 -1.71706 0.886541 -0.456415 0.47826 1.20687 0.369428 -0.43318 -1.08539 -2.20562 -0.256034 2.37114 0.379924 
-8.91372 -8.48053 0.290607 0.664677 0.769864 13.1655 7.90481 -0.718592 5.93666 1.63424 -3.15152 2.59933 12.6704 -1.54264 -1.39827 0.849533 -0.453961 0.172862 0.754719 0.840321 0.729502 -1.34975 -2.55647 -0.103688 2.33431 0.274658 
-9.66408 -8.82429 4.39504 2.28251 3.82494 13.017 5.15546 0.522786 1.78926 5.18766 0.461098 2.94029 13.3183 -1.00674 0.447065 -0.327298 0.665004 -0.804723 -0.353045 -0.28406 2.62249 -2.07084 -1.11831 -0.365196 2.02353 0.24573 
-9.26371 -7.05844 2.15778 1.48586 0.770411 10.8305 8.8846 5.7155 2.54118 1.6567 -0.583477 2.58566 12.468 0.238443 0.970534 -1.84583 0.690578 -0.754396 -3.89531 -2.93264 3.17306 -2.83665 -0.356672 -0.990018 0.594583 0.24604 
-9.11374 -1.46188 -2.49832 6.17904 -2.81151 8.44585 2.93029 11.4484 -1.86678 5.75244 -2.99966 5.04731 13.1658 0.886537 0.955617 -1.9703 0.311555 -0.103538 -3.24932 -2.79568 2.09635 -1.37511 -0.826846 -1.0994 -0.122293 0.0360793 
-7.99668 -7.30906 -5.49188 2.1693 0.316107 -4.02552 -5.6458 9.68395 -6.41855 -0.431509 -6.37123 4.51874 13.9769 1.09718 0.897989 0.00555859 0.686161 1.96297 -0.914552 -1.7915 -0.0155021 -0.0694418 0.401183 1.51817 -0.518139 -0.0194201 
-5.86492 -3.92089 -1.63161 3.49856 3.5344 4.19838 -1.55774 9.02029 -0.606403 2.09753 -2.14203 1.36229 12.7443 2.01429 1.97812 2.88958 0.428066 2.4618 0.343036 0.0775214 -1.70112 1.04957 -1.12958 0.892261 -0.811693 -0.268593 
-5.40221 -1.33899 1.75222 6.25691 7.41231 8.38143 2.1711 6.85202 1.56378 5.49007 6.57855 1.83748 12.5817 2.93031 3.06824 3.55198 1.53512 1.13956 0.172459 -0.308862 -1.01856 1.80744 -0.59571 0.737665 0.183093 -0.225712 
-0.339514 5.4437 8.32751 6.27557 5.94937 3.95755 -0.590548 4.3587 -0.610113 -2.85626 -5.01324 2.32947 12.5204 3.16094 2.04605 2.43714 2.49726 -0.438168 -3.53992 -2.86937 -1.85638 -0.0796553 -1.64639 -0.334882 0.882772 0.241606 
3.89218 3.34985 7.28846 8.45638 4.80642 -3.04281 -7.6737 6.92194 2.62051 -0.933164 -1.2473 4.95061 12.9603 2.87569 0.80218 0.226996 2.35637 -1.40712 -4.00093 -3.29192 -1.2458 -1.31929 -3.28399 -0.176358 -0.260012 0.497156 
5.29259 3.96494 7.78595 14.8851 2.6465 -7.7891 -10.9822 -0.296591 -1.53304 -2.92282 0.0964862 4.21959 13.763 1.49053 -0.347025 -1.47166 1.39825 -0.816698 -2.01506 -2.02308 -0.863729 -1.31443 -2.28224 2.81708 -1.61176 0.574861 
6.16017 3.4113 3.15798 13.734 2.02815 -5.74992 -9.09268 2.95067 -4.57122 -10.8966 3.1419 -0.40764 14.4461 0.614701 0.164251 -1.26642 -0.562944 -0.752378 -0.463269 -0.690458 -0.295224 -1.62424 -1.93664 1.81858 -2.20909 0.473667 
5.97914 3.67786 3.03443 10.628 3.25502 -4.76418 -9.99645 2.02569 -3.58641 -9.28576 6.87756 -3.0502 14.6518 0.452548 0.0169045 -0.897136 -2.0515 -1.09476 -0.0303427 -0.347802 0.484142 -1.03276 0.150611 1.66958 -1.5791 0.322795 
6.62241 4.31465 3.33214 7.77022 0.740271 -6.87161 -11.6189 4.28468 -4.47399 -7.43488 4.45507 -2.45992 14.8842 0.36132 -0.0688089 -0.22794 -1.65722 -1.56286 -0.500043 -1.29648 0.0604254 -0.698384 1.97941 1.72804 -1.18987 0.261452 
7.32421 3.59778 3.21319 7.6095 -2.18337 -7.37997 -11.4581 1.45712 -6.74545 -3.90062 7.7878 -2.64979 15.158 0.405234 -0.329518 -0.669967 -1.03173 -1.59581 -0.73995 -0.87616 0.14828 -0.695365 1.27597 1.89241 -1.4386 0.276488 
7.29423 3.10729 1.92891 6.95711 -3.06694 -6.94225 -14.8443 3.53709 -6.48362 -3.69213 11.327 -6.5572 15.5003 0.0721588 -0.517674 -0.560284 -0.916586 -0.661494 -0.338838 -0.230891 -0.411754 -0.177756 0.903137 2.06641 -1.36447 0.255051 
7.6694 2.63394 0.38622 5.8759 -2.82042 -8.42862 -12.7646 3.14089 -6.05842 -4.77729 12.9037 -8.19455 15.7262 -0.211368 -0.440423 -0.500042 -1.29714 0.301922 -0.48296 0.117546 0.176561 -0.0221316 0.653584 0.725232 -0.166463 0.19257 
6.81061 2.2082 1.94421 4.0541 -2.24867 -8.04147 -12.1201 1.38402 -5.70628 -2.48086 12.2292 -6.5099 15.8754 -0.587469 -0.462499 -0.211975 -1.3147 -0.0447403 0.0249647 1.32763 -0.884362 0.0947544 1.69806 -0.757905 1.22981 0.146059 
6.50918 1.84521 0.705329 2.57533 -1.0829 -9.24515 -12.2325 3.41645 -7.24477 -1.23833 10.9629 -3.50575 15.9333 -0.572226 -0.590709 0.124144 -1.9681 -0.342527 0.855731 1.47352 -0.728169 1.02532 1.63412 -1.60332 1.7608 0.139974 
4.937 1.18916 0.709474 2.03388 -4.1594 -6.40916 -8.47217 -1.0225 -5.41668 3.02872 8.50787 -2.75255 16.127 -0.365663 -0.608577 -0.752606 -1.90034 -0.635167 1.28109 1.81519 -0.690919 1.86314 2.06663 -1.70058 0.0214508 0.22332 
5.74507 0.18992 1.62431 -2.95451 -3.57769 -4.96612 -7.22094 0.703307 -1.0766 0.638501 6.74774 -1.26921 16.3002 0.12374 -0.67966 -1.45959 -2.28518 -0.459458 1.90622 1.85238 -0.526817 2.75827 1.82499 -2.10796 -1.41985 0.288397 
5.36435 -0.00703669 -2.27831 -2.6827 -4.17711 -3.77554 -5.54992 -0.714 0.525315 6.91387 5.83389 -7.52092 16.8085 0.439128 -0.389431 -2.5039 -2.03633 0.563721 1.74914 1.55755 0.272095 2.35724 0.977633 -1.61152 -2.06 0.295644 
6.91421 -0.954992 -5.09873 -6.49229 -3.37133 -1.03088 -4.43169 0.628117 3.5756 5.94402 1.76002 -8.22082 17.0345 -0.228775 -0.133023 -2.87572 -1.2759 1.22774 2.41963 1.28019 -0.314885 1.3411 0.560074 -1.39659 -1.64126 0.305279 
6.54807 -0.185541 -8.44852 -6.37888 -1.44398 0.368922 -2.07902 0.375564 4.04343 5.26413 2.94413 -9.57675 17.2381 -0.497622 0.119838 -2.50259 -1.07245 1.44831 2.36848 2.04138 -0.707307 -0.395134 0.319836 -2.05037 0.15584 0.244112 
4.00933 -0.385944 -9.66917 -7.48593 1.19446 5.05978 -2.55546 -1.4159 3.86986 4.26374 1.20967 -8.4476 17.6118 -0.396727 -0.21222 -1.95168 -0.567157 1.30339 1.68064 2.98447 -2.3975 -0.94036 0.905454 -1.64575 0.351908 0.247386 
4.32867 0.307631 -12.506 -7.54815 0.781558 5.02152 3.71885 -3.22853 -1.59748 9.35318 -4.14278 -6.62833 17.7404 -0.00909862 -0.540085 -1.36144 -0.77218 1.06578 1.30015 2.82915 -2.66145 -1.12281 1.54775 -1.69781 0.0893683 0.245428 
6.04027 -2.26268 -12.8284 -8.74343 2.03287 5.04603 7.59173 -9.55735 1.69425 8.42676 -2.92528 -7.93549 18.0203 0.437564 -0.637825 -0.866022 -0.730137 0.791466 0.759361 1.6759 -1.84267 -0.320493 0.939182 -0.786414 -0.870706 0.194217 
5.48711 -1.9476 -13.6761 -9.61102 3.46574 6.87656 6.99313 -8.86096 -0.482812 10.9214 -3.47745 -9.38596 18.261 0.211823 -0.762339 0.369069 -0.849375 0.772447 0.949089 0.330989 -0.696044 0.051987 -0.131384 -0.62898 -0.408937 0.121554 
5.61794 -2.44745 -13.4142 -10.1052 3.8097 7.92907 4.1869 -7.81304 1.71005 8.17555 -3.05506 -11.4223 18.3226 -0.0454087 -0.505085 0.458183 -0.632625 0.962451 0.33324 -0.506072 0.909387 -0.394128 -0.581683 -0.767309 0.0796603 0.0713102 
5.59895 -3.41168 -10.3677 -11.1142 3.75538 8.32544 7.07621 -7.5809 -1.34545 8.82187 -7.22279 -6.9296 18.197 0.205944 -0.702244 0.228268 -0.124266 1.09042 -0.915281 -0.00525329 0.898104 -0.0952486 -1.09597 -0.946105 0.382973 0.0276136 
5.7573 -4.05606 -12.1916 -11.155 6.7003 5.98778 5.01983 -5.65045 0.154928 6.5681 -4.88916 -8.76537 18.4088 0.0147576 -0.45351 -0.410968 0.80919 1.10156 -2.17151 0.553157 1.06321 0.1192 -0.965926 -0.999158 0.499457 0.0430508 
6.44714 -4.65451 -13.1461 -9.70745 7.47255 3.2708 6.5504 -5.45174 -0.181492 6.24528 -7.29093 -8.79957 18.3559 -0.113581 -0.302288 -0.666797 1.61871 0.801787 -3.26506 0.0805806 1.96601 0.914646 -1.54229 -0.422093 0.191038 0.0526764 
5.26763 -4.09358 -14.0799 -6.76259 7.45891 -0.401155 7.21559 -3.56157 1.72407 4.63421 -8.01678 -7.99004 18.4584 -0.119063 -0.339112 0.298035 1.834 -0.213495 -3.60454 0.668065 2.00357 1.08981 -1.59129 -0.987092 1.84618 -0.0176817 
5.27588 -4.90436 -12.7576 -5.21683 7.38501 -4.8054 6.38123 1.20469 2.44321 2.07734 -7.76944 -6.36207 18.4356 -0.170278 -0.0743588 1.15321 1.45671 -1.17519 -2.77448 -0.206001 2.34457 1.31084 -1.1592 -0.861268 2.63574 -0.0568644 
5.74762 -5.6267 -10.8957 -4.23032 5.6766 -7.99684 8.44474 1.03918 4.29163 0.695626 -9.58536 -0.753221 18.2806 -0.0147937 0.120407 2.07769 0.587809 -2.30352 -1.84282 -0.585061 1.65799 0.872166 -0.880652 -0.1182 3.00939 -0.139091 
5.35576 -4.25975 -8.97215 -3.69005 2.48777 -6.80378 4.90582 3.97073 5.08895 2.41855 -10.813 0.760704 18.1605 -0.244459 0.606974 2.88236 -0.200481 -2.77688 -1.06717 -0.597416 0.188124 0.414079 -0.815888 1.1818 3.32453 -0.156973 
5.15372 -3.81385 -5.58421 -4.58693 -1.61006 -8.61607 5.02799 3.34537 4.76203 0.0603483 -7.08601 3.49552 17.9005 -0.612305 1.0563 3.33275 -0.446535 -2.36428 -0.885659 -1.15904 -0.276555 -0.742821 -1.07616 2.47931 2.93643 -0.154797 
4.35054 -2.77591 -1.00155 -6.04093 -2.85607 -9.83163 5.10252 0.992222 4.2784 -1.68446 -3.11013 8.13623 17.8408 -0.813125 1.41935 3.29292 -0.276359 -1.66552 -0.763251 -1.19776 -1.17285 -1.33446 -1.42218 2.52072 2.81555 -0.152585 
3.18871 -1.08714 1.78275 -5.28755 -3.47286 -10.9112 2.55121 1.14566 0.982798 -2.63367 -1.04025 10.2412 17.6665 -0.793834 1.53532 3.09238 -0.039895 -0.85202 -0.372703 -1.6473 -1.61241 -1.02396 -1.6701 2.02317 1.72349 -0.134268 
2.27264 1.47362 3.80896 -4.72153 -4.90845 -9.47246 0.155426 -0.793645 0.306244 -3.34534 -1.23227 11.4656 17.5146 -0.528189 1.57907 2.64471 0.0283469 -0.448053 -0.287332 -1.55679 -2.15436 -0.205916 -2.73068 2.01455 0.501755 -0.164569 
2.2235 1.73797 7.47243 -5.4461 -4.84397 -10.6592 -0.734973 -3.82377 1.62831 -7.45973 2.09091 10.4482 17.3923 -0.312016 1.46226 2.40288 0.0560078 0.266192 -0.338222 -1.25266 -2.55206 0.638174 -2.85448 1.5635 0.175856 -0.217543 
2.19219 3.70691 9.37713 -5.81992 -4.41078 -11.3943 -1.03833 -7.29484 2.92606 -12.9248 5.39704 10.5415 17.1551 -0.363918 1.33061 1.7441 0.383995 1.22986 -0.482891 -0.8552 -1.67051 0.43405 -2.49239 1.01608 0.170711 -0.250811 
1.66885 5.10749 11.0131 -4.45832 -2.39074 -11.6414 -3.11521 -8.36403 2.86376 -12.1163 3.46259 11.5825 16.7585 -0.504699 1.36926 0.983521 1.03714 1.17248 -0.419634 -0.460117 -0.267556 -0.206082 -1.68088 0.202958 0.0145477 -0.295094 
0.730379 6.44194 10.7591 -3.29544 0.0142388 -11.3958 -2.93046 -6.87606 1.85877 -13.479 3.16228 11.7521 16.5774 -0.538626 1.09007 0.513167 1.36483 1.02151 0.111733 -0.41985 0.901744 -1.33937 0.110718 -0.946831 -0.751379 -0.343488 
0.430911 7.21676 11.699 -1.52266 -1.19406 -12.7566 -2.0895 -5.37094 1.13154 -15.587 4.22308 9.9157 16.2056 -0.473096 1.0367 0.51176 0.582841 0.883702 0.350379 0.0287086 1.18547 -1.8195 0.250593 -1.14883 -1.6336 -0.323105 
0.118034 8.10261 11.6 -0.463596 0.0984577 -10.2781 -3.65044 -4.28267 -2.9047 -10.6359 0.282639 7.618 15.7141 -0.22136 0.833653 0.810895 0.104758 0.649254 0.61818 -0.496504 1.24924 -2.35774 0.93706 -1.70989 -1.08627 -0.384109 
-0.390458 9.46068 13.1514 -2.96004 1.98567 -10.4484 -2.61168 -3.73338 -3.85201 -12.2849 -0.841717 5.48155 15.5747 -0.243112 0.619668 1.10846 0.218617 0.379421 0.496692 -0.992018 0.815894 -1.74071 1.2066 -1.02861 -1.02193 -0.404543 
0.0342627 9.48824 14.0874 -2.05296 1.67064 -9.45901 -5.15189 -1.44865 -7.43815 -10.4448 -2.85479 8.53777 14.9723 -0.0729414 0.0671395 0.409262 0.56748 -0.232575 1.68142 -1.07478 0.148732 -1.02256 1.3097 -0.041578 -0.496857 -0.462042 
-0.742763 9.62228 15.9976 0.365114 -0.0830488 -10.6826 -6.29886 -2.70848 -5.30529 -9.64958 0.648723 4.34617 14.5538 -0.128245 -0.279373 -0.145183 1.93973 -0.879995 2.06688 -1.32075 -0.951675 -0.681164 1.04745 0.509841 -0.448752 -0.584428 
-0.0705204 8.3575 12.2232 0.711227 -0.0300601 -1.75381 -7.18077 -4.05146 -7.29089 -5.40503 -0.670471 5.70141 13.9143 -0.152526 -0.411084 -0.939855 2.01266 -0.874451 1.95724 -0.503542 -1.28011 -0.0648013 -0.376362 0.443616 -1.37937 -0.572353 
-0.979293 8.62918 13.3576 5.3565 -1.56396 -3.96657 -8.20096 -7.19035 -7.33147 -9.56752 0.615329 4.65597 13.1815 -0.00297251 -0.103828 -2.19904 1.50383 -0.786766 0.533213 2.03522 -1.23021 0.714745 -0.633858 -0.988484 -1.2067 -0.409041 
-0.610105 7.92937 10.7081 5.51463 -1.96115 -3.03087 -6.71855 -5.60827 -6.74907 -12.3676 -0.620011 1.48602 12.7967 -0.443429 -1.34142 -2.78883 0.552228 -0.766791 0.450365 2.91229 -1.19463 0.184751 -0.671964 -1.58874 -2.65734 -0.448961 
-0.487833 9.31721 5.75997 5.48257 -3.05133 -7.37805 3.64611 -8.08114 -2.00248 -9.33758 -4.31893 0.420376 13.0674 -1.27754 -2.60433 -4.01321 -1.03792 0.50877 1.8208 3.80909 1.1126 1.06105 3.03759 -1.28729 -2.32246 -0.317869 
-2.5334 1.30638 2.07786 3.40934 -3.12033 2.20376 1.45712 -9.57921 -9.03162 -8.87983 -6.14702 -5.46752 11.7266 -1.7491 -2.28713 -2.87554 -1.30454 1.96638 2.12507 2.81178 0.55485 0.153992 3.61371 -0.925594 -0.788666 -0.00357008 
-6.40534 -1.08099 -2.39327 1.21954 1.55948 2.52013 6.75664 0.358135 -0.884958 3.87656 -3.05759 -3.47956 12.1272 -1.32454 -2.05251 -1.51252 -0.97762 1.23462 3.06521 -0.662081 1.6313 0.959352 3.12115 0.313357 -0.350836 -0.0819819 
-6.39683 1.69281 0.407075 1.12344 5.56534 2.64542 5.78509 -7.05365 -6.53787 -0.90614 -5.87865 -0.507344 13.2489 -0.387807 -0.786087 -1.0094 -1.18881 -0.559967 1.25636 -0.779128 1.39766 2.4067 2.45177 0.308577 -0.0463832 -0.0140671 
-5.17884 -1.13856 -0.967259 1.73741 -1.22108 7.72716 -1.82828 -1.18741 1.54741 2.28133 -2.88633 -3.81389 11.8963 0.337741 -0.962964 -0.392177 -0.771177 -2.57865 1.16607 -0.0651821 1.0114 2.2121 0.678139 0.740682 -0.238685 -0.266885 
-5.08568 -2.59528 -3.68215 -2.79368 -4.52989 5.88206 1.85394 -1.81815 1.78571 4.17665 -4.68977 -5.53227 11.7717 -0.230577 -1.01459 -0.454379 -0.3453 -1.72708 1.30705 0.194258 1.60675 1.72522 1.89758 1.23981 -0.101202 -0.373763 
-5.37221 -3.75177 -2.30954 -0.67779 -6.28618 6.73215 8.39631 2.79737 6.01373 4.72586 0.0513825 -2.16052 11.5314 -0.577706 -0.916099 -0.169776 0.541402 0.616135 1.8934 1.26375 0.745802 -0.765406 1.0431 1.43457 1.70201 -0.143124 
-7.45303 -2.07355 -1.19368 0.604545 -0.53749 9.67816 1.64409 -1.0123 -0.144915 7.35948 -1.14843 -1.84004 11.5626 -0.677261 -1.1372 -0.459918 0.0956175 0.960101 1.45625 -0.58569 -0.318836 -0.94976 -0.0586425 1.21931 1.14311 -0.142889 
-6.88369 -5.97992 -3.06038 2.74531 -0.136601 15.2961 4.59542 2.13868 -1.31431 5.90544 2.51587 2.85003 11.2853 -0.186673 -0.75391 -0.552606 -0.532227 -0.0628813 0.442126 -0.698054 -0.142262 -0.360376 0.771007 0.895465 0.937368 -0.0952734 
-7.71624 -7.16723 -5.60632 -4.02714 -2.80417 8.88134 0.825938 -3.08298 0.700929 3.29365 0.174521 -2.32198 11.1803 0.135878 -0.694939 -0.985499 -1.18262 -1.17424 -1.0606 0.641784 1.26411 1.08096 0.6321 1.4316 1.00377 -0.0652798 
-6.17397 -4.97449 -2.86625 -1.02308 -5.46724 9.34119 5.31511 3.1214 3.78893 10.6138 3.86723 2.76729 11.2461 0.120073 0.441079 -0.364582 -0.103582 -0.382579 -1.63819 -0.0227236 1.76902 1.44095 0.718044 0.159121 -0.393398 -0.00973129 
-7.12851 -6.05096 -6.21824 -3.42438 -3.74337 7.35265 4.49316 4.81689 2.70825 8.1658 5.33387 3.22016 11.2557 0.0836052 0.967508 0.58703 1.79683 0.701433 -0.725396 0.171996 1.32342 0.61558 -0.15088 -0.137136 0.158107 -0.00391693 
-6.57719 -4.33266 -4.57733 1.92602 -1.5799 7.86952 2.64818 7.03385 4.88677 7.05958 0.731803 -1.88803 11.1989 -0.196919 0.31345 0.11001 1.25895 0.308002 -1.58956 -0.843507 -0.163774 0.973301 -1.9553 -1.48658 -0.595276 0.0265982 
-7.0966 -2.6506 -1.81563 3.48244 -1.24068 5.99019 3.01938 1.57791 3.22991 4.31636 1.05655 0.796218 11.1844 -0.245271 0.352836 1.39666 1.10435 -0.770798 -0.834822 -1.04406 -1.35678 0.602325 -2.06552 -1.47724 -0.335487 0.0491015 
-7.17452 -5.10741 -4.5175 1.81824 -5.17858 2.07461 1.83447 3.92202 8.39461 2.762 -1.42702 1.00288 11.4148 -0.0918591 0.371896 1.4827 0.212504 -0.493487 0.679401 1.22283 0.508353 0.481955 -0.83103 0.766635 1.02779 0.0616417 
-8.0562 -3.89941 0.735169 2.15124 -5.79801 6.076 -0.32027 -0.411106 3.96596 -0.0130165 -0.972932 0.0972691 11.3933 0.486139 0.646338 1.18272 0.0481448 0.451858 1.66073 2.25591 2.2333 0.290553 0.15491 0.0974301 -0.136575 0.02673 
-6.55669 -1.84877 1.56079 3.65414 -1.76866 11.2236 10.4322 10.5701 6.92852 5.06912 5.57972 3.60041 11.4027 0.764099 1.63486 1.61287 0.828173 2.36994 1.65448 2.81753 1.67892 -0.670005 1.03041 -0.51438 0.217985 0.010071 
-4.97482 -1.04823 1.05884 2.80521 -0.686345 9.71931 10.0001 9.42035 5.41572 3.93735 -1.95967 -1.18542 11.3241 0.85601 1.42512 0.358837 0.984531 2.33246 1.2112 1.39369 0.727116 -0.652697 0.58269 -0.510816 0.55847 0.0244099 
-4.89471 1.64129 3.385 5.63212 4.11528 8.52535 10.7619 7.40087 4.31971 5.93885 -3.50555 2.73415 11.4998 0.426678 0.918931 0.0671325 0.814122 1.29906 0.827683 -1.14145 -1.61333 -1.32521 -0.66789 -0.61529 0.395285 0.0270972 
-4.60714 1.48117 1.61725 6.0849 2.9223 13.4811 6.48331 4.80909 2.00689 2.46557 1.01562 3.32275 11.4668 0.102293 0.48987 -0.0650945 0.701217 0.602431 1.24794 -1.13122 -1.18143 -0.913048 -0.641685 1.04718 0.960494 0.0252446 
