-7.38849 -6.21516 -6.11285 -3.95065 2.61279 5.32592 5.40571 0.504905 6.30561 0.558012 -2.52884 2.56933 11.7836 -0.424475 -0.246682 -1.00395 -0.0119194 0.200886 0.465956 0.163615 1.40473 0.951672 1.15005 0.474941 -0.137312 0.0722375 
-8.94137 -7.20064 -8.48154 -2.69467 2.89144 4.20961 6.36893 0.593541 9.40065 6.94386 -6.80419 -3.03936 12.0296 -0.262412 0.31865 -0.379238 0.098373 0.28056 1.49766 0.0756884 1.05221 1.23929 0.850043 0.380462 0.375659 0.0684623 
-8.73443 -6.95583 -9.94824 -4.63824 3.47791 8.21385 5.74217 7.48421 9.51645 3.11532 1.98355 4.68712 12.0217 -0.296217 0.811562 0.251817 -0.222453 0.228151 0.906661 0.414951 1.2674 0.398272 -0.312707 0.25911 0.05961 0.0499271 
-8.02758 -4.25158 -6.09135 -3.115 3.58304 11.3703 5.61592 2.27628 10.8967 3.52957 -2.88272 3.38873 12.0068 0.150978 1.10722 1.11292 0.260382 0.475954 0.882703 0.827246 -0.505148 0.183055 -0.189509 0.58622 0.771715 0.0127254 
-9.32647 -3.63189 -6.04886 -4.85276 3.40775 6.2789 7.85697 6.00053 7.54897 0.701623 -3.19402 -0.346665 12.0446 0.248049 0.598236 1.30795 0.261008 -0.399347 -0.172056 0.890046 -1.44343 0.358382 1.69178 0.867617 -0.178113 0.00708761 
-7.89046 -3.32652 -4.86663 -1.2855 5.30628 9.59061 9.44776 -1.19036 11.2997 7.20317 -1.2843 3.3361 12.0818 0.563634 0.216104 0.632419 0.894899 -0.424608 -0.62946 0.210327 -0.247232 -0.130046 1.7388 2.08974 1.12747 -0.024256 
-7.56275 -4.42718 -4.02082 -4.24795 0.619548 8.2434 8.27648 2.00038 11.1069 9.73741 5.52242 3.82287 12.0197 1.14672 0.502956 1.17746 1.48487 0.684855 0.0137431 0.148306 -0.343605 -0.713206 1.24135 2.24456 2.31535 0.0418605 
-6.09127 -2.77341 -3.94327 1.05709 2.85409 7.24071 6.4578 3.0402 8.46748 7.70566 3.20774 6.9413 11.898 0.817045 0.172571 0.73739 0.643699 0.123167 -0.547123 -0.230407 0.910792 -1.40574 -1.2282 0.460936 2.6153 0.0434268 
-4.49244 -1.39366 -0.623243 1.40028 8.05812 7.52256 10.0935 2.16723 5.39903 6.65712 5.78276 9.42749 12.3458 0.925436 0.650496 0.341798 1.10756 1.29841 -0.00136251 -0.147042 -0.114448 -1.04315 -1.72574 -0.994814 2.37673 0.0306092 
-5.34039 -3.98043 -2.87847 -0.891122 2.20283 7.21541 7.38723 3.28018 7.12486 2.60233 0.890205 13.6103 12.1358 2.75375 2.18707 0.699013 -0.195263 0.255796 0.0097763 -0.3005 -2.04854 -2.21962 -2.084 -2.06917 -0.738368 0.351979 
-3.31101 -0.571196 -2.84423 2.26396 7.43721 8.24924 7.07655 1.30815 6.56243 3.66037 1.70712 12.372 12.0538 4.46902 2.42194 0.00436278 -0.433887 -1.37621 -1.10545 -0.548687 -1.50021 -4.03604 -3.16631 -1.76575 -2.32659 0.867258 
7.08674 7.75069 0.662286 -0.351064 4.44353 6.92625 6.46377 -6.77296 -3.21233 -1.21597 -5.10031 1.7772 13.8039 4.77082 1.82315 -0.264744 0.0851615 -1.32579 -1.8206 -0.357177 -0.719415 -5.35963 -1.9839 -1.03497 -3.89262 1.21678 
11.6391 4.8505 -2.37181 -1.03919 0.0567088 2.13988 7.81178 -0.307257 -9.61257 -7.26531 -0.0507224 3.71108 15.8481 3.34589 0.112704 -1.05186 -0.424867 -1.93712 -1.58072 0.010203 1.81889 -5.62805 -2.30046 -0.63319 -2.99528 1.18996 
11.0386 2.42449 -4.43841 1.18626 -0.735857 1.16711 5.23373 0.490807 -11.5858 -1.85435 -3.40574 -1.52235 16.3226 1.01742 -1.35226 -1.3113 -0.050687 -1.55929 -0.766536 0.516989 3.2481 -2.92706 -2.3623 0.524259 -0.702207 0.79212 
11.4425 2.65542 -5.55316 -0.629041 0.341324 3.2252 7.74258 6.77072 -17.3911 -7.52274 -2.30612 -0.954601 16.7442 0.321872 -0.440536 -0.11018 -0.312886 -0.688459 -0.493429 0.29068 2.20507 -1.20726 -1.69234 0.0215365 -1.40194 0.406125 
12.2722 2.08693 -4.30351 -0.809574 -3.49522 2.55092 9.08331 5.92853 -13.9584 -12.8988 -1.35132 0.599004 17.3164 0.201688 -0.0228069 1.07765 -0.0108325 -0.979863 -1.6359 0.173142 2.28319 -0.559463 -1.20323 0.474961 -1.39666 0.314149 
12.6317 2.8166 -2.99016 -1.60571 -2.0059 -1.01917 7.34039 7.99924 -14.4625 -10.2048 -0.970252 -4.3593 17.3818 -0.101547 -0.0524841 2.25681 0.666247 -0.989177 -2.72049 -0.907783 1.40963 0.793976 1.07217 -0.586094 -2.14891 0.208358 
11.4525 2.22987 -0.331659 1.62043 -4.46156 -4.89021 6.30054 11.2925 -15.8474 -6.52946 -1.69887 -6.80329 17.5746 -0.439619 0.00971274 2.85053 0.759704 -0.0293822 -2.74093 -1.54361 0.778077 1.07212 2.14644 -0.46605 -2.38491 0.122216 
11.3446 2.32154 3.74495 1.48719 -4.1214 -6.6567 4.59505 11.1369 -12.4767 -5.34655 -5.06281 -7.998 17.6569 -0.660796 0.174155 2.65032 0.759079 0.140414 -2.51632 -1.26273 -0.528301 1.37812 1.85369 -0.0312961 -0.788583 0.140874 
10.7176 2.38302 6.58161 1.4425 -2.58439 -8.33499 2.73793 8.25009 -9.59069 -4.5957 -1.63529 -9.50619 17.7899 -0.618088 0.391769 2.27022 0.0188948 0.555516 -2.69628 -0.679269 -1.67389 1.8664 1.72643 0.335095 -0.307287 0.144828 
9.69515 3.61079 6.80481 2.27865 -2.24242 -11.8784 2.80804 6.87894 -10.7002 -1.90322 -1.15852 -6.95076 17.9785 -0.718552 0.795448 1.13673 0.252604 -0.81502 -1.84991 -0.658151 -0.639707 1.55108 1.0635 0.822169 -0.680689 0.154668 
9.18676 3.54408 9.48951 1.31917 -2.62346 -15.7608 3.7977 5.05203 -7.40359 0.381033 -1.97554 -8.86334 18.1379 -0.688302 1.10576 -0.140281 0.0621 -1.50205 -0.932299 0.332081 0.954598 0.77362 0.0913308 -0.482814 -0.461006 0.151524 
8.51729 5.71825 7.97462 2.81188 -8.17696 -12.1933 0.774412 9.53738 -5.81484 -2.51742 -0.781841 -11.7229 18.2563 -0.330773 0.731173 -1.52191 -0.462168 -1.11859 0.73777 1.19102 1.47241 -0.462844 -1.3566 -0.303808 -0.171262 0.141012 
7.86504 6.85811 5.29529 1.48639 -7.12736 -12.839 5.41515 11.6939 -8.1653 -3.83195 -4.2377 -9.42516 18.4087 0.0313404 0.18357 -2.96862 -0.495299 -0.00226316 2.31344 2.08687 0.622422 -2.73781 -1.85875 0.657602 1.72088 0.154165 
8.70215 5.60964 1.29235 -0.115796 -5.58344 -9.6504 7.95441 10.9201 -12.6336 -6.57971 -1.54648 -7.52616 18.5482 0.372946 -0.764434 -3.29718 -0.449394 1.24481 2.84726 1.99319 -1.87654 -3.80654 -1.27454 2.45412 2.84221 0.165486 
9.25104 4.51623 -2.01246 0.306514 -3.93154 -5.46507 10.6421 7.47281 -17.6832 -6.88155 1.69479 -2.35729 18.7628 0.521249 -1.33656 -3.29752 0.330935 1.68826 3.50636 -1.0935 -3.19765 -3.0059 -0.207932 4.60362 2.1731 0.163372 
9.68902 3.06702 -4.85739 1.15484 -3.55082 -1.64399 8.12692 2.26523 -20.0886 -7.3653 8.52253 -1.04576 18.9067 0.695292 -1.89168 -2.41737 0.976699 2.11529 2.42258 -4.27163 -2.95352 -0.461972 1.0087 3.74442 0.570226 0.118631 
9.97785 1.44662 -8.11742 2.50574 0.297652 0.689571 -0.138583 0.0330065 -19.4673 -4.47881 13.7459 -1.79986 19.0463 0.643297 -2.22952 -0.769193 1.145 2.26515 0.913224 -6.07065 -1.34249 2.23899 1.72815 0.556347 -0.196276 0.0384956 
11.8152 -2.31393 -7.74201 3.66808 2.8784 -0.614839 -8.01343 -0.12764 -14.0514 -2.73756 11.1501 -4.95374 18.9996 0.171186 -2.45214 1.24958 1.93961 1.86206 -1.23937 -4.05622 -0.160378 3.53388 2.68328 -3.24417 -0.0277591 -0.0307173 
11.4044 -3.9409 -4.41612 4.7749 4.17959 -1.41352 -11.641 1.95679 -9.50685 -0.554657 3.16276 -1.38468 18.9088 -1.0073 -0.681987 2.91483 1.17216 0.804836 -1.37623 0.247865 -0.864575 3.98316 2.04829 -5.41966 1.66258 -0.232912 
9.83166 -6.49993 -0.460152 9.71833 3.81851 -6.78931 -6.40294 0.501447 -7.39943 4.08904 -2.40675 -1.39215 18.8218 -4.00901 2.00537 4.31576 0.356085 -0.504963 0.733277 3.00805 -1.67411 2.03661 0.536421 -3.5256 2.40646 -0.0880165 
5.93311 0.129684 2.81581 5.34144 3.85178 -3.10432 0.295499 -4.60441 -2.8775 2.34932 -6.57402 4.73225 17.9706 -6.32104 3.0267 3.95051 -1.22872 -0.756007 2.30499 3.0642 -1.18829 1.55107 -0.311307 -1.44801 0.571357 0.32521 
-5.4942 5.67764 10.2208 5.16524 0.517493 3.89694 1.05859 -5.21757 -7.18305 -1.50744 -1.60952 4.02011 19.0286 -7.23814 3.75184 2.13229 -4.03373 -0.652636 3.75705 2.66139 0.774431 1.6629 0.1799 -0.0217819 -1.42827 0.839117 
-12.5379 5.10384 9.99597 0.907859 2.05007 4.76832 -0.0508108 -1.12515 -1.8597 0.687047 -4.47589 -1.23403 20.4314 -6.04264 2.72562 0.490562 -3.61838 0.219328 1.93899 -0.0174324 1.30431 0.558811 0.446588 1.53523 -1.83442 1.14243 
-17.1235 9.7722 6.6112 -8.23352 1.45618 8.0596 7.07718 2.63397 0.406155 5.81967 -3.56472 -5.55034 21.787 -3.54015 1.90091 -1.13275 -2.8744 0.897197 -0.266232 -1.21812 0.555276 1.07101 0.213805 0.810066 0.242114 0.890305 
-18.4654 11.7105 7.07342 -6.05106 4.47908 4.50931 -2.80096 -2.00861 -3.87805 0.918702 2.07972 0.345381 22.3036 -2.01193 1.42127 -1.49899 -0.999157 1.0529 -1.29953 -1.74285 0.529744 0.0115484 -0.76204 1.24315 1.86946 0.540056 
-20.2311 11.8789 6.01832 -5.72731 3.78897 2.69529 -3.65694 -1.99946 -0.818821 -0.554248 -0.836999 4.44097 22.5441 -1.41272 0.0980466 -0.85471 -0.135044 0.784067 -0.725793 -1.60411 -0.593874 -0.164672 -1.45986 0.202705 1.87799 0.194279 
-21.0437 11.1569 2.79747 -5.34103 6.14816 0.952848 -3.39798 3.84029 -1.18947 0.0638075 0.376015 3.11759 22.7532 -0.521194 -0.176164 0.0314051 -0.712236 -0.573069 0.525604 0.699649 -0.625985 0.0619691 -0.83611 0.0720467 0.192521 -0.019132 
-22.898 10.5392 4.47562 -9.26375 4.54197 6.20886 -0.644874 -3.25985 -1.7615 -1.05217 -1.69934 2.45351 22.5336 -0.0150499 -0.918038 1.31161 -0.692576 -1.80895 0.844214 -0.150875 -1.56565 0.264515 -0.0154324 2.12245 -1.1794 -0.109424 
-19.738 11.4995 8.00179 -7.84402 1.23723 5.38055 -0.808748 -4.50834 -3.09687 -3.01289 2.87112 2.30172 22.2131 0.619475 -1.36359 1.92214 0.171726 -2.94098 -0.237429 -0.468181 -1.50452 2.35391 1.41196 1.71025 -1.9209 -0.347818 
-20.9593 7.11736 9.97419 -7.93869 -2.80033 4.70251 -5.70594 -5.65341 1.45745 0.906938 8.5277 -1.0481 22.267 1.62277 -0.757195 1.73632 0.491256 -1.9977 -1.08901 -0.589654 1.39957 3.5499 0.361692 0.292162 -2.21634 -0.395259 
-18.9157 6.04985 9.6589 -5.14493 -4.88558 0.518879 -3.20836 -2.48552 8.9706 6.14403 3.81374 -4.7361 21.1474 2.87869 0.0555436 0.592936 0.942991 -0.789166 -1.44761 -1.51927 2.39876 2.85212 -1.43161 -1.60625 -1.70239 -0.541671 
-15.1953 9.47808 12.3287 -8.15701 -2.38513 3.19466 -2.39334 2.72659 9.9543 -3.82217 -0.709843 -5.10926 21.0901 4.64159 0.344849 -0.502053 2.29034 0.839206 -2.30113 -1.3013 1.08863 0.488365 -3.91777 -2.70123 0.389784 -0.828729 
-8.22654 10.5968 9.78923 -3.0199 -2.9162 -1.10359 -10.0614 3.29546 6.9153 -7.80636 -0.541369 -4.17963 20.0932 5.60731 -1.50495 -0.474916 2.74108 0.541596 -1.81865 -2.33318 -0.211835 -2.0975 -2.72707 -2.55288 2.0064 -0.853707 
-3.09591 6.56811 7.39876 2.45049 0.411012 -5.99188 -8.78594 -3.10076 4.92692 -11.7067 -2.80092 0.62259 18.6504 5.10445 -3.40213 -0.684732 2.84092 -0.459458 -1.49849 -1.91503 -0.972773 -2.71747 1.17405 -2.87269 2.75182 -0.769098 
3.07114 -0.0199277 9.74927 3.25674 -3.57567 -3.98108 -11.6779 -0.631017 0.996773 -3.54908 -7.9051 2.42999 18.0987 3.42649 -3.65549 0.162205 1.26941 -0.772233 -0.149743 -0.343809 -0.601918 -2.31632 2.77568 -3.02139 2.15503 -0.400437 
4.67815 -2.22417 8.92499 2.90925 -4.35268 -2.85903 -11.1602 -0.174034 -0.673772 -0.0805578 -11.3914 5.34503 18.2419 1.74057 -2.26926 0.555694 0.808183 -0.976644 0.242454 0.639395 -1.18065 -1.55787 2.87796 -2.1957 1.10648 -0.0752031 
5.01887 -3.28446 9.83715 3.09777 -4.39552 -3.41873 -10.5933 -1.1775 -1.86595 0.258979 -11.3531 4.23428 18.2953 -0.8357 0.734511 -0.131684 1.59653 0.517602 -0.92873 2.87923 -4.57909 0.556218 -0.573592 0.817857 -0.264287 -0.0419086 
4.63306 -3.14594 10.1333 6.57089 -4.06228 -5.06079 -6.13129 -8.73076 -1.43104 0.779098 -12.0554 5.25285 18.1761 -0.996192 1.65157 -0.437985 3.01767 0.475715 -1.58565 3.65414 -4.62536 0.224115 -1.50653 2.28369 -1.92627 -0.340412 
-1.08482 4.11351 8.4867 9.40858 -1.13286 -7.52385 0.20373 -19.2481 4.1565 -6.84686 -3.48382 1.15464 17.9221 -0.906016 0.497871 -1.24066 2.50221 -0.0164713 -0.649123 1.79557 -1.46741 -0.0324645 -0.973871 1.91641 -0.827693 -0.272623 
2.74904 2.33469 7.41028 14.8422 -3.60544 -8.73473 1.71195 -14.2656 -2.56442 -4.0603 -3.90759 -2.74651 16.7264 0.13624 -0.804077 -1.95778 0.124566 -0.351305 0.127175 -1.63848 2.44489 0.289093 0.568604 0.943975 0.54492 0.103835 
1.4308 -3.53542 4.99533 11.4732 -4.7063 -4.82738 -5.53706 -5.74713 -1.46158 -2.19068 -5.84497 4.09549 17.657 2.64429 -2.99257 -2.69167 -1.19517 -0.786595 1.33461 -4.77756 5.90671 -1.01591 3.21168 -0.0794853 0.800125 0.458365 
4.05645 -3.34186 2.0901 6.16144 -4.03209 -5.77315 -11.4533 -3.25678 2.82346 1.29403 -6.15499 6.50703 18.8278 2.95486 -2.41235 -3.14954 -2.16907 -0.0343099 2.27155 -5.25592 4.54271 -0.45113 3.01324 1.65332 -0.210418 0.643025 
11.4829 -8.01107 -2.31155 7.7731 -4.85251 -2.33156 -17.1014 4.78106 -3.61701 6.5344 -2.75755 0.528503 19.1632 3.06232 -1.02237 -2.84398 -1.95841 0.736186 1.76825 -2.58837 1.77919 -1.17912 2.08184 3.69622 -2.47616 0.335342 
12.4973 -7.48922 -4.68397 5.84684 -3.70388 1.3751 -18.7855 3.18388 -3.74235 6.64335 2.8153 -2.0151 19.1885 1.9754 -0.542782 -2.03472 -1.9523 0.980951 1.87376 -0.364549 0.248609 -1.88339 0.498387 4.89933 -2.70131 0.0759455 
12.522 -6.57357 -5.83751 1.83842 -1.18947 0.439774 -14.8128 -0.0714992 -4.07426 5.54385 8.15097 -4.02426 19.1534 0.490302 0.361821 -0.931138 -2.5252 1.05344 0.834696 1.512 -1.38365 -1.01676 -0.992404 5.1272 -1.67045 0.0177437 
13.4139 -6.77452 -6.3205 -0.6327 -0.958851 2.20999 -14.4203 0.412541 -6.36488 4.28124 12.8874 -4.72315 19.2125 0.329581 0.22184 -0.222911 -2.12777 0.67484 0.0746013 1.79706 -0.705767 -1.081 -1.25321 4.12451 -1.2543 0.00825405 
13.4761 -6.55932 -6.14898 -1.61313 -0.957848 1.42447 -11.724 -0.751518 -7.38957 2.75344 17.8424 -6.46974 19.2399 0.190397 0.0991388 0.187817 -1.49234 0.785423 -0.394502 1.31638 -0.4656 -0.707987 -0.506137 1.89243 -0.135423 0.007127 
13.6681 -6.38715 -5.6428 -3.06622 -0.445494 1.25576 -11.3446 -0.00494027 -7.48969 1.77253 18.5922 -7.06385 19.1865 -0.0628721 0.0572804 0.395553 -1.0055 1.35877 -1.30356 0.971614 -0.777224 0.322508 0.357861 -0.211686 0.553421 -0.00312157 
13.3469 -6.27156 -5.23728 -4.40652 2.48097 -1.05562 -9.76878 -2.19076 -7.05179 4.26752 14.7607 -3.53103 19.202 -0.23296 0.0445448 0.317726 -0.11953 1.4087 -1.90236 0.0755884 -0.331761 0.917443 0.838957 -1.81453 1.0932 -0.0197372 
13.1642 -6.63199 -4.79858 -4.26352 4.11559 -3.06777 -10.5399 -2.75396 -4.92122 5.3135 13.3698 -3.4254 19.2158 -0.437587 0.00647149 0.336645 1.22578 1.26791 -2.75069 -0.507424 -0.0335589 1.81195 0.102194 -2.10931 1.02767 -0.044644 
12.5633 -6.21417 -4.98245 -1.61213 3.80513 -5.92556 -11.7484 -1.03581 -4.08658 5.17774 11.3809 -2.82296 19.1266 -0.63319 0.0716463 0.743688 2.74708 0.568726 -3.51516 -0.424582 0.827898 1.99714 -1.76858 -1.98693 0.785714 -0.0983303 
11.872 -6.38349 -4.08699 1.66548 5.23197 -10.0627 -12.8919 -0.750208 0.0874615 1.82839 9.73554 -2.27956 19.001 -1.12971 0.434284 1.49205 3.80169 -0.647026 -3.5089 0.235859 1.75676 1.20194 -3.59762 -2.18042 1.41304 -0.122195 
10.827 -6.03758 -1.87464 6.36437 4.76641 -15.134 -10.7157 0.946854 0.429551 -2.83283 6.64322 -0.17538 18.8178 -1.86 0.921636 2.47575 4.30767 -2.32104 -2.07617 1.73423 1.66872 -0.467673 -4.52555 -1.72677 1.59233 -0.0922222 
8.38378 -4.54887 1.10777 10.7567 0.399824 -16.0081 -9.87694 5.03849 -1.16959 -8.66933 4.83655 2.31602 18.7592 -2.35605 1.64606 3.105 3.17397 -3.34535 0.714222 2.68228 0.658225 -1.60754 -4.31629 -1.59852 0.588824 -0.162185 
5.00742 -2.5233 4.79893 15.3806 -5.384 -13.3337 -4.58475 4.41344 -5.79642 -12.2012 5.19657 2.8409 18.7864 -2.45054 2.05562 3.57489 0.793359 -2.71415 3.18517 2.68737 -1.14497 -1.15679 -2.9624 -2.39139 -0.22839 -0.288943 
3.00153 0.0896615 8.1012 13.0272 -6.41955 -7.39173 -2.54595 0.807623 -4.83725 -15.0689 2.46628 -0.843573 18.2058 -2.11179 2.39342 3.49414 -1.16525 -0.793574 3.73597 1.77792 -2.48629 0.0480394 -1.64094 -2.90216 -0.274649 -0.417597 
1.26541 1.92128 12.5031 9.19591 -5.39468 -3.5163 -0.944325 -2.66255 -3.52059 -14.4451 -4.12859 0.26247 17.6498 -1.51213 2.50761 2.73897 -2.01866 0.811035 2.74102 0.284325 -2.39551 1.69609 -0.963664 -2.46924 0.684631 -0.442554 
-0.304143 5.19593 14.7264 8.02276 -3.56271 -2.23696 -2.80756 -3.85497 -2.06731 -15.7521 -5.01168 2.23199 17.2395 -0.733211 1.99603 1.60867 -1.29797 1.64601 1.22635 0.122011 -1.84682 1.73918 -0.578246 -0.760215 1.23661 -0.421459 
-0.900377 7.46162 15.1812 7.78952 -2.75725 -2.20602 -3.03232 -5.23282 1.29905 -16.6779 -3.41065 4.72627 17.0567 -0.437269 1.96243 0.0754622 0.0670105 2.65205 1.00872 -0.382265 -1.21986 1.19625 -0.902437 -0.332014 1.1404 -0.42821 
0.418373 7.29962 14.8055 7.24055 0.491762 -1.9151 -0.891901 -7.14133 1.44882 -16.8437 -1.69376 3.10758 16.395 -0.124681 1.49997 -0.65206 0.257223 2.77825 0.372976 0.493834 -0.739869 -0.131276 0.576727 -0.348545 0.58227 -0.536664 
-1.2822 10.6816 12.8408 9.92206 5.83834 1.36635 -3.81348 -7.11866 0.702592 -18.4114 -7.44762 5.52667 15.931 -0.164349 1.06322 -0.565944 -0.245915 2.48296 -0.4266 0.80545 -0.17095 -0.983306 1.48735 -1.46791 -0.704221 -0.572786 
-0.736638 11.0858 12.6362 8.2426 6.03073 -2.15827 0.0521855 -6.61139 -2.42547 -12.0017 -4.73592 4.74314 15.1191 -0.0872142 0.68866 -0.907943 0.748242 1.49162 -0.221138 -0.323736 -0.545315 -1.33056 2.79618 -0.632969 -0.120274 -0.498798 
-1.14462 10.8846 13.4361 6.05892 6.88807 -4.21743 0.522885 -6.35254 -1.68034 -11.6621 -9.22914 0.38738 14.8308 -0.503445 -0.459131 -1.6505 -0.231552 -0.356304 -0.676362 -0.970496 0.13637 -0.247224 3.64522 1.36124 -0.605555 -0.435814 
-0.0864882 10.6414 9.96817 12.9133 7.42501 -0.228898 -4.67876 -10.251 -4.01254 -6.23745 -3.96785 5.07586 14.4511 -0.0997437 -1.19174 -2.08306 -0.147627 -0.681414 0.844879 0.0605824 0.923631 0.139598 2.15329 0.826346 0.233127 -0.496519 
-4.12449 8.60813 5.92239 6.42894 3.35968 -2.98014 -6.30049 -4.61702 0.260011 -3.06744 -1.02545 2.33254 14.0859 -0.215536 -2.18066 -3.28619 -1.94605 -2.27524 1.05968 1.01484 -0.0854179 0.0667656 1.81615 0.53738 -0.241462 -0.675213 
0.254582 6.26533 5.9778 7.31946 4.38785 1.44748 3.76678 -2.86099 -2.69765 -5.5326 -4.70604 4.9362 13.0089 -0.921343 -3.29396 -3.36692 -3.29651 -1.76957 1.00581 2.80281 1.34417 1.72375 1.8959 -1.09468 -1.0907 -0.693686 
-2.39283 2.16937 -0.999677 -0.8744 -2.96955 0.242758 1.37433 -10.4746 -2.00396 -2.9338 -6.17314 -0.7501 12.1758 -1.31993 -3.52726 -3.48939 -2.51859 -0.27506 1.17042 2.43514 0.678336 2.00485 2.49263 0.152354 -0.386701 -0.51052 
-5.55904 -2.60904 -3.40538 0.0824802 1.74178 3.18872 5.49786 -0.601341 5.73818 3.17523 -6.86739 1.16369 11.9377 -2.15817 -2.51737 -2.37022 -1.7831 0.183414 0.524727 0.00432223 1.01904 3.51495 2.85573 2.06089 1.53297 -0.229797 
-7.81732 -4.591 -6.83298 -2.5455 3.30742 2.00133 5.00969 -2.35517 6.06637 5.04181 0.817001 2.28529 12.0689 -1.23032 -1.51684 -1.23715 -0.278175 0.816295 0.510623 0.909831 2.52602 3.15938 2.22848 2.21227 2.14016 -0.0624894 
-7.82402 -2.94135 -2.95664 -0.760498 2.16644 3.19183 1.97072 -1.82551 10.8419 4.75823 2.10335 11.0834 11.9134 -0.0913263 -0.25482 -0.486752 -0.885512 -0.0168403 -0.248537 0.0985451 1.15339 1.36012 0.807524 1.04147 0.638356 -0.0339606 
-7.41193 -5.24868 -7.40978 -1.84378 0.899597 2.79432 7.68706 2.76758 11.2411 7.4171 0.402815 4.99087 11.8755 0.656827 -0.800794 -1.26262 -0.84241 0.288389 -0.675562 -0.461783 1.40447 0.966199 0.311239 -1.44248 -0.20547 0.028313 
-6.21836 -3.5543 -5.55074 -4.69594 2.86149 1.54954 4.6519 2.60425 9.95141 6.02521 -1.45294 3.00268 11.8646 1.0904 -0.562004 -1.78619 -1.07275 0.761143 -0.822151 -0.852539 0.732101 -0.561001 -0.636973 -1.96786 -3.54144 0.0812878 
-5.33601 -8.2885 -11.849 -4.78983 4.40184 -0.555335 1.36018 2.45232 11.3426 5.96452 -4.61726 5.29827 12.2348 1.36957 -0.191849 -0.77727 -0.922273 -1.06422 -0.621394 -1.41495 -0.423047 -0.108021 0.408275 -1.06941 -2.95506 0.192503 
-3.40997 -4.23146 -9.66799 -4.65124 4.22103 0.755901 0.871459 1.99262 7.98616 2.29966 -5.22593 -6.77753 12.1402 1.13376 -0.59124 -0.559871 -1.00367 -2.49608 0.194333 -1.43986 -1.48589 0.897219 1.68415 0.0668508 -3.02143 0.274896 
-1.96828 -5.86934 -9.2375 -6.4775 -5.10125 0.0841665 2.50254 0.958154 11.6836 11.3212 -3.05775 -4.89434 12.7003 0.35765 -0.375963 0.267807 -1.23202 -2.56659 1.41581 -0.206229 -1.39773 1.37259 2.51166 -0.0827048 -2.14329 0.192254 
-2.23344 -7.72008 -9.65585 -8.87044 -4.86738 2.20145 -3.1186 -4.07814 14.267 11.7676 -1.89844 -7.00817 13.0064 -0.376194 -0.835453 -0.219996 -1.2848 -0.925122 1.541 0.528562 -1.30173 2.41962 2.12368 -0.182621 -0.0244092 0.11743 
-4.13602 -8.42401 -10.5161 -8.84033 -3.88692 5.80096 2.32406 -1.50094 15.0651 13.7889 -6.69453 -5.30288 12.763 -0.58561 -0.128987 -0.431023 -0.705414 0.747915 0.81057 1.17754 -1.34529 -0.67961 -0.563732 0.310465 -0.874297 -0.0450096 
-4.20707 -7.1314 -10.1287 -9.89382 -1.01175 5.60251 3.60351 -3.28647 18.3935 11.6843 -4.32065 -6.6953 12.696 -0.359674 0.22136 -0.560653 -0.969498 -0.354486 0.768167 2.62456 -0.272167 -2.46158 -0.952514 0.457436 -0.175966 -0.0965605 
-3.90952 -6.80862 -11.1562 -9.49288 -3.28949 2.43649 5.02921 -6.16414 6.22231 8.54425 -0.294318 -9.42226 12.6304 -0.185896 0.180989 -0.347712 -0.637065 -0.425947 0.873541 1.82238 0.566476 -2.75126 -0.136424 2.12097 0.674542 -0.0984862 
-4.14507 -7.42097 -12.139 -13.3917 -6.93853 7.72453 8.65164 -3.10738 6.38054 9.62732 -2.81136 -5.82831 12.5899 0.408649 0.86734 1.20726 0.770266 -0.277215 0.413956 0.481373 0.69875 -2.71015 0.270757 1.68543 2.6894 -0.132982 
-5.0965 -7.37427 -11.2494 -10.2767 -3.05327 9.10766 8.91191 1.24189 7.3153 14.1352 3.15567 -2.36367 12.3236 0.379582 1.23036 1.61322 1.64682 1.48365 -0.427783 -1.45744 -0.204992 -0.60702 0.228846 1.3479 3.23566 -0.154373 
-1.57033 -2.51187 -4.0458 -5.65056 -2.51594 4.3367 4.06902 -3.49574 4.29625 10.2426 2.38149 3.22238 12.1844 0.0541554 1.14235 0.972804 1.35435 1.79998 -0.517249 -0.327865 0.528512 1.14625 0.29984 1.28546 1.82545 -0.131408 
-3.29898 -3.11135 -7.13672 -5.12933 1.91748 1.99149 0.0333333 -6.99491 4.22935 9.38086 3.84877 2.2307 12.0613 -0.29365 0.497469 -0.456719 -0.251174 0.884356 -0.192563 1.34592 0.52024 0.902017 -0.534046 -0.573587 0.254054 -0.03127 
-4.77305 -3.84068 -9.33139 -9.19359 -0.424002 8.69637 11.4516 3.65359 13.6548 13.5037 3.2694 1.00177 12.064 -1.04909 -0.944629 -1.64114 -1.46792 -0.403548 1.09427 2.49306 2.54964 2.11161 0.106168 -0.572849 0.0260057 0.00209188 
-4.9634 -4.22252 -10.8902 -9.7611 0.322544 5.96501 11.9502 0.268433 7.14613 9.83442 -0.156224 0.0169065 12.2275 -0.638816 -1.08227 -0.800457 -0.744226 -0.471822 1.04768 2.46211 3.35227 2.42115 -0.39453 -0.115689 0.575115 -0.0318096 
-5.9836 -6.67943 -10.3747 -10.6743 -3.73621 7.82131 10.5759 5.62079 13.3959 10.5466 1.51974 4.45931 12.1118 -0.229633 -0.879711 -0.528045 0.109565 0.511362 0.0563385 -0.375323 1.01669 0.304178 -1.86686 0.099501 1.04127 -0.0441887 
-5.88778 -7.10334 -10.6173 -8.11012 1.21447 7.66742 12.7818 8.78286 16.4645 8.88674 4.14515 3.37751 11.8783 -0.0466683 -0.5272 -0.416899 0.17827 0.815166 0.462925 -0.699864 0.728186 0.386122 -1.62857 0.364136 0.909038 -0.0513825 
-5.45902 -6.79883 -12.1081 -9.47125 1.68685 8.12686 9.15923 4.47984 10.5165 4.64324 1.61622 4.52783 12.0177 0.147791 0.00657277 -0.495741 0.10449 1.13185 0.107054 -0.64558 -0.658492 -1.17069 -1.60503 -0.233598 0.128738 -0.00489283 
