-8.69882 -4.55738 -6.31524 -4.957 4.00889 8.65466 5.98743 5.47576 1.66352 4.12456 1.17152 1.68875 12.4235 0.303661 0.10767 0.566865 0.476872 -0.828907 -1.45198 -0.450329 -0.974384 2.12712 2.29377 1.0526 -0.718003 -0.0135832 
-6.97535 -4.09014 -3.10058 0.304925 0.826636 3.07878 6.65088 4.18579 8.37924 10.5144 3.65008 -2.92547 12.4391 0.317787 -0.251721 0.0596728 -0.171651 -0.294873 -1.80263 -1.24755 -0.266414 3.1747 1.74276 1.16027 0.91687 -0.0468792 
-8.04225 -4.25265 -5.08824 -5.2036 1.45549 4.18272 3.40406 1.24883 8.94125 12.3985 5.19523 0.405848 12.3478 0.20156 -0.771429 -0.318149 -0.47637 -0.769455 -2.06242 -0.996196 0.0873712 2.19359 1.09556 0.846687 1.49216 -0.0745666 
-7.43817 -5.96834 -6.63037 -5.69195 3.81123 1.87747 1.04137 6.25716 13.8982 8.7014 4.961 6.91455 12.2269 -0.0653498 -0.921146 -0.675861 -1.56567 -0.0247978 0.353136 -0.0137069 0.975873 -0.361459 -0.566396 -0.115427 0.785144 -0.0724895 
-7.45961 -7.47542 -6.14109 -4.34041 -1.33068 -1.05677 3.81121 4.87693 9.87202 10.5089 4.74949 4.22955 12.1567 -0.207508 -0.406432 0.118653 0.0377893 -0.187205 0.15005 1.04493 1.46274 -1.13951 -0.391801 -0.998278 -0.346026 -0.0610995 
-7.59342 -7.08448 -5.95346 -7.95502 2.09573 7.4642 6.37877 7.2511 6.10656 8.62723 3.29581 -0.911603 12.1721 -0.320327 0.155188 0.471915 0.366134 0.33931 0.542837 1.17947 0.692136 -1.84531 0.350041 -1.49991 -1.54558 -0.0602059 
-9.00216 -5.72674 -4.83343 -3.88312 1.37721 2.1396 5.95999 8.06556 7.13952 10.4766 1.03643 2.5888 12.0697 -0.0956111 0.658117 0.329462 0.188773 1.32666 0.458414 -0.200976 -0.0613237 -1.31152 -0.465104 -1.08839 -0.312277 -0.0500617 
-8.26853 -6.06675 -4.92462 -4.08993 4.15384 2.99347 5.86434 8.12352 6.03787 10.4677 -0.682048 0.00701356 11.9694 -0.151808 0.628403 0.854606 1.66259 0.912978 -0.707626 -1.03189 -1.38211 -1.18399 -0.253863 -0.171429 1.07323 -0.00103397 
-7.60011 -4.6937 -5.00819 -5.32909 4.27359 3.47067 3.06354 4.1341 3.34877 7.26307 1.29646 2.20886 12.0078 0.0110545 0.291814 0.430041 1.34079 1.3375 0.848176 -0.544518 -1.70632 -1.16535 -0.77551 0.111877 0.768166 0.0444022 
-9.05349 -4.45899 -1.59305 1.08092 5.21243 3.26054 2.66756 2.30629 2.08196 8.96467 2.30866 4.64452 12.1979 0.464696 2.48507 2.52043 2.18763 -0.312947 0.454333 -1.20358 -1.37372 -1.40321 -3.67692 -0.298096 1.17905 0.835577 
-8.55441 -5.07155 -4.34901 0.235419 7.53541 6.24695 4.83579 2.44259 3.29073 7.35057 0.100467 4.11088 12.1774 1.49686 3.70374 3.47961 2.24609 -1.30109 -0.305127 -1.54583 -0.948845 -1.67284 -5.33244 -1.34727 0.386516 1.19079 
-5.4679 6.54753 7.34796 4.06595 0.958195 3.877 -1.03969 2.10067 -0.949161 -7.96058 -1.57453 4.95127 16.0625 2.38299 4.25587 3.53954 1.21329 -1.71688 -1.28451 -2.33232 -0.982014 -2.35024 -6.26368 -1.47883 -0.574166 1.23957 
-1.90862 8.32174 7.91935 4.40884 -0.104754 1.6368 -2.812 -0.507312 -3.49985 -10.9365 -3.4983 3.98806 16.0294 2.30512 3.23629 3.20036 1.10049 -1.45337 -2.00353 -1.93328 -0.593107 -1.95236 -4.5913 -1.95898 -1.01896 0.954541 
-0.461408 10.1237 9.97049 5.06064 0.448121 -0.856958 -5.17016 -1.12883 -6.27394 -13.2102 -3.28613 1.8351 16.4698 1.63658 0.954404 0.780298 0.0696213 0.218222 -0.691258 -0.817055 -0.129438 -1.16696 -0.961273 -1.38004 -1.67731 0.226695 
0.467963 9.32184 10.3415 5.2405 0.523603 -1.40374 -2.76538 1.0918 -3.80867 -12.9811 -8.83864 0.574147 16.7465 0.604618 0.625355 0.2143 0.2406 0.305427 0.844016 -0.796129 -0.256119 -0.364002 -0.844526 -0.378426 -1.14973 0.302619 
1.52671 10.8195 10.0384 3.99822 1.73512 1.94098 -5.14828 0.653918 -6.62957 -11.7446 -5.80454 -1.72831 16.8374 0.286124 0.250625 -0.539787 0.0887296 0.327453 1.40326 0.0612794 -1.13835 0.149452 -1.19023 0.479701 0.117137 0.26177 
0.12041 11.1006 8.95692 6.14305 0.77888 4.45791 -6.80359 -2.67928 -5.14204 -15.8919 -4.13123 0.0211288 17.3587 -0.0911924 -0.064851 -0.139898 0.143051 0.101186 1.13188 0.306413 -1.7959 -0.197386 -1.55278 1.10402 1.05099 0.250949 
1.14299 10.4874 7.96386 5.05302 1.95775 3.22852 -2.84465 -4.93503 -4.85999 -17.706 -3.24134 2.69729 17.4725 -0.257692 -0.243744 -0.0288494 0.571742 0.0682625 -0.0734045 0.810321 -1.22475 0.446852 -1.19618 -0.0306138 1.05864 0.230288 
0.203861 9.16361 10.6793 5.42836 0.918222 3.61191 -2.38513 -5.09322 -5.68039 -17.7643 -4.60016 3.61631 17.6837 -0.128056 -0.124621 0.194355 0.43341 0.0617414 -0.0871364 0.88584 -0.294494 0.150407 -0.656911 -0.899944 0.478186 0.151067 
0.196522 10.5693 9.03292 7.21428 2.00676 1.99696 -3.30591 -4.26287 -4.12614 -16.7893 -5.72314 1.76729 17.8264 -0.27134 -0.0320927 0.502412 0.517283 -0.384121 -0.148829 0.794562 0.412109 -0.205275 -1.26726 -1.03504 -0.0897789 0.158909 
-0.046638 10.4366 9.39416 7.22946 1.06308 4.63801 -2.14377 -4.48783 -4.75693 -19.6348 -7.39004 2.87706 17.9371 -0.0386113 -0.280188 0.333264 0.252957 -1.13281 -0.450287 0.650755 0.477602 -0.300738 -1.11114 -0.795406 -0.286681 0.166778 
-0.0884643 9.69049 11.1185 6.73888 -0.0352826 1.97132 1.00748 -3.17718 -6.3481 -23.1071 -7.02161 2.61803 18.1403 0.0470497 -0.839846 0.769263 -0.0806739 -2.38072 -0.211201 0.811771 -0.405712 -0.341479 -0.880123 -0.780203 0.470281 0.239349 
0.153298 8.20207 11.3028 6.93085 -3.72481 1.37329 -1.28804 -3.24806 -6.0731 -20.1612 -7.92796 1.75754 18.3606 0.34568 -1.27011 0.555542 0.162931 -2.70382 -0.334496 -0.197186 -1.3143 -0.240082 0.363214 0.0346765 0.953219 0.301616 
0.331802 7.48731 11.9249 6.96022 -7.50288 2.57331 0.325091 -6.91132 -5.17545 -20.9268 -9.3552 4.67846 18.8114 0.811153 -1.68798 -0.207637 0.494074 -2.91509 -0.330309 -0.871612 -1.91086 -0.39511 2.67648 1.29798 1.10586 0.377413 
1.47163 5.18764 11.7687 7.93345 -8.72222 2.66453 -2.78851 -9.19226 -6.54366 -18.9089 -6.04987 6.61294 19.1097 1.36899 -1.97076 -1.14282 0.244582 -1.80036 -1.82619 -0.324342 -1.08105 -0.406101 3.78848 2.72503 0.773593 0.439861 
3.30813 2.75779 9.84739 8.70795 -12.112 -0.325844 -2.60035 -9.75939 -8.08836 -10.3508 -1.47078 5.71964 19.6529 1.75455 -2.07707 -2.66775 -0.201943 -0.644967 -3.26115 -0.679889 0.831334 0.436916 4.5977 3.42853 -1.16058 0.421489 
5.51006 0.713042 6.62748 7.27989 -10.4221 -6.30809 -1.44703 -7.22927 -6.64715 -6.50671 1.755 5.10491 20.1391 1.68772 -1.65548 -3.63301 -0.791136 0.649287 -3.46651 -0.519986 1.86641 2.15956 4.09351 2.41051 -2.47385 0.33256 
7.08532 -0.660761 1.15677 6.27728 -9.87779 -9.2461 -3.74509 -3.73614 -2.93913 -4.13933 3.88501 -0.370441 20.4041 1.43285 -1.1271 -4.14663 -1.07536 2.21947 -2.49994 -0.678278 1.76478 2.9107 3.15584 1.10443 -3.42197 0.173013 
8.02163 -1.38048 -2.05106 5.1931 -6.5929 -10.2079 -4.81607 -2.87181 1.67951 -1.54708 3.3248 -2.71128 20.3968 1.08064 -0.67797 -3.79339 -1.35547 2.57495 -0.509629 -0.869064 0.774182 2.65375 3.30061 0.0474008 -3.35186 0.072629 
9.21662 -1.83096 -6.54651 4.37456 -2.92924 -10.8756 -4.30722 -3.11424 2.30182 2.94857 3.26647 -7.48213 20.3891 0.83704 -0.682421 -2.57875 -1.77713 2.24872 1.18464 -0.60415 -0.645205 2.03903 3.53856 -0.464401 -1.91406 0.0551437 
9.84764 -2.09171 -8.48783 1.45391 -1.02161 -8.04146 -5.51128 -3.66931 4.00113 6.45238 2.30128 -8.09852 20.5098 0.639379 -0.852933 -1.41513 -2.03789 1.1011 2.26573 -0.483328 -1.376 1.26785 2.8311 -0.231627 -1.04873 0.0809519 
10.3575 -3.71725 -8.51861 -0.738763 -1.41985 -4.40614 -6.41823 -6.56342 6.09522 9.55374 2.07477 -7.24712 20.6234 0.321777 -0.735403 -0.605866 -1.88791 0.238086 2.34575 -0.160734 -1.45464 0.671053 1.44952 0.417432 -0.705881 0.0918699 
10.6481 -4.702 -8.14065 -2.43967 -1.84206 -2.11401 -6.1772 -8.02722 6.12204 9.30584 2.76252 -8.07242 20.6845 0.230521 -0.74359 -0.169945 -1.16543 0.242788 0.906527 0.579794 -0.795111 -0.622721 0.539164 0.916816 -1.14226 0.0588919 
10.4253 -4.20284 -9.74943 -3.11819 -1.32858 -2.11063 -4.77794 -8.20849 4.59663 8.76942 5.123 -11.0246 20.7611 0.160409 -0.430538 -0.155101 -0.548594 0.867762 -0.560515 0.820687 0.272501 -1.34734 -0.228601 1.13486 -1.51956 0.0251501 
10.9664 -5.56686 -8.72214 -3.18355 0.146694 -4.65658 -3.43246 -6.82233 1.63682 9.54037 5.36123 -11.9211 20.7354 0.0624827 -0.218785 0.0300673 0.0508516 0.976957 -1.38997 0.424302 1.17327 -1.26637 -0.475408 0.394711 -0.884219 -0.0138502 
11.0004 -5.43751 -9.00336 -3.10979 1.92458 -5.93743 -3.68717 -5.80336 1.60114 8.29347 6.4497 -12.9206 20.7236 -0.102156 -0.0437319 0.333705 1.12277 0.584984 -1.69464 -0.376526 1.65825 -0.734019 -0.852573 -0.394632 0.0121325 -0.0417274 
10.6729 -5.17858 -8.36334 -2.18961 1.41614 -7.15044 -4.60107 -3.36344 1.28795 7.16677 4.07273 -11.5455 20.6339 -0.407186 0.373934 0.805112 2.05119 -0.672089 -1.88832 -0.772659 2.43469 -0.819144 -1.79554 -0.593129 1.08502 -0.0427668 
10.0612 -4.61564 -8.26031 1.9987 0.961613 -9.33688 -6.07626 -1.64669 1.10097 5.69335 3.7941 -11.1517 20.6032 -0.760026 0.520686 2.5022 2.89927 -2.69883 -2.6653 -0.188297 3.36693 -1.80309 -2.64505 -1.02453 2.40414 -0.0303391 
9.40003 -4.10813 -5.06811 4.51816 -2.73227 -12.3985 -6.10121 3.27278 -2.20882 1.86272 3.72339 -7.38046 20.5818 -1.34574 0.797165 4.06714 2.86764 -3.41799 -2.52423 1.13909 1.64872 -2.68451 -2.81493 -0.29504 3.52869 -0.00893936 
7.83674 -3.36931 1.86001 8.03268 -9.49537 -16.6399 -3.87858 7.71319 -5.66592 -2.27977 1.50174 -2.9824 20.598 -1.61141 1.05859 4.29672 1.92749 -3.30058 -0.646594 2.09234 -0.27112 -2.87563 -2.39115 -0.120533 3.26402 -0.0735634 
5.05647 -1.81592 6.91219 9.1316 -10.4453 -16.1201 -0.00448227 0.200215 -8.75115 -2.92132 3.74371 2.01327 20.5918 -1.70148 1.40597 3.58908 0.616255 -1.64355 2.09356 1.82623 -2.35447 -1.07993 -1.60065 -0.634933 1.78626 -0.23399 
4.17594 -0.468786 7.23314 9.32944 -11.6847 -10.709 1.33706 -1.466 -10.006 -3.87038 3.18128 0.471527 20.2303 -1.52741 1.75062 2.21567 -0.939669 1.04067 3.90134 0.586082 -2.84707 1.15029 -1.20275 -1.66449 0.371982 -0.394063 
2.72301 1.47144 10.1907 6.95105 -9.85532 -4.89613 0.422121 -3.90997 -5.43842 -5.34522 -0.291042 -0.176133 19.5957 -1.24237 1.99944 1.41491 -1.49803 2.34503 3.84762 -0.974678 -0.837137 2.28458 -1.63047 -1.88735 -0.776669 -0.45932 
1.36643 3.7401 11.2991 4.42461 -4.58704 -2.74521 -1.16147 -4.46705 -1.57083 -7.08157 -4.80336 -0.0277895 19.1258 -1.12762 2.14024 1.11423 -1.44727 3.21139 2.6086 -1.33344 0.192766 1.764 -1.69401 -0.910183 -0.658941 -0.417646 
0.249402 6.07685 11.9537 4.09387 -2.269 -0.863897 -3.62861 -2.48494 -1.54583 -9.46809 -1.70072 -1.62041 18.8475 -0.900527 2.01885 0.45747 -0.241243 2.86004 1.58743 -0.835226 0.886315 0.00420041 -1.7717 0.963467 -0.640214 -0.336324 
-0.225353 7.9297 11.9228 3.52166 0.579068 0.317847 -3.30477 -1.21469 -3.13231 -10.279 -0.664802 -2.10104 18.5162 -0.810159 1.71376 0.467525 0.478251 2.11555 1.10103 0.0383428 0.881911 -1.24433 -1.19292 1.56531 -0.145113 -0.293956 
-0.983734 9.4709 12.1662 6.19631 1.86183 1.50948 -2.68236 -1.10457 -4.63668 -12.605 2.45701 -2.34058 18.2189 -0.810171 1.37707 0.372619 0.61944 1.59192 0.566679 0.696955 0.647362 -1.19023 -0.614849 0.415065 0.505197 -0.244633 
-2.0678 10.6119 13.5305 5.76464 3.9253 1.57324 -1.44288 -0.747678 -6.24704 -11.4777 0.94432 -0.39327 17.9703 -0.692243 0.912893 0.0576687 0.368203 1.06278 0.11945 0.458471 0.608955 -0.662908 0.125706 -0.385713 0.399606 -0.198744 
-2.88023 11.6211 13.013 6.06958 4.01749 1.3418 -1.07477 0.518362 -5.93963 -11.943 -0.429951 0.0516859 17.8973 -0.236728 0.3043 0.00155182 -0.100816 0.559768 -0.363526 -0.056959 0.861231 -0.337449 0.251956 -0.699926 0.139303 -0.189186 
-2.73832 11.4191 11.7878 5.42604 4.81513 0.998937 -1.81621 1.01862 -5.79537 -9.98149 -1.14989 -1.29914 17.6833 0.25288 -0.12974 0.124961 0.14202 -0.293423 -0.533518 -0.795551 0.371464 0.0713793 -0.861451 -0.639524 0.237719 -0.173632 
-1.83212 10.5888 13.0454 5.86153 4.21575 -0.0209961 -2.78049 2.31843 -6.54976 -12.0933 0.00448418 -1.19113 17.4165 0.527591 -0.468348 0.555468 -0.0534955 -0.744922 -1.05328 -1.00943 -1.18093 0.206941 -0.449015 -0.852495 0.527746 -0.0825516 
-1.32746 10.4793 14.1391 6.57877 2.35905 -0.412953 -4.56778 0.209608 -5.58508 -15.7098 -2.47052 1.41673 17.3426 0.654742 -0.666726 0.554522 -0.110511 -0.993619 -1.41754 -0.788789 -2.30342 0.852197 -0.12343 -1.18515 0.943216 0.0696455 
-0.947706 9.74923 14.6147 5.22574 1.52092 -3.21866 -4.74614 -4.9818 -5.01007 -11.3239 -4.03211 1.33248 17.6549 1.07119 -1.29626 -0.240613 -0.259662 -1.89274 -1.87461 0.832599 -2.67657 1.33672 1.01187 -0.926852 0.38632 0.223298 
0.0931854 8.50523 13.7757 5.19138 1.19445 -4.48992 -4.77733 -6.84839 -2.30423 -10.9834 -5.05735 2.15513 17.9123 1.16333 -1.71633 -1.58391 0.593502 -3.46035 -1.6262 1.31233 -0.742191 0.363326 2.44034 0.0815339 0.207425 0.379001 
2.81353 5.09458 12.024 5.25692 -4.66563 -7.35556 1.48728 -7.53539 -1.5066 -9.39721 -3.33636 0.371269 18.2481 1.39085 -2.20156 -2.57643 1.3496 -3.19636 -1.64777 1.9751 1.21237 -0.205143 2.09009 1.07863 0.0223903 0.392285 
2.60856 4.22498 7.51491 9.53069 -11.8494 -6.47553 -1.12282 -2.22455 -5.52018 -4.47143 -2.41073 2.93446 18.941 1.15094 -2.48422 -3.14552 1.43829 -1.03243 -2.39594 0.948835 2.23049 0.124596 3.03513 0.853983 -1.10074 0.356223 
4.74887 0.881567 4.86291 9.80409 -7.93895 -10.4647 3.30209 -1.23185 -4.42781 -4.12941 0.0377355 1.05477 19.1019 1.37935 -1.70088 -3.71254 0.770044 1.57505 -1.62982 -0.88965 1.50906 1.79367 2.87464 0.701294 -1.8558 0.145701 
4.88024 -1.80937 1.62869 10.1092 -2.33107 -14.9151 -0.940564 1.15227 -0.220646 1.5584 -2.47449 -3.6903 19.2665 1.88288 -0.895914 -3.99565 -1.05616 3.55969 -0.224493 -1.38835 -0.277276 2.50747 3.18583 0.476827 -2.96478 -0.105579 
8.57446 -0.392673 -3.59561 8.81787 -1.54956 -11.2849 -3.0521 -1.67849 4.81197 1.96106 0.20199 -5.59536 18.8139 1.82784 0.28955 -3.90615 -1.97223 3.08705 2.54789 -1.48457 -0.914834 1.18856 2.72604 0.735761 -2.62282 -0.276583 
10.1102 0.382527 -8.23409 4.743 2.75432 -7.18791 -4.88747 -3.38761 2.39728 8.41248 -0.108716 -8.56436 18.5571 1.48815 1.06191 -3.45097 -2.39982 2.76638 4.40394 0.118481 -1.39849 -0.499269 1.30571 1.56417 -1.176 -0.320166 
11.2731 1.23337 -9.73643 2.62603 4.95359 -1.58886 -2.14729 -3.53608 0.206038 6.07374 2.53365 -9.62232 18.0737 0.482647 0.621967 -2.03852 -2.64115 2.53658 3.80845 1.62084 -0.0306137 -2.03058 1.00382 1.79383 0.071904 -0.280114 
10.9717 2.68714 -12.5558 1.20605 8.24925 2.25663 -0.800567 -4.91141 -0.414022 6.03063 4.18053 -7.55682 18.0357 0.109894 0.58373 -0.855514 -2.96058 1.67548 2.63483 1.92222 0.797845 -3.06495 0.0149328 2.09333 1.58811 -0.287551 
10.5569 1.56485 -11.6274 -2.61941 8.38589 3.03514 3.00863 -1.06966 -3.93528 8.17107 7.02652 -5.73961 17.674 0.453742 0.117696 0.136754 -2.75314 0.375872 1.64714 1.53705 1.69527 -3.07006 -0.266361 1.4687 1.93685 -0.227909 
11.0177 3.13544 -11.5662 -7.43716 9.41558 3.67422 2.14568 -0.631593 -10.8568 7.43848 8.11152 -2.56515 17.3192 0.640682 -1.15148 0.430921 -2.39065 -0.0573796 0.91156 1.59084 2.71818 -2.07241 -0.592403 0.181403 1.81922 -0.225634 
13.5188 1.5977 -9.54745 -6.81805 6.24978 5.93802 4.06483 2.80038 -9.92285 4.03801 7.91165 -2.43391 17.2924 0.767291 -1.23159 0.465859 -0.956934 -0.642123 0.268063 1.81571 1.31735 -1.9218 -1.42399 -0.32925 1.65781 -0.085602 
12.6942 -3.08669 -11.4411 -8.6479 9.03041 5.36299 6.62551 6.74449 -7.78229 5.13515 4.64498 -0.113578 17.0983 -1.72311 -1.98836 0.889534 -0.148257 -1.51387 0.991717 1.78712 0.136517 1.79003 0.40656 -0.118851 2.51655 -0.626721 
13.5552 -1.48205 -9.36063 -6.79871 5.36787 3.53107 9.84725 1.82903 -15.0816 2.20277 7.11354 1.32365 17.3564 -4.61706 -1.89514 0.948135 -0.500176 -1.84144 -0.0447277 0.141621 -0.0334275 5.09469 3.15391 -1.71694 1.81411 -1.21357 
2.38397 -5.26647 -7.21192 -8.18811 2.28719 9.83628 8.19007 0.536667 0.672703 10.3889 7.91631 8.13883 14.1536 -4.28605 -0.732028 1.57863 -0.362815 -2.59159 0.828823 -0.732482 -1.19657 4.40087 2.14914 -2.54552 -0.426569 -1.32157 
-4.41142 -6.78812 -6.92138 -9.54882 0.414165 3.47773 3.99066 5.73716 11.3231 17.1807 -2.30871 2.51044 12.6969 -0.60439 -0.248837 -0.304432 -1.5127 -0.94583 0.543688 -1.22815 -0.296896 0.751431 -1.08908 -2.29685 -1.19972 -0.278062 
0.247203 -4.0938 -4.76759 -9.08692 -1.45068 9.53377 5.89139 -1.19242 1.01972 8.39188 -3.3715 -2.83982 12.8203 2.89368 1.283 -1.25122 -1.47633 0.469529 -0.340545 0.530931 -0.805707 -5.42939 -4.4252 -0.850207 -0.583683 0.644668 
11.6016 -3.31257 -12.105 -13.9128 2.50765 6.40076 4.85586 1.20909 -11.4979 -2.24415 1.2732 0.814359 16.6328 0.629513 0.548159 -1.26887 -0.182239 0.790309 0.156118 1.61546 -0.680413 -4.09624 -2.47126 1.91091 2.44403 0.148223 
8.84585 -0.589232 -10.8762 -13.3878 3.5881 6.67204 10.4121 -1.22784 -15.0637 -2.02466 1.87432 6.06846 15.409 -3.87515 -1.14881 -0.00713925 1.57585 2.07613 -0.204646 1.08805 2.04945 1.63599 -0.0604479 0.320025 2.26301 -0.572137 
-5.56318 -5.79961 -10.2114 -8.3096 1.84632 5.68919 9.8076 2.3528 -1.11638 10.0327 4.62292 10.2765 12.1436 -6.63853 -1.23263 2.61619 1.84985 1.36138 -0.0338633 -0.703971 1.93082 4.93917 0.244294 -1.52196 -0.211712 -1.07942 
-10.5462 -8.59434 -5.75007 -4.00928 9.26062 8.86633 8.85578 8.48296 4.00892 1.95122 -3.44623 3.74416 12.2042 -4.18856 -0.367933 3.70761 1.46798 0.902553 0.5244 -1.70604 2.07855 3.80432 -0.41761 -1.20558 -1.05329 -0.565512 
-11.8951 -5.47319 -1.58707 -9.35279 6.47829 5.1343 2.11417 6.00782 3.66161 -3.01062 -3.67633 0.917946 12.8381 0.0168791 0.983715 2.6864 0.790847 -1.44934 -1.29586 -3.22208 -1.43798 0.582639 -1.07908 -0.709906 -0.851564 -0.0174761 
-8.93103 -2.59211 3.34965 -5.52626 5.78488 9.57149 5.72862 7.33741 1.5689 2.40894 -0.00393772 5.48126 12.2342 1.5744 1.01188 0.309131 0.951764 -2.4707 -2.5004 -3.15979 -2.58681 -0.383496 1.98999 1.30182 0.900896 -0.0891499 
-6.28635 -3.88215 -1.32925 -3.59687 -3.6625 -1.1427 -4.73925 -4.26432 3.01683 4.40841 -0.647761 5.15008 12.0412 1.72705 0.119856 -1.27644 0.866463 -2.23106 -2.07459 -1.52003 -1.17753 -0.0352732 2.26824 0.348786 0.359762 -0.200416 
-5.47855 -4.33046 -4.33332 -2.12842 1.97753 -0.497149 -3.51648 0.684987 2.41383 8.19166 1.54858 6.13257 12.1568 1.05279 -0.152039 -1.62072 -0.177051 -1.32552 -2.46029 -1.2059 0.143006 0.806044 1.1443 -0.824542 -1.62075 -0.0600096 
-4.98603 -4.00473 -4.12778 -6.7194 -2.77336 -0.204323 -0.863414 3.44637 3.06278 5.43923 -2.70866 2.3911 11.8747 0.000163746 -0.269663 0.150835 -0.301458 0.145556 0.0856637 0.122507 1.6299 1.63255 0.240216 -0.219036 -2.41426 0.108063 
-4.31726 -3.29101 -3.3547 -4.85025 -1.2873 -3.19914 -2.23877 4.19709 5.57614 7.61504 -3.0962 -1.243 12.0174 -0.372942 -0.265242 0.921908 0.108169 -0.761614 -0.0324092 -0.584319 0.0866728 0.517409 -0.326463 0.375046 -1.42903 0.149708 
-6.86618 -5.75019 -1.06438 -3.74324 -1.3023 0.636607 -4.76556 2.12912 9.59841 5.8978 0.579447 -3.23345 12.6512 -0.401161 -0.847704 1.03253 0.0108716 -0.335139 0.309809 -0.861881 -0.705753 0.0145786 0.347624 1.1535 0.722847 0.191792 
-6.40318 -4.78394 -1.25548 -3.07565 -2.56607 -1.07966 -4.487 1.77698 1.73306 6.33006 1.77976 1.79971 12.5171 -0.0167831 -0.562054 0.356291 -1.10663 -0.375154 0.673908 0.252923 -0.489831 -0.990389 -0.387855 0.997683 2.02436 0.10863 
-5.94887 -7.49679 -0.0147186 -7.55234 -3.80967 0.284984 -4.04871 1.12767 5.05721 7.81984 0.620877 4.48398 12.5838 0.391307 -0.0381055 -0.310003 -1.80928 -0.814414 0.506822 1.01839 0.617508 -0.0812222 1.28222 -0.0864036 1.12509 -0.000298405 
-4.85983 -5.22798 -2.09808 -8.47887 -1.90939 0.346214 -1.33259 2.24866 2.8948 4.71475 1.8715 5.02009 12.5943 -0.0077301 0.114657 -0.422699 -1.99281 -1.20251 0.668257 0.721363 0.597596 1.50977 1.08398 -0.731796 -0.298504 0.0215017 
-5.68132 -5.71869 -2.1931 -10.088 -5.70271 2.45778 -1.25081 4.98081 8.61143 13.1165 0.101558 0.781808 12.6112 -0.385115 0.42465 0.18451 -0.396948 -0.538971 0.817018 0.0220755 0.601371 0.942143 1.12011 -0.373699 -0.871472 0.0615205 
-6.57561 -5.0997 -2.27978 -11.7719 -7.63211 1.17523 -2.27914 2.83838 7.5048 9.10159 -1.61956 2.15828 12.611 -0.614231 -0.155754 -0.457296 0.836828 0.457062 1.04931 0.852475 0.504947 0.945707 0.441444 -1.59028 -0.456132 -0.0831078 
-7.01656 -5.43767 0.998685 -7.89059 -3.64317 3.95557 -3.46506 3.83966 7.46292 11.227 0.497912 1.55752 12.8831 -0.741537 -0.246536 -0.834006 1.79091 2.65087 1.38059 1.44084 -0.0729965 -0.392154 -1.1203 -1.4927 0.142864 -0.159292 
-7.26336 -6.14726 -5.98045 -5.39344 -0.653851 4.84386 4.03691 5.34398 8.19759 7.86676 -6.27807 2.35157 12.0428 -1.17054 -0.475759 -2.26428 1.40445 2.89811 1.2617 2.18992 1.85641 0.34832 -0.969379 0.0953915 0.280542 -0.110253 
-9.04513 -6.42759 -4.5128 -4.32267 4.06251 7.5264 2.79539 3.36303 6.30427 8.13245 -5.03267 1.39948 12.0988 -1.11302 0.0656503 -2.26843 0.834909 1.47719 0.132175 2.16241 0.902874 0.507469 -1.18232 1.03146 -0.00540483 -0.0313898 
-11.414 -6.98353 -10.8454 -6.53354 3.00561 5.69834 5.54025 12.3587 9.82573 5.80195 1.62269 3.64001 12.4518 -1.00154 0.98265 0.0483455 1.23715 0.0715229 -1.41321 0.585351 -1.54357 1.36966 0.480744 1.81103 0.109991 0.199226 
-10.5063 -4.69129 -7.91096 -3.146 1.91304 4.18921 6.59531 4.84665 9.1862 6.34774 1.70485 0.886278 12.5216 -0.211056 0.86261 0.643184 0.995892 -0.127032 -1.1659 -0.289998 -1.90396 0.723246 -0.104476 -0.0606372 0.180848 0.118733 
-11.5404 -2.10216 -4.03964 0.203945 0.7785 -0.55361 5.0637 -3.11566 13.6049 11.1628 -0.591658 3.15813 12.8275 0.264007 0.352871 1.20081 0.62939 0.391826 0.858513 0.470544 -2.08088 -0.0782933 0.51408 -1.37324 -0.461404 -0.0240664 
-10.0372 -4.55523 -4.69978 -2.71196 4.5409 4.82287 1.58368 1.58045 8.0309 4.92963 -4.22868 2.54466 12.5046 0.527282 -0.2413 0.784717 -0.241018 0.741147 1.15031 0.194236 0.433965 -1.73093 -0.40517 -1.80057 -0.409302 -0.139641 
-10.3286 -5.28721 -6.44695 -3.60361 3.6508 9.67407 10.3988 3.58744 10.0119 9.0814 -2.27675 0.503805 12.34 0.769054 -0.415623 0.442791 -0.503786 0.644995 1.07651 0.298576 1.56456 -2.82566 -1.11675 -1.39543 -0.836012 -0.195815 
-8.47585 -4.30526 -2.78372 -2.44731 4.18262 4.82693 4.89895 3.66492 2.32805 5.36261 -6.45543 0.166933 12.0672 0.497541 0.148188 0.749536 0.16856 -0.018475 -0.483902 0.113071 0.424641 -1.90896 -0.285283 -0.863217 -0.509232 -0.114778 
