-1.53146 2.91181 3.56906 -1.41293 -7.5265 5.25856 3.10702 -3.22648 -4.47849 -1.46597 0.0381329 2.30267 11.458 0.161 0.373307 -0.675513 -0.479244 1.24504 0.745444 -1.27868 0.754001 0.643953 -0.637496 0.331052 0.409834 0.00937843 
-0.46769 4.80309 2.25857 -2.00894 -5.76146 3.33439 -6.44742 -2.49097 -0.369739 -1.25759 -0.683912 7.01796 11.6033 -0.151182 -0.0116198 -0.420235 -0.257697 1.82598 1.4157 -2.07667 -0.250115 1.68637 0.0300461 -1.3183 -0.698265 0.00790997 
-1.25835 3.8327 0.846745 -3.51114 -2.18382 9.94787 1.49083 0.175773 -3.3131 -4.75765 2.05442 1.99419 11.4322 -0.425141 -0.988952 0.0229034 1.37083 2.2247 1.86646 -0.823621 0.33296 2.00483 -0.027567 -1.66594 -1.10882 0.000288296 
-2.42393 2.39326 2.82905 -1.65231 -1.06797 9.99238 -6.46824 -6.17818 3.37068 0.330093 -7.56152 -1.03442 11.5104 -1.07997 -1.67089 0.841595 1.54884 1.2831 0.788311 1.243 0.787389 2.01273 1.03984 -1.40979 -2.01401 -0.0112678 
-2.67905 -0.828038 3.39834 5.26291 1.25023 11.2619 -1.00068 0.281924 3.67543 -2.39765 -4.85277 0.784748 11.5059 -1.81269 -1.9199 0.495232 -0.40543 -0.607774 -1.53519 0.708773 0.635341 1.76953 3.22256 -0.689622 -1.04162 0.0990016 
-5.1572 -1.22102 5.19075 1.34824 -1.063 6.61894 1.01334 1.3929 6.19965 2.76163 -4.27926 -2.44739 11.5101 -1.89847 -1.39241 -1.02895 -2.1582 -1.49433 -2.09534 1.3411 1.97923 -0.348949 3.27326 1.37926 -0.318771 0.188939 
-8.95514 -3.95965 2.14205 -7.03856 -5.22517 3.95866 1.2939 -0.433057 4.12007 10.1394 -3.03482 -2.50741 11.9274 -1.41868 -0.963332 -1.57433 -1.48714 -1.8634 -1.59316 0.997928 1.91541 0.239648 2.01407 1.17979 1.81176 0.0402338 
-8.77822 -3.00296 -1.68754 -6.29259 -5.30191 3.16728 -0.910023 4.07545 1.40362 10.4279 -1.57418 -0.982195 12.2443 -0.213196 -0.99991 -1.93552 0.339334 -0.0716962 1.30266 1.30168 1.84204 -0.0093558 -0.955204 1.66916 2.23784 -0.0892465 
-7.96194 -4.75373 -1.03416 1.64763 -5.94732 5.0219 4.95064 8.51771 7.27169 3.83958 -0.306377 9.11097 11.3399 1.4148 -0.3938 -1.02315 2.69044 2.53695 2.04938 0.517309 1.39387 0.611525 -2.40163 -0.0899632 0.823344 -0.141442 
-6.71978 -5.82353 -2.89875 -1.29819 -1.06041 12.6006 5.69337 6.1277 4.57706 1.1355 2.7023 2.93263 11.3576 1.59652 -2.14678 -0.69053 0.517638 4.57304 1.05896 -2.14751 0.0364345 0.57762 -1.76704 -3.37216 -1.0829 1.07721 
-2.91036 -4.51837 -2.3681 3.91645 5.33883 9.48889 0.578749 5.51018 5.59097 2.77742 -5.62288 -0.348104 11.6635 1.40324 -2.03132 -0.0229008 -0.589511 5.80565 -0.0859463 -4.46243 -0.534712 -0.0818112 -0.285597 -6.16472 -2.03281 1.88017 
-3.32139 -13.8545 -4.47322 -4.83881 11.9202 6.22858 -9.46165 5.76139 5.13208 2.12376 -15.7767 -1.66717 17.4686 0.935706 1.8143 2.13834 1.91603 3.40392 -3.29354 -3.63941 -0.278641 -1.64424 -0.615417 -5.49074 1.00355 1.52533 
-2.64491 -10.8948 -0.36143 0.470385 16.5906 7.7782 -9.784 6.0273 6.58513 1.91747 -21.8905 1.24683 17.6853 0.594686 4.39312 2.54258 2.53051 1.74266 -3.98086 -1.59308 -0.753659 -3.66404 -1.31408 -2.43215 2.92366 0.88038 
-2.17397 6.43622 6.78963 10.005 10.3333 -3.0117 -7.32229 4.47593 -4.14124 -1.51161 -16.6176 7.15291 15.9734 1.35576 5.82664 2.05589 3.47816 0.724622 -4.01625 0.399313 -0.86277 -4.18201 -1.58454 1.09338 2.78675 -0.225115 
-0.51064 7.30186 4.71339 9.14709 14.8456 -5.7953 -8.45631 2.38461 -8.09258 -1.97531 -17.3632 9.86014 16.813 1.84289 3.32254 0.441768 1.68977 -0.0837759 -3.64131 0.203573 -0.89668 -2.78996 -1.57618 2.88639 1.18881 -0.0830388 
2.39027 6.18031 3.26884 8.21365 16.4158 -7.06595 -8.12893 3.26889 -8.43913 -3.85256 -12.5735 7.95994 16.7791 1.97039 -0.375 -0.207037 -0.289346 0.0999342 -1.07785 -0.387614 -1.52171 0.705305 -0.353095 2.45417 -0.948413 0.233399 
4.2874 5.8458 3.6078 9.81494 13.1305 -8.40125 -8.36282 2.14743 -5.21574 -4.79295 -9.48057 6.78734 16.8673 1.7688 -0.493241 0.322284 -0.0608953 -1.66802 0.209152 -0.0740858 -1.03187 1.39558 -0.852952 2.50742 -1.70924 0.140322 
5.27898 5.28925 6.30724 8.22437 11.6905 -7.09796 -9.30711 -3.014 -2.05314 -1.86826 -8.28806 3.94724 17.1133 1.49936 -0.336552 -0.32793 1.06441 -2.2379 0.74936 -1.12794 -1.53361 2.2873 -1.84734 2.56346 -1.9064 0.217522 
6.889 5.28118 4.80561 8.83726 8.86818 -4.73353 -8.23765 0.366716 -4.3077 -7.23222 -6.9688 3.3203 17.3476 1.28792 -0.12713 -1.5992 0.470593 -0.381795 0.26804 -1.29687 -0.706301 0.231612 -1.3303 2.2958 -1.1879 0.240468 
8.58626 4.77986 1.03029 14.0245 7.35748 -5.15301 -13.8312 -3.50883 2.54336 -11.8696 -1.01208 0.16148 17.6266 0.992503 0.242738 -2.08177 0.028838 0.292072 -0.721461 -0.362261 -0.476773 -1.42128 -1.24588 2.6598 -0.269051 0.233434 
9.07336 5.46485 -1.74971 9.26783 13.388 -8.03352 -12.5851 -1.13667 -6.35593 -6.44378 -1.63959 2.7407 17.8129 0.768668 0.158846 -1.99597 -0.706824 0.549475 -0.876594 -0.0269827 -1.49902 -1.6201 0.123765 3.28613 0.251766 0.237915 
9.14931 6.41111 -0.823961 8.15327 10.8909 -9.05527 -8.94468 -4.64618 -8.13543 -8.49187 2.34634 2.89178 18.0478 0.662183 0.116686 -1.32895 -1.69092 -0.0311572 -0.344056 0.857578 -0.655825 -2.56201 0.197371 3.73856 0.863333 0.235745 
10.4508 5.25979 -4.24711 8.23876 9.84882 -7.16537 -10.8158 -6.55973 -7.06883 -8.30228 7.78264 3.21398 18.3266 0.831583 -0.191287 -1.34412 -1.36168 -1.0976 0.45518 0.77831 -1.19901 -0.833824 -0.426147 4.56577 -0.0850626 0.256334 
11.2084 5.46582 -4.36575 6.08442 8.97129 -7.30736 -10.428 -4.07642 -9.91022 -9.95353 12.9696 4.2415 18.5485 0.913908 -0.340673 -1.73965 -1.88126 -0.874128 0.351041 0.625353 -0.263298 -0.832172 0.771063 3.52328 -0.101898 0.273817 
12.2017 4.98106 -6.6994 3.49386 8.85984 -6.63157 -7.95192 -7.41661 -9.63765 -7.84368 15.8776 1.64053 18.8442 0.578985 -0.283956 -1.16946 -2.51562 -1.22208 0.00736866 1.05371 0.501463 -1.32098 1.86543 1.90369 -0.109559 0.274984 
12.8434 4.84711 -8.29605 1.1194 7.0148 -7.56696 -7.24987 -5.53422 -11.0119 -4.86586 15.9152 3.16902 19.158 0.38977 -0.713427 -0.968949 -2.49576 -1.21209 -0.186003 0.475564 1.10319 -0.921702 2.89731 0.507982 -0.219959 0.232117 
12.5283 4.14936 -8.12926 -1.85682 4.71668 -6.99873 -7.13631 -3.32351 -13.1229 -1.51898 15.8283 3.20243 19.3967 0.254704 -0.972382 -0.463737 -2.39222 -0.6871 -0.359941 0.14572 1.49616 0.356758 2.30031 0.12169 0.0951602 0.1574 
12.994 2.31453 -8.49556 -3.71903 4.98242 -8.0538 -8.45795 -0.607006 -12.7761 1.37068 15.5342 2.36076 19.4328 0.150969 -1.28458 -0.131569 -2.30674 0.432307 -0.435482 0.67713 0.53142 1.76685 1.30322 0.813106 -0.956227 0.109532 
13.3999 1.38544 -8.91832 -6.04804 6.44053 -8.18786 -6.61928 -2.39942 -6.97175 0.539595 16.6766 2.52046 19.4938 0.061516 -1.29305 -0.528272 -1.4458 0.545435 -0.299272 0.912882 0.162652 2.55218 0.573929 0.969445 -1.61192 0.118391 
13.1624 -0.193833 -8.55936 -8.31869 8.31441 -9.14981 -4.12274 -3.33917 -5.25321 0.620939 19.5566 -1.27114 19.6571 -0.263896 -1.15288 -0.517437 -1.12704 -0.0876793 0.108057 1.04409 0.335202 2.12778 0.100378 1.5012 -2.58522 0.180389 
12.7516 -1.06168 -10.7387 -6.786 5.77786 -7.94708 -4.7395 -1.14417 -4.12344 1.72554 18.6643 -3.04121 19.8766 -0.428582 -1.24152 -0.383484 -1.17365 -0.627381 0.12269 1.09809 0.718971 1.85225 -0.103671 1.38449 -3.74308 0.235392 
11.9987 -2.22633 -10.1725 -8.98525 4.87536 -7.6339 -4.17736 0.441377 -3.56135 1.2796 22.0463 -7.7845 20.1434 -0.524323 -1.21127 -0.473968 -1.01035 -0.984238 0.208672 1.16552 0.803078 2.45956 -0.484308 0.41794 -3.89783 0.250472 
11.8389 -3.80591 -10.0291 -11.583 5.02315 -8.33236 -1.10152 -0.694839 1.44358 -0.308089 22.3542 -12.9383 20.4276 -0.631953 -1.24413 -0.0947411 -1.32386 -0.263036 -0.137995 1.72639 0.45353 2.90022 -0.787118 -0.520491 -3.96113 0.191531 
10.9972 -4.87805 -11.284 -10.9719 3.77057 -7.91381 -0.114106 0.45156 4.2611 -0.783785 19.8013 -15.8118 20.634 -0.766708 -1.12976 0.0111263 -0.374335 -0.214642 0.168888 1.47373 0.240308 2.66078 -0.511222 -2.15458 -3.06952 0.0347685 
10.0926 -5.95649 -10.6567 -12.412 5.01507 -8.4971 1.8608 1.11839 6.46645 -1.17836 17.1843 -18.8332 20.5889 -0.799509 -1.00548 0.362122 0.313006 -0.00783951 0.312353 0.949847 0.237106 1.20855 0.179203 -2.56698 -2.09614 -0.0874029 
9.03827 -6.79984 -9.80314 -10.4425 3.80619 -6.70709 1.71015 0.736304 7.23113 -0.841376 13.8584 -20.1846 20.2366 -0.661008 -0.734979 0.55272 0.0664331 0.516103 -0.0491783 1.0123 -0.394197 0.386552 0.524145 -2.36395 -1.38242 -0.129068 
8.8208 -7.8724 -8.95897 -10.2827 4.96614 -7.37396 2.73559 0.348319 6.00131 0.616723 12.4908 -21.2325 20.1893 -0.384494 -0.53875 0.345846 0.113065 0.47889 -0.171016 0.614706 -0.392469 -0.32486 1.04483 -2.08542 -0.916087 -0.0778753 
8.32806 -7.59499 -9.36926 -11.7044 6.37555 -8.72128 4.51 -1.13439 6.42643 0.939399 10.3284 -21.5242 20.1884 -0.18756 -0.34028 0.0941962 -0.0120472 0.534593 -0.828377 0.878897 -0.280746 -0.368436 1.08104 -1.85866 -0.376342 0.00444946 
8.52525 -8.25267 -9.14441 -11.2157 6.12484 -8.34509 3.5344 0.0913901 5.2445 3.15539 8.52225 -22.7439 20.2236 -0.236988 -0.185763 -0.102984 0.439381 -0.0799038 -0.7877 0.588832 -0.000311971 0.00514529 0.736556 -1.91172 0.180762 0.0143335 
8.24824 -8.31111 -9.23943 -10.0362 5.8998 -10.3634 5.70522 -0.53896 5.76736 3.2945 6.54936 -21.3107 20.2417 -0.118697 -0.290593 0.207708 0.876 -0.531281 -1.04117 0.639034 0.274151 0.091363 0.638193 -1.89482 0.778154 -0.00815868 
7.67577 -8.44316 -9.5388 -8.9199 4.8045 -10.4914 5.08214 0.0490437 6.35657 3.12195 4.82168 -20.4355 20.2343 -0.235049 -0.158666 0.437777 1.07646 -0.610273 -1.74181 0.800897 0.0860565 0.71038 0.108499 -1.84213 1.27302 -0.0205351 
8.15932 -8.95271 -8.13353 -8.47228 4.37932 -12.854 6.9313 0.257537 6.3272 4.14708 2.70455 -18.7876 20.1423 -0.284192 0.00531802 0.838719 1.27408 -0.602665 -2.15775 -0.0999407 0.894554 1.25322 -0.996684 -1.05478 1.55016 -0.046508 
7.39447 -8.7252 -7.50848 -6.61531 3.83372 -15.8089 6.92585 0.123424 8.51647 3.27159 1.234 -17.6403 20.1707 -0.400594 0.196184 1.49581 1.12634 -0.829965 -2.65751 -0.491881 1.39378 1.64279 -2.14249 -0.630177 2.87364 -0.0534563 
6.96793 -8.1435 -6.061 -4.81809 3.37187 -18.4934 4.28366 3.89662 10.9535 -1.76374 3.06932 -14.9575 20.041 -0.56478 0.513637 2.05835 0.73514 -1.73257 -1.96781 -0.870507 1.46556 0.902655 -1.90933 -0.641767 4.36088 -0.0727285 
6.26849 -7.86684 -3.096 -5.11532 1.1584 -20.9592 3.94655 5.1984 12.2574 -4.6351 1.48841 -7.98237 20.0177 -0.682721 0.884207 2.85068 0.401926 -2.76791 -1.11167 -1.02933 0.83115 -0.749798 -0.212016 -0.998545 5.43834 -0.0803677 
5.89841 -6.8137 -0.0480324 -5.54657 -2.94589 -20.1179 4.06841 5.04786 8.97004 -1.44621 -0.631493 -1.81218 19.8551 -0.787254 0.997557 3.65566 0.421439 -3.20394 -0.167933 -1.0487 -0.658004 -2.62274 1.851 -1.35654 5.24122 -0.122928 
4.51562 -4.96906 3.73843 -4.24144 -6.84695 -20.555 1.8868 3.70355 5.75922 2.05275 -1.90832 2.97875 19.8617 -0.824096 1.20942 3.70659 1.02432 -3.06345 0.991167 -1.17288 -1.18691 -4.44204 2.479 -1.0247 3.84649 -0.167655 
3.90809 -4.6046 8.80011 -3.14783 -8.64517 -19.5352 0.0700189 1.35402 1.08887 4.14732 -2.015 5.76806 19.5043 -0.936988 1.48168 3.11604 1.44054 -2.50277 1.51006 -1.03321 -1.30653 -4.81108 1.15547 -0.255051 2.4257 -0.132544 
3.14317 -2.92428 11.0129 -1.1931 -11.3092 -16.2947 0.0813335 1.11077 -6.01226 4.96312 -2.94335 7.45996 19.3548 -1.2145 1.98793 2.18833 1.54783 -1.61787 1.88504 -0.628685 -2.05296 -4.45845 -0.339649 0.557232 1.39427 -0.088839 
1.8997 -0.427701 11.895 0.131965 -13.2286 -14.6977 -0.19488 -0.188408 -9.1996 2.87594 -1.38923 8.0757 19.4459 -1.48543 2.63373 1.06523 1.57777 -0.956881 1.42722 -0.46423 -2.14993 -2.84031 -0.914886 0.627011 0.306694 -0.0355644 
-0.552662 2.88215 13.1326 1.8578 -12.6446 -13.5486 -1.12417 -5.79005 -11.3888 0.990187 0.564955 8.79628 19.4468 -1.47108 2.70331 0.660992 0.764023 0.178325 1.14613 -0.519651 -2.03204 -0.631846 -1.06838 0.000281876 -0.654158 -0.0820524 
-1.67113 5.66081 13.0664 3.21557 -12.7619 -13.7722 -1.64838 -5.94522 -10.4244 1.55935 -0.634098 6.63337 19.2805 -1.12033 2.26179 0.267325 -0.00312549 1.15168 1.27596 -0.200115 -1.54736 0.370846 -1.06151 -0.95816 -1.62469 -0.171844 
-2.42684 7.54803 13.7321 1.08521 -10.651 -11.0268 -1.79017 -6.171 -8.55909 0.279523 -3.31951 4.91034 19.0272 -0.492443 1.70842 -0.112006 -0.689515 1.74 1.16904 -0.0257029 -0.945516 0.900216 -1.02713 -2.03278 -2.38476 -0.252511 
-2.76485 8.54832 12.9318 0.502631 -8.467 -9.57876 -0.862453 -7.73472 -8.76023 -2.07626 -4.2378 1.89522 18.7964 -0.1588 1.30526 -0.175353 -0.858453 1.9819 0.712508 0.282593 -1.38776 -0.168728 -0.900882 -1.78903 -2.35536 -0.304766 
-2.46802 9.98052 12.6399 -0.233307 -6.09203 -9.80009 -1.64565 -9.62288 -7.71981 -2.32764 -7.79708 -0.758452 18.4263 0.0794278 1.37849 -0.434832 -0.0976865 1.60855 0.00685272 1.2568 -1.65058 -1.8921 -1.02395 -0.408121 -1.39642 -0.365676 
-2.44454 10.9708 12.7357 -0.417438 -5.13183 -10.823 -0.307675 -11.1581 -11.6877 -1.64148 -7.34044 -2.30901 18.0572 0.458185 1.19044 -0.700984 0.446309 0.582754 0.0341715 1.7501 -1.41804 -2.11534 -1.02641 -0.0765104 1.07422 -0.583723 
-2.18986 13.2292 11.656 1.05682 -4.27578 -10.3704 4.21642 -12.7122 -16.5559 -5.05761 -3.80879 0.0303345 17.5685 0.332553 0.671863 -1.51514 -0.0914575 0.323654 0.678845 0.72443 -0.761348 -1.16462 -0.486082 -0.34349 2.13083 -0.855465 
-0.613003 12.8761 9.91885 2.08912 -6.46135 -9.12273 4.95699 -13.2803 -14.9189 -5.8433 -6.6145 6.87193 16.3067 0.126006 0.171485 -1.77805 0.159754 0.210759 0.301522 -0.378662 -0.521464 0.6289 -0.52617 -0.0269873 2.09793 -0.873926 
-1.72102 12.3872 6.47263 -1.94387 -3.80901 -7.25602 -0.65583 -12.3685 -11.9273 -2.65713 -9.8775 5.30524 15.0242 -0.707576 -1.60065 -2.48696 0.203999 0.548929 2.57017 -0.878864 -0.243587 2.16288 -1.31895 -1.32065 -0.484802 -0.982554 
-2.04893 12.2493 6.43717 1.88168 -4.31142 -10.8726 0.235142 -13.9372 -10.8575 -5.47257 -4.44102 5.5432 14.9597 -1.81977 -2.78618 -2.93375 -0.916854 0.561187 3.28621 -0.943974 1.05501 3.9911 -0.471389 -1.17615 -2.33925 -0.876554 
-5.00978 5.5394 0.962076 2.18053 -2.6061 3.35538 2.18303 -13.6016 -7.77219 -11.8377 -11.4988 -1.72931 13.3292 -2.70569 -4.03434 -3.17022 -0.986553 -0.0908008 4.37284 1.12429 3.7899 4.71241 -0.154982 -0.799554 -1.79213 -0.719098 
-8.0675 2.36915 -1.99465 -4.55736 -4.25687 2.00263 -1.18231 -7.38869 2.95903 -3.60996 -11.6846 -1.30706 12.7714 -2.58053 -4.20121 -3.50768 -1.60616 0.492756 5.02326 1.05767 6.13016 6.17333 2.64883 0.349586 -0.409166 -0.642363 
-12.2402 -2.84445 -5.16257 -3.65712 -4.29029 8.17056 5.67435 3.30668 4.72651 -4.36335 -10.2535 -0.230296 12.5228 -1.64233 -2.84435 -2.62569 -0.89022 0.501584 2.82457 0.615973 5.16992 4.31638 3.56469 2.34819 1.19109 -0.263193 
-11.3364 -4.56484 -8.03892 -3.23031 -1.00555 11.8361 3.77782 8.2594 13.7598 4.03438 -3.31574 2.74786 12.151 -0.403837 -1.42704 -1.50551 0.671206 0.987732 1.57302 -0.136504 1.66151 0.525578 1.20968 2.61039 1.19266 -0.123159 
-11.587 -5.21535 -9.14421 -2.93409 -1.72384 12.5615 2.78283 4.42393 8.40929 2.16355 -3.94228 2.19867 12.3234 0.189013 -0.639557 -1.01294 0.0808907 -0.399904 0.400311 -0.338143 -0.627501 -1.49683 0.947893 1.81807 0.908765 -0.0528499 
-10.4133 -3.58058 -7.53137 -1.56284 -0.601429 7.67227 -0.419071 0.360255 3.74552 -0.82503 -1.78827 3.44176 12.2553 -0.118565 0.196805 -0.132153 -0.355525 -1.51596 -0.089197 -0.351186 -0.719976 -1.15629 0.676996 0.0565034 0.399993 0.0958817 
-11.7567 -6.53436 -10.481 -4.0864 -6.49187 12.254 6.08208 4.11875 2.24949 2.80583 -1.92685 3.96658 12.2065 -0.228881 0.732283 -0.568451 -0.393086 -2.15039 0.0498796 -0.585469 0.880084 -0.79498 0.516858 -0.0284593 1.41934 0.264076 
-11.8444 -2.92131 -8.03127 -4.43178 -6.20136 11.5439 0.372266 4.81211 11.0583 7.09823 -4.04095 3.86387 12.6889 -0.206704 0.825459 -0.267896 0.253236 -1.9851 0.0313327 -1.4083 1.28032 -0.230623 0.713927 0.240492 0.844778 0.31861 
-12.0159 -1.88357 -11.7365 -3.46505 -9.67584 10.8751 -0.540187 6.59842 0.77801 0.786216 -2.95824 9.08433 13.427 0.268816 0.702123 0.218951 0.896188 -0.720298 -0.36802 -2.32324 0.391221 -0.0926714 0.178735 1.1649 0.347466 0.198201 
-11.3172 -1.77869 -8.24311 -0.607342 -8.93496 8.51841 -4.14945 5.52201 3.32815 3.75441 -0.0701153 5.10677 13.2381 0.506626 -0.0832305 0.578158 1.41359 0.0158264 0.218983 -0.319718 -0.671181 -0.802619 -0.0167162 1.06957 -0.618549 -0.0487633 
-10.6762 -3.59505 -9.28037 -1.51768 -8.72656 11.9267 -3.27327 5.7199 5.65121 5.37141 1.91223 5.08246 12.9229 0.185932 -0.596442 1.1545 1.04746 0.600828 1.02458 0.286813 -0.882255 1.27485 0.680306 -0.551644 -0.738673 -0.219718 
-9.98108 -2.48172 -6.36856 1.66247 -6.59686 12.113 0.140218 1.89546 4.6086 4.72205 -1.12832 2.77206 12.6972 -0.447423 -0.245574 1.47878 0.995209 0.543832 0.550435 1.71232 -0.614892 0.26027 -0.958655 -0.978098 0.832282 -0.125524 
-11.7543 -4.51426 -6.90128 0.637354 -7.84075 14.2007 -1.25095 4.00042 6.51203 3.70393 -5.18736 6.55832 12.5989 -0.851367 0.346331 1.292 0.684179 1.2916 -1.24272 0.286125 -1.04633 0.0678399 -0.501708 -0.522848 1.26904 -0.00594206 
-13.0153 -2.54695 -2.03877 3.29119 -6.65871 10.1336 3.40099 3.30729 4.19909 -0.205122 -1.41081 8.53025 12.7725 -0.627735 0.532201 0.792576 -0.325903 0.940009 -2.78853 0.785814 -0.298994 -0.604821 0.160041 0.385165 -0.12496 0.192809 
-13.4159 -1.83078 -4.98527 1.08886 -2.23763 6.7028 -3.47303 -0.21766 6.19516 5.32645 -0.56077 8.54856 12.8555 0.346106 0.76504 0.96009 -1.2814 1.28668 -3.34954 1.24439 -1.06638 -2.19887 0.123017 0.118776 -1.92042 0.242994 
-12.2889 -1.16245 -3.36368 -0.192802 -4.69838 1.91931 5.18033 2.50953 1.74293 4.71099 -1.51579 1.15214 13.5329 1.97566 0.496447 1.20074 -0.343656 0.55268 -1.30167 0.215781 -1.14607 -1.98893 -0.433376 -1.12971 -2.84525 -0.092086 
-10.3869 -1.38131 -1.43837 -4.02765 -2.38753 1.56014 4.08131 -0.932579 -3.25422 1.86096 -4.54099 0.645255 13.4336 2.09135 -0.780095 1.9532 1.44866 -0.227795 0.00721641 0.40114 -0.310399 -2.44229 -2.19531 -0.882471 -0.891004 -0.255957 
-4.65147 -0.289452 2.19149 4.13116 -3.82036 6.19654 0.702718 -2.06561 -1.02085 -0.639251 -5.06924 -1.74433 12.023 2.02157 -1.2333 1.33736 2.12601 -0.452298 1.99257 -0.888074 0.355851 -0.801515 -0.544055 0.832461 1.72065 -0.258528 
-6.7779 -6.16776 2.00312 6.17019 -3.81561 4.60027 0.771473 0.517911 -4.63439 -2.97499 -3.1964 5.54177 12.3307 1.62998 -0.822629 1.03812 2.16536 -0.64237 1.46716 0.347549 1.14154 0.310048 2.26524 1.9686 1.99631 -0.0758791 
-3.98556 -4.93573 1.60236 5.3383 -6.24583 10.3621 2.39488 3.56354 -1.57456 4.4087 1.97421 7.30713 12.7917 1.2802 0.415901 1.72604 0.220934 -0.0393785 0.18699 0.839107 -0.196449 -0.545714 1.53439 1.45502 0.518721 0.110046 
-2.56996 -3.17132 4.04678 6.19557 -4.38665 6.81313 4.97298 1.96056 -1.42712 10.6632 1.7803 6.10107 12.6699 1.78797 1.9911 2.23853 -0.677684 -0.317269 0.820453 1.82122 -0.216169 0.863267 0.136394 0.463927 -0.952286 -0.0536551 
-0.354414 0.291833 9.79989 5.22314 -3.73174 6.02506 2.7975 -3.76917 -5.35305 0.213592 -0.282501 0.569634 12.4036 1.18964 1.45936 1.30586 -1.24975 0.294886 1.78615 2.11689 0.112471 1.65869 -1.49986 -1.17695 -1.49043 -0.152401 
0.346371 1.17394 9.09703 2.83935 -6.659 10.8711 9.67624 3.10342 1.57119 -0.195468 0.25159 4.14909 12.2565 0.742197 0.729795 -0.0897373 -0.929519 0.29047 1.27298 0.919487 0.560134 2.13756 -0.95049 -0.487287 -1.1917 -0.148998 
0.504476 0.18843 5.60653 0.767669 -3.63522 17.2639 10.6277 3.55446 5.21975 2.33873 -3.14617 0.830969 12.2364 0.0630071 0.231903 -1.03368 0.0729128 0.941943 0.944448 -0.0612405 0.91737 1.95771 1.37295 -0.20803 -1.0594 -0.103806 
0.71158 0.529357 5.69477 3.77571 -2.98256 7.55861 5.65531 1.09941 3.97427 4.84818 0.775704 0.0119057 12.0085 -0.0808466 0.214442 -0.708835 0.543846 0.591437 -0.00313881 -2.09068 0.0016156 0.74429 1.16651 -0.876833 -0.806158 -0.102058 
-0.221983 1.77364 6.3326 5.11952 -0.860244 12.4035 4.50176 1.81968 3.23397 4.55651 -1.58471 -2.65878 12.0086 -0.0341705 0.722261 -0.205546 0.572024 0.235516 -0.360889 -1.44928 0.833917 -0.260147 -0.0184231 -0.00488608 0.363 -0.0876062 
0.305367 1.45355 5.18982 3.38265 -5.0893 13.2855 2.2858 3.97889 6.28553 4.5282 -4.91331 1.86317 11.8601 -0.0879471 0.918375 0.140027 0.164735 0.660556 -0.0157642 -0.362926 0.773455 0.0520129 -0.296304 0.0103722 0.353743 -0.0646022 
0.536729 3.33764 4.83128 3.82432 -1.40427 12.596 5.06605 6.28431 2.76339 2.4066 -0.326094 1.72033 11.8726 -0.103171 0.838529 0.571328 0.419768 -0.0902145 -1.33129 -0.31374 -0.143061 -0.246149 -0.177563 1.05698 0.450111 -0.0841592 
-0.107512 4.33924 7.14556 5.24699 0.592231 7.38357 3.55854 2.73437 4.46963 4.44162 0.198257 -0.408936 11.7535 -0.594769 0.0172071 0.522799 0.538356 0.296644 -0.713974 0.949724 -0.46658 -0.908772 -0.65492 1.0116 -0.311772 -0.0454643 
-0.5314 4.52344 8.21136 6.28619 -4.15208 8.69805 2.29669 1.72663 2.91117 3.71199 1.14439 0.727834 11.6411 -0.752231 -0.793785 0.0451111 0.21689 0.298625 0.862627 0.730478 -0.653892 0.0521277 -0.559253 -0.621 0.399327 -0.0462783 
-2.13441 0.946681 6.11377 4.84349 -2.23217 11.6646 8.4191 3.92483 1.66778 0.600908 -0.590559 0.800561 11.7485 -0.278942 -1.01463 -0.741242 0.172658 1.01734 1.73137 1.42707 0.994523 -0.916407 -1.96121 -1.16371 0.652324 -0.0169772 
-2.21097 1.06499 5.57273 5.11052 1.50106 14.7686 6.28816 2.41962 4.42495 1.53069 -3.03668 3.11222 11.6437 0.148936 -0.265022 -0.986365 -0.0651069 1.58005 1.09824 0.129328 0.446485 -0.283977 -1.87355 -1.52556 -0.22799 -0.0124405 
-0.662432 0.99531 4.75867 6.69811 2.85238 13.0052 8.69818 7.36049 -0.869298 -4.27379 -3.52973 1.66049 11.6673 0.16459 0.481949 -0.326849 -0.0656622 0.59387 0.163635 -1.24208 -0.595017 -0.0912794 -0.526416 0.541385 0.668424 -0.0809679 
-0.522709 3.17402 3.95709 5.03335 1.20587 13.519 2.80379 2.24123 2.75982 -3.2184 -5.0138 -0.842081 11.6195 -0.3669 0.143086 0.00424819 -0.429269 -0.213941 -0.396973 -0.255203 -0.345331 0.533674 -0.557259 -0.79967 -0.222941 -0.0243964 
-2.1556 2.30191 5.28735 4.55377 0.884777 13.1076 3.95087 1.03894 2.04394 0.343375 3.10492 6.11983 11.3557 -0.815455 -0.594705 -0.0659196 -0.915176 0.0492039 0.43562 -0.539451 -1.25661 1.30673 0.193563 -0.49009 -0.371122 -0.0177463 
-3.29889 1.12712 5.32963 4.03635 1.41516 12.7325 7.3858 3.85374 5.6367 -3.56419 -10.3524 -0.232154 11.6775 -0.706691 -0.572546 -0.137778 -0.3023 0.383675 -0.103628 -0.0876786 0.427602 0.718347 0.435228 0.853853 0.66534 -0.00677853 
-3.35162 -0.954765 3.7428 2.62073 2.99376 15.5765 3.70993 0.271182 4.22593 -3.13309 -3.3109 -0.500081 11.5496 -0.149212 -0.119291 -0.949275 -0.122783 0.449005 -1.71394 -1.06282 0.441914 0.0224181 -0.193903 0.678746 0.410774 -0.0404207 
-3.45816 1.93963 4.04047 4.48836 2.06975 11.7664 2.48587 4.76312 5.26057 0.695974 2.46338 5.79458 11.4887 0.148332 0.259813 -1.08454 0.0448113 0.258344 -2.59787 -1.52214 0.0402809 -0.846703 0.19928 2.4288 1.64454 -0.116046 
-2.82203 1.2992 1.18555 3.71385 2.80251 5.02093 1.08672 2.79382 2.3441 -2.75622 0.0907865 5.16034 11.248 0.169531 0.38675 -0.796942 0.141171 0.0350249 -2.78566 -0.664556 0.307599 -0.668013 -0.269846 0.443079 1.06866 -0.0843796 
