-7.54007 0.459247 -3.52415 -1.11375 6.1432 6.21936 3.59855 -1.01489 -3.68348 3.15542 0.464112 -0.897228 11.5519 0.00322571 -0.510257 -0.344922 0.38891 -0.850266 -1.76378 0.303273 1.25431 1.36568 1.92334 -0.901964 0.151291 -0.0403979 
-7.33413 -0.0472953 -4.35782 0.749533 4.48423 1.86909 5.79404 1.43106 0.225315 7.19482 -1.64279 0.672096 11.457 0.104323 -0.51214 -0.435675 0.612472 -0.0659188 -1.62491 -0.243121 1.56468 1.74836 0.706186 -0.961796 -0.0776179 -0.048123 
-7.62691 -1.83877 -4.83193 -0.100834 2.72136 -0.424399 4.01717 4.03368 1.1905 10.7524 -2.99226 -0.925435 11.3974 -0.025831 -0.987376 -0.428346 0.571902 -0.560475 -1.5344 -1.71426 2.0268 1.85152 0.540133 0.3114 -0.0503814 -0.00243626 
-6.97503 -0.952449 -5.04864 1.44216 7.52453 1.41668 2.17364 4.28423 2.62132 2.88784 -2.61668 -1.27121 11.3886 -0.168031 -0.976801 -0.139281 0.251356 -0.0126169 -0.634086 -1.02391 0.984038 0.846077 -0.533806 0.875161 0.229875 0.0505082 
-7.84877 -4.02506 -5.32047 1.39945 1.82067 -1.22646 -3.16253 7.69255 4.3761 8.00957 2.50806 -0.17748 11.5739 -0.0937307 0.0245187 0.485631 0.750276 -0.605426 -0.195235 0.78823 0.503208 0.38754 -0.657823 0.207698 0.964015 0.0394736 
-8.06335 -3.83816 -4.80995 1.25617 4.87149 -0.900316 4.26435 4.52182 2.8629 5.89722 -0.0171435 1.4475 11.6212 -0.190876 0.677502 1.04924 0.257101 -1.1884 -0.365735 0.777252 -0.802596 -0.608557 -0.0355291 0.122494 0.280424 -0.00243521 
-7.5514 -0.273318 -2.52311 3.74354 1.02075 -0.242072 6.91297 6.43092 3.00741 5.95863 -3.25354 2.53528 11.4784 1.23836 2.29757 1.14463 -0.231632 0.168352 1.5497 1.25383 -1.67318 -1.35119 -1.34098 -1.33545 0.393809 -0.0568787 
-8.07809 0.559192 -1.20111 1.55562 1.98251 -0.904184 1.02215 0.902065 0.262876 3.73566 0.876585 -1.22548 11.4242 3.57973 2.3417 -0.628928 -3.19889 -0.566818 2.8475 -1.49303 -1.64575 -1.17365 -2.54713 1.02476 0.412858 0.401655 
-1.6496 5.26413 -1.40176 0.0915651 4.10692 6.52397 4.72772 1.1365 -1.07981 2.38544 -4.61603 3.12805 11.3881 4.63947 1.79396 -2.3222 -4.8722 -0.648485 2.23829 -1.03966 -2.00708 -0.582164 -3.78043 2.82671 0.553911 0.834354 
6.88442 5.10164 -8.51527 -12.9123 0.494312 9.95415 -2.1082 -1.05969 -0.961733 -5.05181 5.7879 3.2154 13.6747 4.4084 1.06817 -1.84975 -4.1345 -2.10208 1.08051 0.248472 -0.761825 -0.205398 -3.48256 2.72604 0.924901 1.03809 
8.16471 6.42526 -10.477 -13.3835 -1.47758 5.5202 3.27983 -2.62359 0.708894 -8.5498 8.42438 3.0844 14.5249 2.59896 0.247756 -0.269801 -2.16389 -3.08502 -1.05129 0.4629 -0.400598 -0.440039 -1.66165 2.23444 -0.614048 0.888656 
9.05674 5.3195 -5.91226 -12.3793 -5.73564 5.00024 2.98846 -1.02701 -1.65847 -8.2095 7.98659 3.42085 15.0462 1.04242 0.398818 1.68953 0.820385 -2.92501 -1.75679 2.27373 0.568197 -1.17725 0.701507 -0.921322 -1.5879 0.390545 
10.259 6.39398 -4.05227 -10.9944 -8.20322 3.74448 4.49389 -0.882826 -2.93164 -4.34395 5.4568 -0.044915 15.1456 0.773562 0.368269 2.08726 1.30802 -2.5613 -0.587123 1.56072 0.0541761 -0.609199 1.57976 -2.17197 -2.29042 0.150799 
11.0494 7.11137 -3.27998 -10.005 -10.7679 2.05807 8.65342 0.910909 -5.0277 -3.6472 2.66508 -3.15942 15.317 0.257788 0.528312 0.653203 2.03462 0.417671 0.14152 0.464205 -0.99286 -0.291268 3.35675 -2.54693 -3.13752 -0.173262 
11.0362 7.37067 -1.35687 -8.03059 -11.7679 4.05566 8.25094 -3.32167 -0.652485 -2.93215 0.225268 -5.07758 15.1435 -0.187996 -0.355504 0.479643 3.84055 2.49126 0.18672 -0.993943 -0.246812 -0.853947 2.97829 -2.65879 -2.59616 -0.370152 
9.95709 7.47272 -3.99394 -3.68814 -1.86493 5.55224 3.43096 -4.77189 -4.25439 7.86833 -2.1323 -9.75043 14.181 -0.349379 -0.658254 0.590577 3.86502 2.89611 0.071999 -0.601774 -1.30873 -0.994184 3.03414 -2.53783 -1.81965 -0.34314 
9.8652 4.43579 -1.29708 5.04997 -0.198437 2.93099 2.13541 0.724512 -7.58803 4.78975 -5.43847 -9.7302 13.8629 -0.115378 -1.20043 0.69842 2.70921 0.866004 -0.421195 1.05264 -1.37992 -1.78932 2.50768 -1.49896 -1.04151 -0.0263933 
9.88798 5.28754 -0.356993 2.77989 -2.07215 2.9804 8.70232 -7.65582 -6.53085 7.66257 -7.19221 -9.93137 14.2416 0.125176 -1.22927 1.57298 0.0418356 -3.0673 -0.208211 1.95847 -1.1517 -0.0689488 0.396444 -0.515883 0.150863 0.408406 
10.4939 2.46112 0.316759 2.28145 -7.33432 3.23561 10.8784 -8.77932 -8.46085 9.70914 -4.73959 -10.1947 14.9812 0.190576 -0.885182 1.144 -2.45218 -4.76836 0.516859 1.42598 -0.414805 1.29381 -0.137582 -0.084039 1.22749 0.653435 
10.2686 2.31371 3.06402 -2.0947 -13.6335 4.35888 8.85178 -5.7785 -4.16272 7.39085 -5.06115 -8.76388 15.6638 0.270636 -1.17287 0.737341 -2.63055 -4.90214 1.54176 -0.374067 2.90526 0.615102 -2.19817 0.386073 2.0484 0.711807 
10.6278 1.49679 2.7124 -4.77364 -18.2596 4.82605 9.19056 -2.28817 -2.30303 4.23769 -6.9242 -4.17651 16.419 0.188966 -1.12998 0.413436 -2.57365 -2.42747 2.37591 -0.746071 2.56588 -0.469172 -3.40249 1.36976 3.03521 0.589951 
11.1742 -0.0946224 2.13189 -6.84531 -21.1202 9.89396 7.67592 3.62491 -6.53425 -0.592552 -4.16954 -2.69844 17.0818 -0.034015 -1.71427 0.018338 -1.85498 1.03912 2.51777 -0.906034 0.811365 -2.73166 -2.70768 2.71276 3.53596 0.482597 
10.9859 -1.98463 2.85 -8.2115 -15.7283 12.3476 7.73602 -0.651637 -9.62095 -3.31162 1.66338 1.94868 17.222 -0.800536 -1.74073 0.287483 -0.774969 4.04422 1.30971 -2.24611 -1.42601 -1.92871 -0.948873 3.74605 2.27702 0.357762 
9.91948 -4.51692 3.08691 -9.65066 -9.70351 13.1869 5.04888 -2.53994 -14.1621 -2.37287 4.20884 5.85332 17.6753 -1.09978 -1.20576 0.146038 1.14381 5.12697 -1.05535 -3.36807 -2.58613 0.514597 1.11096 3.0324 0.567392 0.127371 
7.25244 -4.99571 3.67231 -7.24581 -3.7468 9.72812 -0.726487 -6.33578 -8.13268 0.383485 7.61689 2.93271 17.911 -0.905811 -0.366608 0.319524 2.61639 4.22774 -2.66464 -3.80827 -0.999903 2.3391 1.98734 1.11994 -2.09095 -0.175657 
7.54205 -4.61787 2.45093 -1.60911 -1.47612 5.92698 -4.93317 -6.46369 -4.70539 3.11468 8.0157 -0.353498 17.3741 -1.82353 1.97507 0.583399 3.04802 3.77393 -4.30927 -2.40995 1.79366 2.87943 0.826446 -0.602974 -3.31338 -0.4611 
7.64557 -3.7672 4.76561 0.849685 1.2967 2.65437 -6.31428 -3.68928 -2.6538 3.88129 5.35965 -5.40268 16.4943 -4.12332 3.45474 1.83881 1.79977 4.5119 -2.83082 -0.977221 4.50892 2.70041 -0.531599 -2.93478 -2.35737 -0.187114 
0.60526 4.74418 5.45725 1.54171 6.6444 -4.82255 -4.20695 5.10509 -2.50434 0.0104566 2.32258 -6.54588 16.0782 -6.77721 3.19905 1.80102 0.186379 5.27244 -0.33644 0.544287 4.80093 2.27945 -1.05722 -2.50015 -0.851946 0.288928 
-9.89577 7.59697 11.3632 0.177631 14.7524 0.94879 -5.9757 10.4244 4.26885 -0.7224 -4.21045 -5.75796 17.6234 -7.66526 1.7964 0.153027 -0.907186 3.25952 0.370193 1.01717 3.49464 1.65873 -1.55387 -1.58401 1.59581 0.657847 
-17.5733 5.69529 8.15724 -0.34119 18.1582 5.09756 -2.38103 10.4841 3.23052 0.130413 0.300017 -4.43559 18.2542 -5.59994 -0.370589 -0.887379 -0.860061 1.43013 1.16788 2.07849 1.08601 1.27569 -0.0845144 -0.901726 1.93444 0.60787 
-21.5914 4.73923 4.18075 -2.74479 11.8374 -0.454721 -2.14138 11.0944 2.7724 -3.94802 -1.54911 1.52123 18.6955 -2.76867 -1.44634 -1.79272 -0.652565 -1.2607 -1.05408 2.51768 -0.923114 0.760694 -1.26587 -0.953362 1.52864 0.217482 
-21.5466 4.32011 4.61158 -1.29738 15.2526 1.71862 4.26835 10.2001 4.62232 1.2007 -3.51672 -0.513274 18.5815 -0.855546 -1.45993 -0.56158 -1.55025 -2.84959 -2.66791 0.571814 -2.42497 0.216682 -2.33525 -3.01712 0.139988 0.0861595 
-21.7525 1.05286 4.17243 -2.6071 9.90177 -2.63213 3.28802 5.95085 7.37641 -7.58689 -7.06889 -0.0758957 18.5472 0.0915667 -0.796675 0.263435 -1.54578 -1.84575 -1.85811 -0.0530459 -2.47677 -0.0915809 -0.841164 -1.91625 -1.46503 0.0160145 
-21.7705 0.238806 5.3535 -8.1613 4.87809 -7.15329 -2.23666 0.931079 2.01192 -9.72641 -12.0257 -2.93708 18.7592 0.921783 0.220648 1.06873 -1.36834 -1.32433 1.03234 0.360653 -2.15975 -1.30672 -0.128872 0.0215928 -1.32847 -0.029554 
-21.0216 2.7965 5.12697 -7.04176 7.79587 -5.30932 0.845895 3.34508 3.61969 -2.69028 -6.87586 -4.592 18.6867 2.41594 1.25372 2.37898 0.429881 1.12886 1.11988 0.530023 -1.78276 -2.07865 2.53192 1.25151 -0.364104 -0.123566 
-17.3031 4.55153 9.47797 -5.92177 9.68389 8.21891 7.29267 0.704278 -0.03292 -1.89197 -3.50527 -4.89758 18.3639 4.03381 0.461375 2.25307 2.39847 1.23107 -0.578758 -0.617433 -1.88917 -0.597025 2.5951 1.081 1.06569 -0.276107 
-11.9065 5.1651 14.0051 -1.57746 13.1432 -4.71881 1.17347 -2.84957 -1.99439 1.15551 -5.07156 -0.916167 18.127 5.01654 -1.5245 1.08802 3.52256 -1.96248 -2.22959 -2.67222 -3.32866 0.0923869 1.50004 -0.768564 2.03643 -0.311002 
-6.15904 1.36138 12.1798 1.09888 8.3598 -10.3423 -5.48761 -5.41746 1.83384 1.32619 -7.52284 0.55346 17.6585 4.71104 -3.25757 -0.255243 3.9975 -4.68691 -3.05332 -3.54139 -3.42523 1.14478 1.26144 -1.0005 1.95828 -0.155633 
-1.51095 -3.23091 9.21616 7.0607 -1.35446 -7.17664 -6.12508 -10.2373 3.14825 3.20085 -8.70989 2.86463 17.4844 3.70047 -3.77259 -0.780818 2.81778 -4.58291 -0.860969 -0.71106 -2.84725 0.243546 2.0627 -1.43992 0.968099 -0.0833345 
1.05435 -7.53829 10.5962 9.74664 -6.50183 -5.81879 -6.765 -12.728 3.11964 3.39255 -6.68859 3.00344 17.907 2.11533 -2.44474 -1.02531 2.29099 -1.63128 -1.84012 2.57461 -1.93963 -1.09774 2.25487 -0.226036 -0.602578 -0.0621155 
2.98919 -9.24802 10.8928 8.18759 -2.34056 -11.2854 -1.74314 -13.4306 -1.41957 10.4358 -12.6883 2.69934 17.586 1.74315 -1.40536 -1.91783 0.656724 0.189163 -2.19049 2.77499 -0.33128 -0.0207305 1.34277 0.881367 -1.00198 -0.127317 
2.16752 -7.85377 6.21492 11.9904 0.696463 -17.4886 5.19445 -13.519 -1.37093 8.98304 -6.66382 -2.37678 17.2971 2.4149 -0.72061 -3.58333 -0.55963 -0.418858 0.260077 -0.133067 1.52451 1.97838 -0.404329 2.28345 -0.0839189 -0.115741 
6.6482 -10.1 1.81769 9.22244 -4.0078 -12.2942 1.77016 -11.4982 5.28988 7.11944 -4.31544 0.544868 17.1528 2.94387 -0.412591 -4.83266 -1.23464 -1.74275 2.6784 -1.84908 1.96798 2.93244 -2.12302 4.39982 1.01204 0.0899202 
11.2994 -10.7154 -2.78287 6.43107 -7.76251 -4.01401 -9.18698 -6.0716 9.6568 3.0291 0.542256 3.66108 17.545 2.92967 -0.0771444 -5.06588 -2.10583 -1.49848 3.52573 -1.77027 1.9723 0.821852 -0.944614 3.2196 2.281 0.219562 
13.1426 -9.88018 -8.77162 4.79407 -6.82485 -4.6307 -3.7978 -7.31435 7.72875 2.79771 5.70777 4.74062 17.9117 1.4875 0.781176 -4.31515 -1.86939 0.139473 2.70988 0.3783 1.28586 -1.65941 -0.647311 3.15963 1.22181 0.212052 
13.5687 -8.34939 -13.8198 3.67546 -5.38743 -3.69164 -0.872921 -5.74944 1.51889 6.42084 4.42259 6.93036 18.0155 0.360559 1.09603 -3.15779 -1.62535 0.979338 1.31337 2.97778 -0.145925 -2.28152 -0.568666 2.36789 0.33711 0.118077 
12.9511 -7.37709 -14.2396 1.25331 -4.49797 1.09401 -0.495368 -5.23 1.0618 2.18702 9.54254 5.01926 17.9778 -0.0261076 0.868839 -1.69942 -1.64309 0.869674 1.16157 2.23383 -0.259138 -1.26009 -1.35295 2.32958 -0.637609 0.0765511 
13.1979 -6.48678 -15.8378 0.0747137 -4.02926 -0.309529 4.05068 -7.8434 1.58269 0.491115 10.4643 5.20731 18.1023 -0.00869057 0.596241 -0.55526 -1.8332 0.819192 0.459364 1.05029 0.289321 -0.215908 -1.42137 2.18274 -0.996638 0.0588165 
13.1974 -6.4673 -16.2597 -1.62103 -3.15557 -0.51391 4.90954 -7.56306 1.3964 -1.00218 14.3348 2.4141 18.2511 -0.000430489 0.586814 -0.40998 -1.20703 0.434341 -0.196088 -0.184682 0.975541 0.355668 -0.0753289 1.15611 -1.06861 0.0464859 
13.402 -5.82309 -15.5861 -4.05335 -1.96267 -0.590859 1.67607 -3.13631 0.27205 0.908568 12.9401 3.24975 18.1729 -0.0588004 0.396309 -0.0458181 -0.152151 0.198617 -0.356621 -1.15958 1.05046 1.32551 0.629829 0.496682 -1.4711 -0.00910378 
12.8468 -4.77486 -16.4154 -2.71779 -3.35956 0.254234 -0.231474 -2.70584 3.49546 1.60165 14.0852 0.654978 18.1749 0.00657701 0.416929 0.180266 0.505287 0.630383 -1.25361 -2.08196 1.43878 1.80288 1.4927 -1.09024 -1.56455 -0.0931639 
13.0792 -5.35145 -15.9891 -0.137661 -2.93418 -2.47671 0.823285 -5.01969 7.1607 2.33834 13.0726 -1.26864 18.0949 -0.217648 0.368231 0.761581 1.03523 0.527564 -2.13702 -2.24811 1.03504 2.21024 0.515719 -1.61045 -1.26184 -0.175306 
13.3917 -4.61847 -15.1569 -1.05244 0.4821 -5.83903 -5.07385 0.572558 6.9665 5.74642 8.81743 -3.14944 17.8243 -0.564033 0.407198 2.30501 0.372137 0.402763 -2.39902 -2.93895 1.30278 2.28426 -1.51549 -2.38223 0.47574 -0.280948 
12.0414 -4.06013 -12.4074 0.290145 -1.24568 -8.22935 -7.14331 0.399689 9.58772 1.41478 7.52176 -1.15726 17.4717 -1.04105 0.955256 3.35102 0.794768 -1.83933 -2.18425 -1.77278 0.67976 0.432309 -2.14331 -2.02017 1.18944 -0.35107 
10.5456 -3.38453 -6.68119 -1.07101 -2.18999 -8.86453 -10.9429 1.09839 13.7032 -5.514 4.94942 2.97799 17.0817 -1.41069 0.981725 4.62478 1.97489 -4.17845 -2.13858 1.1221 -0.753369 -1.97981 -2.29234 -0.728406 1.84773 -0.371419 
9.29704 -1.19214 -3.47186 3.84546 -10.7948 -11.8852 -5.10609 -1.88381 5.95387 -2.74801 4.90571 1.61486 16.7108 -1.79399 1.13223 5.48953 2.13 -4.72077 -0.174695 1.97651 -0.103616 -4.44766 -1.14927 -1.31132 0.876316 -0.410937 
7.71044 -1.14384 3.49926 7.04436 -15.6356 -14.704 -0.481948 -2.05254 -1.11561 -3.6339 6.48343 4.70314 16.3476 -2.00447 1.17502 5.89033 1.21679 -1.99885 1.51947 0.0497928 -0.369906 -3.33467 -1.40849 -2.04764 0.852328 -0.418212 
4.48901 0.480693 9.95 6.88247 -18.1267 -6.18308 -2.49126 1.45707 -5.24114 -5.27164 0.198132 2.36175 15.7841 -1.94313 1.15012 5.22502 -0.404985 2.29067 2.73802 -2.66044 0.171142 0.0620759 -3.23095 -3.15375 1.33177 -0.422029 
2.92729 1.65417 16.0595 3.49443 -8.51824 -4.11823 -12.0014 -2.42158 2.62738 -11.2946 -2.93499 6.86618 15.454 -1.81487 1.34523 3.64846 -0.797329 4.28038 2.14836 -4.58583 0.053969 1.43059 -3.14742 -3.03563 1.00235 -0.368015 
1.97299 3.15946 16.3731 3.5955 -2.9001 -3.48798 -12.6486 -0.843576 4.39276 -15.0724 -6.15381 7.19221 15.0474 -1.44982 1.22373 2.22437 -0.380321 3.44902 0.980803 -4.04007 -0.311747 0.633091 -2.51655 -0.186945 0.623771 -0.158218 
-0.105916 4.24291 18.53 4.70121 -1.847 -5.30976 -18.3324 -0.632372 1.2204 -14.4706 -5.51875 7.29966 14.8759 -1.24106 1.27671 0.195279 -0.288472 2.31285 1.97164 -1.74264 0.804952 -1.26896 -1.06163 1.55605 -0.509296 -0.0924299 
-1.24347 5.30496 19.8366 4.37748 -4.21723 -0.683303 -19.5261 -0.996268 -1.3722 -16.2664 0.555287 5.26386 15.2821 -1.02123 1.08796 -1.36528 -0.303183 2.57161 2.36756 0.797379 0.948177 -1.85581 -0.137518 1.72158 -1.07361 -0.324563 
-1.66976 6.96497 15.3042 1.66108 3.70455 4.33761 -17.2758 1.67953 -0.834931 -16.0058 1.49072 5.28388 14.8746 -0.514184 0.485819 -2.14029 -0.903555 2.28423 2.31021 2.71373 1.43817 -1.94143 0.0163252 1.2779 -1.42231 -0.418597 
-2.35124 7.23824 11.1596 3.59965 7.18217 3.52613 -9.18999 2.74136 -3.85864 -14.9924 -1.05063 2.83202 13.4253 -0.207339 -0.102063 -2.95702 -0.280822 2.03116 0.732784 3.56652 0.731189 -0.615083 2.73157 0.110193 -1.29444 -0.750137 
-2.12295 5.70537 12.1671 0.572349 3.87445 4.13657 -9.93181 4.68964 -7.24352 -15.026 1.67373 1.40401 13.7113 -0.416692 -0.405973 -2.23176 0.535461 0.460915 -0.712065 1.91669 -0.502454 -0.778266 3.27146 -0.490019 -1.31166 -0.676331 
-2.05357 5.42445 6.62004 3.51774 5.85361 3.08114 -5.36551 1.15462 -1.24331 -3.09845 1.01475 0.7316 12.113 -0.670771 -0.683504 -1.06731 1.36285 0.0496553 -0.0660235 0.0353963 -1.47305 -1.04054 1.95284 -0.544424 -1.27248 -0.342099 
-3.90205 5.842 6.41514 4.37934 6.6734 0.999785 -9.60462 -0.0393746 -6.03393 -5.59544 -1.99206 -0.224197 12.149 -1.01393 -0.702483 -1.87139 1.82212 0.379708 -0.463261 1.42404 -0.695558 -0.121644 0.623583 -2.66258 -1.96005 -0.321747 
-4.81555 3.7524 8.69902 8.51038 6.03097 4.76441 -9.1766 -2.25939 -9.66616 -9.94346 -1.93985 -2.71628 12.4959 -0.114069 -0.0226494 -1.21158 0.848836 -0.835496 -0.823157 1.77667 0.357751 -1.11485 -0.609248 -2.03719 -0.693967 -0.128598 
-5.8116 3.02898 1.77064 7.18661 5.68431 0.978631 -0.906059 2.91886 -3.64032 -8.48558 -10.1619 -6.67231 11.9111 0.128411 -0.0563568 -1.70037 -0.369917 -1.44828 -1.99776 3.10162 0.648391 -0.0722847 0.155229 -1.41087 -0.360636 -0.24552 
-1.66914 6.71771 2.88441 6.35829 2.17068 -1.02407 -0.831455 1.46425 -8.01438 -4.69963 -5.08629 0.485822 11.589 -0.141063 -1.03895 -2.29578 -2.32668 -1.32528 -0.973321 3.24874 1.495 2.30217 2.65546 0.217082 0.581116 -0.253459 
-4.8332 4.07756 0.820612 3.6058 1.36215 -6.0948 1.7309 1.34076 -7.22124 -7.44122 -7.47322 -3.62843 11.3749 -0.833914 -2.00185 -1.81471 -2.34465 0.0277298 1.03998 2.6804 1.24804 2.8127 2.93441 1.4585 1.66576 -0.090105 
-6.01006 -1.96662 -2.30488 -1.33261 1.56567 3.43452 5.74861 6.00468 3.63513 2.81165 -2.19878 -1.33264 11.4967 -1.3494 -2.57601 -2.33091 -1.92882 0.732892 2.03744 1.467 1.09307 2.19228 2.0053 2.24691 1.24016 -0.0474794 
-7.81071 -2.63811 -4.70828 -0.691201 6.12547 3.94924 9.20589 6.88885 4.59844 2.43085 -4.31314 2.5657 11.5067 -0.775209 -1.11191 -1.94413 -1.49026 1.16182 2.71503 1.10137 -0.490323 0.883941 2.43274 3.07578 1.89191 0.0235757 
-6.92739 -2.80449 -6.00567 -1.13731 3.45348 4.14113 2.76604 4.15554 -2.96284 0.390826 4.56823 3.58957 11.2857 -0.461778 0.576592 -0.782177 -0.32707 0.973079 -0.0202117 0.054291 -0.980179 -0.825219 0.877657 1.53878 0.366811 0.00692921 
-8.25058 -1.06303 -7.04965 -3.94315 6.22734 7.12706 8.72902 -0.186287 0.497453 5.93287 4.52219 3.37002 11.5983 -0.0378407 0.37639 -0.332926 -0.104592 -0.287607 -1.20918 0.0467493 0.396649 -0.0766413 1.49003 -0.071248 -0.991442 -0.0153218 
-8.09901 0.1288 -5.04507 -1.34199 6.38013 1.74455 6.25851 4.64136 1.55952 5.44892 1.07744 0.0992519 11.4856 -0.102887 -0.0909352 -0.332867 0.393109 -0.126269 -1.35729 0.0503363 0.583723 0.760054 2.029 -2.00885 -1.72576 -0.00156517 
-7.4141 -2.22281 -6.8532 -1.11182 3.22411 -0.898386 7.6934 8.62919 1.95405 7.35197 -2.92398 -0.64635 11.3302 0.0174387 -0.392683 0.178265 1.45365 -0.524245 -1.70335 -1.81767 0.928968 0.422221 0.372135 -1.67114 -0.755273 -0.0610917 
-7.86006 -2.67928 -7.76823 -0.587434 4.32375 1.36738 3.53553 2.66641 0.109129 9.82625 -1.75294 -3.03105 11.4119 -0.0346493 -0.362618 0.14414 0.814309 -0.216413 0.17081 -1.62901 -0.986836 -0.168674 -0.474964 0.597237 0.729949 0.00874853 
-8.28286 -1.62241 -4.79675 2.94781 4.6343 -1.20113 1.00218 5.44602 3.33375 5.60488 -2.41831 1.1588 11.3297 0.219868 0.161707 0.586018 0.219312 0.101831 0.299004 -0.564256 -0.438332 -0.113346 -1.71051 1.44412 0.749373 0.0251514 
-7.83788 -1.98449 -5.3526 0.699738 4.59296 2.74997 1.45907 1.29876 0.0262977 3.94764 3.81079 2.84642 11.5296 0.573582 0.38385 0.495321 -0.444123 0.319593 0.105163 -0.123674 0.461163 -0.332875 -1.47909 0.725105 0.277621 -0.0365525 
-6.32585 -1.76167 -5.13093 -0.658852 3.59866 -0.0946641 5.91035 7.12136 1.42873 1.73872 1.51473 0.161781 11.3971 -0.121948 -0.0163353 0.625975 -0.162052 -0.177632 -0.291379 0.0272053 1.35507 0.107407 0.0659961 -0.876042 -1.07024 0.01774 
-5.97066 -0.690401 -5.12453 -1.00472 6.43954 1.33996 0.46307 4.13456 -0.602732 4.36391 -0.093941 -1.14443 11.1954 -0.52312 -0.287101 0.132937 -0.0790193 -1.25484 -0.536255 1.21331 3.1631 1.32544 1.14099 -1.40439 -0.828074 -0.019223 
-9.82621 -2.35113 -1.78091 2.98978 2.82286 -1.95302 1.6362 10.8035 4.1853 5.72673 -4.84616 -2.19699 11.5854 -0.748754 -0.516205 -0.370238 -0.22366 -1.75168 0.184299 1.67043 2.74424 1.35709 1.51343 -0.302766 0.0477183 0.00282679 
-8.7033 -3.12526 -6.36292 -1.51967 -1.29331 0.997873 9.6627 15.2732 5.27521 7.65856 -0.0307095 -0.114563 11.3393 -0.434237 -0.564386 -0.705879 -0.553937 -1.95819 0.226672 2.64257 2.6747 1.28458 0.852114 0.494191 0.414217 0.00415792 
