-8.2351 -1.87956 -8.51559 -1.71131 5.73834 -5.02886 1.11925 0.537494 1.07731 11.8621 -0.81921 -0.110243 12.0656 0.332771 0.492208 0.29323 0.27208 0.490824 0.979067 1.29148 1.86993 0.0572855 -1.49729 -0.722437 -0.0567605 -0.0109126 
-7.41383 -0.23419 -7.86643 -0.785854 7.81593 2.3462 6.01684 8.10645 5.43086 7.54806 -1.54752 -1.78763 12.0326 0.432022 0.653548 0.492706 -0.478356 0.905282 1.11665 1.62541 1.24148 -0.293641 -0.200232 0.125106 0.584249 0.00202036 
-6.98188 -0.241213 -7.37402 -0.813629 7.15366 -3.82105 5.12786 6.10264 -0.813039 6.53263 -4.06724 0.444647 12.0276 0.401211 1.25143 1.25385 0.155901 0.892583 1.10421 1.40143 0.687159 -1.45542 -1.06472 -0.210176 0.548923 -0.0477181 
-6.7016 0.569001 -6.62284 -4.55192 9.55709 -0.0495327 7.24198 3.96234 0.554278 13.5256 1.43034 2.53356 12.0947 0.184719 0.580276 0.827267 -0.105411 0.0892045 -0.351516 0.533018 -0.957888 -1.10337 -0.336592 0.566874 -0.022963 -0.0377612 
-6.58516 3.97598 -2.86815 0.951233 9.33067 1.69008 7.51384 6.04535 -3.76148 3.5497 -3.35901 0.47378 11.7959 -0.0602165 0.0834373 0.342358 0.303702 0.563872 1.10943 0.9936 -0.0447832 1.05305 0.553491 0.981908 -1.03608 -0.0284822 
-6.6886 0.558594 -5.98302 -2.19534 7.17344 -2.16694 7.48894 3.34566 1.38826 7.35656 0.932737 -1.91701 11.9596 0.0589874 -0.197296 -0.203903 0.968667 0.411851 0.718504 0.839263 -0.210049 0.0254952 0.349061 0.773739 -1.16842 -0.0227361 
-7.28947 0.181177 -5.98214 -0.473411 11.1648 2.78482 9.97238 6.18707 4.0352 12.3846 1.0911 -2.51048 11.9528 -0.0847518 -0.677174 -0.432502 0.739863 0.356197 1.05033 0.981888 -1.07692 -0.541797 1.21056 0.555587 -0.255584 -0.0223196 
-6.05451 1.47992 -6.08537 1.00373 10.6993 2.99562 10.209 2.84123 -3.21659 10.8535 3.07398 -1.8164 11.9027 1.03243 1.59491 1.96588 2.18505 0.0841944 0.010892 -1.41239 -1.68486 -2.50656 -1.88317 -0.356364 0.149267 0.0185226 
-7.32597 0.129445 -4.97949 3.05101 9.34875 4.36043 11.0632 0.912947 -4.16804 7.85402 -1.6517 -0.854449 11.7128 2.0129 2.41432 3.57547 1.80769 -1.56777 -2.35014 -3.80612 -2.39028 -2.4349 -4.08253 -0.00459304 0.256672 0.215017 
-1.50822 8.55902 3.34508 6.96768 8.50246 -2.90028 -0.118438 -2.4416 -7.04291 0.205985 0.522318 -1.99869 12.1722 2.45871 2.43612 5.21447 0.168428 -2.11961 -0.432292 -5.70312 -1.08124 0.553027 -5.749 0.447514 0.861395 0.856207 
0.501884 8.71322 7.18001 5.58308 4.4244 -6.01793 -3.89451 -3.1229 -6.22615 -2.7043 2.34396 -1.13597 12.8931 2.16581 1.88633 4.4526 0.180783 -3.26762 0.807609 -4.82566 0.737321 1.88042 -5.71195 0.927984 0.459056 1.26783 
2.32511 9.36862 13.9072 0.579844 2.5634 6.02333 -10.8277 -0.547032 0.577601 -12.6124 3.31371 2.63134 15.5936 0.922378 -0.293759 2.64209 1.02697 -3.40034 2.38909 -2.42268 1.33552 2.39697 -4.56449 -0.1455 0.728072 1.36611 
1.58643 9.15631 12.0024 7.14885 -4.01979 3.93666 -7.71041 3.65227 1.42383 -14.2965 1.59252 -0.87418 16.3413 0.361939 -1.07973 2.2615 2.25811 -2.77075 1.98004 -1.50428 1.05283 1.91793 -3.66853 -1.63589 1.14739 1.34185 
2.5614 6.86867 14.1443 11.3196 -4.27714 4.06789 -10.3239 0.848428 1.11694 -16.8204 0.170539 1.51078 17.2786 0.17353 -1.70136 1.78321 2.28346 -2.38055 0.159304 -0.127554 0.233425 0.656361 -1.61897 -2.08059 1.31011 1.01818 
2.19343 4.56454 18.369 11.5037 -6.00906 4.85999 -11.6678 1.44353 3.09386 -18.943 -4.2639 5.16127 18.7598 0.359082 -1.2978 1.81366 0.0480407 -1.15788 1.48702 -0.865582 0.0360489 0.24039 -1.06136 -2.15369 2.42639 0.957208 
2.88926 3.15773 19.64 9.8197 -8.34473 6.35819 -9.48677 1.72446 3.02439 -18.384 -4.16103 6.16416 19.4752 0.238221 -0.668431 0.534553 -0.773464 -0.197974 0.738658 0.457377 0.838999 -0.435633 -0.29631 -1.58835 1.36277 0.586531 
3.21791 4.52277 18.3229 8.13902 -7.77542 10.2266 -12.4569 3.3945 1.67205 -18.8215 -7.01012 8.93108 20.029 0.0163677 -0.365175 -0.579986 -0.154667 0.266289 0.736485 0.604628 -0.269112 -0.471674 0.729879 -1.60013 0.32405 0.287286 
3.24027 3.5474 16.8401 9.13466 -4.38383 5.07787 -7.64247 4.06794 -0.350321 -18.3627 -6.39811 6.4397 19.5767 -0.195319 -0.80676 -0.704199 1.13493 0.0757992 0.226948 0.374263 -1.24201 -0.447007 0.430232 -1.78825 0.0629731 0.180666 
2.09976 2.54383 16.869 11.0729 -6.65807 9.18257 -9.5668 -1.07377 2.42284 -15.3043 -11.146 6.64375 20.1455 -0.47876 -1.49006 0.114814 1.36919 -0.222141 -0.699129 0.526209 -2.44175 -0.99944 0.765677 -1.80821 0.0117065 0.228541 
2.47173 0.113398 16.8459 14.0274 -8.52441 8.01496 -9.0605 -2.25144 0.413963 -17.9915 -11.0344 7.62269 20.3203 -0.274435 -1.74129 0.328167 0.304051 -0.695306 -1.95927 0.355924 -2.52996 -1.61914 1.39961 -1.55412 0.621353 0.364433 
1.20837 -1.21051 18.894 12.5386 -6.81584 5.26242 -9.11683 -5.65458 -3.70729 -15.1787 -13.7331 8.39812 20.7999 0.279317 -1.92221 -0.572607 -0.76001 -1.07493 -4.13637 0.850718 -0.889265 -2.55466 1.92518 0.218427 0.701582 0.342715 
2.31379 -3.28189 17.4684 9.92207 -7.78148 -2.7584 -6.08784 -6.29144 -5.38094 -11.4274 -12.8752 8.66928 21.0716 0.60709 -1.86791 -1.71265 -1.70103 -1.4926 -4.73927 0.961861 0.31705 -1.15399 2.09064 1.98564 0.134853 0.374139 
3.57532 -5.36956 13.6947 9.32552 -12.4042 -6.11262 -6.79954 -3.50009 -7.45301 -8.96044 -9.13344 9.62836 21.4834 1.00075 -1.9538 -3.43338 -1.22967 -1.27481 -4.33223 0.49065 1.61414 1.3755 1.17838 3.07532 -0.690168 0.284725 
4.32371 -7.14663 10.8824 7.1288 -13.1932 -9.99387 -5.40983 -1.74344 -3.48312 -10.6474 -3.40598 7.68183 21.8492 1.02991 -1.40217 -4.4946 -1.14748 0.485926 -2.55796 -0.780746 1.33557 3.30705 0.807148 3.38068 -2.22295 0.0896864 
5.20714 -9.04713 5.02016 7.78688 -10.484 -12.781 -7.00258 0.142116 2.22129 -9.67678 -3.09107 5.441 21.8347 0.980492 -0.280765 -5.15342 -1.34578 2.7397 -0.419487 -0.805076 -0.896483 4.61627 2.56814 3.25841 -3.62539 -0.101727 
6.64744 -8.45394 -0.667316 4.95401 -6.31195 -12.214 -9.89005 -1.4347 6.31716 -7.03346 1.00705 -0.351768 21.3444 0.714855 0.528071 -5.04414 -2.49396 2.94834 1.44008 -0.851023 -2.84512 2.15446 4.01094 3.31545 -3.90435 -0.159165 
7.31592 -6.11973 -6.29756 3.68402 -2.14633 -7.09998 -8.58481 -8.13688 10.7282 2.07329 4.95208 -4.48176 21.2272 0.0839885 1.56143 -3.53649 -4.04535 2.06603 3.08913 0.573528 -3.75055 -1.42361 5.21263 3.99771 -2.92776 -0.0554213 
6.8436 -5.96998 -8.67949 -3.28959 -2.62035 -5.63399 -8.87383 -11.8296 3.0357 3.5323 9.14968 -6.87852 21.3572 -0.28232 1.68018 -1.89003 -4.22663 0.777201 3.43304 1.64318 -2.27071 -4.82216 4.80326 3.85966 -0.804761 0.0979376 
5.52901 -2.48199 -8.65622 -8.31806 -1.99965 -0.625392 -4.64305 -13.4132 -3.25601 11.1035 12.8262 -5.93443 21.5512 -0.257679 1.39877 -0.628907 -3.66847 -0.365415 2.20239 1.66737 -0.575147 -5.32588 1.89343 3.117 0.0214848 0.0930557 
6.1293 -1.87193 -8.93812 -10.1781 -2.49929 1.71392 -3.64503 -10.1501 -10.8015 12.4677 16.3683 -3.64924 21.672 -0.253628 1.2371 0.0534838 -1.99128 -0.365925 1.42747 1.59669 -0.578603 -2.96659 0.869735 2.01577 0.241884 0.0553442 
6.38467 -1.1749 -9.31279 -11.2141 -4.03394 0.238012 -2.86236 -11.8524 -8.98257 7.07271 16.9278 -5.98898 21.535 -0.369377 -0.00396881 0.421893 0.105691 0.816281 -1.09865 0.267081 -0.634226 0.42768 -0.57848 -0.574621 -0.0882232 0.0234966 
5.14762 -0.438024 -8.08379 -11.798 -3.43283 1.07165 -1.7807 -15.503 -8.93396 9.89636 17.1777 -5.64183 21.642 -0.321157 -0.783623 0.805859 1.96582 1.15836 -2.59567 -0.643187 -0.32691 3.15996 -1.97013 -2.64339 0.0762125 -0.0410872 
4.17296 -3.21878 -6.97392 -6.97966 2.54853 -5.79752 -4.23981 -13.9079 -2.05139 9.49675 9.54836 -5.37925 21.6837 0.139052 -1.49456 1.49396 3.56545 1.02245 -3.35378 -1.23448 1.31795 3.94708 -2.74342 -4.27166 1.45447 -0.0834759 
5.62937 -4.76811 -6.07826 -2.46622 0.00127506 -8.24668 -6.17225 -10.7569 1.53268 1.40508 6.84106 -3.57304 21.3923 0.394389 -1.57457 2.25141 4.24464 -0.176385 -3.85944 -1.28342 3.34947 2.67143 -4.1375 -4.96528 2.68715 -0.0996973 
6.83906 -6.48266 -2.84574 1.94727 -0.638734 -11.8717 -6.839 -7.63571 5.5195 -2.39878 0.737813 0.248979 21.2425 -0.26538 -0.547063 3.07597 3.92443 -2.02317 -2.80011 0.107436 4.03643 -0.713628 -3.99131 -3.62348 3.00349 0.0333199 
5.78652 -6.67896 1.10915 4.96173 -2.72113 -15.1884 -6.89819 -1.89175 0.637733 -4.84336 -3.24341 4.97979 21.3641 -1.16061 0.307621 3.69362 3.49821 -2.77548 -0.469676 0.732478 3.17776 -3.21036 -1.80899 -3.34328 2.86326 0.148547 
2.76748 -4.99867 4.81223 8.92851 -6.2061 -16.3272 -3.33965 1.84173 -5.17206 -7.33556 -3.5268 5.36177 21.8644 -1.48873 0.89684 3.82773 2.46703 -2.75806 2.29516 0.57061 1.0157 -3.23377 -1.03002 -2.71979 1.96551 0.152013 
1.86211 -3.97199 8.56087 11.5342 -11.0925 -8.36733 -4.25953 0.393227 -9.17334 -5.1715 -7.74305 8.18688 21.8241 -1.32536 1.47637 3.26815 1.39984 -1.44147 4.61478 -0.0908841 -1.25859 -0.951691 -0.892982 -2.86497 1.51588 0.0678085 
1.35763 -3.35194 12.567 10.9961 -10.2433 -3.80648 -5.30528 -3.69967 -5.74382 -7.38483 -10.6113 8.47296 21.7726 -0.868111 1.66571 2.40188 0.0808357 0.152426 5.51398 -1.29929 -1.85545 1.00194 -1.48724 -3.09247 1.66256 -0.0431738 
-0.135359 -0.120481 13.5725 10.9271 -7.90987 1.62513 -6.3698 -5.414 -3.83484 -9.28364 -14.026 11.0036 21.749 -0.70068 1.68613 1.7892 -0.713069 1.2384 4.15154 -1.19443 -0.818347 1.92035 -2.48761 -1.89104 0.838598 -0.0351921 
-0.57434 1.40413 14.3158 9.63624 -7.03527 6.2465 -8.78096 -4.53192 -2.83159 -12.7157 -15.8477 12.2662 21.686 -0.478551 1.49207 1.11224 -1.08686 1.38731 2.70296 -0.906494 0.443468 1.73785 -2.28418 -0.34853 0.0925015 0.00427818 
-0.67531 2.08064 16.6325 8.64884 -6.50448 7.3639 -8.49384 -3.28238 -1.02771 -14.9441 -14.58 10.4832 21.6914 0.013844 0.816086 0.762963 -1.05736 0.630413 1.4198 -1.10181 1.1943 1.36158 -1.05053 0.850423 -0.463877 -0.0101215 
-0.765156 3.00784 16.5983 6.70096 -4.00949 6.83893 -8.77573 -2.54814 1.54189 -15.9755 -12.0769 9.19565 21.8229 0.295566 0.347468 0.18455 -0.324643 -0.546749 0.61257 -1.14705 1.01844 0.596765 0.319596 1.4798 -0.665036 -0.081234 
0.0292692 3.15809 16.2461 7.10796 -6.2707 8.42791 -11.8815 -0.434381 0.78634 -12.9064 -11.6593 10.2195 21.63 0.755461 0.0228094 -0.532309 0.586557 -1.33438 -0.969447 -0.047537 -0.177914 -0.815274 0.861572 1.91559 0.0093009 -0.295521 
0.551203 2.60274 15.4318 8.78346 -9.8859 8.77735 -12.8224 -0.863707 -0.754787 -12.1366 -9.90908 9.0729 21.3105 1.51531 -0.872455 -0.984423 0.9682 -2.00208 -2.28202 0.601671 -0.907598 -1.5625 0.888483 2.73664 -0.0409718 -0.38749 
2.44382 2.39724 14.5542 10.5404 -10.2382 1.54746 -6.7082 -5.01417 -3.95574 -12.5557 -6.08603 10.5911 20.4699 1.98202 -1.56956 -1.6597 -0.141305 -0.360147 -5.89892 2.09899 -1.23571 -0.651866 0.916012 4.14046 -0.494612 -0.325972 
5.60411 -0.974007 12.5221 9.82576 -12.0361 -1.13095 -8.35401 -4.79623 -3.89956 -11.7084 -1.18036 8.80498 20.4655 2.169 -1.66089 -3.65814 -0.0176793 2.06683 -7.20217 2.48782 0.459818 0.941088 2.25965 3.55984 -2.0553 -0.344161 
7.41294 -2.90134 9.40244 5.88028 -6.99632 -16.1125 -3.62072 -4.64667 -0.900605 -8.54044 4.67871 7.88041 20.4227 1.66853 -0.999414 -5.41932 -1.10219 3.06175 -5.2149 0.823921 1.42802 3.04238 4.34497 2.89693 -4.46893 -0.193816 
8.91162 -3.05244 -0.283036 11.0251 -1.17267 -18.4035 -1.92704 1.25164 2.42308 -2.84595 2.50774 0.151781 19.6133 0.711659 -0.0705668 -5.85169 -2.01091 3.19237 -1.14115 0.527125 0.356616 3.60449 5.44572 2.18981 -5.85459 -0.201869 
9.1327 -1.56062 -6.13984 4.42974 -0.361132 -15.8907 -5.80208 -0.89798 8.09485 4.73788 6.55458 -7.42692 19.9269 -0.0119745 0.465176 -4.6768 -3.55361 1.81813 4.84534 0.132204 -1.23595 2.1947 4.47201 2.44629 -5.622 -0.181945 
8.30252 -1.9972 -8.96522 0.4965 0.608124 -6.94758 -4.62771 -4.8875 9.62516 8.88106 8.83074 -12.8143 19.704 -0.627448 0.718211 -2.24296 -5.81169 0.130142 7.42804 1.63784 -0.847777 -2.33347 1.56573 4.55671 -3.76132 0.000323486 
7.65762 -1.10308 -9.64048 -6.62344 1.20395 2.38621 -1.60936 -7.75685 6.47183 7.95611 13.7487 -13.7466 19.4677 -0.196725 0.202413 -0.149666 -5.95586 -0.788442 7.58484 3.95292 0.0511838 -4.3426 -1.7291 3.19473 -1.18184 -0.0107599 
6.51192 0.309845 -9.74754 -12.5067 -1.30451 9.59822 4.16583 0.442188 -8.43274 3.37358 21.6943 -15.495 19.8446 0.363572 0.334199 0.852811 -5.48506 -0.744737 4.76136 3.73581 2.14327 -3.85559 -3.72669 1.50666 -0.216409 -0.055621 
9.04437 -1.70208 -6.49701 -18.8479 -3.34703 13.7606 9.56575 -3.3069 -4.58922 -1.15387 16.0964 -11.9958 19.8028 0.444128 0.313848 0.792703 -4.30893 -0.560391 2.17814 2.28747 2.98081 -1.40796 -3.55137 -0.160267 0.00265179 -0.168188 
9.427 -0.0267048 -6.2729 -20.8166 -0.840071 11.1721 8.46378 3.60386 -4.12224 -5.19739 15.1901 -14.7717 19.2583 0.560226 0.669317 0.281214 -2.44714 -0.55114 0.540229 0.131624 1.88633 1.44756 -2.35496 -2.06922 -0.0238039 -0.272792 
8.42071 0.634435 -7.41428 -24.0132 -1.83022 12.49 7.67903 5.56637 -2.72321 -5.51528 16.1994 -14.0949 18.9198 0.289152 1.29972 0.097601 -0.657744 -0.607935 -0.206757 -1.24148 1.94073 1.25191 0.0759493 -3.59946 -0.115874 -0.386333 
9.62488 2.48817 -7.88283 -22.1599 -4.81861 12.9347 5.76731 5.4372 -2.12793 -6.22052 11.2967 -14.5644 18.9221 -0.0651852 0.924393 -0.0981752 -0.67608 -1.78183 -0.300201 -0.113233 1.09504 1.24235 1.82135 -3.93753 1.2258 -0.425222 
10.3912 3.53907 -5.20404 -21.465 -4.39743 11.8455 4.70658 5.48006 0.673193 -0.26256 0.0458493 -12.6788 18.0393 0.258095 1.2677 0.0760324 0.636747 -1.02712 -1.57592 0.3588 0.0398248 0.503686 1.97734 -4.01439 1.57294 -0.597891 
8.11583 3.14295 -7.8689 -25.471 -8.4656 9.9933 9.38384 9.1222 0.391318 1.28298 3.57926 -9.35081 17.5725 -0.928768 0.686492 -1.13196 0.691204 -1.15795 -3.43174 2.07745 0.345987 0.505266 1.86173 -2.40822 3.26597 -0.799874 
10.4657 6.64557 -7.04109 -19.1738 -5.14233 6.08108 7.66476 3.923 -1.46441 0.619662 -0.0138674 -8.83701 16.6052 -2.55512 -0.102035 -1.43333 2.293 0.626376 -4.18987 1.1847 0.246536 0.744208 2.12889 0.231682 4.87547 -1.19664 
4.94378 4.36738 -12.6241 -19.8494 -10.2359 -1.34185 14.6755 7.94566 1.46719 2.64703 -0.714591 -0.155464 15.6398 -3.50892 -0.32679 -0.205852 4.8575 3.12183 -3.17355 -0.540893 -0.630837 1.13231 2.89709 0.47216 4.60874 -1.43723 
-0.798367 2.41668 -9.99308 -12.8108 -0.380387 -3.43628 7.98424 7.301 3.8563 9.69987 3.35118 7.10092 13.0224 -3.76784 -0.633036 1.19491 5.54067 3.77215 -2.09399 -1.80973 0.0868427 2.20511 3.05583 0.210664 1.68866 -1.26228 
-3.79671 3.62344 -7.42217 -4.36505 4.7626 -1.11577 6.51963 4.27901 3.39254 11.2283 4.25754 5.72395 12.1778 -2.2274 0.139408 2.30093 5.15645 4.12548 0.446242 -1.69366 -1.99151 -0.660461 0.821413 -2.14438 -2.86391 -0.790232 
-4.00323 3.85236 -3.66752 0.787305 6.21913 -4.5019 2.69403 6.19054 8.59848 11.6082 -1.44661 -3.33339 12.0248 -1.1287 -0.282195 1.45778 2.25933 1.06073 1.32513 0.694535 -0.893162 -1.3573 -2.18473 -3.07543 -3.22743 -0.115221 
-4.59079 4.34658 -4.28225 -0.866242 7.09172 1.42218 8.85229 -1.45663 -4.20621 5.79994 -9.03757 -9.25788 12.1874 -0.912267 -1.13376 -0.0135232 0.572322 -0.172897 0.584877 1.09576 -0.100944 -0.494671 -1.12439 -1.26572 -1.04994 -0.000701809 
-6.04483 0.644131 -4.27414 -3.26359 3.75868 1.92039 10.2906 5.70301 0.869158 1.49044 -5.37839 -1.54529 12.4415 -1.21399 -1.68131 -1.58986 -0.0910364 0.536456 1.40759 1.8793 1.08249 -0.0439283 -0.0236739 1.35552 0.50816 0.00776176 
-7.33724 -0.44124 -7.18647 0.522003 5.12835 -1.40253 8.20017 4.01805 4.78384 10.6653 -0.105153 -0.419813 11.9659 -0.905335 -1.18153 -0.448498 0.639333 0.617423 -0.804941 -1.11001 1.37116 0.65324 0.97087 2.66084 1.84654 -0.0585251 
-8.69996 -2.16028 -10.1647 -0.362 9.8831 3.94839 12.4166 8.86565 3.88382 9.05713 0.864784 -5.21163 12.1744 -0.257555 -0.353907 -0.0807478 0.536962 0.534074 -0.941205 -1.14755 -1.30711 -1.29376 0.942967 1.14281 0.944987 -0.0843847 
-7.7899 -0.158883 -3.57946 0.879628 7.11662 -3.61653 2.23923 3.81785 -2.44734 6.87094 1.14503 1.80796 12.0284 0.067067 0.100831 0.27059 -0.415657 0.304631 -0.371276 -1.2889 -1.96499 -0.482414 -0.189598 0.414394 0.445651 -0.0288337 
-7.10628 -1.26658 -6.48139 -0.757596 5.43491 -1.67863 7.53331 -0.732457 -1.98405 8.10243 -0.289438 2.06575 11.9883 -0.135168 0.264286 0.153989 -0.468602 -0.184064 -0.572362 -0.743844 -0.953294 1.69882 1.19451 0.401168 0.979686 -0.0637317 
-7.79875 -0.383936 -7.67518 -1.35848 8.8756 -0.445396 4.19732 -1.00785 5.30571 10.1946 2.54393 -1.83025 11.9148 -0.53865 -0.275601 -1.24424 -0.19479 0.923658 1.0732 1.12055 1.38276 1.8191 1.91599 -0.0757223 -0.691204 0.0390719 
-9.37137 -0.726323 -7.34691 -1.58596 8.08329 -0.498986 7.71831 6.51203 8.50141 13.3678 2.17117 1.50591 11.9125 -0.640871 -0.0180195 -0.013604 1.03233 1.60451 0.713103 0.384601 1.48009 0.398581 0.995211 -0.489849 -1.03599 0.0876826 
-9.3506 -1.80702 -9.36792 0.319859 10.4107 1.15963 7.74949 7.10939 1.40542 13.8182 -0.463888 -1.36813 12.2616 -0.182177 0.289282 0.565436 0.714948 0.57034 -0.0869898 -0.784747 0.681892 -1.04133 -0.318513 -0.607532 0.184103 0.110972 
-9.53471 -0.645138 -5.70304 3.56488 12.6899 1.08437 7.68023 2.60936 1.959 11.2667 -1.23478 -3.34524 12.2533 0.268522 0.402317 0.613766 0.203615 -0.143842 -0.572616 -1.53253 -1.69573 -2.83696 -2.8562 -1.89463 -0.251249 0.0734943 
-8.62796 1.02188 -5.66993 -0.359162 9.42398 -1.67202 0.292631 4.35295 3.37026 9.65262 1.20924 1.51584 12.2992 0.109846 0.198662 0.4968 -0.530443 -0.889012 0.103796 -1.00782 -1.34732 -0.523742 -2.44418 -0.0390085 0.854224 0.029159 
-8.39008 -0.129185 -6.12707 -0.228368 7.85745 -1.94624 3.78408 -0.588403 -6.66581 1.16961 -8.13854 -1.19232 12.2612 0.0701645 -0.400368 -0.551816 -0.832748 -1.60852 -0.130426 1.0801 0.384393 -0.162563 -0.831369 0.988578 1.29066 -0.0356082 
-9.37368 -1.07168 -6.6719 -0.43573 8.3819 3.19391 4.65849 1.97169 3.09911 6.64585 2.79295 1.82653 12.4035 0.211282 -0.579508 -1.03136 -1.1404 -0.616164 0.762546 2.16875 -0.112508 0.0695754 0.96651 0.434246 -0.372363 -0.0580452 
-8.81102 -1.6002 -7.96113 -0.560576 5.16835 -2.00072 10.8978 5.72196 1.28176 8.61324 2.91626 2.9527 12.0232 0.0677685 -0.379935 -0.988577 -1.31055 0.459529 0.472807 1.43666 0.827235 1.48895 2.27819 0.330708 -1.13625 -0.0336026 
-7.36108 -1.14015 -9.90968 -5.89505 7.68771 2.16795 7.57952 0.635226 -0.255644 10.7634 -2.14693 -2.41849 12.128 0.0763414 -0.276311 -0.577688 -0.717909 0.288015 0.50432 0.526097 0.177186 -0.0980897 0.770249 -2.42473 -1.5215 -0.049614 
-9.05754 -1.99463 -9.45106 -4.05148 10.5022 0.930775 9.50688 4.216 2.45631 10.5018 -4.01506 -4.75105 12.2309 -0.0289522 0.160573 0.541571 0.991398 0.65492 0.70067 -0.854593 0.253232 1.20695 0.35283 -1.54465 -1.24461 -0.0394223 
-8.86872 -2.25602 -8.81538 -2.27982 7.15506 4.24976 7.98442 3.61059 2.02138 9.5528 -5.86502 -1.92907 12.0515 -0.0433218 0.40014 1.22271 1.7682 -0.103838 -0.79683 -0.931033 0.689542 0.923288 -0.455843 0.170672 -0.384035 -0.0359161 
-8.20197 -0.2394 -5.80043 2.5888 8.70928 0.461718 6.42236 5.50043 6.17798 10.9827 -2.94793 -3.51504 11.8643 0.044907 0.257863 0.572261 0.717114 -0.497461 -1.03049 -0.895993 0.105242 0.512638 -0.481998 1.2328 1.86647 0.00636692 
-8.00548 -0.017066 -5.62144 -0.374189 8.06497 -1.58168 4.46661 3.44072 2.49996 8.24371 -1.82713 -4.95667 12.1318 -0.185448 -0.0722926 -0.1129 -0.228533 -0.0339619 -1.28791 -0.203374 0.175981 0.411989 -0.384915 1.5068 2.56585 0.0700558 
-9.26463 -1.82479 -8.18673 -1.41872 7.55992 -1.30596 6.78582 4.82714 4.78021 8.74638 0.129995 6.09509 12.2226 -0.338447 -0.49785 -0.733788 -0.905959 -0.280376 -0.325964 0.304613 0.00398458 -0.0515285 -0.396993 0.811298 3.0272 0.0807589 
