-4.49566 -2.3382 -7.86208 -2.04467 5.72792 1.2792 9.76931 -0.414526 -0.0379984 11.2199 5.05358 -3.82542 11.9582 -0.578514 -0.175061 0.256126 -0.606659 1.23644 -0.321265 -0.665215 1.98093 0.553995 -1.51098 -1.63939 -0.0542636 0.19752 
-3.89889 -1.89536 -7.42304 0.0773382 8.64688 0.858984 5.0939 5.8864 2.97702 5.20008 0.112345 -3.93645 11.8443 -1.85937 -0.087641 1.39912 -0.97871 0.360992 -0.425355 -0.50476 2.20083 0.482526 -0.71202 -1.68306 0.912422 0.784148 
-7.68661 -3.43493 -6.80097 -6.13897 10.4506 -0.117023 8.78093 6.33968 1.22447 6.67484 -0.672733 -4.04123 13.0027 -2.47706 -0.10713 1.56278 -0.338458 -0.580044 -0.633668 -0.347598 0.202766 0.734296 -0.263718 -1.6738 0.97968 1.03885 
-12.197 -2.22805 -1.39704 -4.89107 5.17151 -0.149467 7.73969 7.21253 1.7434 9.93226 -0.498535 0.844591 15.3566 -2.20871 -0.103486 0.704599 0.311249 -0.872228 -0.544385 0.461781 -0.899219 0.79616 0.530281 0.463266 2.52983 0.831046 
-12.7319 -2.70751 -3.06117 -1.25275 4.56538 -1.38492 6.70842 -0.0637589 4.25029 7.53517 -3.01 -1.31754 15.3962 -0.586087 0.279886 -0.0325329 1.64908 0.419152 0.194878 -0.0217339 -1.20091 0.5666 -0.839808 -0.00998377 1.50737 0.20067 
-12.4198 -2.7765 -5.76994 -0.809526 7.22838 -1.229 8.43906 4.59203 5.44491 7.42132 3.59731 7.35085 14.8028 0.735247 0.635202 -0.971905 0.529879 2.1299 0.801773 -0.379609 -0.464755 -0.385809 -1.76794 0.299491 0.381535 -0.397542 
-10.5056 -1.76127 -4.77719 0.0656343 11.518 1.39713 8.32258 1.64536 2.20671 3.73127 -2.77057 0.242476 14.283 1.49814 0.953389 -0.20127 -0.262478 1.20899 -0.126197 -0.420274 0.895988 -1.03377 0.461271 1.48802 -0.301578 -0.48666 
-9.6339 0.474839 -5.39856 -2.90087 12.3447 2.46837 5.03457 4.03419 0.836142 2.99452 0.879207 1.97226 13.9256 2.32646 1.6497 0.72766 0.435698 0.930053 0.703794 0.0192015 0.0918006 -0.851927 1.07294 -0.568102 -2.80086 -0.466569 
-6.63413 0.433762 -4.25321 -1.51947 8.05217 -3.86459 6.3093 4.6951 1.38585 12.0549 5.78915 -0.136134 13.4015 3.73687 1.9263 3.4363 0.377956 -2.29478 0.267204 -1.72222 -0.145277 -0.780331 -0.891493 0.0689493 -0.524056 -0.0644527 
-2.72326 4.37447 -2.39363 2.16152 13.6116 4.92083 9.54171 3.52616 1.59571 8.62419 -3.52306 -6.46414 12.9106 4.09805 0.968901 5.61177 1.06163 -4.88817 0.818946 -3.45965 -0.217347 -0.563998 -4.32871 0.214247 0.0973631 0.646626 
4.7234 5.92044 10.9018 -0.575778 -0.589355 1.50692 -2.54208 1.17299 -2.07473 -3.54103 -0.224692 1.8404 14.4682 3.4484 -0.174362 5.89169 0.734853 -5.85959 2.23326 -5.25002 0.23102 -0.378333 -7.05159 0.494594 1.05143 1.31076 
5.1776 2.57601 15.0828 1.93542 -7.77535 3.87735 -7.83799 4.70851 -0.253564 -10.8511 4.95736 1.47081 16.6254 2.38705 -1.76848 4.37656 0.119602 -5.11599 1.12447 -4.62224 0.584134 -0.604374 -4.79216 1.42709 2.05495 1.47 
6.65745 0.461183 16.4671 2.26784 -10.5523 7.82348 -11.2509 5.25902 0.418816 -13.4654 4.0219 1.15354 18.0979 0.186958 -1.51978 1.65769 0.915008 -0.62611 0.897712 -1.02104 -0.413188 -0.54069 -1.27472 -0.399812 0.470175 1.11475 
8.24495 -1.73829 16.7066 1.33772 -6.98693 7.38492 -9.21503 4.40382 -2.67294 -10.3744 1.48909 4.15404 18.4457 -1.02245 0.23285 0.164026 0.870677 1.72621 0.272226 1.07022 -1.32527 -2.24302 0.661087 -2.35598 0.984837 0.575119 
4.12452 0.478698 18.3784 4.29811 -4.11411 4.2417 -6.95876 -0.740602 -3.56849 -10.1529 -0.489616 2.84965 19.1318 -1.86248 1.72307 -0.743527 0.787899 1.63576 -1.0441 1.65884 -1.26778 -2.66113 1.5708 -2.5982 1.6732 -0.10741 
1.33184 3.7315 14.9472 5.27367 -2.36341 7.02937 -4.63297 1.08199 -9.47502 -9.20187 -4.5668 5.54694 18.9841 -2.22831 3.1112 -2.37051 0.916618 2.5584 -0.33465 3.27412 -0.246272 0.20147 2.89652 -4.48251 -0.688681 -0.957391 
0.801587 6.34162 13.6291 4.23936 -4.68529 2.78076 -5.24779 0.581061 -9.48582 -6.19769 -5.94117 8.82307 17.2917 -0.675469 2.24927 -3.61806 0.671336 3.80281 -0.191648 3.38391 0.183713 0.253304 2.72607 -3.04756 -2.4025 -1.72375 
-1.23513 10.8862 7.22868 5.95019 6.09067 6.44214 6.30009 2.51163 1.29308 2.13055 -18.1977 -2.27607 14.5788 -0.0221707 0.525724 -3.90654 -0.0324431 4.61732 0.136375 2.67053 -1.07364 1.69334 1.86738 -0.355625 -4.04135 -1.8169 
2.03066 8.14771 4.14737 7.31654 10.6729 3.57707 4.49428 -0.536856 -7.68602 -2.18881 -8.91196 -5.25135 12.7157 -0.478267 -1.31712 -3.96974 -1.01844 3.54074 0.939262 2.22422 -0.898239 0.95992 1.74869 3.0096 -2.61172 -1.28314 
0.606447 5.45708 0.155374 3.57287 13.0441 7.31309 3.84866 -3.72724 -1.90824 -1.86941 -4.85953 -7.62263 12.1876 -0.634128 -2.69138 -2.76849 -1.54149 0.0283919 0.189933 1.05206 0.700503 0.637147 1.40926 5.07349 -0.564608 -0.592362 
-2.51054 2.47059 -2.68295 0.335811 9.5417 7.04159 7.09901 -0.7907 -3.08556 4.54575 2.43773 -1.56225 12.0716 -2.84892 -2.43273 -1.08967 -2.5441 -1.341 0.227523 0.593207 0.464099 2.88427 3.27125 1.9689 0.821065 1.1336 
-2.13517 0.267885 -3.19859 1.73312 6.79824 5.65955 10.258 6.14106 2.17858 5.80957 1.4949 -6.94366 11.939 -3.51809 -2.01672 0.410302 -2.57439 -3.17454 -2.75142 -2.69363 -0.69592 1.67388 1.69027 -0.23234 1.39744 2.35893 
-10.8431 -1.42136 0.376009 -4.48409 7.09086 5.54146 4.25563 -3.15051 4.69194 10.328 -2.24466 -1.48551 18.5079 -2.18414 0.382086 1.05695 -1.31191 -2.5881 -1.32944 -3.03228 -0.710657 0.578673 -1.94242 -1.76783 0.89586 2.36245 
-12.8177 -2.68055 0.677402 -6.88912 -1.60317 -5.69392 -8.19781 -6.02693 2.57242 3.69083 -3.68003 -0.67378 20.7641 -0.396135 1.96159 0.705556 0.235298 -2.4742 -0.00782954 -2.37611 -0.959164 -1.49883 -3.81966 -1.58601 1.20702 1.70324 
-8.08999 5.85524 0.663787 -1.91261 0.801925 6.07112 1.16551 1.74001 -0.389108 -4.107 -3.81394 -0.217885 19.4713 1.93449 2.67793 1.64137 4.31242 -1.08109 0.58707 -1.2036 0.360538 -1.70393 -5.4069 -2.03916 1.52057 0.224981 
-5.49242 6.43752 0.185295 1.62387 -2.42829 5.35557 -0.077466 -1.10002 -2.77504 -6.07126 -5.6505 -1.54235 19.9735 2.00856 2.13138 2.83889 5.24811 0.515926 1.06348 -0.576869 -0.36785 -0.662226 -3.34981 -4.01424 3.11914 0.176367 
-4.83332 7.40923 8.82893 12.8215 2.09796 2.95207 -5.82257 -3.81128 -1.15398 -11.8255 -11.4552 6.55164 20.0281 1.44517 -0.287687 3.09313 3.59563 -1.52498 -1.83426 -1.60472 -3.00792 0.299665 -0.765913 -4.52463 4.21974 0.650682 
-4.40324 7.19934 10.7893 11.9844 0.328442 1.183 -7.58812 -5.09054 -0.356283 -9.19897 -19.9306 11.5372 21.3675 1.76308 -1.63935 2.41404 1.2419 -3.28938 -1.85135 -0.315081 -3.13788 0.295084 0.461122 -3.40395 4.39788 0.60603 
-1.40874 4.03589 10.8274 10.8853 -8.20133 -1.01388 -3.10275 -11.3043 -0.10016 -6.37271 -19.297 14.3411 22.0277 2.44439 -2.75092 0.142379 -1.15864 -4.84858 -1.31152 0.49378 -2.20861 -1.28757 1.48431 -0.0850821 2.50891 0.388239 
1.61071 -0.0725584 11.2563 8.80152 -13.7256 -1.9182 -3.01278 -13.0429 -1.82653 -6.49206 -18.7494 16.5523 22.0039 2.38349 -3.04848 -0.981584 -1.17459 -2.7581 -2.00102 0.656601 -0.950672 -2.19667 0.33108 3.59879 0.118811 0.0560904 
4.38167 -2.70943 9.30733 8.61976 -15.1179 -2.05492 -5.64134 -10.8781 -6.8567 -5.75744 -12.4713 16.5886 21.6511 1.09962 -2.33762 -2.18855 -1.6221 0.295677 -2.28341 0.326511 0.873451 -3.02094 -0.370386 4.93505 -2.13507 0.0679155 
4.61901 -4.67038 6.64141 7.24416 -10.0038 -8.30158 -3.03582 -10.057 -7.96134 -7.85121 -5.34954 11.0075 21.8363 0.24531 -1.48076 -2.78841 -2.04062 1.17575 -3.21126 0.154741 2.6373 -1.31189 -1.09162 4.04444 -3.57932 0.157989 
2.58519 -5.35331 2.19213 3.55345 -8.58385 -9.23923 -1.45867 -8.43001 -12.1375 -7.54507 -1.32168 6.43814 22.4511 0.665008 -1.36174 -2.73221 -1.71158 0.988951 -2.40873 0.334243 2.32335 2.37495 -0.715672 1.91685 -3.04067 0.15443 
3.73549 -6.1544 0.871825 1.13156 -11.1139 -14.3823 -4.33041 -1.08047 -5.74561 -11.0564 -4.10196 3.73094 22.3939 1.40481 -1.11286 -2.8658 -1.34547 0.7352 -0.68016 -0.789647 1.1598 4.40566 1.3654 0.512802 -2.71655 -0.029406 
8.14846 -8.77613 -1.4689 3.11818 -9.61813 -11.0582 -3.32283 -3.74961 3.91017 -7.73323 -3.51083 5.02348 22.1445 1.81155 -0.446606 -3.02286 -1.01577 1.04001 0.643965 -1.04735 -1.13339 4.68938 3.88939 1.12497 -3.03863 -0.21924 
8.86144 -8.52324 -5.85706 0.734439 -5.81062 -10.7929 -6.05197 -6.59818 6.04315 -0.930118 -1.69096 -1.86795 21.8425 0.900348 0.50833 -2.32637 -2.1226 0.981844 2.65455 -0.569095 -2.92874 1.69971 6.43843 3.74107 -3.0472 -0.173087 
9.07999 -6.40192 -9.55772 -1.32685 -6.03542 -7.81412 -5.83465 -11.3381 5.41505 6.83875 3.09768 -5.95556 21.6306 -0.510966 0.583081 -1.76916 -2.98544 0.634055 0.87818 -1.96636 -1.55862 -0.844359 4.96479 4.32538 -2.84405 -0.0325653 
7.77147 -4.79986 -6.71563 -7.25893 -7.99603 -2.73161 -5.91998 -11.9299 2.00051 13.8498 11.2991 -6.01556 21.7854 -0.256755 -0.421518 -0.674642 -1.86322 0.510548 0.61472 -0.103845 0.887447 -0.339639 2.51212 2.89775 -0.256171 0.117399 
6.13862 -7.72242 -9.88542 -7.81235 -5.35515 -10.698 -13.2206 -8.87687 1.7097 9.70077 11.621 -7.12297 22.0103 0.112918 -0.704475 0.149044 -1.09084 0.985918 0.452614 1.11448 2.94285 -0.303821 0.393057 0.480117 0.986771 0.157216 
9.04835 -9.97058 -9.06641 -5.33892 -3.59801 -6.27738 -2.87821 -3.39156 6.19763 10.1995 8.53612 -2.5651 22.2397 0.584681 -0.220566 -0.102836 -0.304761 1.33635 0.546878 2.19309 1.59463 0.28716 -0.938135 -1.27213 0.938413 0.0660362 
9.00614 -7.33893 -7.63711 -7.74103 -3.30483 -3.77817 -1.78313 -0.893037 1.79739 10.6292 6.87976 -2.74693 22.1895 1.08572 0.317599 0.420785 0.202335 0.499406 1.61299 2.15144 -0.741845 1.44341 -1.49216 -1.12619 0.150523 -0.0708838 
9.26112 -6.09444 -8.35397 -8.8184 -2.33946 -3.45711 -0.673291 -7.94864 3.39247 8.69492 7.30911 -3.51151 22.0259 0.778332 0.196265 0.742095 0.767275 0.137333 -0.963103 0.24258 -2.12714 1.86589 -2.75872 -0.845211 -0.58504 -0.208173 
11.4608 -8.0725 -8.13772 -5.06094 -3.4874 -4.04316 -3.5659 -10.3076 10.3293 2.99224 6.60357 -5.89715 21.7627 0.574786 -0.481411 1.20444 3.03278 -0.928194 -2.49273 -0.393041 -0.128893 1.95179 -3.60151 -0.761772 0.301188 -0.20265 
11.7127 -8.62247 -5.10563 -2.84259 -2.82006 -10.9604 -0.773923 -9.31999 11.2611 0.224343 4.44816 -3.91519 21.4122 0.212543 -0.536668 2.35307 3.57632 -1.80918 -2.89456 -0.631129 3.00357 -0.0225191 -3.96519 -0.452345 1.84902 -0.153798 
10.6543 -8.48197 -3.23906 4.43496 -7.7055 -12.4902 -3.69802 -0.851827 7.62201 -3.14308 4.50138 -1.03915 21.4831 -0.515478 0.373749 2.9259 3.00357 -2.77244 -0.87448 -0.896126 3.95417 -2.86181 -2.94186 -0.255323 3.2335 -0.134254 
10.7271 -8.57304 0.962069 4.31526 -9.27633 -13.7064 -3.76288 2.34136 4.63352 -8.06338 6.09848 3.30458 21.3968 -0.854139 1.24364 3.10115 1.84799 -2.86688 1.65443 -0.607396 1.63616 -3.07259 -2.46093 -0.270593 2.94927 -0.212036 
9.37623 -6.22847 3.45794 6.37798 -14.1214 -7.04257 -6.55205 3.63262 -0.665921 -7.57319 4.50179 6.66045 21.0992 -0.813055 2.10212 2.82114 0.270359 -1.63812 2.98401 -0.120054 -0.431598 -3.11472 -1.09952 -1.73343 2.00296 -0.460674 
8.081 -3.53104 7.05162 5.42583 -13.9465 -5.41206 -2.38388 -3.38141 0.0421193 -9.86526 3.09499 6.98138 20.544 -0.755089 2.92733 1.80677 -0.0664039 -0.375963 3.48656 -0.977766 -0.331636 -2.26389 -1.10659 -2.69625 1.21509 -0.659911 
7.91208 -0.492352 7.82187 5.23147 -13.561 -1.71728 -4.98778 -0.148434 -5.6559 -7.73972 -2.664 7.13726 19.6061 -0.137547 3.35154 0.287031 0.120933 0.90627 2.42339 -1.19285 0.131306 -0.789776 -1.97442 -2.06796 -0.171759 -0.855927 
7.68374 3.19556 7.81398 4.5565 -11.4363 1.06377 -9.43384 2.5737 -4.19091 -13.5131 -3.79985 9.14163 18.8437 -0.0474768 3.88952 -0.856903 0.333153 1.471 1.99239 -1.47429 2.04961 -1.55056 -1.26401 -0.655791 -1.29135 -0.890461 
8.88713 7.16595 4.51192 7.41731 -10.8452 1.83647 -8.99131 1.31159 -2.49829 -15.6214 -2.39057 4.72153 17.6697 -0.708856 3.96784 -0.370767 0.000916779 2.41887 1.06565 -0.988823 2.27903 -0.864743 -1.63685 1.90474 -2.31877 -0.737033 
7.35609 12.0874 4.42208 5.99867 -7.94942 2.77303 -7.75356 6.13662 -9.28947 -12.2445 -0.320686 1.73249 17.0599 -1.50166 3.27346 1.33161 -0.344717 3.26576 0.122173 -0.217179 2.49505 -1.94421 -0.366719 1.29586 -2.56974 -0.61766 
4.53162 14.9009 7.66398 4.51497 -3.21017 2.75636 -10.772 9.46523 -7.43034 -16.5582 5.12013 -0.752002 16.8129 -1.73564 1.46259 2.05582 -0.310638 3.9007 0.363901 -1.4051 1.59165 -2.4353 -0.449218 0.78849 -2.63613 -0.483418 
2.35321 15.6954 12.896 4.28408 1.07497 1.21469 -9.62937 10.9721 -11.4459 -14.8782 -1.07592 -0.970301 16.1838 -1.41967 -0.480302 2.56197 -1.05215 3.90329 1.38336 -2.73853 0.777557 -0.318611 -0.487666 1.05969 -3.27597 -0.0664024 
2.71039 12.6749 10.5541 6.72142 4.14614 4.43515 -15.0789 6.85207 -13.5965 -16.5506 1.9295 -7.1077 15.6906 -0.973749 -2.10667 0.29233 -1.77898 3.16075 0.850324 -1.30702 -1.71595 -0.541363 1.4197 0.43143 -3.60996 -0.348015 
1.16838 10.7989 15.7869 -0.365276 7.88886 8.85042 -19.2928 11.331 -7.79943 -14.6866 6.57308 -11.4695 17.289 -1.05569 -3.18294 -3.54116 -2.36644 1.44682 -0.059299 2.82794 -3.12434 1.52061 4.46991 -0.407172 -1.57497 -0.919088 
0.255297 6.81579 7.68018 -2.05527 9.18665 3.19012 -12.4754 0.706047 -11.9604 -9.5555 3.45278 -13.5522 14.5202 -1.53549 -3.6665 -5.20268 -2.31517 -0.0468521 -1.88031 6.32329 -2.75766 2.39089 6.1247 -1.61481 1.36714 -1.22132 
-1.69772 2.71024 -3.37286 -3.15975 5.78883 1.54071 3.20856 -1.57658 -4.66097 3.97375 -3.87342 -5.62291 12.1736 -1.36368 -3.00026 -5.47827 -0.0176026 -0.687888 -1.61937 6.33998 -2.10118 1.67206 5.7403 -1.81516 2.306 -1.27525 
-3.53399 -1.61324 -5.87945 -3.45722 4.96189 -1.31155 5.28687 -0.482442 -3.21131 4.74267 -0.921283 -3.19529 12.1417 -0.929192 -1.75285 -3.17921 0.358741 -1.26186 0.35336 3.82606 0.0918029 2.91085 3.70381 0.39312 1.75448 -0.541802 
-3.75537 0.0121555 -4.82464 0.247683 6.5618 3.0044 3.52599 1.41931 -3.81369 6.86575 -0.315685 -5.118 12.102 0.0204573 -0.066509 -0.481534 0.739185 0.0485683 0.657717 0.553748 0.422498 1.87136 0.593747 0.960449 -0.478406 -0.0707243 
-3.36183 -0.59942 -7.49001 -1.96529 2.49086 4.22507 6.49616 -0.332884 2.17019 7.51755 3.63951 -5.03223 11.847 0.337092 0.992404 1.03508 0.737738 0.258485 0.577558 0.732781 -0.407005 0.0159552 -0.96667 -0.91023 -0.944187 0.0235624 
-1.68151 1.87078 -4.97525 -0.20979 7.26719 2.06099 5.37266 0.461136 2.00506 5.55505 -1.35157 -7.09647 11.9674 0.206286 -0.279619 1.09212 0.754351 0.234609 -0.32703 0.35188 -0.0509894 0.226577 -1.5122 -2.1685 -1.44933 0.0226653 
-2.88546 2.41947 -0.628752 0.460209 5.90162 2.04795 8.02744 -2.03838 -6.0409 0.564673 -4.95449 -6.927 12.3269 -0.0944997 -0.620176 0.288542 0.706076 -0.0118336 -0.994335 -0.495451 -0.328194 0.350089 -0.440571 -1.66205 -0.398181 0.0400809 
-2.96213 -2.89538 -2.79467 2.80669 6.02946 2.45781 4.51975 2.01711 1.42475 2.78121 -6.86121 -11.4173 11.9754 -0.356182 -0.864471 -1.10052 -1.02943 -1.04934 0.536572 0.299629 -0.18452 1.13513 0.788241 -0.408598 1.51775 -0.0135676 
-3.19402 -1.31722 -7.13759 0.0568509 3.05055 -0.945019 4.44536 -2.75184 4.21079 6.70162 -1.91594 -4.86274 12.0434 -0.329777 -0.216541 -1.53759 -1.99783 -1.2774 1.08224 0.86147 1.48138 0.794373 0.420017 1.35186 1.78214 -0.0326076 
-3.30814 -0.583227 -7.22346 -5.15527 3.44602 6.24033 8.66184 -0.104729 2.55487 6.42778 -4.91384 -0.539846 12.0413 -0.346637 0.516807 -0.95407 -2.1839 -1.11662 0.38021 0.779239 0.490272 -0.655911 -0.404802 1.70751 2.47577 0.0426555 
-4.36135 0.180684 -6.10232 -5.54794 0.806345 5.56788 10.2637 6.42942 -2.6341 0.84147 0.83111 -3.45499 12.1309 -0.351535 0.353834 0.35002 -1.21007 -0.339588 0.392475 0.272623 0.946652 0.354032 -1.03388 2.55213 1.07693 0.0553757 
-4.11165 -1.0603 -8.08265 -5.31042 1.56846 1.10241 5.50676 -0.122158 1.56764 3.68727 0.302813 0.25769 12.1449 -0.29641 0.0670115 0.307998 -0.130267 -1.10106 -1.64871 -0.714253 0.262071 2.59226 0.620063 3.43156 1.28483 0.0391361 
-4.54994 0.690489 -4.9579 -5.91595 2.29139 3.58632 7.38602 1.99013 6.47457 2.90247 8.23637 0.12316 12.2684 -0.0275967 -0.0677721 -0.0178519 -0.576476 -0.24642 -1.4731 -0.375726 0.895962 2.46756 1.80422 2.34496 2.18943 0.0411191 
-4.69589 -0.503072 -6.25568 -5.6226 -2.80178 -1.01243 6.52943 3.42527 10.9619 8.49759 8.54136 4.09523 12.1682 -0.0136553 0.179172 0.00369039 -0.92111 0.156132 -0.591976 0.243503 1.69245 1.18202 2.12643 1.2931 0.748161 0.0749522 
-4.20721 -0.43679 -7.10507 -8.27423 1.75937 -0.740201 7.87377 9.13552 5.00658 7.45742 8.43666 5.5734 12.3249 0.173722 -0.454844 -0.664955 0.00377827 0.561467 -0.765923 -0.226247 0.419357 -0.937813 1.56386 0.270648 1.05275 0.0055685 
-4.35129 0.3992 -6.99061 -8.73682 2.61514 0.305786 6.4804 4.76739 8.21172 12.042 6.66817 1.27337 12.4915 0.106394 -0.209887 0.143981 0.968025 1.65504 1.21455 0.110956 -1.18011 -1.45717 -0.865888 -0.86899 -0.64482 -0.049476 
-3.85363 -2.03487 -7.91521 -4.33994 2.39026 -0.902404 6.27931 3.41586 3.16057 8.94961 10.5262 6.79783 12.1346 -0.0119522 -0.349223 0.36897 1.61853 0.618263 2.04473 0.578782 -1.60711 -0.395701 -1.51688 -1.83407 -0.739199 -0.0906543 
-4.34071 -0.753469 -5.13071 -2.74962 5.15795 5.14144 7.88145 0.384549 4.59903 3.42206 3.15163 0.258912 12.0159 -0.0635301 -0.569897 0.276083 1.14236 0.428547 0.612875 -0.455139 -0.486416 -0.713994 -0.900542 -1.50486 -0.109813 -0.0810658 
-4.27226 -1.60657 -6.19017 -3.17516 3.57927 7.06563 10.0672 3.29138 4.83442 4.18298 1.02455 2.38464 12.1094 -0.0563587 -0.214031 0.0566807 -0.271636 0.879425 -0.808374 -1.22593 -0.0439348 0.230048 0.567344 -1.46835 -2.36916 0.0370288 
-4.45963 -2.66443 -6.47271 -3.60741 4.16337 -0.613857 2.31077 2.39755 3.80482 9.92256 3.89472 2.9309 12.0988 0.0394695 -0.742679 -0.686403 -1.02222 -0.366459 -2.17981 -0.855697 0.103621 -0.0157055 1.63674 1.03104 -2.23503 0.11188 
-4.07596 -2.14954 -6.9608 -5.26923 7.28468 -2.06663 2.93498 2.18968 4.70792 8.53608 2.81291 -6.38395 12.2783 0.123645 -0.564079 -0.490307 -0.845444 -1.01518 -1.43206 -0.860958 -0.230323 0.0562233 -0.0811608 1.05425 -2.0276 0.137029 
-4.24151 -4.19538 -8.17741 -6.81369 1.47295 -1.19146 7.16905 1.45351 4.58376 9.4292 7.41267 -6.53196 12.4908 0.0320665 -0.204555 -0.465072 -0.688334 0.133077 0.897959 -0.00866828 -0.408019 -0.305834 -0.689905 0.868981 -0.330794 0.102107 
-3.76309 -3.66149 -7.78936 -5.79924 -0.151435 0.194148 3.33323 2.61179 4.72607 4.02386 4.53682 -3.02193 12.5985 -0.0973742 -0.0299237 -0.305236 -0.300006 0.959811 1.35614 -0.683409 -0.539367 -0.719986 -0.0313914 0.909452 1.80876 0.0300191 
-4.45573 -2.93123 -8.38379 -6.78407 8.54681 2.74555 2.06831 0.146402 2.26658 8.72915 7.37767 -0.404078 12.4492 -0.112106 0.325855 -0.10072 -0.0925586 2.2846 1.04254 -1.14664 -0.507959 -0.709385 0.330519 0.277085 1.48736 -0.0232458 
