-5.93238 1.86532 -8.07544 -2.99406 5.35572 3.62326 7.31194 2.52242 -1.35422 5.12369 -7.70935 2.05824 11.7052 -0.351357 -1.12811 0.469093 -0.147988 0.581026 -1.86729 -1.32277 0.560459 0.251336 0.499995 2.29197 0.95386 0.119465 
-8.05455 -0.275335 -7.29323 -7.18602 3.75332 0.728884 1.74251 3.5756 0.337453 2.19265 -1.34305 8.51434 11.8502 -0.171861 -1.14224 0.652662 0.300426 0.591621 -1.6105 -1.40239 0.445091 -0.203726 1.04706 2.51112 0.24444 0.137368 
-6.62809 -2.7049 -6.12108 -1.63803 9.06205 -4.26599 3.48279 4.79813 -0.943375 9.08919 0.567361 3.59949 12.23 -0.446381 -0.887559 0.828196 0.107107 0.128327 -0.405065 -0.974068 -0.0681653 -0.0353304 0.535682 1.36879 -0.109323 0.113099 
-6.44384 -1.56077 -5.78931 -2.16995 6.46066 -0.484612 2.21457 3.61002 -2.57827 8.37626 0.707883 2.50981 12.1296 -0.132659 -0.211973 0.535145 0.422629 -0.655953 0.905523 0.374036 0.139427 0.805814 0.192237 -0.542143 -1.34857 -0.0361203 
-8.96964 -1.92975 -4.68642 -4.96656 4.64369 2.20468 2.20556 2.16439 -0.0730081 4.71029 -1.89087 4.51389 12.131 0.0228342 0.865644 0.167725 0.0890796 -1.07607 1.37955 -0.143066 -0.0279981 1.29933 -0.870163 -0.0326283 0.24843 -0.176646 
-7.54706 -1.72277 -5.33484 -3.40861 2.68274 2.02117 4.2513 5.58961 3.93134 5.34328 -2.82465 1.31428 11.7191 0.525833 0.828299 -0.0598409 1.01819 -0.351075 -0.327806 -0.720974 -0.60035 1.26207 -0.422593 0.382217 0.602327 -0.162168 
-5.96231 1.70432 -5.50969 -0.573301 5.57064 1.37887 1.7491 3.66835 2.29845 6.25486 2.17048 5.4394 11.552 0.37716 0.300375 -0.668137 1.33576 0.730138 -1.24608 -0.308753 -0.833881 -0.928954 0.885634 0.752729 -0.690438 -0.0715706 
-5.31834 0.763687 -5.67688 0.724348 4.24181 -1.71074 -1.16206 -0.143707 2.54634 5.49101 0.588292 5.05869 11.6082 0.25937 0.522018 0.34112 1.26912 1.95129 0.453213 0.670175 -0.271992 -1.29001 -0.59602 -0.408926 0.349922 0.0335637 
-8.1982 -1.67111 -7.85609 -0.35426 7.51484 -2.15979 3.36848 0.861636 -4.02528 9.0646 0.16631 -0.810506 11.8285 2.62174 1.25833 0.9592 1.41173 1.36431 -0.948175 -1.16517 -0.0464877 -0.618483 -1.77839 -0.830703 -0.727746 0.292562 
-5.13226 2.57503 -2.45604 2.82748 11.4671 6.05656 6.79249 5.633 0.643169 0.958308 -3.86719 6.18884 11.7487 4.58154 1.6126 1.47348 1.85785 1.39791 -1.94633 -3.25036 0.227688 -0.92151 -2.49008 1.17613 -1.15137 0.695993 
7.05336 7.09029 -2.32411 5.43377 8.77957 -7.24565 -8.05405 0.547554 0.157616 -0.370727 0.244711 1.2356 12.9446 5.42276 1.08789 1.33599 1.78128 0.861372 -3.5092 -4.90343 -0.349131 -0.393732 -1.20445 1.96367 -1.23847 0.955341 
9.96358 4.446 -1.07548 7.11957 10.599 -8.89944 -11.7026 1.15177 -4.15266 -2.24175 6.42974 -1.72121 14.5302 3.97438 -0.845215 0.644997 1.38999 -1.42635 -3.63025 -3.34289 -0.880371 -1.37688 0.608619 2.66117 -2.68116 1.05348 
11.3677 2.83286 -1.86641 6.40611 12.2558 -12.2278 -11.9011 1.3566 -3.59602 4.6424 4.83618 -3.04783 15.2145 1.47987 -1.66487 1.2233 -0.465435 -3.06051 0.924045 -0.346012 0.221592 -0.429282 0.417472 1.86999 -1.36708 0.838299 
12.5825 0.477668 0.540097 9.29127 2.59723 -9.60363 -7.99844 0.826626 -4.36441 1.49484 7.14294 -5.07524 15.8811 0.746332 -0.927526 0.557769 -1.33959 -3.74005 2.29782 -0.978575 0.259856 2.19534 -0.958385 0.701729 -0.260692 0.636115 
13.1433 0.750108 2.98458 2.02075 -2.52212 -2.27334 -11.6362 1.81809 -1.88292 -0.151659 9.23808 -3.9228 16.4606 -0.277625 -1.00359 0.283833 -0.91943 -3.13816 1.63085 -0.693609 -0.37964 2.9903 -1.80914 -0.812278 0.6245 0.650108 
12.8074 0.849746 -0.712134 2.61431 -0.712319 -2.38758 -16.7279 2.22031 5.96749 -4.63664 7.73743 -2.58718 17.0877 -0.699468 -1.12368 -1.02575 1.04612 -1.93541 -0.240137 0.409278 -1.79574 2.78977 0.00478954 -1.90889 0.76731 0.445061 
9.86705 -2.37114 0.178867 5.14744 -1.78026 -7.68153 -11.0044 -1.23844 6.18955 -1.33756 0.47754 -1.16935 17.8618 -0.476948 -1.74726 -1.36202 3.58811 -1.30834 -1.21144 2.94364 -2.82184 -0.590786 2.67734 -2.86582 -0.407066 0.137234 
10.7232 -3.58012 -3.18581 12.9585 -7.45073 -8.10021 -6.26794 -6.62382 5.54823 2.11174 1.97876 -2.61541 17.4059 0.00463102 -1.68152 -0.544066 1.89577 -2.20658 0.686361 2.68854 -2.12153 -1.69604 3.54923 -2.45102 -0.493684 0.172995 
11.8006 -5.77124 -2.58868 14.7892 -5.69463 -5.4742 -2.148 -7.86907 -4.62722 9.86083 -2.2117 -5.94401 16.9877 0.362784 -1.24928 -0.917625 -0.30398 -3.3277 3.15429 0.783262 -1.58779 0.600924 0.540129 0.284771 -0.808263 0.396386 
11.8638 -5.85779 -2.04869 7.27227 -9.78804 -0.0594356 -7.71344 -5.07205 2.89567 7.51032 -3.17304 -2.66827 18.3897 -0.116835 -0.974748 -0.803452 -2.29042 -2.97839 3.21829 -0.498899 -0.291017 3.15376 -1.65961 1.42226 -0.390892 0.672142 
11.1107 -7.47872 -4.97781 6.47066 -17.2501 4.06956 -6.36534 -9.95326 10.5204 -1.33621 4.4773 -5.18424 19.3518 -0.578365 -0.929497 -0.977166 -2.78077 -2.40456 1.83269 -1.00329 1.12962 4.42876 -3.43401 2.72221 -0.726689 0.706367 
10.484 -7.60011 -6.0085 5.66568 -16.5649 3.21935 -6.65376 -7.03681 13.7432 -0.58777 5.74556 -4.94976 19.5845 -0.548271 -1.30337 -0.596555 -2.12908 -0.0668283 -0.0853993 -0.0330141 2.6694 1.53606 -2.49664 2.52419 -2.22197 0.415715 
9.5987 -9.54756 -5.4946 1.68866 -14.329 2.04986 -7.69431 -1.23858 12.0928 -3.26017 6.94003 -8.43671 19.9221 -0.801925 -0.942746 -0.00339622 -2.41959 2.07075 -1.95344 0.781117 3.50152 -0.211582 -1.2293 0.634741 -2.15652 0.277732 
9.87844 -11.3402 -4.77307 -0.982122 -11.5827 0.523418 -7.21403 3.91759 9.78981 -4.0109 8.21652 -12.1519 20.1831 -1.18914 -0.294959 -0.0454866 -2.32543 1.84106 -2.23887 1.66338 2.48308 -0.753511 -1.4507 -0.491874 -1.33604 0.239796 
7.40386 -10.3224 -5.61251 -2.30341 -9.38744 -4.34966 -2.17962 2.07716 11.4392 -5.77112 6.41552 -12.3658 20.4412 -1.21329 0.585281 -0.0564039 -1.4379 1.06179 -2.20415 2.51871 1.08346 -0.454615 -0.971332 -1.42492 0.461254 0.133212 
5.63576 -8.68749 -6.17698 -3.96542 -9.83041 -4.77523 -1.09421 3.7207 10.3024 -6.58581 3.54845 -9.66541 20.524 -0.746049 0.940289 -0.0453789 -1.11214 0.620161 -1.83264 2.52671 0.186387 -0.316313 -0.606546 -1.92947 1.89054 -0.032189 
5.65357 -7.94752 -5.07467 -4.00922 -9.89623 -6.32158 1.83934 4.27717 9.56342 -6.82937 2.14946 -7.37368 20.4177 -0.133669 0.693862 0.37554 -1.10963 0.460146 -1.06566 1.6191 0.329911 -1.1752 0.134089 -1.55984 2.07574 -0.146463 
7.02335 -7.8262 -5.26888 -5.68992 -8.22755 -7.6538 3.41003 3.74953 9.14615 -6.51451 0.702188 -5.19523 20.0339 0.238554 0.41699 0.150118 -0.0946633 0.0465511 -0.213893 1.13788 -0.1321 -0.765134 0.212024 -0.50006 1.32685 -0.172609 
6.04172 -7.28374 -4.18885 -6.98929 -7.88815 -8.23868 3.66378 3.71231 6.14136 -5.13633 0.0394278 -4.22218 19.9539 -0.0925822 0.275219 0.134229 0.0213961 -0.295973 0.703257 0.139224 0.27501 -0.999806 0.364244 -0.202349 0.463771 -0.0993435 
6.63445 -6.93443 -5.8693 -2.9487 -10.6017 -4.88614 3.68299 3.34263 8.1878 -6.37221 2.10317 -4.6069 19.8929 -0.540382 0.141908 0.601671 0.0816458 -0.414665 1.42011 -0.356178 1.08071 -1.05045 0.677266 -0.183658 -0.130419 0.0387209 
5.38511 -7.01731 -4.10332 -5.27285 -10.189 -4.18912 2.39898 5.85567 5.04357 -5.0793 0.437228 -5.34899 19.9915 -0.750751 0.183901 0.258567 0.0493667 -0.220478 1.45595 -0.424944 1.35297 -0.988263 0.589576 -0.309347 -0.830554 0.105893 
4.64974 -7.24988 -2.3033 -6.13991 -9.15044 -2.57804 2.26154 8.08139 4.44281 -3.15669 -0.415 -5.28392 20.2087 -1.00878 0.322907 0.128565 -0.671281 0.33633 1.51356 -0.515305 1.0249 -0.89232 0.567771 -0.741971 -1.04911 0.138039 
3.28032 -6.20651 -4.67901 -5.14685 -9.71617 -2.11299 2.24978 8.10775 3.07253 -3.79621 -0.248222 -8.03644 20.3255 -0.16747 0.213181 -1.35743 0.880443 0.586511 0.711407 0.146132 0.16358 -0.375458 0.479346 -0.944874 -0.56821 -0.0278486 
2.64296 -5.72529 -4.93863 -6.3681 -9.15648 1.64359 1.18106 7.3411 4.71171 -4.1749 -1.26396 -8.50872 20.4161 0.628531 0.0922964 -1.94392 1.49163 1.17427 0.254507 -0.503573 -0.586399 -0.388672 0.913631 -0.921457 -0.337256 -0.204978 
5.55115 -6.7137 -9.57281 -0.756538 -7.25345 -2.7429 3.66988 7.04371 3.03183 -2.17347 -3.86266 -6.57764 19.7486 1.47911 -0.153367 -1.36207 1.43495 1.66759 0.823374 -1.52588 -1.32323 -0.587717 1.59221 0.559469 -0.313993 -0.393115 
6.65698 -6.5348 -9.57601 -0.876909 -4.51047 -0.990548 -0.966375 5.68141 2.51981 0.600094 -3.21507 -7.6996 19.4722 1.60106 0.311341 -0.716242 2.1333 1.90533 1.20955 -1.66858 -2.65957 -2.25576 0.791411 2.82887 -0.520301 -0.643494 
8.66886 -6.56859 -9.17069 -0.71771 -3.70123 3.32095 -4.3059 2.32144 1.2299 1.77733 3.52467 -10.011 18.8318 0.968129 0.691483 1.00267 1.77513 1.46435 2.42714 -1.43311 -3.8543 -2.87293 -0.862264 3.91363 0.291714 -0.638713 
9.08938 -4.24114 -8.7209 4.27897 -1.40594 4.65943 -3.17396 -3.59563 -5.66611 -2.19324 9.18673 -9.39356 17.657 0.726516 -0.100962 1.13266 0.24717 0.419331 2.36444 0.45109 -3.13115 -1.97186 -1.3362 3.2601 0.75347 -0.354561 
9.17559 -4.40311 -4.98701 5.54118 -1.48397 6.56782 -2.3919 -7.58927 -7.23988 -5.08812 9.50456 -4.27209 17.4626 0.331267 -0.822189 0.570954 -1.72573 -0.600921 2.37509 1.14207 -1.50832 -0.36088 -0.806394 1.14235 0.889301 0.091556 
10.0362 -8.12235 -6.00457 -2.7705 -3.52245 9.20824 0.332077 -5.01896 -3.10462 -2.64816 10.0955 -6.80168 18.384 0.41516 -1.55714 -0.0597733 -3.90728 -0.770751 2.50244 0.670111 0.125301 1.58389 0.450541 -0.669046 0.239597 0.478729 
9.85179 -8.73893 -7.67408 -5.82162 -5.64759 12.922 -0.348575 -4.50851 -1.85525 -2.02718 8.78206 -6.8604 18.9261 0.236095 -1.19545 -0.832887 -3.8623 0.057121 2.07638 0.17142 0.70034 2.01875 1.07 -1.8483 -0.392226 0.52065 
10.8271 -9.85894 -7.67623 -9.57606 -3.17789 13.9945 -0.845067 -4.50951 -0.438964 -1.47101 6.20275 -6.90142 19.3189 -0.22536 -0.254526 -0.617728 -1.80618 0.678324 1.16837 -0.355676 0.0796639 1.92592 0.271078 -2.3584 -0.152012 0.331769 
9.96063 -9.51209 -8.31561 -10.3675 -1.37064 14.5566 -0.946232 -4.3423 1.52104 -0.326705 2.20944 -6.18335 19.5984 -0.468838 0.0233874 -0.396406 -0.425306 0.787225 -0.0823435 -0.314635 0.236494 1.91651 0.236027 -2.17372 -0.329064 0.176614 
8.85498 -9.0084 -8.77244 -9.52842 -2.2693 14.2328 -1.14747 -4.70375 4.83682 -2.14301 1.58976 -7.90027 19.7067 -0.615652 0.497486 -0.315251 0.92473 0.0325565 -0.907664 -0.676152 1.06978 1.88344 0.460872 -1.92651 -0.753327 0.0283367 
8.49365 -9.04726 -9.10801 -7.97196 -2.16576 12.3911 -1.77055 -3.22892 5.08941 -0.51104 0.219956 -8.00629 19.6153 -0.502186 1.29969 -0.558754 2.00199 -0.348257 -1.80734 -0.978684 1.16182 1.14478 0.406811 -1.81156 -1.20701 -0.153115 
8.48232 -7.60392 -8.85629 -6.15019 -2.61755 10.5389 -3.81367 0.282701 7.19405 0.925518 -2.43508 -9.75659 19.4522 -0.377743 2.55135 -0.0902649 1.87382 0.558774 -2.08786 -2.00081 2.28918 -0.362706 0.463724 -2.88078 -0.28251 -0.400799 
7.63603 -3.71589 -11.0675 -2.0467 -2.9378 7.36681 -4.50655 -1.02645 6.06635 0.173088 -4.83595 -11.2902 18.9601 -1.20086 5.04285 0.622604 1.18327 2.43687 -3.15001 -1.28619 2.28716 -1.55558 0.79231 -3.64426 0.0033927 -0.588651 
7.39507 1.08266 -8.24404 -3.12194 0.910595 6.30564 -9.78352 5.64091 2.53483 -0.166454 -10.2862 -7.67084 18.0303 -3.69434 5.94713 2.17834 0.793819 5.33918 -3.09786 -0.009062 1.19787 -2.89488 0.130158 -1.9785 1.27098 -0.218325 
3.03298 11.8237 -6.30111 -3.56974 8.2545 -1.24229 -5.2166 5.52776 -0.358886 3.99649 -14.0758 -9.03221 17.383 -6.48027 5.19878 3.15638 0.160603 5.8288 -1.84764 1.80221 0.716531 -3.29725 -0.266951 0.63347 2.47295 0.457472 
-7.68784 14.3619 -0.347769 -1.41957 18.4822 -0.645797 -3.50396 2.99497 -4.06772 -0.335396 -7.70767 -4.53073 19.1491 -7.49922 3.33468 2.54445 0.498429 3.88814 0.953612 4.45153 0.458819 -1.17839 -0.183727 3.42685 3.10219 0.993054 
-17.2239 15.6384 0.766333 -2.09486 17.4204 1.60431 1.36471 3.87918 -7.11861 -1.07719 -2.95785 -0.495529 20.688 -5.88996 0.737829 2.01688 0.982822 1.71104 2.29815 3.17561 0.558733 1.01772 0.615749 3.84325 3.18901 1.05463 
-19.9726 15.8487 0.944503 -1.36723 15.7684 9.6504 9.1835 8.75929 0.0227561 1.45176 1.2891 3.57178 21.343 -3.38255 -0.733879 0.916603 0.455112 -0.307475 0.885718 1.88505 0.0136591 1.21024 1.78587 1.92908 2.03097 0.553673 
-20.2744 14.7694 3.13714 1.3182 18.1666 5.10034 4.31774 5.43926 2.68446 6.18166 0.6421 2.86157 21.5592 -1.40479 -1.61333 0.225558 -0.281211 -0.512951 -1.07327 0.295033 -0.219914 1.07904 1.24887 -0.289482 0.520923 0.143494 
-23.0753 11.127 3.04984 -0.850546 16.5717 2.03477 4.44477 2.28322 -2.91808 4.96455 0.137761 3.94558 21.4819 -0.463272 -1.57399 -0.301175 -1.05976 -0.645495 -2.44766 -1.46483 -1.13718 -0.467341 -0.218236 -0.433336 -0.60868 -0.053026 
-22.6965 9.93256 0.841452 -3.75926 14.454 0.0457757 5.20924 6.01764 -0.253011 3.41075 -3.82959 1.92219 21.336 -0.363432 -1.49883 -0.73637 -3.0003 -1.97692 -0.797537 -0.109112 -0.0117024 -0.646776 -0.933171 -0.344099 0.474688 -0.113766 
-21.078 10.3972 0.586471 -4.1273 14.3972 -0.0606151 1.41362 2.78421 -0.845213 1.74603 1.35826 0.998073 21.1894 0.506353 -0.661962 0.0190215 -1.67757 -1.95357 0.243799 0.510483 -0.385129 0.121248 -0.205725 0.410502 0.268899 -0.142993 
-23.0903 7.64021 0.686975 -12.0449 9.36922 2.16035 5.28775 5.13026 -1.58586 3.12507 -1.68865 6.70876 21.1366 0.405781 -0.730155 1.09568 -0.457355 -0.793354 1.56121 0.628759 -1.82077 -0.119353 0.170739 0.419846 -0.318213 -0.173971 
-20.3466 8.96335 3.22219 -5.09556 9.34621 2.19648 6.95792 0.80127 -1.64542 4.07876 1.1198 2.89679 20.8667 1.2683 0.642758 2.89904 0.973358 -0.529631 -0.487307 0.217748 -2.36531 -0.499875 -0.601462 -1.27201 -0.598685 -0.247162 
-21.0332 6.99872 5.00198 -5.56191 13.0127 6.7233 5.58088 -2.09472 -0.449674 3.09808 -1.61113 -0.618234 20.6276 2.97219 2.09126 3.78014 1.86137 0.201649 -2.50203 -1.26193 -3.48688 -1.25401 -1.4385 -1.28093 -0.228181 -0.44705 
-15.765 13.9318 12.9242 -2.50202 9.9273 -4.77862 2.3558 -5.42987 -3.91268 -1.24778 -5.04054 1.66814 20.2081 4.30025 0.755472 2.463 1.77474 -0.84366 -4.01684 -1.62119 -2.51508 -0.783502 -2.36701 -1.52915 1.3306 -0.750403 
-10.5202 15.6123 14.7367 -4.03487 10.0869 -6.86224 1.27917 -9.18857 -6.72225 -1.40416 -5.01311 6.18218 19.2306 5.06907 -1.51017 1.84531 1.99128 -2.7154 -3.43967 -1.60487 -1.09265 -0.611589 -2.07091 -0.714704 2.23682 -0.743278 
-4.10191 8.43391 10.6699 3.01463 6.5908 -11.095 1.00283 -8.22719 -2.42664 -5.50518 -4.82498 6.14959 17.8131 3.79823 -3.92617 1.02608 1.37155 -3.31026 -0.652837 -1.31204 0.574847 0.718614 -0.702008 -0.351373 1.36801 -0.440601 
-1.51941 2.19679 15.3557 1.63615 1.10394 -7.31689 -1.76698 -6.15932 -4.25064 -5.12777 -5.29243 8.32516 18.1087 2.4127 -3.74448 0.877151 1.77246 -4.50924 0.863596 -0.86713 0.948382 1.90827 -1.15775 -0.268817 0.294068 -0.0594624 
-1.27421 1.00865 17.7451 1.52024 -2.13253 -7.81549 -2.68132 -4.07026 -1.55542 -2.89602 -6.65775 7.43673 18.5661 1.269 -1.915 1.02546 0.383289 -3.85762 2.20342 -0.112627 0.310852 1.16772 -1.44191 -0.229835 0.652965 0.222915 
0.129471 0.602528 15.5848 5.57465 -8.09763 -4.184 -1.21441 -6.52513 2.38348 -8.49749 -5.44081 7.00895 18.5568 0.957536 -0.736739 0.02729 0.139294 -2.05302 1.65201 0.493549 -0.126099 0.826547 -1.44833 -0.00723758 0.207408 0.119915 
1.41863 -0.343985 15.6826 2.96182 -8.0965 -1.64429 0.163408 -6.49002 0.0948939 -11.0299 -5.89996 10.0725 18.7036 1.22278 -0.715423 -0.0636965 -0.25579 -0.63915 1.26144 0.451657 -0.0705601 -0.67474 -0.998392 0.0799977 0.664387 -0.0510454 
1.92185 -0.81059 16.5234 1.61183 -6.17918 -2.14245 -0.721597 -5.57993 -0.943058 -8.30249 -5.70751 8.0443 18.6395 1.30372 -0.77505 0.414667 -0.289577 0.113865 0.964678 -0.325701 -0.0986561 -1.24952 -0.646827 1.11961 0.273358 -0.165654 
3.94352 -1.86191 16.9573 2.2227 -6.2875 -2.52906 -0.669439 -4.89566 -3.26585 -7.98548 -6.12441 10.241 18.2696 1.16314 -0.541803 0.287071 0.605975 -0.163103 0.480993 -0.312453 -0.510945 -1.16955 -0.112561 1.06655 -0.4706 -0.306984 
5.38561 -2.51376 17.0208 4.49633 -8.43281 1.08178 -2.42649 -7.81559 -2.18374 -13.2538 0.269487 8.29151 17.9456 0.865773 0.201956 -0.537019 1.42967 -0.68988 0.91728 -1.09995 0.248127 -1.17655 -0.758637 1.32457 -1.12443 -0.427008 
5.50246 -2.20141 16.8692 4.54945 -7.7852 -0.851435 -0.546412 -7.92691 -5.1325 -9.117 -3.55569 7.59592 17.5157 0.392622 1.17185 -1.27814 0.847094 -0.128048 0.963016 -1.7117 0.827066 -0.66771 -0.786647 1.38268 -1.5911 -0.447314 
5.47124 0.368944 13.8823 7.59683 -8.87973 1.60514 -6.28286 -2.82367 -5.89247 -11.5299 -0.369046 3.7447 16.8814 -0.422528 1.71195 -0.976433 -0.600724 -0.142751 1.55715 -1.78984 0.497131 -0.371128 0.650838 0.544283 -1.20568 -0.239127 
5.86382 2.55598 12.1358 4.90792 -6.70428 2.02434 -7.29973 -3.25628 -4.75003 -12.7807 1.10825 4.55887 16.5651 -0.639781 1.26687 0.103918 -1.46124 -0.696871 1.48249 -0.826581 -0.0487509 -0.52321 1.10476 1.21826 -0.876691 -0.089509 
3.0923 3.66727 14.5053 1.31347 -9.68702 7.42966 -7.99904 -7.66525 -4.23062 -8.16779 0.65893 3.78163 17.2253 -0.652591 0.373329 1.71273 -1.39147 -1.22786 0.109662 0.502051 -0.14377 -0.973907 1.94854 0.988383 -0.371241 0.015959 
3.49303 2.48378 17.0774 0.384938 -10.8659 3.64874 -3.82123 -5.74988 -8.57948 -5.27424 2.02164 3.194 16.8962 -0.366803 -0.241931 2.3606 -0.161691 -1.71874 -1.18124 0.725595 1.66396 -1.52859 1.2774 0.323661 -0.10456 -0.050453 
3.39368 2.27169 19.9752 2.90096 -12.9382 1.34125 -5.51186 -2.29572 -8.84728 -5.54042 4.11617 2.57093 16.7956 0.28923 -0.127973 1.29972 1.23385 -0.729188 -2.95394 1.07416 2.00269 -0.424856 -0.110933 -0.325706 -0.196176 -0.329062 
3.87911 2.04411 21.2039 3.30572 -13.6724 -0.837672 -4.91535 2.37874 -10.0847 -7.70734 0.997932 4.64142 16.5276 0.0633026 0.30654 0.180078 1.53778 0.823186 -1.94921 0.756861 -0.152938 -0.0878294 -0.649606 -0.576714 0.42378 -0.390334 
4.34541 3.24723 18.9406 6.02233 -11.9297 -5.09682 -2.08118 -1.71609 -5.60232 -7.50591 -0.457746 2.07704 15.7642 -0.0337968 0.435483 -0.888217 1.05864 1.72007 -0.935922 1.0042 -2.01985 -0.529647 -0.427384 -0.604074 0.32954 -0.451338 
3.33368 3.5287 18.495 6.51315 -7.25422 -2.87828 -1.75226 -6.80439 -10.6411 -7.53953 1.42503 5.55985 15.4602 -0.0591476 0.27411 -1.16137 0.386572 1.44625 -0.0726307 -0.0358678 -2.35061 -0.944864 0.51457 -0.203771 -0.429489 -0.4126 
3.49741 3.70681 16.8886 6.59046 -7.54694 -2.31806 -2.07239 -7.8034 -11.2173 -7.76125 0.882251 3.75942 15.0726 0.128198 0.214378 -1.48706 -0.204717 0.786887 -0.0382556 0.155582 -0.34412 -0.103758 1.36024 -1.2147 -0.157921 -0.386337 
4.00737 3.18488 16.423 4.95451 -8.63254 -2.59021 -5.09909 -6.33063 -12.0015 -5.00683 -0.690919 1.65279 14.8104 0.0429153 0.272161 -1.68261 -0.511669 1.16914 -0.172702 0.532912 0.907794 1.15635 1.67963 -0.489708 -0.873429 -0.446095 
4.64955 4.49104 12.5414 5.77806 -7.30614 -5.43214 0.370143 -3.67357 -5.44092 -1.97105 -5.47328 3.24097 14.1574 -0.482663 0.406751 -1.76136 -0.333746 1.93267 -0.0806025 0.102156 -0.0240633 -0.0165406 1.24719 0.736435 0.259066 -0.49366 
2.97219 4.49739 12.2556 4.361 -1.52893 -2.18475 -0.308966 -4.33033 -7.74755 -2.03647 2.15425 1.45193 13.6873 -0.897933 0.952369 -1.62085 -0.32583 2.55273 -0.531902 -0.0518177 0.298002 -0.428177 1.08903 1.39412 0.268229 -0.464766 
1.60169 5.08431 10.1655 5.21849 -1.4354 -2.9238 -3.95667 -8.92386 -13.427 -3.01048 3.14184 5.15518 13.1659 -1.37836 0.186921 -3.21518 -1.05463 2.12079 -1.28776 -0.891209 0.289579 -0.828844 1.07597 0.961877 -0.0169804 -0.554436 
1.04164 7.65009 9.50672 3.60515 1.19572 -6.50389 -3.19477 -2.21548 -10.1493 0.958016 1.9721 2.03683 12.9824 -1.51355 -0.599296 -4.41007 -0.895079 2.315 -0.0823436 0.264881 2.0854 1.90256 1.11278 -1.75525 -0.591998 -0.591536 
-1.27699 3.84929 -2.16009 0.882822 1.93548 -9.71138 -2.643 -3.2831 -8.38424 1.91154 -0.57282 2.86362 11.7377 -1.7493 -1.38278 -4.74649 -1.77046 1.79894 1.13773 2.85055 2.77634 4.53823 2.56159 -1.21519 -1.25514 -0.532681 
-3.15621 2.11842 -3.632 2.05344 8.36061 0.797323 0.358606 3.27628 -0.756124 1.06644 -4.76467 -0.362279 11.4437 -1.7516 -1.95428 -3.75506 -1.14683 1.24373 2.24933 3.94951 2.04181 3.61342 1.49086 -0.632965 0.158679 -0.387562 
-5.04587 0.936215 -6.99761 -2.85794 3.97687 -0.885741 8.51941 2.21194 4.56759 9.74326 0.434273 0.0790467 11.2718 -1.10397 -0.757679 -1.06545 -0.0548738 1.59071 2.87732 2.88431 1.20105 1.72992 0.797826 1.50753 1.33724 -0.0994879 
-5.83192 -0.664773 -6.84984 -0.258615 6.39367 0.329924 10.9716 5.24605 1.44184 4.49648 -1.69627 4.22251 11.2775 -0.278981 -0.347775 -0.684923 -0.0553826 -0.247978 0.0692367 0.894582 -0.383556 -0.195927 1.22054 0.310166 0.785825 -0.0462213 
-5.45898 1.45249 -5.87839 1.76448 10.8725 4.90894 6.47208 1.73727 -0.833614 4.18566 5.43061 7.2574 11.3234 0.131767 -0.292709 -0.370277 0.617258 -0.354561 0.289204 -1.38431 -0.254395 -0.779938 -0.0481952 -1.13138 -0.465857 0.0302237 
-4.34456 0.121408 -7.61622 -0.534682 3.67291 -1.75384 5.85518 1.59584 0.964843 9.94794 -5.71201 -0.0223334 11.1868 -0.0603287 -0.261284 -0.355847 0.108968 -1.13426 0.394887 -0.698342 0.102272 0.98664 1.17239 -0.485131 -1.67446 0.0697046 
-5.13071 -0.920417 -8.46581 0.366386 3.56444 1.60216 4.15607 2.76507 0.906391 6.77655 -3.21474 -0.127818 11.4683 -0.157451 -0.524046 -0.670051 -0.290368 -0.884668 0.0398007 0.0647121 0.667573 0.974737 0.354181 -0.130245 -0.61009 0.0910168 
-6.2977 -0.784738 -7.33537 0.985273 4.37642 3.95775 8.63787 5.24351 5.50503 9.06297 0.200752 -0.45716 11.5536 -0.315976 -0.147303 -0.828095 -0.930499 0.457886 0.346512 0.728034 0.765086 0.173042 -0.985575 1.17086 2.25888 0.0219746 
-5.26966 -0.714665 -9.36908 -0.447337 6.0974 2.25215 5.4043 3.2513 1.76998 6.39904 1.823 4.42436 11.5951 -0.118552 0.0109801 -0.38695 -1.49923 -0.274575 -0.325158 1.30194 0.654988 0.691937 -1.0958 -0.496246 2.30072 -0.0612295 
-5.85496 -0.717984 -11.3051 -4.78032 4.69587 -0.346271 8.87123 5.17815 1.39826 5.20882 -2.3766 8.99597 11.2333 0.0412518 0.324357 0.0684352 -0.953436 -0.632764 -0.844657 0.747481 0.29154 -0.384264 -0.273017 -0.806892 1.51059 -0.0499283 
-5.94483 -0.898894 -8.4157 -4.24698 2.03184 2.12838 10.5491 6.07269 6.41946 3.22464 -4.4073 6.64921 11.3223 -0.00713234 0.196454 1.09186 -0.187582 -0.17972 -0.0397407 -0.110184 0.0672544 -0.327074 0.467161 -1.0311 -0.742267 -0.0137474 
-5.75385 0.929161 -7.46988 -1.88209 3.24538 -0.20365 9.80287 5.29051 1.25897 9.28509 -0.718557 5.98337 11.4404 -0.148001 -0.160293 1.02327 0.942187 0.427454 -0.00466363 -0.323245 -1.19238 -0.512188 1.65832 0.957006 -0.94116 0.0281898 
-5.35588 -0.555968 -5.82735 -2.83436 5.92405 1.98214 4.38755 3.53139 0.204249 6.69671 -4.16152 2.21933 11.4228 -0.54042 -0.517757 -0.220804 0.522036 0.741525 0.471208 -0.560545 -0.472562 0.527924 1.71988 1.05711 -0.0667901 0.0169356 
-6.88945 -1.69091 -7.4829 -0.775687 4.88704 -0.296469 10.3358 0.486918 1.94493 11.7644 2.28554 6.50512 11.324 -0.394836 -0.69905 -0.614101 0.504018 0.255913 0.140467 -0.383647 0.205222 1.4084 0.012373 0.704224 0.24526 -0.0130245 
-8.07914 -2.17764 -9.51321 -2.18999 4.91863 4.53083 7.47992 6.11168 8.7161 10.5844 -0.623814 6.05439 11.4652 -0.0433924 0.163989 -0.710441 0.422095 0.25301 -0.99692 -0.199046 0.287881 0.00391023 0.274889 0.761573 0.109888 -0.0092042 
-6.3664 -1.75525 -8.69745 0.31582 5.02765 -0.775661 6.33846 5.02648 4.04505 7.4031 1.03371 5.29214 11.3541 0.69951 0.581403 0.263601 0.48157 0.40073 0.131381 -0.575452 -0.729739 -1.5547 -1.29116 -0.0619528 -1.17023 -0.0155497 
-5.83436 0.296147 -8.77228 -1.26964 7.11879 -2.76287 5.39099 2.70102 -0.826259 10.2518 0.272267 3.37525 11.3617 0.801078 0.429957 0.675235 0.757363 0.341122 0.243066 0.406307 -2.02841 -2.46512 -0.406799 0.0882346 -1.90699 -0.0419196 
-4.51428 -0.0207901 -6.53536 1.17199 5.79061 4.00729 8.50298 -1.45645 -1.0574 5.47489 1.52774 1.99355 11.2979 0.356774 0.0529088 0.451294 0.414421 0.15542 1.43783 0.721966 -1.51206 -1.04386 0.348561 -0.362866 -1.94533 -0.0218977 
-4.99981 -0.89509 -7.21808 1.16874 6.24276 3.35469 8.42919 -0.788882 -1.05825 9.51453 -0.429656 -1.83126 11.2836 0.118358 -0.325677 0.242568 0.48735 -0.129991 1.15825 0.600261 -0.631223 -0.0464837 0.256513 -0.336124 -1.42378 -0.0170485 
