-6.98185 -0.891738 -5.66431 -2.03905 4.86533 -0.587876 3.64473 5.65107 4.67547 2.95606 -5.8719 -5.75465 11.4618 -0.0230232 0.300973 -0.745276 -0.383956 -0.238155 0.258223 0.80245 -0.567774 -0.449351 0.358594 0.451106 1.08919 -0.0325262 
-7.54966 -0.902719 -7.91699 -4.69094 3.30984 0.138775 4.73354 2.53888 2.8703 7.44274 -2.73147 -2.82333 11.6131 0.184936 0.369397 -1.24561 -0.351499 -0.101402 0.511981 1.5385 -0.158313 -0.28855 0.600743 0.659756 1.60042 -0.0369442 
-6.81307 0.618618 -8.26434 -2.63288 4.45231 0.339916 7.11258 4.36829 3.33131 2.50568 -5.18659 -1.77435 11.2236 0.192662 0.458239 -0.568928 0.535015 1.62621 0.84711 1.66082 0.455528 -0.0248453 0.13646 1.00086 1.58004 -0.0569727 
-6.14157 0.200071 -10.5923 -3.49963 4.56484 1.50814 9.60329 5.50089 3.90481 6.18496 -2.91578 0.257323 11.3962 0.72997 -0.0594625 0.116561 1.89895 3.06365 0.00169801 0.281061 -0.713079 -0.737819 -0.462565 0.300824 -0.633352 0.0434555 
-6.72259 0.848063 -7.17128 0.0403752 12.3689 2.96299 9.51396 6.4477 4.03399 4.26724 -0.775435 0.60523 11.2854 1.55449 0.681482 1.53561 1.43614 1.18888 -0.518555 -2.07511 -2.48395 -1.31864 -0.0810644 -0.232629 -1.24726 0.12217 
-3.94504 -1.31475 -7.88072 3.46718 14.6698 -1.16427 4.93816 -2.06622 -1.17014 4.24913 -3.43293 -7.17988 11.7995 1.93072 1.65521 3.9335 0.197973 -0.777147 -0.805582 -4.37719 -3.36934 -1.88677 -2.1181 -0.37751 -0.729208 0.324333 
-0.138863 4.78344 -1.94208 1.06443 5.34423 -0.916657 -0.930383 -4.2679 -0.724429 3.06827 -6.09117 -4.29205 11.6328 2.1225 1.73911 5.27718 -1.05607 -4.26132 -1.03334 -3.96576 -1.5003 -2.10878 -3.363 0.867125 0.823825 0.654455 
0.220165 6.50841 6.46056 -3.02179 4.19144 -0.579951 -7.06047 -5.98803 -3.14985 -3.80604 -2.14546 -0.94008 12.8442 1.44883 1.04981 6.20979 -1.3804 -4.9287 0.265185 -2.51905 1.46403 -1.0677 -4.8466 1.36404 2.47557 0.938981 
1.80731 5.63204 12.044 -1.9955 -3.69853 -2.49587 -4.31555 0.907091 -5.52005 -8.52018 2.91646 1.60445 14.0353 0.58109 -0.8478 5.21572 -0.207469 -2.76218 1.16697 -1.72796 2.63594 -1.50156 -4.47309 1.361 2.31889 1.16806 
2.32602 3.50998 16.1752 -1.90485 -5.45233 0.951261 -5.9645 2.66643 -4.11085 -14.1896 -1.11655 2.24975 15.2931 0.296403 -0.972418 3.19621 1.0605 -1.84286 1.34838 -0.239324 1.55342 -1.74642 -1.14258 0.0679656 0.817019 0.791481 
1.71366 2.04366 19.2792 -0.531383 -3.6448 4.15259 -10.1181 4.58458 -7.75174 -14.1054 0.199373 5.70749 16.2487 -0.425794 0.735721 0.845075 1.81223 0.476361 -0.185272 -0.120696 0.629301 -0.681176 1.12068 -1.51396 -0.469825 0.186397 
1.74901 3.44051 18.824 1.54867 -5.04974 2.83772 -5.35579 -0.0596776 -10.7661 -6.72634 -0.447092 1.0935 15.6949 -0.888188 1.80147 -2.23586 1.23926 1.65999 0.00978302 0.798861 -0.625204 1.53279 4.25564 -1.86497 -1.13934 -0.39646 
-0.0331526 9.34538 14.9449 5.33891 -1.51802 -4.36546 -5.22339 5.41665 -5.59829 -6.64842 -4.98806 -0.166545 14.7664 -0.863605 1.32972 -4.65652 0.890361 2.61998 0.482672 3.70703 -0.000245404 4.1259 3.91314 -2.14404 -2.2368 -1.06699 
-1.24151 8.86645 7.16299 1.3563 1.78421 5.2592 -4.41758 -0.875627 2.47635 3.36007 -7.84769 -0.509939 14.052 -0.718569 0.00388139 -5.32613 0.157707 3.73827 0.509662 3.95064 0.669683 3.15044 1.90445 -0.851403 -1.00423 -1.16929 
-1.10911 5.97927 1.8271 4.0166 6.03815 5.35521 7.94789 4.99132 6.25651 0.417093 -6.82055 -4.67477 11.7352 -1.15203 -1.78267 -4.17323 -0.384533 2.74884 0.749071 3.94439 -0.429094 1.42352 2.80128 1.77278 0.0473321 -0.90932 
-1.30586 5.14297 -1.2477 2.99835 9.86354 0.525692 7.81176 3.5014 -0.941327 -0.736846 -3.78786 -1.67354 11.3641 -1.46975 -2.12034 -3.15661 -0.758333 1.2045 -0.658452 2.74412 1.61956 1.42005 2.09179 2.2516 0.280922 -0.557644 
-5.76113 2.29375 -1.71585 2.59522 8.18653 1.74665 8.38388 1.08266 3.22812 9.40643 1.84594 0.651918 11.5638 -1.69477 -2.02072 -2.71606 -2.08109 -0.607779 0.16192 1.00871 1.29271 1.25732 2.39883 1.56766 0.704214 -0.0709662 
-6.26426 0.10753 -6.8486 -1.72467 6.7325 3.77122 9.08501 9.17649 11.0908 9.32434 -0.922951 -1.76867 11.3495 -0.991354 -1.21794 -2.04007 -0.932506 -0.393553 0.823819 0.150765 0.520126 0.714625 0.92655 -0.114754 -0.562356 0.00499268 
-7.10375 -1.60661 -8.95273 -4.02736 4.56477 4.54204 12.3548 8.61734 6.52706 7.38064 -0.414719 -1.10614 11.3877 -0.231568 0.446494 -0.126701 -0.0897014 1.24609 0.734383 -0.378007 -1.69558 -1.40316 -2.10664 -0.912598 -0.705352 0.366071 
-5.59132 1.00344 -7.82961 1.64711 9.70666 3.24709 6.58012 2.33469 0.982331 4.9088 -3.2313 -3.6063 11.4771 -2.36132 0.468717 0.158176 -2.38662 0.429432 0.335151 -2.22562 -4.5074 -1.37234 -1.71135 1.39829 1.59668 1.60281 
-7.25544 4.07826 -1.85885 0.460818 12.9299 5.68063 7.74629 -3.97434 1.26659 1.08099 -1.56288 -1.95603 13.3303 -2.52545 0.931365 0.137812 -3.48604 -1.20346 -0.936811 -3.49439 -3.50447 -0.791523 -2.00984 1.12327 1.60432 1.98192 
-17.995 -0.391321 -9.60467 -15.9018 4.69709 4.87768 0.261159 -7.06466 6.85936 3.91742 6.6426 6.63968 18.3922 -1.95214 1.59126 0.458915 -3.25012 -3.02267 -2.16272 -2.86267 -0.636388 -0.421832 -2.11798 -0.467508 0.82021 1.65692 
-13.5292 3.74759 -7.37614 -12.6831 1.05228 -0.957308 -1.95766 -4.20532 -0.369074 -2.17285 0.264688 1.79249 17.8397 -0.0948422 2.16753 2.92641 0.837776 -1.48333 -1.48364 -1.67955 1.39321 -1.76532 -1.73382 -1.34031 0.0546726 0.670747 
-12.2152 9.12505 -2.77638 -8.03153 0.532114 -4.24755 -2.88122 -0.731761 -0.308999 -4.05419 -6.48263 -1.37951 17.507 2.73667 2.16496 6.14554 5.94052 0.260962 -0.209947 -1.10501 0.458524 -3.1678 -2.12938 -1.95043 0.375559 -0.323111 
-10.6196 10.1577 9.35905 0.714547 7.59575 2.82506 0.919714 -0.174736 -3.97585 -3.60229 -1.70183 2.32693 17.1267 2.83734 0.14674 5.80535 5.07014 -1.29528 1.35008 -1.66955 0.690086 -0.512392 -1.25643 -2.05455 2.8617 0.00629406 
-5.76644 7.22843 12.7554 7.10193 2.73016 1.93677 -6.70259 -6.78733 -7.17624 -6.01475 -2.12627 8.25026 17.1331 3.30238 -2.01844 4.06693 3.4821 -3.77933 1.38234 -0.95874 -0.171092 1.19532 -1.47648 -2.12303 3.10196 0.243404 
-2.5668 5.42961 13.8847 5.10088 -6.52316 2.70092 -8.39471 2.2729 0.502587 -7.47475 -12.1862 11.2861 18.0581 2.96022 -2.70109 1.15179 1.42816 -6.10446 0.28957 -1.17342 0.194866 2.28885 -1.23139 -2.91918 1.03734 0.407921 
0.270349 1.39691 15.2954 7.18581 -11.3051 2.72624 -3.01771 -2.81104 3.42837 -9.50038 -11.8556 9.65069 18.2583 2.01396 -2.7189 0.35931 0.354893 -4.93483 0.0870747 0.018185 0.931569 1.31846 -0.328282 -1.02542 -0.89927 0.374185 
1.16314 -0.432002 13.848 7.81339 -15.9089 3.87818 -6.78985 -1.18855 2.1661 -8.01641 -11.4331 6.8134 18.6037 1.4294 -2.55112 -0.301173 0.880601 -2.98943 -0.919761 0.356148 -0.352383 -1.38929 0.608819 1.95343 -1.25075 0.207534 
2.4384 -3.43528 14.5703 7.52014 -17.2511 1.78351 -7.4141 -0.398756 -1.41568 -7.38533 -7.62993 5.99025 18.7313 1.30847 -2.08572 -1.31839 1.23888 -2.14813 -1.6561 -0.565093 1.3036 -2.35917 0.638889 2.75827 -0.621961 0.150677 
3.49616 -4.90989 12.7414 9.33672 -18.4973 -1.42652 -4.41577 -0.695162 -4.02184 -5.48818 -4.53188 6.86254 18.8592 1.63974 -2.19814 -1.49629 1.40011 -0.602277 -2.93344 -0.79051 1.61038 -1.37312 -0.175915 3.14757 0.140547 0.103751 
5.64621 -6.79272 9.25677 12.6186 -20.7515 -2.90191 -7.03021 3.46028 -5.27354 -7.57005 -1.51484 6.51632 18.8839 1.81743 -1.69732 -2.82091 1.4178 0.494431 -2.89314 -1.82973 1.67513 0.548462 -0.334849 2.16472 0.658256 0.060158 
7.75792 -9.744 9.02333 12.2647 -17.1701 -8.44629 -10.9343 4.93385 -2.77056 -8.80362 1.24725 7.25311 19.0461 1.85882 -1.60931 -3.27263 -0.406567 2.19385 -1.9239 -2.86316 1.86262 1.83753 0.766174 1.15224 -0.18157 -0.0220104 
9.39468 -9.50482 2.32481 13.1451 -15.4426 -9.17233 -13.3034 5.1624 0.700997 -7.40186 0.304103 9.08625 18.9386 1.2132 -0.939154 -3.24111 -2.25557 3.65054 -0.510303 -1.47982 0.0251222 2.53178 2.00926 1.27405 -2.27655 -0.146797 
10.916 -11.6004 -0.155751 7.04059 -10.1826 -7.91083 -15.595 7.76687 2.17852 -1.7414 0.319829 4.66972 18.7218 0.741238 -0.258679 -3.02316 -3.51558 3.24357 2.16919 0.322845 -1.6816 1.0414 3.36942 2.08653 -3.53305 -0.254578 
10.1332 -10.5603 -2.35924 3.95278 -5.9926 -5.72116 -12.099 2.16938 4.91083 -1.05488 5.31913 -3.57474 18.312 0.634126 0.292826 -2.43282 -3.89012 2.35087 3.33934 2.14065 -3.62742 0.0363018 2.52929 3.98875 -3.36905 -0.212466 
11.0949 -10.5097 -3.75046 -0.716986 -5.67724 0.674062 -9.92233 -1.97764 0.33152 4.87001 9.17236 -4.08166 18.0865 0.843456 0.888208 -2.38333 -2.96609 0.582474 3.43649 3.903 -5.07966 0.0342396 0.834881 4.23967 -1.05333 -0.0866564 
12.4759 -8.58605 -8.04194 -2.42668 -5.94086 3.23194 -5.43651 -8.10245 1.80601 1.9389 15.8216 -3.38332 18.1939 1.06772 0.639591 -1.77042 -2.8892 -0.326071 2.78183 3.42916 -3.1503 -0.782614 0.5193 2.22785 1.51252 0.0687178 
13.9619 -8.14647 -9.23106 -4.60013 -7.29607 4.79506 0.588771 -12.4955 3.90213 0.936109 16.267 -0.69264 18.3476 0.765436 0.525659 -1.27314 -2.15196 -0.34602 1.51331 2.76666 -1.62247 -0.251588 -0.34775 0.566671 2.07711 0.112359 
14.0382 -8.54393 -8.47103 -8.55164 -6.81354 6.1275 -0.208789 -8.32317 -0.78755 3.50857 12.9111 2.29333 18.5251 0.429155 0.293037 -0.791989 -1.2408 -0.16109 0.927705 1.4534 -0.154752 -0.591558 0.124987 -0.309775 1.33657 0.0133581 
14.1409 -7.90241 -9.90163 -8.41429 -6.971 6.79282 1.2971 -9.97961 0.370358 2.34643 13.461 3.46555 18.4827 0.186945 0.413288 -0.998459 -0.110071 0.325335 0.370327 0.246413 0.104336 -0.363875 0.0764814 0.0557146 0.415658 -0.130892 
14.5322 -7.24289 -11.6666 -6.72361 -6.90885 6.87158 1.47635 -10.1341 0.614104 1.85868 15.6757 1.22042 18.1931 0.267262 0.349411 -1.26726 1.04642 1.11413 -0.374585 -0.640359 0.312193 -0.49639 0.41548 0.453392 -0.665611 -0.212244 
14.6497 -6.73055 -12.6256 -6.0645 -5.62174 6.27465 0.978266 -11.0683 1.38193 2.14346 15.1632 1.9221 17.8591 0.0337432 0.332085 -0.603098 0.967427 2.05576 -1.63909 -1.2414 0.976248 -0.769881 1.82521 -0.197263 -1.41369 -0.240836 
15.1201 -7.38281 -13.4454 -4.49444 -1.91751 4.51366 -3.25117 -6.21785 -3.77528 5.68745 14.3269 -0.263001 17.7757 -0.512967 0.555717 0.0898104 0.764842 2.62382 -3.35362 -2.04091 1.41711 0.0640084 2.14542 -1.74255 -1.70644 -0.228907 
14.0156 -6.17203 -12.0277 -4.69174 0.812135 -0.223673 -2.54614 -7.05652 -1.28435 9.55811 13.149 -2.86119 17.4873 -0.878956 0.757303 1.38293 0.402188 1.97267 -4.11958 -2.93613 2.03265 1.33908 0.348009 -2.19839 -1.51675 -0.232285 
12.2844 -4.74357 -11.5165 -3.58578 2.99334 -6.64737 -6.96599 -5.0545 2.26729 8.87846 7.97005 -4.92015 17.2345 -1.10487 0.987345 2.93122 0.707874 -0.187128 -3.74609 -3.39575 2.38979 2.11872 -2.00268 -2.37875 -0.0887952 -0.271005 
11.6728 -4.26366 -6.67537 -4.50789 1.7862 -8.74275 -11.845 -1.48677 5.05604 2.288 7.34972 -3.33305 16.9683 -1.09737 0.817291 4.30779 2.5777 -2.95347 -3.19205 -2.02102 3.37537 -0.733694 -3.50771 -1.73491 1.12558 -0.296224 
10.7672 -3.40027 -1.46548 -1.04699 -3.34019 -9.95724 -15.5805 2.9462 3.64811 -0.690897 5.33281 -0.471045 16.6802 -1.46997 1.10857 5.45993 3.02343 -3.95968 -2.82829 1.88074 2.42092 -3.57064 -2.34945 -1.43718 1.6104 -0.366241 
9.28736 -2.75722 4.48575 6.92737 -10.7884 -14.529 -8.34395 5.81996 -5.64323 -3.19579 5.79309 0.542164 16.2834 -2.00849 1.28198 5.34762 2.8279 -2.80342 -1.0683 3.98341 -0.00268981 -4.66007 -1.08108 -1.72168 1.59724 -0.460285 
6.12723 0.0460453 10.2026 5.81374 -10.5177 -17.8957 0.687211 3.39675 -10.2363 -0.126892 1.56248 1.19425 15.7458 -2.26346 1.45331 4.38953 1.12699 -0.727801 1.04663 2.96159 -2.27949 -3.08286 -1.5911 -1.43269 0.993234 -0.471124 
3.95031 0.423098 14.2287 6.20125 -8.64211 -10.115 -0.0617871 -1.72549 -11.3021 -3.39938 0.626477 3.82051 15.134 -1.89696 1.26279 2.79791 -0.762865 1.80778 3.82739 -0.74454 -2.29752 -0.708069 -1.68252 -1.92708 0.223781 -0.381736 
2.11843 2.2761 15.6107 4.95103 -8.05236 -6.93107 -4.91363 -4.67851 -8.93675 -8.54459 0.752667 2.85595 14.8992 -1.3732 1.8357 1.38243 -1.51227 3.06958 4.41306 -2.01862 -1.05465 1.03818 -2.87482 -0.641383 -0.0816132 -0.323355 
1.80694 2.44167 15.7713 3.5444 -2.98223 -0.87432 -9.26623 -1.63001 -9.83335 -7.39952 -3.43742 0.830216 14.798 -0.937653 1.70054 -0.520019 -1.22861 3.5044 2.67213 -0.695675 0.607783 1.19116 -2.46908 -0.48105 -0.825651 -0.410207 
0.332932 8.21526 16.3435 -0.419188 2.0002 -0.450747 -4.80369 -1.92424 -5.77974 -12.5009 0.387509 2.28133 14.297 -0.768633 1.31908 -1.16427 -1.25657 3.56066 2.86245 0.763273 0.868447 0.637265 -1.82056 -0.668152 -0.814643 -0.35112 
0.154794 5.9562 11.2622 2.74329 3.8536 0.00547934 -3.59513 -0.0637097 -6.92482 -13.7666 -1.59619 -0.0204341 13.3841 -0.946821 1.08516 -2.56198 -0.811036 2.47578 1.35882 2.72339 0.641714 1.31982 0.560893 0.393764 -1.0811 -0.467203 
-0.898665 7.11421 12.0439 -0.931253 6.33301 6.94127 -3.93281 -1.11943 -7.20469 -14.4638 -3.5087 -0.791936 13.8505 -0.721778 0.0965869 -2.64328 0.252993 1.33135 0.195795 1.60187 -0.0297224 1.69473 2.94691 -1.9466 -2.91135 -0.503047 
-2.31137 8.418 5.11116 -0.254753 7.23023 2.22376 3.91526 1.17615 -2.52179 -3.61359 0.479507 -3.03863 12.6852 -1.04965 -0.472336 -2.14718 -0.219036 1.30117 -1.32362 1.55145 0.609553 1.43613 3.45438 -1.96257 -1.24644 -0.303639 
-2.04288 7.46729 6.20261 2.3448 6.96864 -0.580912 -0.549518 -2.69278 0.492365 -2.84289 -10.3834 -10.7663 12.1312 -0.357563 -0.33492 -1.28936 -0.236189 0.836981 -2.50849 1.19759 1.21507 0.340477 2.23898 -1.22774 -0.175478 -0.21565 
-4.52135 3.41798 3.44696 0.0100904 10.0416 -2.85154 2.47045 3.77073 -3.59269 -2.30521 -7.97173 -1.26544 12.7255 -0.396745 -1.23187 -1.13306 0.332803 0.214811 -1.10633 0.227064 0.279959 -1.25639 0.0355857 -2.08261 -0.289578 -0.211191 
-1.58149 7.93962 6.42917 -2.24462 9.11221 -3.06352 2.77753 3.65863 -4.96685 -3.92311 -5.42177 -2.55592 12.7521 -1.03386 -1.67221 -2.43316 -0.000886947 -1.08316 0.888143 2.2447 0.31584 1.00194 1.37095 0.768481 0.579851 -0.279482 
-4.52579 2.02249 -0.667416 3.70397 7.2325 -2.0666 3.38706 -0.59976 -6.07413 -2.89556 -12.4144 -8.59172 11.3188 -0.947331 -1.44228 -3.3986 0.316977 -1.30052 1.53505 1.56931 -0.45795 2.28082 1.87539 1.69502 -0.00803257 -0.405925 
-7.20994 -0.196005 -3.90602 0.493423 2.95741 3.46733 10.2157 1.07167 6.7428 4.30703 -4.31964 -4.20392 11.4372 -0.916917 -1.96231 -3.87423 -0.513068 -0.92895 1.32234 1.74893 0.1687 1.85743 3.42321 2.27364 1.80134 -0.289627 
-6.44378 0.274391 -8.37842 0.225951 6.61644 1.5583 6.59794 2.77447 1.95661 2.95669 -0.0476942 -0.481603 11.3534 -0.331226 -1.37092 -2.45789 -1.25764 -0.780235 0.644646 0.953285 0.754591 1.20354 2.42999 2.28655 2.00266 0.00886612 
-5.20708 -0.997894 -9.08649 -3.07095 4.7755 1.73572 9.91674 2.81501 0.304924 10.2668 -0.236873 2.39572 11.2867 -0.0461842 -0.642351 -1.4823 -0.881122 -0.0460755 -0.176266 0.36338 0.617908 -0.15723 0.942581 0.142468 0.239105 0.0160342 
-7.18334 -4.43115 -10.3666 -0.802024 2.42229 2.02243 8.30296 2.30153 3.16251 6.27447 -3.02301 -1.87827 11.4384 -0.362754 -0.253729 -0.47216 -0.036122 -0.238263 0.441489 1.20105 0.750773 1.40555 0.269998 0.261048 -0.78986 0.0646789 
-7.07107 -1.05499 -10.3234 -3.3982 4.82411 2.35394 11.1801 4.39768 5.35369 7.36104 -2.11964 -2.31006 11.4749 -0.0968504 0.525385 0.0769138 0.53837 0.875991 -0.239252 -0.215738 0.251643 1.77155 -0.221025 0.18459 -1.74472 -0.0160005 
-7.32555 -0.965707 -10.1208 0.208967 5.40081 3.45664 11.9715 5.737 6.45997 5.75958 2.19893 -2.07801 11.5827 0.321256 1.00487 0.606033 -0.201336 0.435814 -0.158626 -0.37356 -1.05842 1.07271 1.14872 0.467205 -0.540781 -0.0127222 
-5.62023 -0.103689 -8.82486 -0.884593 7.66619 -0.177645 7.00377 2.35549 7.51394 9.41916 -1.92489 -6.22802 11.1346 0.344372 0.15625 0.252735 -0.27607 -0.857123 -0.208252 -1.04518 -1.69711 0.210581 1.25623 -0.088628 -0.405128 -0.0357524 
-6.30249 0.117564 -8.08574 -3.06551 3.18032 2.4951 8.52332 -1.96946 7.44596 10.989 -0.784356 -2.62319 11.5449 0.240795 0.131501 0.672868 -0.297651 -1.13913 -0.482918 -0.0661058 -1.67815 -0.952241 0.569589 -0.653167 0.384927 0.00209122 
-5.86074 -0.815375 -10.0772 -3.14131 1.64874 1.79345 7.67831 -0.234649 5.9136 11.0275 -1.07114 -4.06311 11.315 -0.19065 0.0439069 0.075408 -0.00790269 0.218036 0.233055 1.16464 0.735393 -1.63003 -1.80096 -0.0930897 1.42616 0.0499443 
-6.00132 0.0476437 -6.13024 -0.150929 2.71389 0.0564995 11.3037 -1.35868 2.49893 7.80336 -1.49378 -1.23583 11.5029 -0.0305483 -0.0987123 -0.138074 -0.377246 0.70427 -0.246008 -0.446479 0.883027 -1.443 -1.36288 0.172676 0.597332 -0.0216482 
-6.72406 0.150806 -9.42557 -2.3814 8.98958 2.20693 11.4368 5.72706 1.83729 2.00719 -2.03563 0.209105 11.4053 -0.145148 -0.0533905 -0.03147 -0.969326 0.257957 -0.205212 -1.82137 0.285945 -0.291801 -0.87464 1.49582 0.205954 0.0154007 
-6.02357 -0.859088 -9.10194 -5.3317 3.03125 1.05832 4.41171 -0.535187 2.26913 8.68479 0.561271 -1.77264 11.3915 0.11845 0.0535725 -0.445455 -1.37428 -0.302191 0.0607911 -1.92875 -0.33571 1.09725 0.285636 0.668499 -0.54653 0.000826073 
-6.57536 -0.628962 -8.74873 -5.39756 2.77985 0.266479 2.01749 0.783329 4.5695 6.21357 5.38042 -2.76494 11.4477 0.302143 0.267365 0.186529 -0.644832 -0.8087 -0.148014 -0.817634 -1.2615 1.39135 0.868586 -0.206795 -0.608996 0.0255485 
-5.48342 0.70539 -8.69593 -5.51427 4.30781 1.33068 6.36963 -0.565366 6.61906 7.12835 -1.85931 -2.48146 11.4859 0.217223 0.446331 0.0864825 -0.048185 0.408107 0.160892 0.826797 -0.140905 1.07494 -0.219812 -1.20809 -0.113417 0.0226802 
