-7.97799 -0.879326 -4.49146 -2.0467 2.95742 1.66803 7.51467 5.01244 3.7025 5.98883 -0.531228 1.75289 11.5561 0.300422 -1.45493 -1.00046 2.04408 0.666439 0.158596 -1.44549 -0.802235 -0.00194018 1.47736 0.715134 -0.352167 0.0484248 
-6.95844 -0.494267 -6.72555 2.30023 6.85646 4.28889 1.76637 -0.652121 3.36746 4.85311 -1.69937 2.35193 11.5039 0.274821 -1.31267 -1.37861 1.23695 1.4749 0.57055 -0.304826 0.423969 0.385107 1.91562 0.790859 -0.583736 -0.010658 
-6.98566 -8.3465 -8.37672 6.00022 4.34009 1.15058 3.1614 3.83355 3.86032 13.9435 3.62852 -0.307463 11.8243 0.219303 -0.861388 -0.958912 -0.11818 1.21676 -0.0642083 -0.197353 1.43415 1.07202 1.2687 -0.15075 -0.524215 -0.0366066 
-7.10005 -3.70911 -9.4419 0.114597 9.64056 4.7795 8.16718 7.72173 5.54912 11.5896 1.34319 -0.135614 11.3687 0.173022 0.556583 0.139746 -0.642928 0.348047 -0.359234 -0.0720476 2.09301 0.355557 -1.07156 -0.0550094 -0.0116488 -0.10555 
-6.81067 -3.57884 -7.92784 -1.54479 7.64918 1.10168 3.3275 7.99627 7.97174 8.96406 -2.80626 0.375589 11.4406 -0.034399 1.7842 0.834104 -0.556164 0.145966 -0.183015 -0.349839 0.644502 -1.23231 -3.99121 -0.977938 0.521653 -0.11095 
-6.18082 -0.0951815 -6.25126 2.85809 6.94215 2.51717 1.32308 7.73158 3.08953 1.98502 1.24297 1.95216 11.1679 0.00406685 1.01231 1.55095 1.31319 -0.765965 -0.656697 0.0596202 -0.329401 -1.34707 -2.10577 -0.0288999 1.24461 0.0239221 
-7.61726 -1.23249 -5.80152 1.84766 6.41913 1.36667 4.83425 7.05113 -1.07143 -1.21025 -1.21106 1.25692 11.3699 2.49846 1.59826 0.167183 -1.03763 -1.70713 0.581838 1.57508 -1.82651 -2.24752 -1.01448 0.497123 0.270644 0.334442 
-6.67642 0.179271 -2.7503 4.98431 6.42576 1.36352 7.71191 6.54729 3.33537 6.1479 0.401095 5.64675 11.5236 4.1804 1.21137 -0.706943 -3.61605 -2.79087 1.31562 1.46589 -1.93001 -2.08409 -0.000512207 0.650744 -0.765091 0.741516 
5.92942 4.27524 -8.84241 -7.79603 -0.628263 4.58769 8.00849 -0.544158 -3.38877 1.81022 0.100292 -0.118485 12.935 4.73043 1.35569 -0.819759 -4.21669 -2.94534 1.62497 1.17906 -1.6618 -1.9123 -0.549348 1.92053 -1.22077 0.90365 
7.94785 3.20782 -8.26553 -10.4003 -3.48852 7.48476 7.06539 1.87918 -6.17226 0.472217 3.84101 -1.18559 14.093 3.7071 1.40839 -1.12369 -3.42203 -2.68585 0.989518 0.657941 -0.96418 -1.82213 -2.19234 1.36883 -1.62999 0.864491 
8.72277 4.0317 -7.1427 -11.5435 -3.35041 6.43089 11.0528 1.07619 -5.87911 -1.11915 6.67161 -1.43075 14.6035 1.42179 0.8391 0.220285 -0.67565 -2.08283 -0.0954469 0.755731 0.475727 -0.416315 -1.09735 0.290675 -0.28877 0.626026 
10.4624 7.34298 -9.21863 -10.2521 -5.64243 5.38951 9.47945 0.916219 -4.5301 -3.34911 3.95957 -1.84709 15.0118 0.940056 0.931006 0.77574 0.35486 -2.54948 -1.58074 0.746058 0.842658 -0.433346 -0.0137828 -1.62813 -0.356602 0.408369 
11.7811 6.40317 -7.26444 -11.2484 -9.96548 5.15808 10.5801 2.31596 -6.29142 -1.76588 1.49439 -1.23159 15.6057 0.44311 0.480973 1.40173 1.50907 -3.00859 -2.04638 0.312826 0.144971 -0.149326 1.39292 -2.2604 -1.25996 0.233186 
11.119 6.67712 -4.32596 -8.77355 -12.9284 0.217488 11.032 5.47259 -8.13283 0.726664 -1.71104 -3.06819 15.6337 -0.3015 -0.917072 2.16485 3.04639 -1.06692 -1.59783 -0.206382 -1.93143 0.47605 3.01027 -1.80172 -1.94645 -0.0114772 
10.61 6.76949 -2.58037 -4.73743 -14.7504 -1.21499 11.8407 -0.477137 -4.82438 3.80755 -1.7951 -7.11999 15.4585 -1.13791 -1.22366 2.73768 4.8884 1.48066 0.160286 -0.470849 -3.24738 0.10567 1.80777 -2.2189 -2.85616 -0.173653 
9.54043 2.57445 -0.736423 1.72434 -8.58457 0.586909 7.81727 -7.34439 -2.88337 8.91551 -3.40431 -8.63515 15.0281 -1.16538 -1.48448 2.71322 4.74861 2.14416 1.81853 -0.291767 -3.96211 -0.205638 0.341216 -2.12608 -1.71063 -0.0705627 
6.8808 2.33622 4.62918 7.9447 -4.73411 5.7748 9.83325 -7.51245 -8.3878 3.17853 -8.75345 -12.7289 15.0402 -1.00233 -1.2442 2.46384 3.23056 1.50456 1.62006 -0.813602 -2.06051 -0.519423 -0.857256 -1.56418 -0.321128 0.101045 
7.15668 1.47138 5.63535 8.62842 -7.21574 5.81524 10.5769 -10.8203 -7.37931 2.74725 -8.86225 -8.8169 15.49 -0.313143 -0.624159 1.54459 0.679077 -0.363406 1.02532 -0.970857 -1.0241 0.215826 -1.2527 -0.05777 0.292456 0.253926 
6.79025 1.10002 6.55294 7.96331 -7.91203 4.27116 6.39283 -9.04175 -5.17353 2.6054 -6.88701 -8.63475 15.7327 0.426664 -0.401297 0.149484 -1.78191 -1.58245 0.256386 -1.47977 -0.527636 0.362645 1.16671 1.54083 1.22407 0.2386 
8.01998 0.0717585 6.02465 5.11042 -8.81264 6.46532 4.6832 -11.7003 -3.41138 2.93856 -4.62638 -9.21994 15.9515 0.397632 0.0441458 -0.267544 -3.26797 -1.70481 -0.829121 -1.08286 1.50609 0.485208 0.971773 1.03187 0.759245 0.178938 
8.58246 1.02955 5.18195 0.794168 -11.8479 6.73169 5.38124 -9.71065 -8.55854 8.91643 -3.16725 -6.40701 16.0025 0.719137 -0.109319 -0.803647 -4.14766 -2.22043 -0.304467 0.285727 3.13547 -0.0336098 -0.583693 0.405464 1.41816 0.264452 
8.24874 1.72735 4.98312 -4.12684 -13.7719 0.439371 5.66838 -2.95539 -3.26076 4.45061 -5.56277 -6.13454 16.2498 0.872469 -0.461789 -1.43618 -3.55658 -1.44154 0.819038 0.956233 2.89732 -0.30414 -2.73711 1.08159 2.27383 0.354489 
10.2716 -0.274367 3.05547 -8.15634 -16.5346 5.7618 7.32887 2.26316 -5.41688 -1.06908 -4.39149 -3.08668 16.9058 1.00255 -1.08028 -1.73096 -1.9898 0.215104 2.52155 0.320161 0.713711 -0.408054 -4.03782 2.43996 2.8018 0.331894 
11.5378 -1.58523 -0.0930319 -8.19722 -13.677 11.0455 8.49055 -3.20054 -6.50291 -5.75421 1.3937 0.489038 17.2723 0.966691 -1.26439 -1.3447 -0.259946 2.59798 2.77616 -1.45007 -1.53096 -1.48193 -1.34863 3.75796 2.34718 0.0973175 
11.9507 -2.71556 -0.93479 -7.11964 -10.8198 14.0364 5.57096 -6.01951 -8.97774 -6.17024 5.55433 4.29021 17.1508 0.0496298 -0.348219 -0.485333 1.24095 4.68442 -0.122679 -3.22746 -2.06469 0.0175807 1.77992 2.52624 0.551184 -0.244914 
12.2426 -3.37399 0.254761 -5.94492 -3.63933 10.1829 -0.703006 -6.46887 -8.88997 0.258061 8.25411 1.91293 16.6139 -1.07871 0.616084 0.906868 2.24259 5.09335 -3.12164 -3.34831 0.151969 1.75693 2.36544 0.00291777 -1.96713 -0.501221 
10.1673 -1.12109 0.454912 -3.07773 1.86867 5.5797 -4.21167 -6.42614 -4.13545 4.82439 4.80949 -1.0427 16.0104 -3.84582 2.32994 2.6021 2.51777 5.57939 -4.97568 -3.02057 2.92472 3.16005 0.751996 -2.1872 -2.38607 -0.193409 
7.03593 0.697949 3.74646 0.994802 5.44553 -0.334377 -3.35968 -2.23738 -0.139416 0.575656 1.7807 -6.68016 15.3363 -6.30957 3.33755 1.99342 0.938589 3.00376 -2.87946 -0.604737 4.94379 3.95067 -2.12983 -2.73839 -1.54773 0.285464 
-4.67503 6.89816 10.3298 1.99935 12.5347 -5.58339 -8.20354 6.48834 2.44722 -2.56906 -2.14496 -3.34359 16.8225 -6.92534 2.17031 -0.0912026 -2.07849 0.965562 -0.43998 1.87235 4.02201 1.80995 -3.74338 -1.55317 -0.618121 0.726215 
-11.8841 9.30413 5.28438 -3.79052 6.04644 1.36711 -1.73076 11.7928 7.57206 -6.69437 -1.96064 -4.67527 17.6352 -6.47025 0.00769509 -2.10935 -3.20713 0.952212 2.07192 4.04691 2.21206 -0.301762 -4.38014 -1.47852 1.28436 0.890666 
-14.9994 5.42738 -0.770059 -11.0775 6.39603 2.52906 4.33561 6.66881 1.05858 -10.2575 -1.08567 -5.13575 18.4921 -4.05033 -1.53582 -2.57142 -1.78584 0.99403 1.50664 3.30425 -0.382215 -0.228826 -1.84403 0.691031 1.39585 0.57977 
-20.1531 1.47182 -1.25034 -8.50239 13.2759 5.96901 10.6053 8.73267 -0.953907 -17.4809 -6.14154 0.637699 18.9549 -2.93935 -1.86919 -0.0283914 -0.608569 2.33571 -0.175298 0.47851 -1.51377 0.197749 0.0149344 0.78829 2.11846 0.388092 
-20.7922 3.13522 0.740115 -4.57389 13.8901 -0.351166 2.14968 6.10734 5.56607 -6.39597 3.40065 0.979153 19.0615 -1.71812 -0.189691 2.31227 0.635649 1.09083 -1.72866 -1.12784 -0.129409 2.00377 1.70219 0.993539 2.05309 0.240452 
-23.6845 1.10426 4.38733 -10.0852 13.978 1.93073 1.75476 4.50472 6.30706 -8.55046 -0.26235 2.85957 19.2909 -0.571257 0.294833 2.0402 -0.705278 -0.437937 -3.32907 -2.85053 -0.279807 1.85669 1.91329 0.823899 -0.442992 0.203641 
-21.8244 4.6627 7.97243 -7.10789 11.4992 -4.09512 3.12168 8.13574 7.44695 -6.21172 0.942427 4.01878 19.5263 0.492289 0.0132111 1.21541 -0.405674 -0.616729 -0.8197 -0.358839 0.198651 0.690093 0.50421 -0.212307 -0.375247 0.0189209 
-22.4933 2.18224 5.33452 -10.7618 12.2817 -8.80436 -4.13336 6.31944 7.3891 -8.00653 -0.79294 -3.09707 19.7407 1.89044 0.886566 1.41808 2.23652 -0.807995 -0.272887 -0.16767 -0.551086 -0.386209 0.487411 0.992891 -1.36497 -0.257978 
-18.9263 2.66229 6.34359 -6.26396 11.6546 0.917876 3.29954 6.19323 8.47551 -4.14688 2.60441 2.08124 18.9312 3.37313 0.900687 1.4621 3.09231 -0.838576 0.16854 -0.250801 -3.49573 -2.75204 1.99718 -0.0362875 -2.40718 -0.604679 
-15.6813 6.5373 12.2921 0.67546 9.86028 -1.94021 0.827476 2.72054 3.86174 -7.14583 3.87111 -2.99651 18.2986 4.75128 0.410194 1.32723 3.92086 -1.06303 -1.09306 -1.1507 -3.61852 -2.71067 1.95588 -1.07401 -0.548421 -0.688747 
-8.36476 6.98861 11.8041 2.63504 8.51701 -6.6845 -0.612745 -7.54348 -4.54957 3.34382 -1.57104 -8.0674 17.224 4.78858 -1.32699 0.780525 2.42665 -1.3351 -3.55794 -2.50616 -3.65505 -1.51991 1.30047 -3.38426 0.433443 -0.435203 
-4.01769 2.07005 9.2404 4.393 8.53532 -10.4685 -7.93071 -4.90483 0.348293 -1.97249 -4.07527 -0.764858 17.1506 4.17926 -3.09163 -0.48405 1.35058 -2.08035 -2.55996 -1.63169 -2.07241 -0.203235 1.87156 -3.86925 2.05533 -0.175346 
-0.815204 -1.73903 11.7721 4.0105 5.64157 -12.6077 -4.85214 -8.26932 2.63268 -0.231206 -10.3437 3.13262 17.3292 3.08105 -3.71294 -0.62407 2.22564 -3.57385 -0.799265 -0.585228 -0.319308 1.08929 0.511172 -1.64726 1.50179 0.0388983 
1.44024 -4.55703 9.88791 6.74064 0.896276 -11.7784 -5.21129 -7.27859 -0.745564 3.99946 -11.0888 1.68013 17.3692 2.3105 -2.98922 -0.965214 3.57934 -3.90396 -0.455558 1.47162 -0.978242 0.051009 1.08199 0.877381 -0.973897 0.0410334 
4.31154 -8.26257 8.36 12.5894 -5.53271 -10.0258 -4.8986 -7.95314 1.44382 2.91371 -6.30056 -1.78096 17.3091 1.94872 -2.42138 -1.65234 2.44956 -3.33259 0.129567 0.663288 -0.783783 0.572305 0.69053 2.40239 -0.506895 0.0344601 
4.97145 -9.61426 6.12037 18.0002 -5.39735 -14.0372 -0.549396 -9.95413 1.19777 1.865 -1.70992 -3.17755 17.3658 2.10065 -1.8539 -1.69634 -0.755234 -1.82762 1.94613 -1.15017 -0.767353 2.34184 -0.308695 2.54565 1.22309 0.0358297 
7.16278 -11.3173 5.39413 10.6285 -7.87457 -10.8305 -3.86665 -10.8505 4.52254 4.28868 -3.02117 3.02699 17.5032 2.12648 -1.01861 -2.00007 -3.98331 -0.258601 2.98219 -2.01772 -0.151477 2.37009 -1.05321 2.67393 2.67311 0.0822041 
10.5179 -12.2992 2.88912 3.94494 -7.07091 -1.64544 -11.4781 -9.66669 9.42429 1.7685 -0.00025022 5.39161 17.4513 2.22645 -0.6699 -2.59543 -4.8547 -0.251784 3.86053 -1.82241 0.57296 1.38416 -1.41342 3.2473 2.51632 0.148548 
12.1707 -12.0132 -0.0246969 -0.29946 -5.98894 -1.31075 -9.52282 -8.85424 9.18101 -2.30411 6.21425 7.30002 17.6774 1.59518 -0.336764 -2.92787 -3.04414 -0.575762 3.45333 0.179262 1.1006 -0.913526 -1.25131 3.75222 1.15123 0.227655 
13.5997 -12.6158 -4.14735 -0.809268 -7.59908 0.505597 -6.83335 -8.08744 5.78934 -1.9057 9.90886 7.26752 18.0214 0.49431 -0.121662 -2.37544 -1.98171 -0.644014 2.65027 1.74587 1.3096 -3.0049 0.149466 2.70137 0.0100657 0.279225 
13.5978 -12.8428 -5.727 -2.21512 -10.4893 5.36066 -5.29272 -6.13708 1.77239 -0.130776 10.7854 7.84518 18.3564 -0.0885933 -0.0731472 -1.62571 -1.48733 0.162309 2.06403 2.05331 0.938749 -2.65421 0.473525 1.68548 -1.1525 0.21898 
12.2759 -12.4927 -6.13695 -5.00576 -8.0408 8.27019 -4.8638 -4.47729 -1.89587 1.42917 11.221 5.16936 18.5079 -0.130166 0.218691 -1.14747 -1.06657 0.688541 1.02184 1.34113 0.600686 -1.2886 0.17056 0.589532 -1.41722 0.0589672 
12.3897 -12.4405 -7.15843 -5.63785 -4.95654 5.12708 -0.24102 -5.96557 -0.247461 -1.60392 13.9856 2.58662 18.529 0.0179135 0.613319 -1.46226 0.0203458 0.917511 -0.66261 0.502178 0.170074 0.58028 -0.294301 0.518954 -1.64834 -0.0600975 
13.553 -11.7235 -9.169 -4.43075 -6.92276 5.73156 -2.65355 -5.16977 0.356277 -0.316329 11.2564 2.81071 18.23 0.368919 1.21997 -1.87094 0.99811 0.886664 -2.68903 -0.212768 0.77271 1.26573 0.426805 -0.530443 -1.37846 -0.173283 
13.0488 -10.1608 -11.5223 -2.40089 -6.46076 3.31692 -3.88695 -4.94048 3.54771 -0.729532 13.3625 0.782806 18.1949 0.228947 1.37683 -1.34352 1.29151 1.64965 -3.94095 -1.92156 2.30873 1.19366 1.66763 -2.09585 -1.1316 -0.207743 
13.7909 -7.53266 -13.3097 -1.63369 -2.85537 -4.26986 -4.10467 -1.12628 2.53518 3.126 8.88037 -0.821033 17.8086 -0.24632 1.44894 -0.153548 1.41012 2.03567 -4.86443 -1.99112 2.4293 1.01554 0.938007 -2.04453 -1.31317 -0.236136 
13.4154 -7.65177 -11.8057 -0.578814 1.25803 -9.57698 -9.12324 3.55632 4.63138 5.01309 4.69435 -1.2555 17.701 -0.691767 1.35314 1.58851 1.92259 0.457594 -4.42774 -1.35514 2.26331 -0.14272 -0.861498 -1.54711 -0.0892453 -0.313573 
12.1381 -5.73333 -9.79504 1.70881 -0.603786 -12.1436 -9.991 2.72834 4.89213 1.50239 5.36785 -2.73597 17.2962 -1.49421 1.64085 3.49187 1.95233 -1.56811 -2.67044 -0.194765 0.932164 -0.489659 -3.28776 -0.0012641 1.64743 -0.393726 
10.4164 -4.29475 -5.33706 5.54078 -5.29858 -14.8849 -7.71947 4.44879 1.65564 -4.22522 7.3832 1.29405 16.8832 -2.0341 2.17863 4.89065 1.47632 -2.41603 -0.678989 0.799808 -0.641468 -1.13583 -3.4283 -0.568872 1.93301 -0.577961 
7.81938 -1.00691 0.915294 5.06816 -7.41762 -14.9681 -5.78038 3.0883 1.57476 -8.69367 7.52962 6.14132 16.2488 -2.30052 2.06162 5.4955 0.599929 -1.51301 1.70134 -0.187179 -1.20026 -1.06553 -2.45624 -1.70344 1.82354 -0.588405 
5.40426 0.878148 7.29238 5.12313 -7.41518 -11.5597 -7.2295 0.168993 0.610917 -7.03038 0.769104 3.97088 15.3349 -2.26267 2.0141 4.89324 -0.714287 -0.335689 3.38418 -1.61236 -1.56541 -0.791912 -1.46767 -2.98808 0.625362 -0.442952 
3.14156 1.98832 11.3677 4.91728 -7.11052 -5.29955 -11.1719 -1.13306 0.0868228 -9.37621 0.157705 5.04333 15.1284 -2.11248 1.72498 3.56785 -0.291092 0.117831 3.70392 -2.58344 -0.649986 -1.94819 -1.67643 -1.52988 0.315567 -0.18286 
1.44198 4.27812 13.9029 2.04479 -7.13058 -2.79827 -13.0855 -1.2676 -1.55996 -11.2223 -3.87126 4.96985 15.2287 -1.7662 1.68991 1.86366 0.317686 0.913544 3.0713 -2.28174 0.590244 -2.62443 -1.99749 -0.393578 1.31746 -0.0333677 
-0.761889 5.918 15.4493 5.15188 -6.97077 -0.829221 -15.7695 0.556669 -7.08078 -14.9798 2.20039 7.21967 15.3876 -0.922856 1.5878 0.0922667 0.623171 1.80849 1.35625 -0.389766 1.63494 -1.87383 -0.284127 -0.631405 -0.0248447 -0.332292 
-1.475 7.36285 14.5699 6.59427 -2.91733 1.56164 -16.3394 2.27535 -8.92744 -14.216 -2.22013 9.47001 15.0385 -0.210982 1.15243 -1.11931 0.257353 2.52343 0.203729 0.357899 1.06112 -0.558619 0.992109 -0.914251 -1.4394 -0.62604 
-0.0142326 8.38494 11.4956 5.7584 -0.17467 -0.698269 -11.4938 5.27018 -5.59858 -9.3 -3.82489 2.66903 13.562 0.284825 0.664314 -1.41986 -0.791281 2.17555 0.360491 -0.0140034 0.210137 2.77372 2.03688 -2.09437 -2.79783 -0.604124 
0.0132399 8.80681 10.2833 3.0283 2.0885 -1.8451 -13.4339 1.68123 -5.09415 -9.10169 -5.42988 0.0481682 13.0113 0.0977105 0.200478 -1.36236 -0.402698 1.71825 0.515278 2.25017 -0.298328 2.69095 1.80706 -0.116187 -2.48196 -0.639535 
-0.0818853 8.51759 10.4933 2.97846 1.40407 2.67661 -17.2923 1.90441 4.87119 -7.3526 -6.66658 -2.05857 13.3806 -0.295302 -0.303245 -1.42604 0.418981 1.57384 0.853944 1.61972 -1.53703 0.0484112 0.353927 0.361697 -0.267551 -0.400931 
-0.952623 8.29892 8.25925 5.97075 4.88455 2.45059 -2.18928 2.4666 -0.707604 -6.15442 -1.38022 -0.575969 11.9315 -0.456637 -0.50283 -1.88445 0.708084 0.867941 0.83261 3.90706 -1.19258 -1.04306 1.54562 1.05001 0.659147 -0.422459 
-1.00781 7.12267 5.37739 6.38207 6.29651 1.42361 -9.0175 -2.80767 -7.5498 -9.004 -4.04123 1.64334 12.0973 -0.300222 0.0831615 -1.78445 0.31944 0.918009 0.0546868 2.9743 -1.46979 -3.06893 0.847682 -0.347202 0.166958 -0.364055 
-1.80698 6.99013 3.419 4.86691 3.98198 2.94444 1.964 -1.92563 -4.09895 -0.547893 -1.49249 1.49295 11.5407 -0.816375 -0.610555 -2.80252 -1.46039 0.245196 -0.946046 0.650445 -0.547204 -0.362221 2.15975 -0.529995 0.251004 -0.0828488 
-1.15582 9.5878 3.9912 5.12758 6.44539 2.70311 -4.4974 -3.2484 -8.77778 -5.91745 -8.34646 -2.25824 11.7557 -1.68011 -1.56621 -3.23399 -1.63694 0.0468665 -1.14787 1.67986 0.812891 1.46594 4.16657 0.335117 -0.276165 -0.0146579 
-4.96049 4.01358 -5.06026 -0.703969 6.03609 -2.9194 -1.1971 -0.0490563 -1.90472 3.10103 -1.87758 2.62984 11.688 -2.02326 -2.54739 -3.10383 -1.15048 -0.386816 -0.960669 0.919204 2.07371 2.06939 2.5886 0.164065 -0.433905 0.195152 
-7.83163 0.779913 -6.55296 0.982815 5.50379 -1.3838 0.962327 0.318496 -1.31724 10.0044 -2.1731 -0.305932 11.9503 -2.04318 -2.28214 -1.97279 -0.178081 -0.414512 -1.11599 1.89296 2.14632 2.16742 1.93867 0.597174 -0.20121 0.24201 
-8.58537 -1.3429 -6.82807 1.18689 2.51871 0.18456 3.83016 6.65947 2.51775 4.43419 -3.75884 -1.65273 12.4191 -1.11735 -0.598908 -0.0617088 0.533036 0.621623 0.358947 0.809613 0.949182 0.486274 0.0536188 0.339257 -0.0278921 0.251514 
-9.55927 0.855331 -4.98883 3.29175 6.13152 -4.42883 2.45378 4.12895 -0.151924 3.10932 -4.41996 -1.123 12.6002 -0.477467 0.240226 0.28125 -0.403225 -0.211973 -0.0389273 0.561107 0.304286 -0.00144666 -1.38175 0.496324 1.39553 0.189156 
-9.68344 0.981332 -6.15087 0.806746 8.83033 0.397853 2.10524 2.79163 -0.0560029 6.81666 0.942133 2.89891 12.6206 -0.190934 0.422056 0.463542 -0.493659 -0.257486 0.175459 0.106306 -0.638516 0.228526 -0.0207306 0.563329 0.61162 0.134763 
-9.66993 0.81893 -5.48531 -0.843241 1.28811 -1.68509 4.63032 3.77385 -0.0375913 1.9044 -2.04197 4.3959 12.7953 -0.00252075 -0.321562 0.000462532 -0.398691 -1.15136 0.844973 -0.000185558 0.0130477 0.633874 0.77097 0.188189 -0.294655 0.110827 
-9.48471 0.785586 -4.26212 0.786087 3.65298 -0.310019 3.27341 3.64444 3.60322 4.933 -2.13119 -1.35408 12.9954 0.0914057 -0.997359 -0.174211 -0.264238 -0.719046 0.786782 0.569477 1.19896 0.771478 0.296629 -0.393977 -1.44076 0.0441531 
-9.67124 -0.654604 -5.9309 1.30862 2.96342 0.149968 1.86876 3.76778 1.18783 7.906 -1.94235 -0.46978 12.967 0.241487 -0.778508 -0.638392 -0.130585 1.02241 1.01967 0.967782 0.436006 0.493559 2.2241 0.366282 -1.32679 -0.0297969 
-9.22575 -3.2687 -6.79913 -1.59038 4.39745 3.41424 6.33341 8.78944 3.18867 5.29901 -1.07756 -1.87202 12.7556 0.360496 -0.123346 -1.02586 -0.801602 0.937145 0.903787 0.00873426 -0.507857 0.153291 1.81975 -0.0495249 0.393241 -0.0583457 
-8.59197 -1.04647 -7.40877 -0.307935 6.02794 1.55111 7.93923 3.38138 2.63747 12.8419 -0.737368 -1.97907 12.7663 0.233538 0.479901 -0.162576 0.0877775 0.819331 0.0990978 0.137457 -0.646163 1.18797 0.741692 0.25241 1.11296 -0.0626034 
-8.22186 0.364788 -8.6525 -2.41364 6.80645 3.50835 0.281846 1.29836 3.64485 11.5638 -2.9813 1.36677 12.804 0.0588243 0.916195 -0.0173496 0.52041 -0.392283 0.169613 -0.552801 -1.05205 1.19147 0.200296 0.26812 1.78501 -0.0596627 
-9.0055 -0.0718393 -5.81709 2.15914 5.85558 0.598403 5.58182 4.28251 6.8996 8.48206 0.271571 3.47561 12.6298 0.362558 0.693348 0.269854 -0.00818396 -1.61681 -0.629398 -0.381924 0.537793 0.188201 -1.59917 -0.3106 0.427429 -0.120094 
-8.72487 0.824966 -7.68171 -0.221867 2.52221 4.73866 4.74811 3.07864 7.01497 8.48041 -0.241427 4.32567 12.5255 0.586618 0.591281 0.348743 -0.166609 -1.92105 -1.42482 0.524393 0.866139 -0.850905 -1.24464 -0.528989 -1.01733 -0.132265 
-6.52768 2.19018 -6.54489 -1.44474 0.0859947 -2.21103 3.79648 5.1802 1.89342 6.38774 -3.66031 -1.32138 12.305 0.715283 0.588926 -0.0318759 -0.843065 -1.39754 -1.25686 -0.452231 0.389695 -1.51339 -0.62813 -1.12826 -1.5241 -0.0869878 
