-5.52432 -1.9566 -8.69952 -0.676715 6.93515 2.58766 10.6037 7.79049 6.25117 1.31376 -1.19027 2.47462 12.3268 0.105211 -0.228392 1.00288 0.93806 -1.44011 -0.807666 -0.726318 -0.207284 -0.0844059 0.00691865 -0.353466 -0.352642 -0.0710307 
-4.79305 -2.82901 -4.30713 1.92507 1.52032 0.913758 12.5769 7.1739 6.58511 0.791413 -3.39089 -1.60525 12.1669 0.379678 -0.391425 0.195186 0.673287 -1.94 -1.27117 -1.28857 -1.3388 0.012469 0.616247 0.312716 0.217942 -0.105939 
-5.36389 -2.66236 -5.8813 2.71269 2.44202 -0.613718 5.98544 7.06236 5.66217 1.60953 -1.85729 2.75135 12.0516 0.145372 -0.00106215 0.40489 0.660862 -0.637177 -0.304372 -1.11203 -1.83661 -0.805601 0.0712819 0.233307 0.266331 -0.0930292 
-3.70613 -3.56085 -9.13271 0.995016 -0.518299 -2.16749 6.46991 1.46056 6.60801 4.24711 0.706818 3.42597 11.9347 0.105453 0.472699 0.519522 0.523482 0.540011 1.0549 -0.448982 -1.16144 -0.630404 0.365392 -0.520386 0.0972922 -0.0214619 
-5.34091 -1.59599 -4.26229 3.09262 4.76858 2.60642 8.097 1.46413 2.21171 -0.0576769 -2.07259 1.29067 11.9778 0.0911765 0.0939353 1.12256 0.863066 0.0886702 1.4004 1.12075 -0.161237 0.96809 0.0623155 -1.21777 -0.577014 -0.0230334 
-4.27728 -0.998698 -2.51903 4.35252 3.0571 4.57818 9.27622 4.16582 5.15832 3.45198 -5.88517 -0.388444 12.0965 0.0332462 0.134923 0.937078 1.07564 0.0755912 0.507605 -0.154213 0.343186 1.61457 0.650882 -0.609945 0.385705 0.0136435 
-4.62244 -3.47376 -3.57535 5.34927 1.09767 3.01547 10.186 4.90355 11.2275 2.31868 -4.65016 1.77349 11.8555 0.161585 0.30029 -0.0873449 0.496415 -0.859058 -1.47231 -1.2163 -1.28352 1.06629 1.46917 1.59112 2.43248 0.0264091 
-3.89914 -1.94735 -4.79078 5.24491 1.69511 0.166014 4.65434 1.45678 10.173 6.31335 -1.05412 5.11308 12.0641 0.333081 1.14535 1.02879 0.666626 -0.249812 -1.01511 -1.14717 -2.33649 -0.816466 0.228455 2.14704 0.933675 0.0240411 
-4.72206 0.379787 -3.56313 5.1285 1.15428 -2.54903 4.32642 -3.59897 5.03584 5.85748 3.46749 10.7023 12.126 2.59595 2.90418 1.29526 -1.39291 -0.956628 -0.272459 -0.569141 -0.930286 -1.2862 -1.70982 -0.661283 -1.05579 0.352454 
-2.56206 2.80128 2.61881 7.79603 1.77973 2.28489 6.47014 -3.26539 4.1718 2.82485 0.79118 -0.184469 12.0815 3.95188 2.53163 0.322945 -4.18177 -1.49336 1.09687 0.284828 1.66124 -1.31642 -2.80227 -0.524582 -2.4468 0.772987 
7.68878 8.67284 -0.803854 -2.89086 -3.72778 0.593734 6.43241 2.61321 7.79706 -4.48615 -8.87923 -0.856694 13.6091 4.34639 2.10143 -0.335197 -5.14389 -1.74527 0.829058 -0.032819 2.91228 -1.26452 -2.50531 -0.727229 -2.45045 0.94395 
9.65484 6.56429 -4.5557 -11.6543 -3.33066 4.07897 5.02548 6.65689 2.21028 -2.52617 2.49633 -1.34141 15.1875 3.21924 1.15332 -1.1635 -4.33029 -1.6417 -0.636776 -1.05221 2.19876 -1.13586 -1.16392 0.114078 0.118261 0.938235 
10.9014 9.00545 -1.65186 -10.8658 -5.01689 0.699214 4.88466 6.00127 -0.305996 -3.99354 -1.02123 -0.971509 15.2928 0.975704 0.0872293 0.242858 -1.39558 -1.11891 -0.559048 -1.05736 0.50894 -1.26324 0.190752 1.84025 0.142088 0.633164 
11.9278 8.40159 -2.77468 -9.86794 -5.78421 -0.951737 1.98297 6.03436 2.544 -3.24105 -2.56743 0.464244 15.9308 0.235435 0.226167 1.22195 0.947659 -1.34043 -0.680569 -0.925176 -1.15322 0.808835 0.179311 0.432355 -0.253415 0.303855 
11.4308 8.19034 -0.480073 -10.7619 -8.09556 0.313847 2.66688 5.46917 1.31398 -3.17495 2.85393 -1.04908 16.4032 -0.416802 -0.372878 1.1934 1.75137 -0.453194 0.531827 -0.641583 -2.2494 0.673829 0.636899 0.723546 0.461336 0.0351501 
10.5673 8.10267 0.968138 -6.96792 -8.49346 0.868813 1.50849 1.15683 5.44447 -2.03891 2.72053 -2.5697 16.1515 -0.756882 -0.885123 0.485556 2.64324 1.82263 2.74863 0.48105 -3.18542 -1.40901 0.410857 -1.30996 0.425137 -0.343367 
9.49767 7.29052 2.44371 -3.55898 -5.92823 2.44807 1.91398 -2.80697 1.61292 -1.41011 -0.0474782 2.85214 15.3582 -0.772123 -1.50457 0.0541499 3.38138 2.59016 3.98277 1.69742 -3.36536 -2.35794 -0.989012 -3.13455 0.583745 -0.434397 
9.10998 4.42589 -1.80879 -0.253211 2.24528 11.7243 4.76467 -5.75468 -4.65052 -2.06918 -7.66653 0.639317 14.7365 -0.53471 -1.72035 -0.0630055 2.61186 2.64656 3.26998 2.46044 -1.86881 -2.93426 -1.77733 -3.7579 0.309621 -0.255009 
8.29886 2.50586 1.17914 2.78761 -0.514118 14.7999 9.52589 -7.90189 -5.42824 -8.10488 -7.62531 0.265136 14.9388 -0.136569 -1.50851 -0.0473157 1.65228 1.14654 1.43843 1.539 -0.331867 -1.77269 -1.33985 -2.61746 -0.522412 0.00148926 
8.49319 1.89326 1.28539 2.9181 2.03228 11.0428 10.0048 -5.63974 -5.70625 -7.5782 -12.28 0.271909 15.0862 0.520252 -1.11719 -0.435226 0.590835 -0.499263 -1.67022 -0.337397 -0.773916 1.04195 -0.248592 0.726964 -0.0364473 0.234382 
9.12323 1.01426 0.660038 3.11676 -0.089056 9.98098 6.98894 -4.52377 -6.72265 -5.35483 -10.828 0.423787 15.1908 1.06461 0.0167379 -1.30434 -1.29288 -2.02462 -2.49013 -2.75979 -0.105554 3.56347 0.676061 3.28754 -0.253141 0.491839 
11.2991 -0.414269 -3.72537 2.5364 -0.463564 5.78268 4.34616 -11.3133 1.20644 -4.68716 -2.43036 0.377755 15.7824 1.07881 0.616926 -1.38803 -2.87079 -3.48157 -1.71139 -3.15817 1.28023 4.55343 -0.310091 4.89474 -1.09468 0.762814 
12.219 3.74331 -2.83716 -3.48593 -9.3893 4.97936 -1.44374 -5.59287 8.93278 -6.17009 3.88754 -1.05349 17.0499 0.716277 0.727145 -1.45841 -3.50059 -3.28344 0.292099 -2.36383 2.52771 4.32563 -2.28035 3.43082 -0.920682 0.843843 
12.3393 3.61337 -3.90617 -8.13452 -10.7254 4.98664 -1.56973 1.29595 9.23318 -8.72103 4.83589 -4.46283 17.9707 0.127834 0.254047 -1.37473 -2.84309 -2.38192 2.98789 -1.5212 3.17046 1.29712 -2.92112 0.342863 0.333561 0.668509 
12.1845 2.63617 -6.54163 -9.05074 -11.3753 11.8395 -1.87228 1.81013 10.8921 -14.7397 2.69295 -1.75933 18.3158 -0.601163 -0.987992 -1.43328 -1.60724 0.982357 3.64855 -0.752226 0.433774 -1.9275 -0.469799 -1.51435 1.86049 0.356754 
11.9555 1.40954 -8.74679 -8.89663 -11.3802 17.2921 -3.04557 0.837493 6.71234 -15.008 -0.118742 2.39848 18.492 -0.879237 -1.58449 -0.456422 -0.55007 2.10976 3.54661 -1.73072 -2.20474 -3.36335 2.73308 -1.00903 2.09066 0.178049 
9.40508 -0.0947368 -7.58325 -11.1411 -4.15015 17.0694 -4.46695 -3.19478 0.555725 -5.37562 -1.20691 4.81831 18.573 -0.918713 -2.21325 1.27745 0.0512199 3.68152 0.815291 -2.77195 -2.02622 -3.42684 5.7984 -0.803179 0.589521 0.07903 
9.33285 -2.94365 -5.66747 -9.83971 -3.78922 20.1047 -8.92602 -7.22532 -2.41537 0.262342 1.74065 2.70164 18.7324 -1.47147 -1.64839 2.5226 0.885263 4.30638 -2.5412 -2.88024 -0.790093 -1.26721 5.34286 -1.49391 -1.18395 0.0193846 
8.90222 -6.2535 -1.69402 -8.3231 3.23679 14.5096 -12.7918 -4.28956 -1.67821 6.61718 -2.25265 1.0367 18.5908 -2.18747 0.0330886 2.61974 2.5185 2.95282 -4.19146 -1.78835 1.70875 0.381574 2.68532 -2.9425 -1.40718 -0.0276007 
4.84957 -3.753 0.921577 -5.8793 6.45829 5.86593 -13.2843 -2.56558 1.49326 5.70992 -7.06541 -1.63048 18.58 -3.44112 2.43078 2.10745 3.22266 3.07587 -5.85402 1.42804 3.44055 1.45154 -0.197478 -3.91076 -0.870702 -0.0516459 
0.709398 0.475386 2.2209 -0.528741 5.49019 3.23149 -11.2295 3.01911 0.509276 5.32717 -11.5164 -0.0515246 18.5112 -4.6415 4.25079 0.663061 3.25366 2.83971 -4.38722 3.60663 3.38219 0.680382 -1.75868 -0.346112 -0.81005 0.194821 
-3.77631 5.84583 2.91234 2.3764 10.4635 -3.52633 -2.56694 6.32311 3.74859 -0.0800415 -13.1813 -1.10776 18.5139 -5.13194 3.29325 -1.00111 2.95207 3.26668 -1.65078 4.35343 3.31054 -0.161671 -2.2051 2.95187 -0.287429 0.453729 
-9.99231 10.201 0.625903 3.81735 15.4328 -2.73035 -0.117369 8.17704 0.596036 0.718758 -0.925275 -3.27491 19.5979 -4.75194 1.06846 -1.7764 0.777237 2.30315 0.260064 3.65396 0.16658 -1.57985 -1.55971 4.16515 0.528993 0.614679 
-15.4593 7.85042 -3.28648 6.70802 17.8204 0.592933 2.92672 11.4081 0.64153 -3.01138 2.3984 -1.45593 20.3053 -3.87725 -1.25178 -2.86116 -1.15158 -0.233726 0.808105 2.2819 -0.98749 -2.91082 -0.426761 3.16222 0.432197 0.602461 
-17.2088 4.81537 -3.56168 1.19163 13.3275 2.47218 4.29343 1.30949 -5.83644 -1.0057 1.51951 2.76752 20.6889 -2.27694 -1.79493 -2.96222 -2.39246 -0.957937 -0.275648 1.43238 -0.0235165 -1.14771 -0.803841 1.17186 -0.648573 0.389746 
-19.5543 2.27976 -9.29965 -2.06862 10.3475 -2.08707 6.63714 4.81943 -7.58926 -1.35162 1.40745 -1.96799 20.9807 -1.13286 -0.455885 -2.64362 -3.27873 -0.881802 -0.924149 0.315134 0.451108 0.0343929 -0.768403 1.17296 0.16389 0.215144 
-19.3295 4.0117 -11.1786 -3.75661 14.3795 -2.76859 5.18931 11.3538 -1.02714 -4.13033 5.42952 -6.26175 21.2089 -0.5191 0.95542 -1.15185 -2.4297 -0.293119 -0.50509 -0.517264 0.836242 1.78153 -0.186891 0.545554 0.617231 0.0239153 
-20.0633 5.97283 -12.6961 -7.2115 12.8854 -1.40743 4.05445 8.64151 -1.59116 -5.29109 6.30819 3.87816 21.121 -0.00283775 1.33335 1.61665 -1.32977 -0.362561 1.46693 -0.22147 -0.722449 1.68755 -0.170085 0.19249 2.05212 -0.0992111 
-19.5499 7.74593 -7.6227 -8.38543 10.5929 -0.393091 2.99846 3.57967 0.0721481 0.0295801 1.79691 2.9306 20.7384 -0.137632 0.207152 2.69718 -0.447589 -1.35473 0.475885 -1.31995 -2.33267 -0.209632 -0.403284 -0.460811 1.70249 -0.107527 
-19.4583 7.07939 -2.99435 -6.40308 10.428 4.05983 6.62521 5.09426 0.29885 -4.282 4.18621 3.69646 20.72 -0.0376192 -0.540042 2.88875 0.338871 -1.29594 0.0653528 -0.680928 -0.494917 -0.237444 -1.28322 0.616317 0.454235 -0.117527 
-20.3201 4.49418 -2.5436 -6.39877 8.83459 -3.12279 -2.69583 1.46409 -3.0203 -6.65129 4.18645 2.34154 20.8718 0.356482 0.00709517 2.61839 0.521884 -1.06191 0.209702 0.00481664 -0.638762 -0.0626782 -0.0161247 1.019 -0.140655 -0.261298 
-19.8662 4.8985 -0.791885 -6.51048 7.2848 0.284189 3.49696 7.22472 -1.23215 -8.36676 8.19501 6.44387 20.4666 2.74699 0.98967 3.15323 2.10272 -1.60718 -1.9374 -0.554989 -1.34863 -0.520299 0.191397 -1.3207 -0.797126 -0.57151 
-17.5635 8.87186 4.36802 -5.72231 6.85495 2.54324 4.58667 -0.679373 0.524257 1.99134 4.88753 0.853621 19.5585 5.46009 -0.054006 3.30431 3.31679 -3.33448 -2.04507 0.210688 -1.39301 -0.315553 -0.35747 -2.07034 -0.467393 -0.723537 
-7.1017 9.8389 9.316 3.77228 3.38192 -8.46021 0.209016 -0.577184 -4.07493 -7.64633 -2.76782 0.454785 18.5191 6.36435 -2.16592 2.74495 3.29807 -4.27056 -3.53132 -1.98581 -2.01112 -0.360101 -1.06911 -1.03514 -1.27791 -0.490815 
0.598039 1.75395 8.92399 5.04382 -5.88638 -8.97597 0.00157738 -1.60003 -3.17668 -8.79886 -0.683827 2.99911 18.2279 5.19933 -3.71378 1.12592 2.06965 -3.86591 -3.74322 -1.84411 -0.746414 0.189023 -1.85539 0.776527 -0.594903 -0.146739 
2.87475 -2.37213 10.6549 4.59679 -7.69736 -11.6128 -4.13952 -2.37058 -1.18219 -8.31723 5.80497 -1.01844 18.6779 2.50046 -3.41677 0.0323642 0.254304 -2.24655 -1.32111 -2.10999 0.262065 0.813996 0.167208 2.00432 -0.719805 0.0675007 
3.44492 -3.59154 9.32819 4.21369 -6.93499 -14.5965 -2.45963 -3.51475 0.0230002 -6.95016 4.48377 -1.38428 18.7454 0.725668 -1.49487 -0.139351 1.09594 -0.896124 -0.357301 -0.730117 -0.130734 0.686676 0.367778 0.121434 -0.18477 -0.135627 
3.97715 -4.57221 9.27572 5.45887 -7.32655 -12.2554 -9.11034 1.6905 -1.60479 -7.73464 4.66997 -0.952542 18.5978 -0.0581801 -0.209671 -0.735153 2.33689 0.596529 -0.41921 1.5892 -1.19258 -0.12428 1.05281 -1.72951 1.24472 -0.414901 
3.67518 -4.62035 8.91682 10.0925 -10.5524 -10.4411 -1.1636 -4.28424 0.467999 -7.25127 0.490844 2.04231 17.5898 0.780091 -0.536756 -1.71524 2.5455 0.402422 0.515236 0.643254 -1.64812 0.286912 2.05435 -1.75551 0.542995 -0.31212 
2.46872 -2.90607 7.18482 13.3418 -2.906 -15.7866 3.15848 -7.94875 -2.02609 -2.90264 -0.846132 3.49185 17.1812 1.53445 -0.76107 -3.10768 1.54509 0.0735194 1.50068 -0.933023 -2.13893 1.80342 2.64192 -0.0995556 -1.42633 0.0149174 
8.09959 -7.10838 1.79744 12.9997 -7.13315 -10.2548 -5.37777 -6.93574 1.66821 0.905609 -1.53574 -0.891506 17.8932 2.12545 -0.974604 -3.88479 -0.59804 -0.266564 3.10173 -3.6292 -0.572264 1.39851 3.03235 2.14975 -3.35104 0.394566 
9.43718 -7.13354 -2.70299 11.7307 -8.66858 -4.84524 -11.6684 -7.67842 6.8122 1.39654 5.18549 -6.61729 18.5207 1.87036 -0.598315 -3.51434 -2.55694 -1.12664 5.17183 -4.15797 0.694289 0.0406929 2.75556 3.19133 -3.47611 0.43885 
10.8182 -7.37964 -5.56322 7.90786 -9.00394 -0.403171 -11.8962 -7.28072 3.04139 5.76088 8.22379 -9.65833 18.8929 1.05623 0.36322 -2.07118 -3.74969 0.722834 4.44822 -1.39733 0.600338 -2.36589 2.44394 2.9406 -2.07204 0.21099 
10.4612 -5.76202 -6.70655 3.10306 -7.60383 5.14676 -14.3722 -4.30481 -2.50921 8.44752 10.2307 -9.50526 18.8756 0.492233 0.420291 -0.57673 -4.56987 1.81663 3.59746 0.368084 0.598577 -3.48735 2.11836 0.666899 0.030252 0.0795277 
12.8687 -5.97804 -6.5567 -1.43493 -4.05135 6.9903 -11.0125 -5.62085 -5.50055 9.59984 10.6446 -9.80773 18.7707 0.146677 0.173666 0.206102 -3.60322 1.84782 2.62982 0.137385 0.664306 -2.35682 1.27596 -0.39508 0.685279 0.0436356 
10.8731 -5.73289 -5.0899 -6.44721 -2.06174 9.44532 -10.2698 -5.51547 -6.35356 10.0689 7.30957 -6.39133 18.9795 -0.165427 -0.0699634 0.714799 -2.2164 0.727814 1.35334 -0.0181541 0.182733 -0.0595383 0.336778 -0.861317 0.709856 0.0502827 
11.3457 -6.52587 -5.34103 -5.33311 -2.53589 10.5966 -13.2604 -3.35387 -6.82052 11.33 7.70898 -7.78891 19.0591 -0.38608 -0.136265 0.787297 -0.906834 0.274349 -0.421459 -0.720373 0.878673 0.279738 0.99771 -0.532002 0.689677 0.0321157 
10.3956 -5.83792 -3.74039 -6.02986 -4.72249 10.1103 -13.339 -4.52464 -2.14692 9.26633 7.39198 -6.9654 18.9828 0.041857 -0.536047 0.895884 0.0534414 0.717415 -2.28722 -1.15981 1.08174 0.917885 0.998232 -0.0074419 0.23518 -0.0173084 
11.177 -6.60685 -3.29497 -6.17777 -1.34923 4.55052 -13.0798 -1.72291 -6.20518 14.9897 7.9434 -6.07231 18.9296 0.237495 -0.703871 1.17536 0.875214 0.772366 -3.46811 -0.601192 0.902575 1.89183 0.224474 -0.277421 0.0301843 -0.0877626 
11.1667 -8.37263 -1.63351 -5.75767 0.932005 1.0323 -16.1592 -0.922237 -2.0718 13.2302 7.15515 -6.07373 18.9577 0.0737682 -0.587044 1.39911 1.77291 0.691029 -4.06299 -0.451888 2.01564 1.42392 -1.59648 -0.455193 -0.023278 -0.184172 
12.1476 -8.77787 -0.517686 -1.09313 -1.50131 -2.2049 -14.8563 -0.642193 2.60109 10.4704 6.44029 -8.08382 18.6328 -0.664531 -0.131153 2.40978 2.36539 -1.05664 -3.65518 0.237156 2.86925 0.627622 -4.32685 -0.784356 0.432604 -0.245253 
10.2792 -7.68763 1.86653 0.292354 -1.19131 -6.82695 -14.7101 5.01321 0.569532 3.54353 5.86756 -6.07604 18.2103 -1.70998 0.759731 3.27331 2.21933 -2.54205 -3.29107 1.76076 2.61168 -1.96917 -4.51249 -0.263552 0.891014 -0.177173 
8.29813 -7.60511 7.0039 2.62416 -5.57076 -9.79575 -12.6185 9.65563 -4.38774 -1.80125 4.66541 -3.90814 18.077 -2.41708 1.08141 4.45333 0.818724 -2.32618 -2.33723 2.38291 1.1095 -4.0742 -2.66802 -0.516176 1.10598 -0.0397224 
4.54152 -5.16036 10.9722 3.48032 -9.74354 -11.6276 -8.47423 6.98727 -8.42324 -3.19639 6.72483 -3.7065 18.3497 -2.4889 1.22504 5.04299 -0.577315 -1.96626 -0.68853 2.5657 -1.48247 -4.1537 -0.132204 -1.14263 0.903244 0.0353388 
2.93103 -4.63444 17.1961 1.4065 -8.8561 -11.4907 -6.05973 3.91829 -13.2735 0.500315 3.43078 -3.7387 18.3645 -2.02321 1.28324 4.12873 -1.6053 -0.821174 -0.360878 2.01203 -2.56789 -3.22957 1.01963 -1.72564 1.08511 -0.0702887 
0.518231 -3.04775 21.9854 -1.9854 -9.37996 -9.42211 -5.16106 0.469532 -15.7561 1.73172 0.771751 -1.64453 18.2432 -1.43042 1.17153 2.85482 -1.54173 0.624946 0.567008 1.02903 -1.93778 -1.76784 0.997577 -3.45316 1.40257 -0.158986 
0.1937 -2.24524 22.141 -2.66949 -9.85842 -12.7029 -4.21495 0.0750431 -16.8692 0.83282 -0.986272 0.48641 17.7788 -1.02156 1.69193 -0.556336 -0.873206 0.601887 0.0482159 0.805762 -2.0788 -0.714876 -1.09691 -1.50724 1.48127 -0.777914 
-1.24191 -0.497313 22.7739 -2.19034 -6.11764 -8.18651 -4.25145 -0.780029 -15.4646 1.62524 -8.33245 1.1938 17.8476 -1.01009 1.77738 -0.834005 -0.223202 2.18648 1.45735 0.234126 -1.41271 0.242045 -0.681342 -1.36726 0.453145 -0.708734 
-1.2967 2.55 14.0202 -2.85705 -7.47782 -11.8675 -2.48573 -5.85091 -16.9936 -4.931 0.446695 2.24847 14.6728 -0.55414 1.87761 -0.782905 0.310079 2.6085 1.48811 -1.32269 -1.87449 1.05094 0.35755 -0.129811 -0.0384499 -0.697058 
-3.78701 3.44154 21.8758 -3.00762 0.362143 -2.55309 -4.85504 -3.63104 -14.4836 1.20692 -6.78102 -0.259838 16.2526 -0.401546 0.372391 -3.79305 1.17532 1.51294 0.550215 -0.473062 -1.04096 3.2896 0.807656 0.789529 0.798498 -1.07668 
-1.30445 5.17338 18.6755 -0.71045 -0.0558224 -8.07908 -10.5266 -7.87188 -12.105 2.82973 -2.41104 1.02098 15.091 -0.317884 -0.352982 -2.65614 0.126899 0.0611239 1.56183 1.64333 0.238543 3.30772 0.670152 0.612769 0.7787 -0.581585 
-3.24577 0.0529531 1.48099 2.61297 -2.26395 -7.32962 -2.59632 -4.97436 -1.46093 1.78316 -2.95594 5.80003 12.2551 -0.509558 -1.08779 -5.40586 0.32673 -0.470142 1.40003 3.74421 0.113627 2.75164 -1.43947 1.8005 0.97865 -0.890837 
-3.15674 2.47939 10.9369 -5.03285 -5.85916 -1.67005 4.60157 -3.98654 -6.96634 -1.86836 1.598 3.11203 13.7636 -0.989028 -1.51745 -4.25584 0.372673 1.69689 2.0106 2.95384 1.98814 2.22294 -0.888009 0.139058 -0.310546 -0.47312 
-5.40865 -0.650431 -1.28424 0.78723 0.913097 1.24254 6.30193 -5.00558 -3.29476 -3.64141 0.216973 3.58789 12.4621 -0.713635 -1.01474 -1.84251 0.190063 2.48889 0.985984 0.434507 1.52847 0.875532 0.450479 -0.658302 -2.08763 -0.0127439 
-5.16815 -2.06216 -1.22105 2.06578 6.84009 -2.31214 -0.206523 2.08442 -0.0734098 1.10197 -3.3022 0.574323 12.6219 -0.516925 -1.3818 -2.9281 0.943179 1.70741 0.087848 0.905443 1.17128 2.12875 2.02651 -1.67039 -1.26034 -0.235951 
-5.80824 -2.74995 -1.65256 0.0139608 3.83086 -2.07866 1.98027 -0.367473 -0.529731 2.55039 -3.79735 -3.36926 12.7622 0.107512 -0.49318 -0.682597 0.0917222 -0.188485 -0.248032 1.22573 0.940935 1.19365 1.15336 -2.20145 -1.30369 -0.0413363 
-5.54157 -3.37984 -3.51945 0.0696764 1.21902 0.429785 11.2896 -0.449193 2.29491 5.16829 -4.74678 0.288891 12.4338 0.0642522 -0.141085 -0.669002 0.50846 -0.951952 -0.25644 0.909043 -0.0180937 0.670996 0.125752 -0.115213 0.996714 -0.122716 
-4.68438 -2.45749 -3.54802 2.24389 2.78121 -1.36858 6.68251 0.965902 1.48934 0.0922481 -10.068 -2.78786 12.3495 -0.175722 0.125058 -0.280661 1.57455 -0.946581 -1.57683 -1.26924 -0.758912 0.853708 0.813317 1.74225 1.80963 -0.116973 
-5.40882 -2.91381 -3.61833 3.49312 2.60516 -3.94938 1.98757 1.32727 2.27203 2.9598 -0.742949 5.26719 12.2147 -0.316847 0.336187 0.0345742 0.893064 -0.320777 -1.25811 -1.09583 0.137228 1.79834 1.14752 1.07862 0.712658 -0.0180107 
-6.75323 -2.35767 -3.00643 6.17498 -1.59511 -7.77323 0.285113 -5.05026 3.75025 7.72121 2.912 3.18976 12.2869 -0.29597 0.302445 -0.0818162 -0.851862 -0.379805 0.284957 0.157398 0.447022 1.38886 1.69731 0.62101 0.452574 0.110427 
-6.09138 -1.74882 -3.61737 2.56945 1.80329 -2.65843 9.00918 3.24503 10.1561 7.09139 -5.84365 0.863367 12.3751 0.188783 0.215857 -0.0637702 -1.41032 0.489537 1.12734 -0.785823 0.130816 0.836333 1.22503 -0.530194 -0.443475 0.105294 
-5.82295 -1.52776 -3.95758 -1.55358 1.28312 -0.589267 3.95869 2.24213 4.49161 6.51301 -4.41259 1.67693 12.8215 0.541679 0.0684919 -0.58505 -1.20459 1.18448 0.777454 -1.11597 0.772903 -0.220113 -1.27012 -0.0706849 0.7914 -0.00751982 
-4.93004 -2.24949 -3.46161 0.305799 3.61372 -1.90466 -3.77833 -1.66485 6.08302 9.68903 0.268376 3.80624 12.4739 0.56676 0.0419732 -0.604765 -0.191739 0.189111 -0.488276 -0.422252 -0.487885 -1.17109 -0.300409 2.78215 0.978386 -0.069526 
-4.6255 -1.76488 -6.00956 1.28385 3.42208 -4.26284 1.099 1.26919 4.68625 0.071793 -0.497442 5.67533 12.1999 0.346128 0.232817 -0.00909266 0.833334 -0.299965 0.0793175 1.07049 -0.309952 -0.821948 -0.952576 1.32937 -0.471417 -0.157682 
-3.8563 -1.42039 -5.61521 0.192043 1.67937 -3.26303 8.32777 1.29207 4.20335 8.80996 6.10953 3.7561 12.3382 0.0339347 0.0903401 0.000129437 0.986774 -0.816049 1.22084 1.86705 0.286442 -0.692983 -1.59229 -0.494647 -0.987636 -0.101615 
-4.62918 -0.778225 -2.92624 2.66996 0.750473 0.486502 3.2581 -0.786091 1.3217 2.18966 -0.686305 -0.655088 12.1009 0.261759 0.411416 0.497049 1.25455 0.105233 1.26384 0.838456 0.614023 -0.605907 -1.7802 -1.33815 -0.540967 -0.0746514 
-4.75853 -2.29111 -5.00262 4.54661 0.869282 1.82488 4.47738 0.795002 4.30037 0.668665 -2.11043 2.03327 12.0153 0.0894813 -0.156208 0.412409 1.34227 0.67427 1.16117 0.554398 0.431769 -0.0992393 -2.36371 -1.54491 0.411978 -0.141656 
-2.86559 0.72756 -3.83061 5.37931 4.35329 -0.487617 7.21648 4.58784 1.60821 -4.75857 -3.0782 3.83191 11.9881 0.308179 -0.0250882 0.0806817 0.651985 0.797544 -0.375984 1.05702 -0.736954 0.129886 -1.45412 -0.606638 1.56418 -0.0697538 
-4.29069 -2.95432 -3.10098 5.54872 3.24931 3.0299 9.12057 0.763949 3.56391 0.465541 -0.41906 3.57249 11.6863 -0.0465917 -0.0314642 0.330907 -0.0369985 0.741356 -0.430277 0.398428 -0.274182 0.571953 -0.843266 -0.38851 -0.104995 -0.00553179 
-3.32221 -0.572059 -3.47365 5.42884 3.54818 -1.99593 6.22161 -4.45534 2.33936 -4.97936 -4.56518 6.39621 11.9166 0.0103762 0.325516 0.887611 0.209521 0.94693 0.613482 0.386805 -0.352037 1.42248 0.102064 -0.477194 -0.795001 0.0412265 
-4.76318 -1.79862 -3.52656 4.33686 4.97862 0.427653 6.96695 3.94568 6.79456 -3.43727 -3.30949 0.22614 12.0234 0.535882 1.5211 1.40505 0.513753 0.800094 0.805986 -0.38563 -0.430231 0.809215 -0.164201 -0.402733 -1.12688 0.0896209 
-2.57747 1.77729 0.820236 7.03285 8.22329 3.88091 10.2273 1.23679 7.1053 -2.29685 -4.01896 1.53008 12.0257 0.721507 1.41244 0.799987 0.278062 -0.204288 1.71207 -0.4134 -0.941946 0.308037 1.39373 0.596094 -0.632801 -1.9455e-05 
-1.98365 3.47649 1.77734 7.31548 4.91223 4.12141 5.18957 -4.23327 5.22701 -1.69672 -2.70584 0.371177 12.0799 0.879052 1.33777 -0.0144115 0.0282944 -1.05007 0.941641 -0.90313 -2.43549 -0.670445 1.25284 0.497832 0.74967 -0.0407673 
-1.10443 3.85257 -2.12567 5.32984 2.55993 4.71754 5.0433 -5.07559 4.66332 1.119 -1.88654 3.15969 11.8883 0.382528 0.452664 -0.979482 -0.539167 -1.3679 0.22694 -1.05143 -1.34671 -0.544763 0.964741 0.508414 0.604773 -0.0466503 
