-5.30048 -2.49317 -7.32394 3.2018 -3.49067 -1.04511 7.57146 1.65756 1.98483 4.56641 -0.0744261 10.5216 11.9207 -0.0603105 -0.0899833 -0.227591 -0.596424 1.2518 0.574243 -0.0949076 0.202042 2.52476 1.24716 1.62903 -0.612336 0.0397977 
-4.84049 -2.47917 -8.94524 1.04029 2.86304 1.45012 9.23144 0.310352 7.9887 5.37794 0.864811 7.06958 11.9333 -0.249399 0.254021 0.0791873 -0.471932 1.15062 1.44182 -0.32705 -0.441287 1.02033 0.873772 1.35705 -1.2693 0.0351894 
-5.83203 -2.95009 -7.65125 1.30044 -0.408549 0.578482 6.26693 3.34137 11.6067 10.3964 7.60109 9.18589 12.1134 0.0628215 0.193996 0.426591 -0.0242593 0.977857 1.39096 0.180348 -0.188199 -1.00758 0.344784 -0.176915 -1.84157 -0.0151711 
-6.2817 -0.99461 -6.76435 1.79282 0.721379 5.35221 6.58847 -1.39079 2.27555 6.02027 2.87305 4.84293 12.0003 0.0777182 0.0666282 0.443566 0.0100504 -0.901867 -0.0730868 -0.864233 -0.798303 -1.87245 -0.866494 -1.71739 -0.156301 -0.0483425 
-4.26577 -2.26547 -6.28143 2.70424 2.46944 3.95865 9.79468 1.56713 -0.196488 5.96917 -1.96312 2.42703 11.8113 0.238968 -0.123864 -0.0429298 -0.119966 -0.794302 -0.818381 -0.777608 -0.788975 -1.23039 -0.95155 -1.84233 -0.150886 -0.0300623 
-5.23503 -2.48834 -7.41232 0.388638 -3.08529 -0.605396 3.1464 -2.79405 4.52804 3.2591 -2.94005 9.6675 11.8426 0.146268 -0.248997 -0.243908 -0.171024 -0.55398 -1.00502 0.0279339 0.263141 2.00617 0.586159 0.250576 1.26233 0.0193815 
-5.16053 -2.82254 -7.54191 1.4027 -2.47672 -0.534623 4.09993 0.098123 4.32848 7.01926 1.29597 6.01918 12.0419 -0.358783 0.129211 -0.279077 0.372805 1.15287 0.672021 -0.416083 -0.107727 2.21741 -0.528377 1.43929 1.83488 0.0798509 
-5.10299 -1.96106 -7.35365 1.58847 0.424559 2.57376 9.57552 0.659424 10.0439 8.42601 2.49638 9.35849 11.9819 0.113767 0.563339 0.343632 1.11185 2.98726 2.74682 1.07999 -0.0403284 -0.0180694 -0.662394 0.762125 -0.540187 0.0428138 
-6.12571 -1.88305 -7.70615 3.96835 6.47887 5.72918 4.4997 -0.698239 8.13266 0.743829 2.51511 11.756 12.1409 2.04225 2.51635 1.64183 0.612497 1.52647 1.41829 -0.0852635 -1.10162 -1.98599 -1.4761 -0.663826 -0.702188 0.069055 
-4.18361 -0.141389 -5.61204 4.66505 7.37322 9.99681 8.34646 -2.59751 2.5356 3.08485 0.26101 4.09818 12.0072 4.34239 3.50833 1.39846 -0.155973 -0.816552 0.00595282 -1.79709 -2.19356 -3.97344 -1.35088 0.303136 -1.68852 0.466539 
4.59103 8.84938 -0.203582 2.92689 1.68131 2.8453 4.28814 -3.78151 -1.84732 2.30935 -0.905476 5.13839 12.3746 4.95073 3.50015 0.916277 -0.813316 -2.46788 -1.51675 -1.49492 -2.23715 -3.30058 -0.419663 1.72412 -1.11788 0.669629 
11.2506 10.2144 -4.11263 1.32933 -1.25942 4.04546 0.695854 -8.76676 -4.83334 0.888863 5.72235 4.22466 14.1978 3.94969 1.37702 -0.118631 -0.090826 -1.81158 -1.69201 -2.25161 -2.06726 -2.11125 -0.00735547 2.30746 -0.180128 0.780279 
10.9109 10.4398 -3.87447 1.56963 -1.54422 1.12113 0.850398 -8.79938 -4.68576 -0.25649 8.40503 6.10333 14.3938 1.77355 -1.40486 -0.783157 0.702445 0.641226 -0.64457 -2.56139 -1.02009 -0.715604 0.739886 1.51309 -0.949294 0.680556 
12.4049 5.94849 -4.36974 4.88956 -0.0718908 2.39884 -1.1927 -10.4248 -6.60144 4.33099 7.14306 2.71507 14.8989 0.284826 -2.04746 0.0214432 1.4086 1.86007 -1.70457 -2.82419 0.884921 0.172744 1.15718 -0.533208 -1.42706 0.446155 
12.8816 3.95801 -3.99081 4.65901 4.29368 0.445762 -7.57453 -8.05294 -4.54129 4.28771 5.94964 1.14671 15.4268 -1.09372 -0.901685 -0.610581 1.73515 2.53524 -2.93422 -3.18019 1.85593 0.264476 1.57046 -2.69253 -0.966348 0.637963 
11.6893 3.21797 -3.94725 6.82765 5.12197 -4.13969 -9.21263 -4.71538 -4.04186 4.40264 4.28401 -0.432333 15.9121 -1.2688 -0.3152 0.0155962 1.09623 1.01202 -3.84756 -1.51596 2.21043 0.221606 0.808494 -2.80785 -0.329295 0.558367 
5.80008 7.29666 -7.13862 9.27631 8.53503 -10.2807 -11.0406 -2.37447 -4.64317 7.56001 -3.62811 2.84529 17.077 -0.772006 -1.30273 1.0716 1.44537 -1.1092 -2.40082 0.945159 0.928736 1.50545 -0.630569 -1.87271 -0.240712 0.234288 
9.60172 2.70317 -2.71786 8.06205 2.86754 -11.4757 -7.03949 -2.21193 -5.44247 6.73732 -2.1073 0.219305 16.8657 -0.562041 -1.37785 1.43572 1.36447 -2.24373 0.685101 2.55799 0.680197 2.66866 -2.57455 -2.15367 0.118248 -0.334721 
10.0654 -2.29826 0.752512 11.2687 -0.125111 -7.89031 -3.93531 -4.66098 3.68627 -0.0324733 -0.218279 -0.38267 16.1214 -0.0326291 -1.7122 2.01543 -0.560701 -3.42278 2.01815 1.21985 -0.671859 4.04091 -2.94398 -0.441 0.901898 -0.130728 
6.74646 1.1262 -0.714223 12.6538 -1.7666 -1.90937 0.0246682 -0.171142 5.13672 -4.67388 -8.18925 1.77289 14.7163 0.319515 -1.63099 0.430642 -1.66811 -3.03534 2.23913 -1.59506 0.299929 4.24291 -2.56013 1.20402 0.4766 0.499477 
7.06456 -0.475852 1.93673 4.17693 -6.2618 -4.97309 -8.4734 -6.75416 10.2718 -1.45432 -2.79214 6.57799 17.4981 1.0236 -2.09122 -0.696915 -3.07172 -1.74876 1.20595 -3.85941 2.92986 1.28878 -0.282139 2.40073 -1.70816 1.02362 
12.6997 -6.36298 -1.15675 3.26739 -9.24081 -1.73869 -12.7457 0.334303 12.4794 -5.35239 5.19971 -0.878026 18.6747 1.62847 -3.16265 -1.08955 -3.13052 -0.449505 0.332525 -3.15138 4.13447 -0.779059 1.39178 2.92925 -3.99229 1.18745 
12.2068 -9.00975 -2.5108 0.603281 -5.13182 -1.94589 -16.8472 9.73561 6.45887 -1.10391 5.09087 -7.59804 19.2603 0.892618 -2.58139 -2.07572 -1.62089 0.619638 0.563778 0.60472 4.61146 -2.25677 1.88046 -0.269875 -4.8227 0.652747 
12.3177 -10.4201 -3.93822 -1.21197 -4.57912 -1.76035 -11.5453 12.2563 3.14788 2.10983 2.51548 -11.1006 19.7724 -0.365591 -1.16669 -2.06959 -1.21162 0.986478 -0.147628 3.46996 1.19436 -1.39263 2.17277 -2.81705 -2.8958 0.414148 
11.7187 -11.3542 -7.05116 -1.68787 -5.49446 -2.14337 -6.05 10.3422 3.65366 4.21689 -2.7994 -12.4242 20.213 -0.469518 -0.551464 -1.69373 -0.761683 0.766007 -0.190368 4.38919 -1.82222 0.743191 0.300437 -2.60931 -1.40146 0.247064 
11.1158 -11.0242 -9.23452 -1.64515 -4.1271 -2.37809 -0.794518 6.00283 6.91879 2.85104 -4.9404 -12.9439 20.2691 -0.65063 -0.0314587 -1.15113 -0.302996 1.07474 -0.390591 2.86723 -2.10332 1.2996 -0.948509 -1.52202 -0.527249 0.0791553 
10.4601 -11.465 -8.3313 -2.98855 -1.52779 -2.58886 -0.276637 3.75127 8.28938 0.0276673 -4.22775 -13.6836 20.2472 -0.799824 0.420822 -0.28042 -0.0292333 1.09254 -0.734052 1.54537 -0.857253 0.67611 -1.39217 -0.249394 0.229857 -0.0436897 
9.69379 -10.522 -9.05382 -2.07661 -1.18876 -3.49056 -0.0958824 5.03516 7.32803 -0.538105 -4.38043 -13.1071 20.151 -0.788738 0.615825 0.208065 0.322584 0.0441487 -1.17114 0.734276 0.773843 -0.496996 -1.08099 0.15306 1.04779 -0.0712465 
8.43057 -9.50122 -8.54361 -1.6183 -1.50094 -5.25739 1.32751 6.53973 6.82959 -1.04937 -4.32635 -11.1934 20.0535 -0.636416 0.897657 0.320624 0.518777 -1.05484 -1.66497 1.06622 1.15476 -0.958435 -0.678364 0.521043 1.73736 -0.0803125 
8.18691 -8.92697 -8.08804 -0.717352 -3.91979 -6.89954 2.07479 8.47781 5.1637 -2.01541 -4.1258 -8.95014 20.0097 -0.529204 1.01413 0.883473 0.103084 -1.35857 -1.54721 0.467068 1.10591 -0.848041 -1.14357 1.83558 2.30928 -0.071738 
8.03149 -7.77427 -7.21107 -1.07429 -5.43648 -9.20921 3.96912 7.80374 4.57937 -2.6255 -1.74985 -7.07532 19.9163 -0.603921 1.06294 1.58128 -0.183685 -1.38999 -1.13362 -0.680269 0.427951 -0.681611 -1.47168 2.81909 2.5329 -0.0956594 
7.24731 -6.31484 -5.30272 -1.8332 -6.01385 -9.25071 0.918655 9.93271 4.21294 -5.46787 3.50924 -3.61975 19.861 -0.891355 1.05285 2.49165 -0.591697 -0.950303 -0.298019 -1.47415 -0.983824 -0.24142 -1.37071 2.84895 2.46265 -0.142823 
5.88076 -5.49259 -2.02987 -1.97881 -7.40385 -9.74993 -1.49577 7.95204 3.89692 -6.68154 5.95158 -1.19405 19.6496 -0.811679 0.929544 2.48365 -0.515798 -0.837279 0.31123 -1.81496 -2.02936 0.300301 -1.38732 2.27844 2.31083 -0.153329 
4.8055 -4.80358 1.77962 -3.22358 -7.68762 -8.11928 -2.56353 3.48454 4.29783 -6.84095 6.26823 0.422454 19.429 -0.434313 0.789009 1.82843 -0.250577 -0.742879 0.393864 -1.0573 -2.59272 0.510892 -0.839951 1.51047 1.54023 -0.117724 
5.19401 -3.88218 1.666 -2.95809 -8.78599 -8.21878 -3.36458 0.88104 6.03843 -8.87556 8.26286 2.45775 19.3657 -0.0650266 0.567373 0.806836 -0.182056 -0.404325 0.199328 -0.416032 -1.73058 0.474685 -0.560641 1.15334 0.713401 -0.0469433 
5.41912 -3.175 1.99147 -2.59644 -9.03718 -8.04696 -3.43344 0.504596 5.69664 -8.57061 9.90592 2.2555 19.4143 0.0968122 0.267047 0.0299673 -0.00950851 -0.0406784 -0.103618 0.129154 -0.40165 0.470383 -0.213206 0.628784 0.16374 0.00478802 
5.24882 -3.47001 1.89839 -3.20266 -8.7507 -8.78944 -3.14098 0.789104 5.57093 -8.61992 9.89941 1.45643 19.4222 0.0391151 -0.209366 -0.309462 -0.162429 0.48749 0.0419806 0.365646 0.902342 0.119521 0.192521 -0.384318 -0.537112 0.0178192 
5.26216 -3.67443 1.81326 -3.14884 -7.90866 -8.35203 -2.02956 1.52226 6.88349 -8.03481 8.59388 1.74181 19.4246 0.0624605 -0.702301 -0.87436 -0.0344373 0.795246 0.242877 0.582056 1.93438 0.0426965 0.0762083 -1.41146 -0.785686 0.0586977 
5.46807 -4.67929 0.207797 -3.49403 -6.9128 -7.85634 -2.23829 4.88392 6.04261 -8.18086 6.9973 0.0290298 19.4496 0.236461 -1.08568 -1.68042 0.338896 0.886246 0.526209 1.16709 2.71633 -0.405505 0.214687 -2.08868 -1.26734 0.14228 
5.6218 -6.08187 -1.53504 -2.62294 -5.97989 -7.29913 -0.974504 8.12906 5.67429 -8.4091 4.2997 -0.959231 19.6941 0.402545 -1.31833 -2.43876 0.803602 0.780867 0.760293 1.59394 2.53155 -1.12734 0.655266 -2.69593 -2.2022 0.173703 
6.2513 -7.69468 -4.82958 -1.77113 -5.28385 -6.68485 2.16697 11.0673 4.14801 -7.35933 1.6031 -3.52972 19.9989 0.614019 -1.24301 -2.63309 1.21276 0.743343 1.31737 1.39972 0.900944 -0.786062 1.53619 -3.1107 -2.39098 0.119135 
6.88327 -8.75838 -7.86183 0.00771618 -4.8188 -5.13631 3.73749 11.0883 2.19408 -5.16924 -2.18866 -7.48981 20.0185 0.722962 -0.931405 -2.3952 1.11259 0.857576 2.26118 -0.152799 -0.863783 -0.342908 2.5447 -2.86053 -2.41972 0.0107994 
7.90743 -9.55611 -9.79427 1.25445 -3.77663 -2.35089 2.40429 7.90903 3.8524 -2.11986 -5.31203 -8.6606 19.8831 0.813108 -0.40107 -1.90979 0.539509 1.03382 3.25475 -2.06448 -2.4759 0.381959 2.94728 -1.491 -2.04201 -0.0959631 
8.40855 -9.80818 -11.0287 1.42724 -2.44562 1.83979 -1.85716 5.38931 4.10755 1.69466 -6.54538 -10.4924 19.806 1.16094 0.338884 -1.32603 -0.559828 0.676668 3.81634 -3.01029 -2.97388 0.0386334 2.66768 1.25691 -0.907691 -0.23199 
9.5542 -9.17513 -12.7951 0.216654 -1.30135 6.10083 -5.35809 1.53734 5.10107 3.94513 -3.67354 -12.2385 19.6253 0.906953 1.62367 -0.0519174 0.450473 0.00944715 2.97435 -0.519068 -3.848 -1.26773 1.15901 4.11642 -0.60806 -0.730322 
11.8646 -7.25445 -12.9916 -2.27252 -2.6731 9.71953 -7.43276 -0.595249 1.76291 5.13668 3.27664 -10.2393 18.9874 -0.154521 2.24802 1.94228 3.03684 -0.000358629 1.14787 1.93292 -5.88501 -3.5887 -0.471672 4.85774 1.70331 -1.02499 
10.7142 -2.71462 -9.07243 5.3567 -3.61566 8.58099 2.59675 -8.33869 -1.3139 1.95418 10.359 -11.8274 16.6408 -1.04638 1.98583 2.93343 4.26423 0.274288 -0.0647709 2.81797 -6.03381 -4.4468 -1.56233 3.53349 2.92675 -0.964852 
7.05595 -1.79833 -3.17864 14.0414 -1.29026 6.33906 3.83002 -19.0977 -10.6285 0.33178 10.727 -2.18136 16.1734 -1.50284 1.18335 2.73175 3.68067 1.23942 -0.930768 2.31779 -5.20516 -3.38587 -1.74151 1.61769 3.08322 -0.582911 
6.72663 -1.97402 -3.03443 13.3808 -0.62133 7.46721 3.10038 -19.3805 -10.9373 -1.46407 10.2687 -1.63374 16.2081 -0.888994 0.125279 1.47067 1.25086 0.95212 -0.199695 0.144336 -2.65467 -1.98695 -1.34599 0.569223 2.36867 -0.0495363 
6.34415 -1.70801 -2.35181 12.1188 2.02685 5.62258 3.90439 -21.1002 -10.3548 -1.86176 11.4103 0.0799513 16.2892 0.47238 -0.0238326 -0.87942 -3.58537 -0.793194 0.826425 -0.439622 1.77837 1.61886 -0.540927 0.230852 -0.507582 0.204526 
6.62512 -2.13339 -2.13251 12.5723 -0.513615 7.94075 3.28124 -20.6108 -11.3855 -3.67897 12.8635 -1.11474 16.3352 1.19086 -0.773526 -2.67479 -5.24006 -1.16288 2.13268 -2.54582 5.14529 2.80879 0.694096 -0.347771 -2.42188 0.729008 
9.4686 -1.83781 -8.0267 -3.48115 -5.31009 10.2344 1.54148 -9.59073 -2.31005 -1.2654 10.5839 -4.97877 17.1325 1.07847 -1.70123 -3.68416 -4.9343 -0.554018 2.746 -3.55591 6.04732 3.87449 1.15068 -2.39032 -3.90822 1.11429 
11.1187 -5.77675 -13.5709 -5.01952 -2.76727 15.8247 -8.44725 0.591235 -0.915679 1.70823 8.94306 -11.2138 19.4315 0.225842 -1.88832 -3.07795 -2.79625 0.751881 1.54264 -2.90696 4.64153 3.91506 1.20142 -3.94761 -3.57356 1.08389 
9.48971 -8.39247 -15.0534 -3.75681 0.383582 15.4106 -8.01093 -1.46462 3.78279 1.19805 1.41889 -14.4116 20.3125 -1.067 -1.49172 -0.815108 0.876656 1.32706 0.331056 -1.74001 1.94876 2.00544 0.312679 -4.28444 -1.77785 0.682223 
7.74377 -8.29767 -14.0089 -1.27112 0.398955 13.0659 -6.47736 -1.46625 5.14333 1.0964 -2.29199 -14.2661 20.1646 -1.40064 -0.58091 0.705901 1.08966 0.873939 -1.78286 0.839695 0.335206 1.05252 -0.21734 -4.10867 0.689441 0.121631 
5.82106 -8.03595 -11.8833 -0.972066 -0.257892 13.2691 -8.14351 1.18184 4.68767 0.603905 -5.2208 -12.3419 20.177 -1.2268 0.209176 1.45367 0.800701 0.189872 -2.27424 1.56326 0.91749 -0.0909715 -0.207314 -2.63065 2.17507 -0.0662214 
5.94983 -8.85956 -11.6265 -0.963565 1.92316 7.98113 -4.18248 0.944035 3.89449 0.918607 -8.28044 -8.80146 20.1074 -1.24332 0.8226 1.23188 0.573146 -0.161091 -2.40285 1.98378 1.01734 -0.823954 -0.113796 -2.33048 2.98808 -0.0465359 
4.25266 -7.06565 -8.97625 0.0929112 0.57084 6.5818 -1.34204 1.91768 3.95236 0.250383 -8.74012 -6.26856 20.01 -1.39513 1.52592 1.13779 0.980545 -0.694205 -2.37736 2.09756 1.27657 -0.948111 0.206491 -2.30222 3.0962 -0.0379845 
2.31138 -4.66982 -9.30298 1.06212 -0.820865 4.39526 0.0408211 3.25252 1.39122 0.704183 -12.1847 -2.36238 20.0154 -1.36418 2.13469 1.37906 1.04348 -0.889685 -2.02807 1.41748 1.66554 -1.0977 0.385903 -1.8657 2.5717 -0.163297 
0.664649 -2.50121 -7.35609 2.91782 -2.3569 3.17522 0.23263 6.41044 1.19875 1.74357 -14.7797 -0.0804067 20.0331 -0.567293 2.40794 1.94884 0.499365 -0.240945 -1.98105 1.02571 1.74863 -0.970041 0.830536 -1.48269 2.43822 -0.465323 
0.922915 -0.468328 -5.54125 2.84136 -1.06139 -0.45595 2.11757 7.02534 -0.217223 2.10153 -14.5891 0.96299 19.2794 -0.577256 3.2118 2.81469 1.03654 1.1555 -2.28312 1.86858 -0.532602 0.668255 0.0111342 0.713358 2.28409 -0.722257 
2.11043 2.87329 -1.11293 1.70011 -0.513622 -0.897835 2.74814 8.77443 -0.093628 3.70439 -14.9513 4.25984 18.0514 -2.25799 4.03883 2.53366 1.19763 2.93022 -3.51167 2.18011 -1.99131 0.9003 -0.796533 2.82271 2.16005 -0.301781 
-1.29779 8.70194 1.6489 6.85369 4.03501 -4.98379 8.12598 -0.592482 5.37868 -0.220556 -8.53215 6.88793 17.395 -4.12935 3.40615 0.169955 -0.914533 3.18167 -1.92843 2.40364 -2.23806 -0.0940342 -0.221294 2.85286 0.842838 0.425512 
-9.51497 13.1078 1.71715 6.89983 9.74601 -12.1192 8.12896 0.262777 2.90229 -1.07805 -3.69469 7.75736 19.4664 -5.19073 1.19354 -1.75816 -2.30854 2.78029 -1.74691 0.321587 -2.90027 -1.00957 -0.0324076 2.71506 -0.0914612 0.940095 
-13.9111 11.4452 -6.10652 -4.33116 9.71716 -4.48742 11.4454 0.0908665 -2.18535 3.38628 -5.95317 3.42842 20.6994 -3.98861 -0.760595 -1.84239 -3.6695 0.885508 -0.50984 -0.292268 -0.188717 -1.8096 0.00406827 1.41472 -0.860747 0.894581 
-17.5365 7.46935 -6.02602 -4.25018 10.5468 -9.88059 2.69637 -6.06858 -1.35945 1.73893 -2.66555 5.53229 21.0997 -2.17234 -1.42185 -1.41317 -3.23709 -0.203848 0.579856 0.05963 0.444785 -0.480271 0.714502 1.33068 -0.966544 0.348445 
-17.23 7.71819 -3.69148 -5.91881 8.06218 -8.65229 9.38093 1.62962 -1.53846 -1.60871 -1.9731 3.69673 21.0513 -0.940155 -0.493326 0.779679 -0.170028 0.522283 0.479334 -0.271446 0.939864 0.192429 -0.0443519 0.873235 -0.22762 0.107478 
-18.7172 7.86203 -6.5562 -8.49182 9.55426 -7.13748 9.45934 1.71733 0.177492 4.99195 0.968699 2.79048 21.0327 -0.242872 -0.139033 0.175844 -0.148787 1.1284 1.9816 0.562404 1.98761 0.525836 1.12922 1.16713 0.181008 0.0213163 
-18.0216 8.78222 -1.94304 -3.06048 12.8248 -3.46231 6.70667 0.897231 -1.99168 1.53801 -3.40412 3.66123 21.2703 0.289486 -0.142213 -0.149237 0.202637 1.32679 1.3756 -1.5318 -0.946818 0.639726 2.32631 1.60311 0.421936 -0.0449785 
-18.3551 6.24217 -6.02102 -6.42328 13.8074 -2.56759 6.84552 4.23567 1.49634 5.81169 3.88562 6.45508 21.0967 0.865025 0.011649 0.187644 -0.459315 0.379064 0.941217 -1.50586 -1.08443 0.511794 1.74247 0.712842 0.350699 -0.113155 
-15.9637 7.81706 -4.70525 -5.93989 12.5695 -4.05925 3.02884 -4.36364 1.00075 9.61298 4.58398 3.97411 20.7944 0.48459 -0.661078 -0.731578 -1.52088 -0.349442 -0.617571 -0.685455 0.1184 0.189781 1.16268 -0.178575 -1.0862 -0.0474188 
-15.4211 8.40286 -4.23687 -9.34869 11.5772 -2.13292 3.76894 -1.07441 1.24025 9.66682 0.538864 4.38753 20.7049 0.291434 -0.218825 0.125123 -0.872354 -0.592681 -0.397583 -0.184823 -0.0772186 0.160327 -0.727895 -2.76316 -1.22308 -0.0252806 
-17.0656 4.39648 -6.493 -9.20218 12.1927 -6.76749 4.81768 4.14427 -0.914734 5.42387 -2.62361 -0.735997 21.2291 -0.212749 -0.311436 0.288279 -0.829871 -1.03337 -0.236841 -0.354587 0.334138 0.0480093 -0.580673 -2.61513 -1.25737 -0.0494629 
-16.347 6.85833 -4.50153 -9.15391 11.0324 -3.20138 5.02698 -0.404382 3.25571 4.26677 -6.3264 2.69471 20.7529 -0.336181 -0.299177 0.422862 -0.423706 -1.80422 -0.641014 -1.083 -1.88596 -1.11835 -0.163864 -0.889779 -1.09315 -0.198673 
-16.5645 7.03214 -3.13153 -10.1866 7.67509 -4.70923 0.626881 -3.02796 0.233064 9.40963 -5.05903 -1.46634 20.523 0.0926319 0.614923 0.811816 -0.355066 -1.77363 0.448334 -0.623431 -2.7283 -1.48243 -0.726644 -0.527173 0.207931 -0.412052 
-17.3526 5.58914 -3.8033 -10.975 4.81494 -6.36712 0.449327 -6.91809 -4.92541 6.85461 -2.69232 -0.713055 20.0646 0.617729 1.19175 1.87395 1.14379 -0.224628 0.0244699 -0.755724 -0.825084 -0.672254 -0.842875 0.350813 -0.680506 -0.426545 
-16.0997 8.10569 -2.78304 -10.067 6.4333 -2.94295 3.98936 -6.24037 -4.23631 0.496728 -7.07652 2.00754 19.513 2.83682 1.76072 3.35373 2.80783 -0.45971 0.168908 0.361028 0.328211 -0.590921 -3.66024 -0.0562287 0.340294 -0.617606 
-13.4907 12.2803 4.69396 -3.4948 10.5302 -3.96217 -0.432872 -2.9236 2.12913 4.50885 -3.56359 -2.44476 19.1252 4.68101 0.715004 4.28951 3.47853 -1.46421 0.242055 -0.425966 0.771458 -0.341719 -4.02294 0.0646517 1.46095 -0.731259 
-4.3113 12.4902 9.38848 0.112413 2.51891 -5.06716 2.87312 -3.38415 -6.24881 -7.7187 -4.90454 1.10098 17.9047 4.88251 -1.60407 4.42113 1.89479 -3.23121 0.195778 -0.803758 0.844869 -0.679257 -3.90503 1.4795 0.992543 -0.520444 
0.158293 6.97192 11.5585 1.32797 -0.548918 -4.09474 -1.12238 -4.48891 -5.62775 -9.1524 -3.45505 7.04496 17.2125 3.53654 -2.98886 2.93168 0.0734504 -3.436 0.676794 -0.653865 0.171062 -0.900769 -3.56815 1.97211 0.447319 -0.213708 
1.48835 2.73953 15.8903 -3.0044 -4.18317 -1.89778 0.315322 -1.23337 -3.75415 -12.1978 0.266727 2.22539 17.8672 0.873099 -2.42426 2.0169 -0.59524 -1.71783 1.2506 -1.33007 0.162939 0.650828 -0.966005 2.50523 -1.20875 0.22905 
1.29218 2.21133 16.1014 -1.56914 -3.29877 -2.16289 -2.4233 -3.14368 -3.62205 -11.0924 3.71131 -0.770372 18.0754 -0.235997 -0.881618 1.22032 -0.204034 -1.02872 1.13694 -1.30123 0.17842 0.737615 -0.245532 2.33662 -2.50407 0.344746 
-0.51275 2.74919 17.2015 -1.41523 -4.69529 0.219897 -3.12679 -3.24207 -3.99752 -11.5787 4.03844 -1.03508 18.6185 -0.245614 -0.0762609 0.584354 0.256717 -0.718288 1.01112 -1.78051 0.174525 0.380571 0.0534426 1.21355 -0.966041 0.193911 
-0.021143 2.559 17.0045 -0.486789 -5.43649 0.531103 -5.90748 -2.59246 -1.81799 -10.6896 6.34219 -3.84517 18.5605 0.126559 0.0455559 0.785168 -0.275407 -0.798781 0.737498 -1.09666 0.36598 -0.0705387 0.0305737 0.59964 -0.0107591 0.0496754 
0.91694 2.18439 18.3606 -2.26199 -6.70576 1.81082 -6.84514 -0.63636 -2.75333 -12.132 5.01902 -1.06741 18.5942 0.405454 0.0567131 0.639463 -0.296996 -0.420787 0.387993 -0.625812 0.337111 -1.11311 0.148398 0.142487 0.533448 -0.0906117 
1.21013 2.72151 19.4477 -2.5228 -6.28744 0.72914 -6.04741 -2.61663 -4.59684 -10.6629 6.21922 -0.808002 18.3359 0.242588 0.0466806 0.875847 -0.258407 -0.160355 0.322222 0.154141 0.338972 -2.30143 -0.0392873 -0.356537 0.696358 -0.105614 
0.898885 2.95149 19.1772 -1.88221 -6.37375 2.06084 -6.18588 -1.54443 -8.17363 -10.8501 4.81236 0.113577 18.2777 -0.00854378 0.257705 0.873819 0.198371 0.0833604 -0.115872 0.155171 0.666249 -1.95147 -0.164983 -0.68859 -0.16904 -0.129986 
1.20082 2.40885 20.9754 -1.96871 -6.40427 2.0172 -5.4664 -0.443567 -10.615 -11.527 4.66284 -0.953876 18.1907 -0.145645 0.174305 0.931486 0.444204 0.361409 -0.185766 -0.587748 0.966865 -1.24199 -0.264852 -1.13208 -0.689052 -0.104903 
0.878873 3.62925 21.9658 -1.54718 -6.23054 0.587427 -6.35979 1.60835 -9.50158 -12.5248 2.35426 -1.83967 18.0169 -0.221857 0.34009 0.762159 -0.092053 0.621508 -0.305698 -0.668973 0.848458 -0.725623 0.231067 -1.15367 -1.0215 -0.0825319 
0.491911 3.25416 22.7109 -0.469296 -4.552 0.537015 -8.8992 0.6413 -10.1428 -11.1498 1.78786 -3.27664 17.9418 -0.392313 0.267678 0.348911 -0.301077 0.946953 0.202995 -0.774356 0.318626 -1.33958 1.04762 -1.32645 -0.126479 -0.0461288 
0.144055 4.22929 22.1203 -3.09219 -4.19234 1.27244 -7.81435 2.15543 -12.0378 -9.88338 0.481517 -3.83256 17.9895 -0.307154 -0.150154 0.161527 -1.01624 0.969165 0.492929 -0.22206 0.0797333 -1.61172 2.04162 -1.17943 0.146948 0.0268209 
-0.393333 3.44722 22.6428 -2.7016 -2.6886 2.68967 -8.6109 0.876022 -16.0448 -7.60961 -1.03304 -0.589828 17.9737 -0.292154 -0.364157 -0.153797 -0.979115 1.10585 0.548072 0.245607 0.0311423 -1.45196 1.84564 -1.34086 1.03788 0.0135729 
-0.214273 2.78195 22.8075 -5.51225 -2.31642 1.97575 -7.61424 1.88966 -14.6092 -4.0868 -2.13243 -2.44834 18.135 -0.558972 -0.219854 -0.079562 -0.468873 0.624314 -0.215591 0.301768 -0.121409 -0.248112 2.13893 -1.38557 1.3185 -0.060672 
-0.789695 2.15705 21.5983 -4.15484 0.0392656 2.92572 -7.77122 0.929899 -16.117 -4.81987 -3.60945 1.22065 17.9369 -0.59576 0.0761923 -0.420744 -0.0639785 0.0851964 -0.95988 -0.00444918 -0.434864 0.406509 1.63355 -0.815739 1.00346 -0.193764 
-2.45262 3.77511 22.2447 -4.70993 -2.4347 0.0764613 -6.72535 1.52145 -13.2423 -0.583585 -5.15814 1.8547 17.7045 -0.389921 0.627705 -0.403541 0.45235 -0.449623 -1.39156 -0.138841 -0.439847 0.606677 1.21295 -0.106284 1.06971 -0.286015 
-2.25296 3.3316 20.8204 -3.42265 -2.20348 -1.16009 -9.07759 -1.11419 -14.6957 -1.19346 -3.59889 2.27596 17.2202 -0.0960765 0.653196 0.0479654 -0.174315 -1.10201 -1.07352 0.451674 -0.276115 0.335477 1.33452 0.291018 0.552 -0.275665 
-1.43225 5.33319 21.1787 -3.6166 -3.44316 -2.93914 -7.65526 0.712466 -12.2865 0.164725 -2.66913 2.37254 17.0633 0.0735959 0.267145 -0.435 0.156808 -0.227276 -0.807275 -0.282685 -1.50778 0.250745 0.545446 -0.0813855 -0.461777 -0.456596 
-1.78026 4.64398 22.3711 -5.57308 -4.96658 -0.934097 -5.04789 -0.0461825 -14.9175 1.47858 -3.39886 3.72173 16.8792 -0.0847546 0.477487 0.151057 0.134097 0.145836 -0.649128 0.0496032 -1.17076 0.552752 0.0468768 -1.26247 -0.539279 -0.266133 
-2.32099 4.45464 19.2944 -2.85067 -2.18954 -4.07291 -10.1536 -6.55144 -11.8776 0.807624 -5.66508 -1.17707 15.592 0.00901604 0.0834548 -3.27325 1.0212 1.02432 -0.314377 -0.54662 -2.00459 1.46667 -1.40897 -0.972503 -0.818255 -0.794375 
-2.23236 6.15831 22.5179 -3.13513 -2.10111 -3.83885 -7.58039 -3.33604 -12.1363 -1.28052 -8.41327 1.35437 16.6252 -0.197962 -0.0349768 -2.16475 1.00582 1.04919 0.385998 -0.125376 -0.40947 0.6384 -1.20764 -0.645613 -0.408735 -0.376606 
-1.16112 4.9933 4.73905 0.270424 0.245707 -3.05865 -9.12211 -7.66556 -6.34368 -5.50058 -5.02444 -0.535057 13.2185 0.175225 0.0148701 -1.91197 0.319983 0.20937 0.62688 0.619345 0.75011 -0.0835854 -1.72548 -0.511762 0.541071 -0.335046 
-3.35001 4.19977 18.825 -2.10452 -0.938267 0.488766 -6.19053 -1.53647 -14.4925 -1.40553 -6.94724 1.35705 16.1829 -0.608073 -1.73225 -4.83474 0.123945 0.969769 1.13997 1.74552 0.730621 1.76642 0.527009 1.15964 0.242664 -0.745252 
-0.886038 5.50826 11.581 -1.76606 -1.72411 -3.10231 -7.75183 -3.70068 -11.1175 -7.75728 -8.9569 1.52695 14.1379 -1.3226 -2.31619 -3.99297 -0.509332 1.01058 0.669015 4.10658 3.10942 2.5128 2.269 1.32221 1.20038 -0.378362 
-5.41026 -2.76042 -5.07679 -1.49716 3.73264 1.88281 0.462069 -1.66538 -0.917293 2.48287 -0.648831 1.53669 12.4392 -0.776754 -1.06802 -4.28645 -0.427103 2.06082 0.695569 2.89141 2.31963 3.28799 2.55158 1.16657 0.590616 -0.459779 
-6.74397 -3.10753 -3.27494 -2.57991 2.96317 -0.410602 8.08452 7.94599 -0.567297 3.9002 -1.56258 5.377 13.1986 0.0371025 0.41278 -0.0594997 0.142357 2.12742 1.50024 1.82196 1.34615 1.23709 2.8613 0.378606 0.323679 0.0608535 
-4.30482 3.16759 4.82069 -3.83311 7.02221 2.62075 0.348353 4.23835 -3.3276 5.52363 -4.81156 2.3851 14.3537 1.38608 2.01452 2.76092 1.81227 -0.62854 -0.416238 -0.694746 -0.998553 0.391476 0.0809175 -1.12177 0.0188342 0.0855647 
-1.25325 4.60815 6.33474 0.113697 7.26823 4.0299 1.41483 0.0782071 -3.72689 5.02886 -4.98251 2.72113 13.4849 0.845993 0.508249 0.158987 2.18766 -1.80313 0.207348 -0.176326 -1.58308 1.82662 -0.478513 0.425857 -0.828273 -0.363978 
-1.22522 3.45433 3.92296 6.21736 -1.56259 -2.41863 0.323183 -2.72425 2.61989 2.32313 -4.5477 2.95879 12.7239 -0.315185 -1.3457 -2.70947 0.879532 -2.392 -0.585504 1.60898 0.734048 2.87237 -0.876497 1.80507 0.226361 -0.555153 
-4.0538 -0.709654 -2.03113 3.33314 -1.76005 3.14583 7.21548 3.51191 5.59204 3.10788 0.43478 0.948788 12.1936 -1.09182 -1.55587 -2.73624 -0.430294 -1.02532 -0.769019 1.42828 2.57549 2.79782 -0.0315691 1.99447 0.078501 -0.313404 
-4.48046 -0.902004 -4.54371 -1.04517 -0.423626 0.135271 5.49292 6.19174 6.37478 2.10163 1.50514 4.40308 12.2236 -1.10844 -1.08898 -2.23495 -1.26753 0.587518 0.935828 0.765484 1.37988 0.819317 0.255835 1.47371 0.304185 -0.099983 
-5.08475 -0.993005 -3.11314 1.59349 1.57217 -1.09214 5.97138 8.49769 8.38476 4.98177 1.96342 2.3915 12.168 -0.578418 -0.47635 -1.15664 -0.571035 0.591299 1.22469 0.0988058 0.417755 0.531159 -0.457632 -0.395436 0.96676 -0.00794935 
-6.25197 -1.84891 -6.71079 0.749558 -0.291111 4.37949 4.77265 1.68225 5.32011 2.66537 2.05655 3.75837 12.2367 -0.286907 -0.234983 -0.389367 0.0827356 -0.865109 1.44935 1.20943 -1.07809 -0.62734 0.281446 -0.287533 1.13025 -0.0170619 
-6.06014 -2.61796 -6.73081 -0.419401 1.13019 7.14718 8.06964 7.85543 8.77517 0.537858 -1.8181 6.10495 12.1473 0.150132 -0.0525995 -0.391502 -0.315123 -1.32152 1.63676 1.35747 -3.03538 -1.10069 0.0327692 -0.0645388 1.53147 0.0151499 
-5.42731 -1.26444 -4.68171 0.374956 -4.52818 3.26237 10.4909 1.1224 3.04287 5.73082 1.95824 8.19762 12.1487 0.625952 0.426649 0.572242 0.28076 0.555517 0.420046 0.626015 -1.10263 -0.557138 0.019916 -0.0881541 0.467666 -0.00193262 
-4.74643 -1.54823 -6.08519 0.205179 -2.91687 7.65023 9.89962 -6.3993 4.01992 3.61289 1.68988 7.82924 12.2878 0.0237946 0.563427 1.25477 0.764476 1.2757 -0.657484 -1.04272 -1.12971 0.0556408 0.487958 -0.213515 -1.37295 0.176861 
-3.77907 -0.250523 -4.17239 1.84107 4.51 6.22819 6.98773 3.29647 4.91204 1.22743 -0.138216 5.23455 12.1568 -0.0918831 0.0232126 0.991934 0.326188 1.58649 -0.400476 -2.4126 0.574818 1.71844 0.763689 -0.381959 -1.29016 0.131039 
-6.76528 -0.30778 -0.711596 2.66992 2.9896 2.37685 4.60763 1.11986 8.11879 5.22934 -1.83745 0.721729 13.0275 0.0538789 -0.0537364 0.53367 0.660495 0.849586 -0.147735 -1.4159 1.04942 0.662287 0.0337306 0.502251 -0.54052 -0.0247414 
-4.8773 -1.76861 -2.40884 0.773523 0.451041 3.89669 1.07389 0.236911 9.58562 8.74103 1.81211 5.30057 12.434 0.0510151 -0.261535 -0.137115 0.937466 0.0564621 0.553989 -0.235114 -1.70221 -0.691283 0.371171 2.07153 1.05211 -0.120497 
-3.92792 -1.05787 -4.29862 4.04142 3.36054 8.07731 5.77704 0.377568 4.99457 0.0247407 3.22597 5.09363 12.0255 0.28018 -0.397925 -1.60779 0.598673 0.677058 0.810813 0.785403 -1.26572 -1.84589 0.594835 2.67315 1.89135 -0.232318 
-4.94267 -1.18315 -3.06445 5.84265 4.60685 6.14791 5.22746 -4.84345 3.01774 5.68559 7.68773 8.30914 12.0553 0.0422469 0.390585 -0.33803 0.944477 1.11594 0.491446 0.866517 -0.464447 -0.783755 0.82338 1.27255 -0.339341 -0.0758379 
-5.3317 -2.59014 -8.42276 3.12872 4.29699 5.3053 6.45786 -2.66857 2.17328 9.73124 8.59051 8.6742 12.0552 0.195085 0.602766 0.61235 0.366449 0.258368 0.875334 0.412552 1.53109 1.27699 2.25045 -1.31294 -2.64507 -0.000296879 
-3.96417 0.950447 -2.03692 5.95226 5.5625 7.73992 5.06606 -0.562256 7.07749 8.00468 5.49259 1.81358 12.0399 0.480673 0.421722 0.196924 0.480188 0.315636 0.907045 1.68606 3.65504 1.98987 0.383909 -3.46168 -3.10955 0.0221249 
-3.44175 0.889158 -1.75064 5.81886 4.17455 11.658 7.9205 5.89242 9.34964 10.1174 -2.24115 -4.88395 12.0317 0.417472 0.178727 0.263476 0.848585 0.458226 0.416986 2.07976 3.33532 1.67127 -0.523108 -3.52881 -2.05406 0.0382749 
-3.48428 -0.814185 -5.41589 6.89852 6.24624 7.5068 12.9265 9.15128 9.3789 7.41203 -4.20484 -0.459529 12.1777 0.091725 -0.523261 -1.04232 0.297218 0.343918 -0.461743 2.07267 2.26859 0.463208 -0.389072 -2.13585 -0.0121799 0.0421594 
