-7.70493 0.286211 -4.11724 1.94986 4.78851 2.14386 10.7656 -4.33582 0.716023 6.90775 -7.19033 4.8375 11.8607 1.80716 3.07475 2.09567 1.15257 1.56124 0.134951 -0.445763 -0.654963 -0.566582 -1.98788 -0.14673 -0.924141 0.130416 
-4.69589 6.18861 0.528341 4.34456 10.3142 1.03949 7.54857 -0.974762 6.40737 5.05767 -7.19157 1.72666 11.9932 2.96864 4.01837 2.08509 1.08937 0.868707 -0.977774 -1.10864 -0.590054 -0.8324 -1.87075 1.00014 -0.0667614 0.220988 
-0.173644 12.7088 4.03833 6.51537 9.83186 3.3708 10.1453 -9.29116 -4.96256 -2.10659 -7.92336 1.77223 12.4466 2.63775 3.10045 2.07901 1.11691 -0.992248 -1.57982 -0.219712 0.156264 -0.91316 -0.499968 1.59325 0.156784 0.152372 
3.37264 14.1668 2.23044 5.11395 6.61037 -3.35848 5.53255 -4.80842 -0.606684 2.06118 -1.82311 6.03634 12.6728 1.04296 0.584949 0.818308 1.25921 -1.1274 -1.417 -0.00248167 0.52251 -0.733864 0.541016 1.36784 0.330278 0.0558579 
1.44954 11.7994 5.42677 7.14973 1.67919 -3.55624 10.6751 -1.63767 -0.342749 5.90616 -1.90832 3.46658 12.2828 -0.620311 -1.65056 -0.917186 1.80498 0.515511 -0.487655 -2.13445 2.20959 0.696593 1.07857 0.99695 -0.398749 0.133356 
-0.292685 9.56805 3.92566 10.3234 8.75357 -2.58199 7.27129 -2.18896 0.428147 3.75638 -3.35987 2.53087 12.3544 -1.15842 -3.44301 -2.51837 2.04114 2.60848 1.84053 -2.30823 2.55943 -0.14553 0.0119519 0.041675 -1.32805 0.572301 
-1.44253 6.7553 -1.39521 12.9355 11.3378 0.544278 -1.39628 0.447064 -1.99701 2.43865 -2.17023 1.53121 13.2725 -1.20707 -2.56389 -1.91277 0.963133 2.34632 1.11538 -3.41619 1.26325 -0.052546 -0.844632 -0.379116 -0.292237 0.79497 
-0.97343 -0.526237 -6.95041 12.4267 14.8234 3.79392 0.027072 6.94636 -0.507201 3.8547 -1.48378 0.36375 15.0394 -0.476402 -1.81184 -1.04707 -0.415618 0.0223592 0.778067 -1.41298 0.0644814 -1.23682 -0.501365 -0.273624 0.361545 0.759106 
-4.24544 4.02704 1.30095 10.9137 10.3758 -1.16731 -2.78379 0.11094 -0.137805 1.63384 -4.74195 3.08896 14.9152 -0.0187117 -0.138893 -0.113149 -0.802472 -1.09347 -0.794263 -0.992367 -0.1833 -1.61555 -0.865551 0.0834455 0.725684 0.54357 
-1.27324 1.873 -2.65776 9.25623 9.34635 2.16414 0.900164 -1.69849 -6.68556 1.65196 -3.44213 3.55972 15.3286 0.358679 1.04374 0.470961 -0.476905 -2.33512 -1.03141 -1.44918 -0.681281 -2.31499 -0.422422 -0.0659771 0.360046 0.30593 
-1.38619 4.86121 -4.10728 10.5084 8.60901 -2.61214 -6.79466 3.85299 -6.9856 -0.787738 -0.773827 3.56165 15.8458 0.893889 0.374191 -0.607302 0.0220242 -1.72038 -0.80105 -1.65379 0.319325 -1.0501 -0.123367 -0.187659 -0.135476 0.388079 
-0.609658 4.27537 -1.89149 10.2449 4.03125 -0.640717 -5.2134 1.66893 -8.65823 2.95337 -3.79773 1.92764 16.1038 0.61922 0.535764 0.233815 0.0121132 -1.81052 -2.29522 -2.49207 0.573905 1.13263 0.397962 -1.10565 -1.38506 0.44618 
-0.107786 4.69682 -2.1187 10.5295 4.43149 -3.77013 -7.99596 0.0238528 -4.40196 0.366301 -5.50245 3.22762 16.468 1.33083 -0.495232 0.961771 -0.518435 -2.13654 -1.28557 -1.70186 0.762656 0.629732 -0.681752 -0.502199 -0.738844 0.412481 
1.18365 4.63402 -2.48297 9.30623 2.3825 -8.73298 -10.9595 3.08561 -2.31422 3.06475 -6.60606 -3.19858 17.2484 1.66398 -1.31115 1.13609 -0.646208 -1.53326 -0.956832 -1.97954 0.674525 1.05826 -2.20945 1.12629 -0.0253253 0.44807 
4.37131 2.20573 0.99732 8.38557 -1.24932 -4.99387 -12.4309 6.95793 -7.00895 -4.25219 -1.88065 2.43053 17.3359 1.80558 -2.11335 1.39788 -0.832164 -2.09167 0.401106 -1.45201 0.394594 0.554413 -2.3184 2.26414 -0.151314 0.427858 
5.47071 -1.03481 2.23096 8.08581 -0.794672 -4.81301 -12.8936 1.57452 -2.06343 -5.78462 0.0228171 2.19955 17.9102 1.51737 -2.3317 0.989998 -1.02663 -1.92161 1.17 -0.79535 -0.560022 1.05161 -2.28679 2.85732 0.0509709 0.433789 
6.77657 -3.03553 2.51375 6.97894 -4.43826 -3.72459 -14.289 2.75236 -1.75529 -6.80101 2.50384 -0.228017 18.2764 0.815106 -1.67123 -0.317798 -1.26841 -1.62348 0.318079 -0.0820751 -0.851426 2.24358 -0.704848 2.76755 -1.65558 0.535303 
7.56787 -4.40384 1.7088 4.87638 -5.63107 -3.51761 -14.0072 2.38828 0.31698 -7.09479 5.48829 -1.61445 18.9471 0.581087 -1.29452 -1.03417 -1.69843 -1.69708 0.674001 0.358528 0.349029 1.65781 0.123969 2.70995 -2.0882 0.499361 
7.39826 -4.46589 -0.330591 3.64823 -6.9485 -4.05117 -12.2845 2.29392 3.01875 -7.12134 9.22434 -3.94037 19.4939 0.370002 -1.29686 -1.20825 -1.96017 -0.617596 1.00343 1.58588 0.132967 1.6381 0.751135 2.11179 -2.32264 0.396332 
8.0653 -6.79223 -1.51771 1.25899 -8.02495 -1.27971 -12.1032 3.54888 3.83861 -5.00461 10.2123 -6.38527 19.7982 0.190027 -1.29644 -1.25235 -2.13536 0.214417 1.55039 2.49009 -0.123685 0.686209 1.70265 0.362039 -2.02158 0.230729 
8.37787 -8.32565 -1.91425 -1.01324 -6.3293 0.173588 -7.31156 2.8369 4.67439 -4.09043 10.7008 -9.45581 19.8325 0.187208 -1.12815 -1.59844 -1.92568 0.39197 2.55191 2.62796 -0.454992 -0.0376962 1.86729 -0.571441 -2.12495 0.132752 
8.0282 -8.95617 -3.76112 -3.46969 -4.86859 2.12196 -4.04322 1.49837 2.92021 -0.0970087 6.56027 -8.96462 19.9314 0.0472017 -0.670761 -1.61683 -1.94452 0.6086 2.59471 2.81471 -1.11639 -0.303891 1.60065 -0.644994 -2.13742 0.126948 
8.35285 -9.02469 -7.20108 -3.61581 -6.56683 7.00756 -3.17467 1.04422 3.28947 -0.238706 8.19316 -13.2754 20.0911 -0.0393384 -0.107504 -1.6734 -1.54402 0.342321 2.69473 1.96796 -0.912786 -0.689488 1.39786 -0.310233 -1.82668 0.134284 
8.31382 -9.79652 -6.95842 -7.16232 -4.86318 8.27684 -0.098155 -1.13675 3.01161 1.07279 8.24117 -15.1625 20.3036 0.0288867 0.132752 -1.07604 -1.31455 0.65789 2.0336 1.47231 -0.457478 -0.890084 0.794862 0.511403 -1.65639 0.0902777 
8.03837 -8.443 -8.68258 -6.88702 -4.6204 10.5698 0.555693 -0.409471 1.18125 2.31395 8.30915 -15.4903 20.3178 0.0399312 0.0307235 -0.341528 -1.44745 1.33022 0.610633 1.17801 -0.233474 -1.54865 1.0025 -0.0517672 -0.582133 0.0266697 
8.32988 -8.58326 -8.40055 -8.40683 -2.55236 10.5088 1.45315 -0.0621784 -0.476101 2.60097 9.05929 -16.1392 20.2695 0.0883066 0.0766252 -0.310283 -0.830983 1.28453 -0.146442 0.53224 0.0577636 -1.35617 0.728173 -0.249152 -0.460948 -0.0247913 
8.54447 -9.47771 -8.18766 -10.2308 -1.07115 8.94472 1.93972 -0.660435 -2.70994 4.00969 7.52526 -15.6978 20.2415 0.069711 -0.166966 -0.0996878 -0.506298 1.30049 -0.928408 0.118512 0.166299 -0.932084 0.929817 -0.898614 -0.26604 -0.0248571 
8.5023 -8.89604 -8.7573 -9.64534 -0.215132 8.35716 1.87103 -0.72245 -1.82363 3.86579 7.38735 -17.3635 20.2178 -0.143453 -0.0771994 0.0539085 0.180682 0.899903 -1.31014 -0.321576 0.890611 -0.51468 1.37633 -1.85096 0.322257 -0.0371748 
8.30071 -9.12144 -9.00264 -8.79926 0.713439 7.00357 0.939309 0.752157 -2.80541 6.33063 4.65205 -16.2083 20.2193 -0.181623 0.0218128 0.385689 0.782042 0.377593 -1.64468 -0.51562 1.54954 0.0854738 1.16925 -2.16345 0.76101 -0.0779081 
7.73449 -9.14739 -7.72351 -8.2192 1.05486 4.9287 0.345474 3.68458 -3.00177 8.32215 1.24112 -14.2726 20.0947 -0.154714 -0.0292416 0.701996 0.845909 -0.0839429 -2.14175 -0.697095 1.61073 0.656124 0.440122 -2.17247 1.1416 -0.111437 
8.02026 -9.24297 -6.77611 -7.03366 0.181814 2.43554 0.124398 4.88374 -1.69351 7.62777 -0.218851 -13.4382 19.9135 -0.227891 0.150315 0.931611 1.0606 -0.858744 -2.21043 -0.764129 1.32601 1.25253 -0.362008 -1.64737 1.23234 -0.109085 
7.86895 -8.98148 -6.36058 -6.29859 -0.369035 -0.0675552 -1.20699 5.26541 0.901036 5.41783 -1.03953 -13.0406 19.8136 -0.263693 0.210587 1.37629 1.04749 -1.4618 -2.30977 -0.923833 0.561089 1.43345 -0.973439 -0.832961 1.69409 -0.0788332 
7.09403 -8.45281 -5.02605 -4.45658 -2.86833 -1.55045 -2.1051 6.59178 1.50582 5.97275 -2.44449 -10.6626 19.8145 -0.24549 0.234985 2.15849 1.16744 -1.98393 -2.09254 -1.10303 -0.0551497 1.04447 -1.22582 0.0706503 2.31073 -0.0781982 
6.87915 -8.48953 -1.71711 -4.27029 -4.72904 -4.62716 -3.15894 5.63601 2.56583 4.28246 -1.81087 -7.18995 19.75 -0.21662 0.23859 3.1211 1.01571 -2.07422 -1.3837 -1.25897 -0.563914 -0.114118 -1.433 0.49264 2.90177 -0.104286 
7.28771 -8.31402 1.69461 -2.21062 -7.55784 -5.74737 -4.41477 4.42269 2.69643 2.06638 0.520071 -4.80983 19.5543 -0.585607 0.679243 3.49129 0.78869 -2.01919 -0.681677 -1.44672 -1.44536 -0.762826 -2.19996 1.05193 2.81203 -0.0764446 
6.68901 -7.85793 5.8846 -2.34303 -8.39537 -4.88758 -6.34698 3.53039 -0.264857 0.20603 -0.0586081 -1.45811 19.4222 -1.0574 1.25767 3.45714 0.754179 -1.69322 0.155812 -1.78623 -1.9467 -1.3339 -2.26775 0.946899 2.68299 -0.00572987 
4.26106 -5.3724 8.62953 -1.47676 -11.1311 -4.82862 -7.74469 0.417816 -0.892957 -2.98884 1.93906 0.531608 19.5962 -1.41581 1.59205 3.21896 0.219601 -1.01203 0.556794 -1.82004 -2.11346 -1.01848 -2.20274 0.695817 2.31419 0.05711 
3.10548 -3.67201 12.1011 -0.866317 -11.4085 -4.30748 -10.4251 -2.09504 -2.30895 -4.52867 2.21413 3.5543 19.7005 -1.3826 1.49645 2.75524 -0.132929 -0.478513 0.74248 -1.25904 -1.34641 -0.47239 -2.19766 0.468634 1.77644 0.0926969 
2.00045 -2.44675 14.6812 -1.85097 -11.1114 -3.25346 -11.4759 -3.33189 -1.37392 -6.57998 2.86279 4.2549 19.7007 -0.884603 0.760049 2.27198 -0.363578 0.350102 1.29974 -0.95718 -0.0575907 -0.305474 -1.84461 -0.146873 0.961939 0.0575365 
0.906291 -1.83852 16.635 -2.82057 -10.7978 -1.96277 -10.7766 -1.3268 -2.38632 -8.98669 1.8227 5.56243 19.8334 -0.587526 0.426117 1.80013 -0.59919 0.823429 1.3889 -0.148887 0.365841 -0.0936308 -1.42476 -0.397506 -0.014792 0.00914631 
0.937634 -2.4889 17.7225 -2.31752 -9.68595 0.497747 -12.3549 -0.254256 -2.38164 -9.9829 1.40041 4.33724 19.8174 -0.371714 0.397463 1.20136 -0.208854 0.9667 1.40465 0.182546 0.4763 -0.549061 -0.975186 -0.719628 -0.380245 -0.0926069 
0.699255 -1.52035 19.5811 -3.62899 -8.00408 0.761441 -10.7301 -1.80465 -2.27324 -9.95101 0.957788 3.43917 19.6879 -0.245474 0.561531 0.57444 0.0294 1.10246 1.17419 0.258804 -0.0121002 -0.658442 -0.834395 -0.510836 -0.449638 -0.233482 
0.245399 -0.618521 19.2149 -2.49103 -7.67476 2.40769 -10.5864 -0.711463 -4.17576 -10.9738 -0.302896 3.4153 19.3105 -0.217732 1.0111 -0.0368151 0.165305 1.10986 0.349331 0.495779 -0.198854 -0.164792 -0.785654 -0.608564 -0.262004 -0.364957 
0.0250397 0.0339417 18.761 -2.58682 -6.29108 2.95321 -10.3668 -1.1587 -4.78148 -12.6632 0.12017 3.7752 18.9195 0.0466923 0.829122 -0.399744 0.338891 1.53459 -0.426607 0.0820408 0.0148758 0.240621 -1.00291 -0.0395369 -0.285877 -0.461104 
0.186081 1.78946 17.9485 -2.01208 -4.99315 1.14851 -10.0576 -1.5715 -1.95149 -12.5551 -1.2236 2.8592 18.3768 0.143706 1.39076 -0.626975 0.300266 1.71957 -0.956469 -0.47205 0.036426 0.633528 -0.872213 -0.0293295 -0.0750151 -0.600762 
0.962376 1.42127 18.2156 -2.17401 -1.67193 -0.742004 -10.5843 -1.30025 -2.18228 -14.1749 1.22046 2.28783 17.8492 0.18299 1.838 -0.0719671 -0.675832 1.58642 -1.39697 -0.222409 -0.352113 -0.333179 0.0735994 -0.807074 0.166605 -0.663243 
0.495262 5.64163 16.3527 -1.19611 -1.38648 -0.527045 -12.8379 -0.458557 -2.30772 -14.579 -0.999687 3.78391 16.8418 -0.380256 1.74539 0.518431 -0.686915 1.11596 -1.40048 -0.297737 -1.32546 -2.02282 -0.723277 -0.973369 1.32392 -0.599444 
0.785397 7.29783 19.199 -6.37397 -0.162301 -3.19388 -10.0887 -3.47574 -6.26925 -11.2833 -4.02716 4.14587 16.3708 -1.87235 1.43398 0.184178 -0.555226 0.991537 0.194458 1.58419 0.0103241 -1.06259 -0.400478 0.226057 -0.277147 -0.354053 
-1.62671 7.57814 20.0489 -3.34667 -0.16815 -4.62794 -11.7941 -7.11107 -10.0221 -17.6173 -3.46664 8.54976 16.1188 -1.2991 0.600791 -1.60673 0.989695 0.776331 -0.960023 2.71234 -0.0423912 -0.97851 -0.220103 0.813792 -0.427135 -0.528395 
-7.33838 7.62292 17.2884 -3.87485 2.67659 2.28073 -3.18527 2.07762 -3.63807 -14.6582 3.58422 -1.48082 16.4404 -1.06007 -0.137436 -5.39191 3.09965 0.695032 -0.598642 3.72749 -0.463242 0.951415 2.73346 0.86588 -0.829108 -1.01326 
-1.93837 8.48305 9.27438 2.50281 1.07573 -8.06446 -2.72793 -3.44719 -8.51587 -13.9921 -0.736414 4.46159 14.165 -0.541936 -1.00332 -7.69812 1.83508 0.789778 0.122044 5.17263 0.210762 2.03349 5.53215 -0.485774 -0.0865467 -1.28911 
-4.35915 6.1582 -2.37323 6.19953 2.69092 -4.46882 4.0157 -7.62389 -2.26529 0.571432 -1.06287 2.04442 12.2813 -0.409929 -1.5073 -6.55424 0.778192 0.565902 0.723287 4.69561 -0.688591 1.26698 4.88198 -1.9737 1.40243 -1.14884 
-5.82601 3.29392 -8.61083 0.79155 3.77357 -0.642937 10.4686 -1.2065 -0.541042 2.42868 -3.57196 6.3544 11.7528 -1.16398 -1.20831 -3.78139 -1.45423 0.506737 1.67447 3.70442 1.34771 2.25772 3.6707 -1.04719 -0.422121 -0.495282 
-7.4442 2.68098 -6.54019 0.871739 4.15717 2.1864 13.6945 -2.48568 -1.29058 1.54139 -4.86649 4.58492 11.9023 -0.782408 -0.793349 -0.69538 -1.48676 -0.0579021 0.40422 1.95627 2.45158 2.03316 0.835209 -1.064 0.107488 -0.0561267 
-6.21573 4.18012 -7.5491 -2.10442 2.87629 -3.01972 10.9547 0.722229 2.28539 3.87643 -4.07055 1.08073 11.8781 -0.530404 -0.859018 -0.060154 -0.593454 0.229002 0.569191 0.0321551 0.88249 1.78119 0.462337 0.388208 -0.565038 0.0166943 
-8.07632 1.74835 -6.381 0.213736 2.85005 -1.25933 13.554 3.66967 6.48732 4.0236 -6.13357 5.2187 11.9381 -0.324541 -0.892541 -0.505835 0.050599 0.807338 1.33575 -0.281346 0.057623 0.428752 0.161453 1.26769 0.275886 -0.0221535 
-8.16197 -0.53486 -8.9912 -1.84672 5.57214 3.92589 10.6997 0.128275 4.47596 3.49926 -0.997383 3.21232 11.8184 -0.27689 -0.304378 0.28402 0.0562701 0.539444 1.52692 -0.100119 -0.816128 -0.674571 -0.00267663 0.899429 0.675114 -0.0303535 
-8.09379 0.57577 -8.34832 0.995883 6.84594 5.39234 12.4153 -1.90059 -0.242102 2.53724 -0.0646152 4.89855 11.8214 0.26065 0.426658 -0.186842 -0.0290469 0.413772 0.183135 -0.365623 -1.18726 -0.5031 0.245388 0.346763 0.38221 0.000635815 
-7.59145 3.24452 -5.14534 -2.21414 3.57557 1.28902 11.0235 -0.573284 2.27724 4.60623 -2.60787 4.61637 11.7846 0.3691 1.08806 0.0768539 0.102761 -0.971864 -1.07189 -0.768473 -0.380409 1.25728 0.828292 -0.988787 0.578672 0.00177345 
-7.05833 1.99195 -9.23814 0.252215 5.9172 0.974778 11.5639 -1.91585 5.07118 4.69706 -3.59451 6.42772 11.9581 0.276129 0.572562 -0.402646 -0.570108 -1.13269 -1.50847 -1.41444 -0.442092 1.10539 1.46803 0.0570582 0.479545 -0.000954437 
-6.8342 4.19732 -8.16202 -0.961079 1.17719 0.775231 7.28299 -1.76614 8.1057 6.56082 -4.17637 5.3411 11.7589 -0.172512 -0.167037 -0.56851 0.0103674 -1.37621 -1.45156 0.135053 -0.609629 -0.185832 1.40503 0.633792 0.816887 0.0181194 
-7.09177 2.96218 -8.85321 -2.48119 2.38166 -1.89312 7.21336 -3.51462 2.3706 8.90008 1.00493 6.93391 11.8295 -0.568818 0.0098479 0.179597 -1.45349 -2.07914 -0.409522 1.16571 0.132702 -0.712338 0.940084 -0.149292 0.215171 0.0311893 
-8.43729 1.92422 -8.18035 -0.795607 -1.53772 -4.53483 13.874 -2.82204 2.69838 9.52984 -1.73863 8.44772 11.9395 -0.438224 -0.187902 -0.0486492 -1.11842 -0.436017 1.11255 1.84132 0.0940799 -0.296975 0.237162 -0.0541909 0.178823 0.0758359 
-9.10088 3.17774 -8.33099 -7.09799 -3.12105 1.5822 14.097 -0.724387 4.21315 7.91297 -5.55984 5.95027 12.0237 0.00637741 0.113667 -0.450689 -1.0216 -0.478471 1.32282 0.0432278 -0.384736 1.20666 0.561809 -0.898646 -0.517241 0.0406479 
-8.02076 3.15003 -8.66638 -4.24478 1.74846 4.6003 13.0478 -2.69086 5.69955 8.24018 -1.16494 6.72704 12.041 0.586415 0.0448631 -0.176092 -0.4762 0.342716 0.471204 -1.46681 0.491049 1.1405 -1.1477 -0.360955 -0.614824 -0.0300459 
-7.26814 2.91761 -10.8636 -5.8646 -1.65379 0.153411 7.84262 -5.50389 6.90332 12.354 -3.77515 5.20805 11.982 0.386861 -0.509735 0.347375 1.46292 1.06606 -0.261981 -0.861173 0.348394 -0.530943 -1.19447 1.70117 0.718406 -0.0757033 
-6.42158 2.2786 -7.79448 -3.79331 -0.557769 -1.46442 9.66716 2.02296 7.0558 1.57087 -4.43575 5.74471 11.8101 0.389959 -0.582046 0.481956 1.74541 0.583777 -1.01618 0.271346 0.696319 -0.635079 -1.25308 1.71632 0.619079 -0.0783352 
-7.96617 1.06478 -7.03006 -0.00911999 3.36234 3.30465 11.4814 -1.33932 0.88031 5.2753 4.58144 10.0335 11.7606 0.161487 -0.389882 0.592348 1.37322 1.00183 -0.258966 0.604037 0.347296 -0.399198 -0.249315 1.21836 -0.0465017 -0.0471891 
-5.72195 1.16622 -8.17339 1.55452 2.15928 -2.05623 12.5851 -1.29155 5.53566 5.51413 3.23838 7.40972 11.76 -0.184119 -0.119494 0.110405 -0.0177185 0.809823 -0.150637 0.242974 0.427704 0.518463 1.15717 0.236422 -0.682177 0.0313485 
-6.81052 1.52439 -7.71245 -1.6724 1.99683 -0.845509 9.40384 -2.11016 5.6674 9.13575 -1.52044 4.14303 11.7712 -0.306278 0.267294 0.283119 -0.642555 0.56377 -0.490184 0.406925 1.66352 1.30564 0.326212 -1.08439 -1.69945 0.086712 
-7.92 1.45133 -6.90126 -3.05026 4.1741 -0.142518 11.9208 4.5469 7.25457 5.42648 -0.202702 5.27904 11.9616 -0.694118 0.291928 0.530765 -0.419516 0.920595 0.464861 0.697056 1.68703 0.290843 0.0686527 -0.23163 -1.11578 0.0988961 
-8.39854 2.2587 -6.25053 -0.919509 5.17378 -0.103123 13.8482 4.05903 6.54905 6.95018 0.88001 2.60155 12.0934 -0.365458 0.2276 0.357459 0.363653 0.735358 0.152417 1.08161 1.18505 0.105777 -0.284744 0.58836 -0.576043 0.0776159 
