-5.05252 -2.55582 -9.7398 -0.551198 7.31948 0.385313 5.9898 2.94377 7.26313 6.66542 -3.66216 -3.36716 11.6949 -0.0970325 -0.042134 0.611735 -0.11409 -0.955708 0.585395 0.820481 0.907853 -0.552841 1.09295 1.20706 0.264922 -0.00942345 
-5.22318 -3.14217 -9.71452 -3.55461 3.16874 3.9954 8.38584 8.44449 9.97695 12.6269 -0.577748 -2.55992 11.6253 0.105385 0.172821 0.709527 -0.761686 -1.81608 -0.260367 0.876806 0.834879 -1.35109 0.152086 2.04668 1.84593 0.0482726 
-5.45235 -2.47332 -6.69377 0.38006 4.61631 1.50724 8.89418 4.73268 3.14201 9.14943 0.830956 -2.44617 11.6826 0.0305727 0.240217 0.434503 -0.586262 -1.03219 -1.0213 0.757559 0.553196 -0.910682 -0.738348 1.45637 1.04772 0.0847011 
-4.32568 -1.73297 -7.71518 -4.82526 -0.409343 -1.47749 8.92163 6.22371 2.56825 6.18385 4.32466 5.402 11.9424 0.310118 0.220062 -0.49969 -0.602604 -0.746799 -1.42052 0.351621 -0.790039 -0.783366 -0.671159 0.822811 0.085617 0.0804844 
-5.3484 -2.05934 -8.56696 -2.84718 3.94755 -1.98472 9.50969 6.82014 6.41407 6.19523 1.16849 -2.10953 11.9599 0.264063 0.167141 -0.513609 0.430954 0.292799 -0.269925 -0.290796 -0.838463 -0.338941 0.517788 -0.435041 -2.03289 -0.0111766 
-3.72456 -2.24885 -11.2764 -4.95401 -0.230881 -1.36124 9.83618 3.45056 4.42409 10.7482 3.36754 -2.30016 11.8891 0.544995 1.28654 0.904352 1.74219 0.523289 -0.284425 -2.8981 -2.19266 -1.88831 -1.12326 -1.45769 -3.40673 0.113332 
-4.43259 -1.37967 -7.48121 2.59921 5.99107 0.0994966 6.98292 1.92694 0.519387 9.45617 -0.865689 -8.75952 11.6534 0.657219 1.61266 3.1999 0.393359 0.053582 0.092899 -6.34189 -3.52952 -3.88938 -3.03789 -0.0526904 -2.15642 0.537912 
-2.05861 4.35992 -3.73629 1.16251 1.18534 -3.94172 -4.30546 -2.29296 -3.92595 -1.06291 -1.9467 -8.30664 12.6623 0.717113 1.70415 4.59736 0.508513 1.0792 1.12869 -6.00924 -2.15311 -2.3028 -3.8195 -0.493388 -1.45987 0.631298 
-2.89528 2.69957 3.66251 -3.93865 3.50735 -0.229985 -15.1289 -7.95572 -8.85781 -3.08866 3.56215 -9.8884 14.2628 1.15852 1.173 6.39864 -2.19823 -0.88561 2.35641 -3.99547 -0.37338 -0.47689 -4.21798 0.369992 2.19226 1.17498 
-0.907646 4.2323 6.13857 0.857485 6.40699 4.44697 -9.15409 -2.37366 -2.40131 -2.07684 -1.31332 -9.03507 13.7409 1.43201 0.772 5.51065 -2.30629 -0.292567 1.73134 -1.682 2.07809 2.0124 -2.01624 0.355075 3.20429 1.0518 
0.784527 4.54915 19.5746 -8.23941 -1.0478 7.68721 -10.5701 0.100389 -2.62738 -11.1268 0.667583 2.56601 16.989 1.79779 0.918343 3.74116 -1.87548 -0.845539 0.330467 -0.304198 3.20304 2.09866 -2.47864 -0.727203 3.71641 0.916862 
3.26152 7.29513 15.8609 -8.21857 2.00008 0.756365 -14.9949 4.06943 3.02084 -7.12504 1.27596 1.48762 16.5582 1.00878 0.309051 2.4145 -1.65701 -0.397651 -1.24211 -0.73607 2.21189 0.509259 -2.65576 0.136156 2.57769 0.942513 
4.00908 5.75987 17.5072 -8.778 1.48311 3.26766 -13.7295 4.83792 -1.07558 -12.9577 -1.3685 3.43231 17.4384 0.498197 -0.166483 -0.971725 1.48684 1.3409 -1.76877 2.00593 1.20878 -1.02854 -0.643793 -0.79831 0.345544 0.0481256 
2.524 5.17219 19.2448 -7.15827 3.15328 0.446222 -11.2547 6.31702 -0.630917 -14.4402 0.3855 3.42023 18.2287 -0.737502 0.318809 -1.5921 3.80803 0.514109 -1.78473 4.46166 0.0439318 -2.25069 -0.271143 -0.868398 0.00313158 -0.249158 
3.64427 4.7782 13.024 -1.33534 5.08009 -1.00158 -2.41055 5.02049 -5.94421 -10.6882 -2.87874 3.32743 16.3944 -1.66605 1.84782 -2.94297 4.6975 0.861811 -2.47553 4.25465 0.0993382 -1.14238 2.67899 0.150272 -0.672964 -0.680127 
-0.243586 9.38001 10.142 7.10027 2.77213 -6.03267 1.65395 4.1978 -5.79828 -9.61554 -2.31091 1.55572 15.8345 -1.35166 1.17698 -3.32036 4.09787 1.28526 0.17504 3.51195 -0.192911 1.21385 6.04729 0.403993 -1.69862 -1.1595 
-2.9374 12.895 7.34367 7.58024 5.98273 -5.87055 1.08936 6.39422 -4.20378 -1.97511 0.731061 0.999744 15.2349 -1.07658 -0.0152393 -3.08515 1.23906 1.85192 2.36944 2.99244 0.329059 2.90772 4.63785 1.60441 -1.22719 -1.04699 
-0.943469 6.99867 5.48313 8.87328 9.12824 3.7559 4.55504 4.6656 4.5681 11.4397 0.600569 -3.90904 13.0109 -0.188551 -2.10645 -3.42062 -1.35252 1.40174 3.18411 3.30237 0.544634 2.58204 3.82022 0.962933 -0.356114 -1.03527 
-1.3887 5.89267 -0.0723019 3.97347 11.1616 5.95131 11.1011 6.43189 3.4112 1.97344 3.68759 -0.0761326 12.5712 -0.429032 -3.14015 -4.0536 -2.2963 -1.10772 0.563176 2.24521 -1.00101 1.30828 1.70109 0.195717 0.363932 -0.740727 
-1.96069 2.34895 -3.25312 2.14107 7.1914 3.97695 13.1599 6.90214 3.30443 7.5113 1.0255 0.313087 11.99 -0.943667 -1.58575 -3.49364 -2.836 -2.9432 -2.04306 0.292612 -1.27412 -0.567558 0.206011 0.101623 1.09454 -0.262446 
-4.57395 -0.480826 -8.55619 -0.535174 1.41254 -3.16519 8.01298 0.270879 2.96944 8.49454 1.49718 0.708338 12.0418 -0.755078 -0.952782 -1.94386 -1.57679 -3.24168 -2.21877 -0.857178 -1.97287 -0.796737 1.78393 0.239348 0.905029 -0.0750635 
-4.06917 2.25669 -7.74313 -3.05239 -0.713208 -1.90113 7.56217 1.3755 1.95119 9.20925 2.20389 1.17142 11.9634 -1.29894 -0.134429 0.32512 -2.16601 -0.362908 -0.755154 -2.13275 -1.60291 -0.624999 -1.06128 0.430162 0.0291639 0.661617 
-4.10984 1.17489 -7.54658 -1.31377 -1.09446 -2.20351 9.61411 -0.669153 0.104129 10.0441 4.29513 4.01985 12.2092 -1.55369 0.450377 1.63341 -1.88172 1.60506 0.937037 -2.40591 -0.765645 -0.5794 -2.46673 -0.124326 -1.23577 1.64868 
-8.68747 0.848943 -2.13233 -8.29966 6.63037 -0.27966 1.69563 -0.642412 1.61209 1.4301 1.77733 -1.19685 15.2144 -2.05515 0.637191 1.35178 -0.793797 1.48468 0.439412 -2.43767 -0.122933 -0.216874 -3.28205 -0.927997 -2.02516 2.12666 
-10.0332 2.47493 -3.19453 -7.32014 5.76607 0.709261 -1.08332 -2.54839 0.241994 0.0504665 1.08883 -4.28637 18.6597 -2.04075 0.882586 0.592211 0.0708547 0.121976 -0.149185 -1.8291 0.657311 -0.679792 -3.37873 -1.67681 -1.69524 1.78744 
-11.3832 4.79263 -3.16024 -4.01819 3.27993 -1.16045 0.722539 1.70046 0.797888 -2.20417 -0.832948 -4.80126 19.3714 -1.55408 2.64486 -0.867589 1.25991 -1.52033 -0.454375 -0.581368 0.361131 -0.0232488 0.0726155 -2.33982 -1.02088 0.802514 
-12.9657 3.61598 -4.07157 -3.10023 1.19063 -2.50904 0.955169 1.44597 -2.88773 -5.03242 -2.78379 -2.65414 19.0679 -1.29715 2.72492 -0.289612 1.0569 -0.274541 0.268906 0.824625 0.852099 0.675362 1.09542 -0.522944 -0.0477472 0.0443764 
-14.9916 13.5027 -6.03175 -4.1101 1.31643 -0.942385 -2.23045 -0.833938 3.06071 4.33462 -7.98546 -7.11737 19.0229 -0.744728 1.19583 -0.100212 0.438978 0.383891 1.34289 0.903424 0.876632 1.98501 1.93478 2.1155 1.62134 -0.142448 
-14.7148 11.7445 -3.20683 -1.98969 5.37511 1.94476 4.5163 2.9793 2.48739 2.25816 2.05037 -3.36706 19.0559 -0.362235 -0.326055 0.177354 0.0669509 0.275672 1.02673 0.0512884 0.205913 1.57817 1.55772 2.25608 1.65719 -0.182843 
-14.2323 6.70749 -4.09367 -2.37857 3.10714 3.32708 3.45909 5.31695 8.0354 3.82444 7.32747 3.66192 18.6652 0.759363 -1.0735 2.00788 0.973565 0.328989 0.681705 -0.385484 0.50094 -0.986196 -1.48376 0.695468 1.09328 -0.232619 
-15.1565 5.38331 -4.15385 -3.63124 1.67364 0.489863 -1.63316 -0.59991 2.51578 3.01128 0.840126 0.242148 18.3325 1.95522 0.463906 2.88486 1.95241 0.39614 -0.57435 -2.15667 -1.09985 -2.87037 -3.00067 -2.50863 -0.451554 -0.291105 
-10.9739 11.3158 4.48114 1.5785 4.81211 3.19359 -1.08314 3.46037 -1.88446 -3.46073 -3.903 -3.45558 18.2215 2.92596 1.13159 3.82425 2.75347 0.579712 -1.44945 -1.0667 -1.87366 -4.05676 -4.05661 -3.6704 -0.244791 -0.303886 
-6.56787 11.7599 6.93009 5.79384 6.50333 -0.860249 -3.99592 -1.59166 -6.90452 -9.10261 -4.87754 -2.06608 17.8222 3.52942 -0.305091 4.19934 2.46525 -0.86367 -1.04069 0.106875 -1.7829 -2.9433 -3.60139 -2.06207 1.6541 -0.197325 
-3.89684 9.17715 9.4856 6.67625 3.59085 -3.2451 -0.693022 -3.55548 -7.53827 -10.4017 -8.16571 3.59208 17.4009 3.23944 -2.96992 2.97825 1.3026 -2.857 -0.954057 -0.201453 -2.52324 -2.08274 -1.24827 -1.18177 1.60449 -0.0728621 
-1.04797 4.92718 14.3406 6.14613 -2.03408 -1.49427 -1.29385 -6.00646 -9.3738 -11.5252 -7.33887 4.98881 17.7561 2.88329 -3.77834 1.67224 1.23345 -4.10923 -0.641073 0.43291 -1.51888 -0.963014 0.321986 0.00646424 -0.0619618 0.147659 
2.46331 -0.11746 15.6671 7.91536 -5.2042 -1.25969 -3.44144 -6.94842 -11.0635 -8.49082 -8.58117 1.03943 17.8902 2.67041 -3.54659 -0.635056 1.42831 -4.17465 -0.952247 -0.331487 -0.275897 -0.215743 0.877141 1.88786 -2.08226 0.323668 
4.6685 -2.4845 12.2005 11.3415 -9.64531 -5.05832 -0.457159 -7.48957 -9.95696 -8.44811 -4.63749 -1.09956 18.3159 2.23714 -2.92097 -2.70597 1.29346 -2.70437 -1.88545 -1.4287 2.07122 1.45904 0.792447 2.14077 -1.82185 0.319743 
6.597 -4.84995 7.38036 11.2201 -13.4768 -6.22431 -2.7688 -4.19341 -8.32541 -7.55451 -0.077127 -3.77501 18.7394 1.99024 -2.43498 -3.23882 0.0615796 -0.138698 -1.55985 -2.87412 3.10024 3.59019 0.11838 2.10658 -0.608026 0.277246 
8.07088 -7.31145 4.95415 10.961 -11.4196 -8.43919 -8.77368 2.97215 -3.44766 -8.03109 -0.887036 -1.71322 18.9303 1.94969 -1.81739 -2.9647 -1.50081 1.92491 0.291226 -3.9059 2.351 3.78128 1.12881 1.39759 0.108662 0.0755301 
10.7133 -9.87887 3.09623 8.41351 -5.01054 -7.3685 -13.6538 3.32191 3.63276 -8.10744 0.0765204 -1.69387 18.9692 1.25674 -0.326402 -3.05231 -2.43899 3.44531 1.10424 -2.58962 0.200914 2.23206 2.57998 1.55234 0.58675 -0.0297937 
12.3588 -9.05699 -0.480903 5.24077 -4.25389 -3.03009 -14.5442 0.507764 2.97034 -2.5276 2.27365 -1.59682 18.5786 1.04546 0.341104 -2.95114 -3.03825 2.37744 2.29554 -0.539805 -1.64883 -0.547931 3.34484 2.88428 0.481329 0.00433998 
10.7368 -5.60918 -5.16366 1.8853 0.166856 -3.40767 -12.8317 -1.95665 -0.374115 2.59364 6.1042 -0.899457 18.7663 0.722064 0.615475 -2.53979 -2.90141 0.222204 2.97455 1.06099 -1.90047 -2.70615 2.85114 3.82368 0.642277 0.125254 
13.2865 -7.74077 -5.67162 -0.966126 -2.12112 1.05809 -11.8838 -2.63273 -4.18388 3.34256 10.5205 0.296223 19.0534 0.623102 0.147995 -1.60642 -2.40652 -1.41642 2.53289 2.28386 -1.51612 -2.40592 0.613579 3.4698 0.461683 0.226589 
13.8598 -7.45961 -7.00738 -2.99009 -4.9659 5.46013 -9.67905 -4.61018 -6.32089 3.21318 15.0715 0.57099 19.3581 0.775946 -0.397822 -0.497967 -2.05966 -2.41114 2.46911 2.8725 -0.941436 -1.57642 -0.453709 1.8405 0.461192 0.171689 
13.9128 -7.3918 -7.59113 -4.35413 -8.7696 5.20047 -4.7012 -5.74606 -6.08585 0.230524 15.139 -0.023635 19.4156 0.270988 -0.208844 -0.0969198 -1.66317 -1.63236 1.56831 2.79989 -0.464332 -1.05534 -0.0924834 0.270868 -0.204605 0.07764 
14.3033 -7.77278 -6.69373 -6.719 -8.5646 6.86669 -2.06045 -5.10717 -7.30524 1.88112 12.9974 1.56643 19.4436 0.238501 -0.534032 0.158683 -0.819642 -0.820062 1.26787 1.36542 -0.108059 -0.665235 0.615745 -0.727631 -0.866999 -0.0231195 
14.4196 -8.62841 -6.31304 -7.41751 -8.48356 8.19636 -1.69361 -4.7059 -8.96838 3.54618 12.9119 -1.22452 19.3989 0.143114 -0.682846 0.0514069 0.106851 0.585515 1.02963 -0.446679 -0.4506 -0.0812325 1.42127 -0.478596 -1.22698 -0.0377947 
14.7989 -9.51146 -6.85301 -5.55661 -9.20923 10.3015 -4.35576 -5.67055 -8.2058 4.63408 12.5469 -3.16356 19.2509 -0.0647679 -0.622697 -0.100703 1.35535 1.13478 -0.0624938 -1.85136 -0.19021 0.803841 1.48301 -0.864544 -1.36493 -0.087528 
14.3806 -9.93669 -7.25446 -4.40107 -5.51971 8.63118 -5.78694 -7.71737 -6.04173 5.96038 12.9713 -3.79351 19.323 -0.343819 -0.295408 -0.00439544 2.1827 1.70379 -1.96138 -2.36614 0.571505 2.19098 0.677594 -1.83211 -1.08726 -0.113439 
13.999 -10.2321 -6.72654 -1.45049 -4.37265 6.33681 -9.27058 -4.55249 -4.74936 8.08905 8.64501 -3.9737 19.0439 -0.404685 -0.263247 0.641161 2.7628 1.25047 -3.35762 -2.27415 1.71452 2.83338 -0.919434 -2.87097 -0.299167 -0.138692 
13.1005 -9.74512 -6.39825 1.44292 -2.38292 0.371801 -11.0669 -2.40741 0.258288 5.20666 5.70228 -6.25576 18.9352 -0.511858 -0.0106906 1.60251 3.17266 -0.228564 -3.5446 -1.82884 2.30566 2.97629 -3.15458 -3.17956 0.872607 -0.164713 
13.4155 -10.9235 -4.07531 5.3354 -4.52528 -2.3569 -13.0865 0.247078 2.81112 0.413769 1.82659 -3.42827 18.7513 -0.713426 0.347868 3.00545 2.27514 -0.687259 -2.92422 -0.47697 0.865955 2.12195 -4.0461 -2.77811 2.13046 -0.164603 
12.113 -9.64446 -0.567513 8.0693 -6.58621 -4.74499 -13.0232 1.41114 5.05949 -5.97489 0.482728 0.296805 18.6457 -0.896173 0.643761 4.30698 0.809893 -1.09753 -1.44687 0.674952 -0.541047 0.223088 -2.88234 -2.28132 2.53524 -0.205658 
10.9256 -8.54311 5.38536 6.61201 -5.70729 -5.72588 -10.6773 -2.13199 3.45978 -6.5507 -2.63578 3.40232 18.3656 -1.16696 1.16142 4.22696 -0.509261 -1.34705 0.276995 1.45709 -1.5177 -0.818159 -1.23816 -1.5317 1.37593 -0.221279 
9.86456 -7.7165 10.4063 4.85408 -7.27957 -5.17807 -8.89678 -3.92311 1.04939 -5.7228 -3.47313 3.00513 18.0998 -1.22517 1.55387 3.56062 -1.54627 -0.569427 1.30067 1.3147 -1.3326 -1.76934 -0.182211 -1.00024 0.682374 -0.272755 
8.70494 -6.08036 11.5726 4.39671 -10.9139 -0.755385 -7.86427 -4.67428 0.72537 -5.90305 -3.85396 2.09719 17.9179 -1.19988 1.95515 2.3522 -1.67355 0.055766 1.9371 0.77439 -0.683588 -0.84823 -0.656322 -0.419982 0.472975 -0.273884 
7.0975 -3.10651 14.142 1.44559 -6.83005 -0.726872 -7.85619 -3.98071 -2.42001 -7.20977 -3.90937 4.36124 17.5058 -1.09613 2.34443 1.73824 -1.31235 0.896838 2.37184 0.510716 -1.0579 -0.352271 -0.956819 -0.394568 1.5023 -0.328457 
6.30972 -1.07235 15.2785 -0.0514762 -5.65322 1.73401 -7.32565 -5.52112 0.953333 -9.08882 -4.51757 5.08914 17.2931 -0.855636 3.05042 0.834803 -0.644472 1.59349 1.40099 0.9666 -0.548323 -0.698049 -0.468779 -0.115927 1.80638 -0.605902 
5.58153 1.50166 17.2446 0.516418 -5.42571 5.43644 -6.61251 -8.78918 -0.825943 -8.91401 -5.11417 9.02066 16.7699 -1.11533 2.6324 0.622228 0.184395 1.04454 0.116403 1.61632 0.710703 0.127798 -0.663272 -0.29648 0.948085 -0.545708 
5.18475 6.86765 14.1953 1.63894 -3.64858 3.16793 -3.65311 -5.01166 -3.56191 -7.39483 -3.83119 8.7994 15.2564 -1.00526 1.77268 0.425621 0.707652 0.561777 -1.18472 1.58776 2.17477 0.0764395 -0.934815 -0.798863 0.396336 -0.466863 
2.08336 6.08548 17.7947 1.52236 -2.60967 -0.861817 -1.61086 -0.681921 0.476606 -11.3731 -5.73496 7.24654 15.7956 -0.843429 0.863927 -0.887948 1.24196 1.24292 -1.61737 0.851739 1.37556 0.379567 -0.833449 -1.29956 -1.19071 -0.611965 
3.0325 5.49912 17.1315 2.98381 -4.25235 -1.04046 -1.88766 1.29911 0.684256 -12.5333 -8.20149 7.95788 15.4459 -0.60501 -0.18357 -0.798127 -0.10059 0.983381 0.590453 -0.575242 -0.317009 0.263467 -0.974576 -0.79191 -1.57592 -0.31222 
2.44051 6.50556 11.3367 6.05376 1.09077 -0.546219 -3.23654 -5.06678 -1.05119 -10.512 -9.4268 3.48785 13.6153 -0.745957 -0.702508 -2.24824 -0.521853 1.21778 1.163 -0.972518 -1.48684 -0.688725 0.622981 0.0944177 -1.84537 -0.471474 
1.98112 5.73976 13.4337 -1.12972 -0.581896 5.9624 -5.71648 -4.40428 -1.48067 -12.6983 -5.94482 2.79916 14.7855 -1.7377 -1.77211 -1.20092 -1.30112 1.6858 0.910532 -0.748709 -0.619251 -1.39982 0.891046 0.537687 -0.728168 0.0525777 
-1.12074 2.45262 8.40243 0.969857 1.644 1.45174 -4.55904 -5.26443 -1.88456 -8.17576 -6.3912 0.59903 13.7685 -1.4959 -1.77277 -1.05674 -1.06654 0.380325 0.43233 0.0855954 0.373844 -0.241168 0.418773 0.516328 0.160435 0.137039 
-3.87537 -1.33493 12.5941 -0.979848 3.90004 2.51323 -4.96996 -1.69833 -5.89814 -9.24623 -7.03085 5.76145 15.6322 -1.11139 -1.12968 -4.02719 0.15183 0.203007 -1.27934 3.64274 2.29488 0.111473 2.07496 0.140373 -1.2623 -0.559386 
-2.11073 1.17907 6.47282 0.646103 0.751421 3.34002 -3.18182 -4.55054 -0.0482946 -10.1442 -6.30215 2.80888 13.8771 -0.500639 -0.613149 -5.04397 -0.124745 -0.228457 -0.95312 4.64065 2.4991 1.16623 3.5632 0.646467 -2.25086 -0.778538 
-3.08084 0.728145 -5.73746 -0.208689 0.879426 -1.37846 11.8086 6.7132 -1.84144 -1.33926 -5.28749 -4.61729 11.9342 -0.0550359 -0.172452 -5.93552 -0.13822 -0.317514 -1.38623 3.45618 0.749109 1.29272 4.87966 1.14071 -2.51706 -0.995392 
-4.0212 -1.64466 -7.65161 -0.0394461 2.01202 -1.36802 10.255 3.02529 1.91826 5.68678 -4.03055 -5.46589 11.7248 -0.516859 -0.412213 -3.1406 -0.419309 0.802392 -0.464905 0.93489 -0.540444 0.145758 4.59401 0.846148 -0.256462 -0.44561 
-3.19532 -0.785326 -10.0213 -1.32817 1.68217 -2.0639 5.59255 -1.7407 -0.41782 7.23658 -2.46311 -2.68648 11.7314 -0.211613 -0.646935 -0.562695 -0.406245 0.593587 0.875074 -0.940274 -1.62598 1.01283 1.78119 0.0378115 1.37962 -0.0436642 
-4.63779 -0.125263 -7.0883 -0.890703 4.36201 1.35821 4.60066 -3.02582 -0.0313116 8.53797 -3.48359 0.56116 11.7504 -0.238196 -0.662217 -0.134218 -0.278066 0.793789 0.831398 1.11458 0.849058 1.1948 1.34552 1.04395 1.89064 0.005476 
-3.83061 -3.26623 -8.8326 -1.81429 2.67237 1.63379 9.93438 1.60887 4.19749 6.14111 -5.37191 -0.732707 11.7031 -0.307824 -0.653006 0.291705 0.212207 0.0718569 -0.13742 1.45305 1.40471 1.39394 0.373682 1.2095 0.527193 0.0243989 
-4.89453 -3.7153 -8.91704 -1.18672 5.48587 0.940125 13.6569 5.5958 5.58463 12.9621 2.64357 3.01042 11.7663 -0.0802295 -0.353186 -0.487228 0.175387 -0.253095 -0.579268 0.564712 -0.494046 0.219045 -0.683163 -0.145807 0.73303 0.0115549 
-4.60607 -2.25534 -7.64837 -0.119127 1.47953 -2.54196 8.32963 0.972072 3.74392 6.89291 0.520817 -1.27514 11.8455 0.0574703 0.698821 0.0627114 -0.0603921 -0.432344 -1.32102 -0.275602 0.186767 0.0566128 -0.482103 0.181884 0.845119 0.0283721 
-4.65121 -2.39664 -10.1166 -0.861347 3.69296 0.549746 8.22659 -5.17765 1.2907 4.74625 -7.15899 4.49753 11.737 0.180598 0.900777 0.234612 -0.614724 -0.830189 -0.684643 -0.235124 0.374315 0.487338 -1.18973 -0.425136 0.522671 0.0342196 
-3.66492 -0.431454 -7.91928 -2.27893 1.4071 -4.77611 11.2715 7.92942 6.62752 7.83853 0.43879 2.74934 11.8596 0.0136617 0.46235 -0.227925 -0.807065 0.0154989 0.362225 1.04263 1.45859 0.93502 -0.684058 0.484872 0.889923 0.0193836 
-4.46212 -0.123351 -7.60852 -3.18044 1.37114 -1.36601 11.0104 3.98869 6.57952 6.54069 0.558905 3.61154 11.9304 -0.18577 -0.0741442 -0.280671 -0.744236 0.093462 0.625461 -0.0469139 2.00803 0.153604 -0.0360554 1.02104 -0.942689 -0.0163695 
-4.63231 -1.08023 -10.042 -2.9949 2.71793 0.227045 12.1509 3.68187 5.77461 2.5754 -0.91377 3.61747 11.8457 -0.00208845 -0.66761 -0.592641 -0.131468 0.347669 0.816455 -1.32034 0.0586966 -1.42023 -0.316277 -1.20601 -0.991858 -0.0586422 
-5.09637 -2.44297 -10.4585 -4.22454 3.50485 1.17547 7.55233 6.98628 2.48517 7.19754 -1.37752 -0.649984 11.6621 0.0674445 -0.547782 -0.272128 0.762738 -0.709644 -0.794161 -1.44561 0.030518 -0.755637 0.516353 -0.342143 -0.596729 -0.0344124 
-3.35824 -2.6097 -9.45748 -2.41422 2.07859 -1.96458 6.39887 6.72411 1.57353 5.92873 -4.62304 -0.0791927 11.7005 -0.013888 -0.273321 -0.257524 0.0377452 -0.228298 -0.472699 -0.475603 -0.190461 0.738016 1.63846 1.28365 0.188571 0.036754 
-4.76193 -2.09753 -9.26143 0.342913 -1.85741 -4.24101 6.65832 2.62016 4.90188 7.44579 0.702824 2.47622 11.8309 0.18078 0.299599 -0.0220288 -0.222541 -0.382837 0.0440371 1.85939 -0.930091 0.444698 0.299984 1.59598 1.50848 0.0258763 
-4.86897 -2.61955 -11.9282 -5.0899 4.25758 0.571792 10.2199 4.91262 8.25634 10.6436 4.46433 2.99722 11.9451 -0.225944 0.244358 -0.125576 -0.569674 0.355046 0.433587 1.32431 -1.61378 -0.414872 1.47807 1.6931 0.118521 -0.00160017 
-3.4371 -0.940048 -9.33333 -3.99941 0.501174 0.127472 14.9388 3.24157 1.36726 6.34002 2.05868 5.35422 11.6692 -1.07148 0.561161 -0.675716 0.286499 0.282888 -0.347843 0.378134 -2.38301 -0.482673 -0.602227 -0.0831206 -1.75354 0.306277 
-5.15037 -1.96664 -10.0494 -3.09144 2.67453 -1.98088 8.88018 -1.65551 1.26648 13.8719 3.16456 -0.92559 11.7733 -1.85896 2.20358 -0.703025 2.38389 -1.39356 -1.75408 0.857239 -2.24202 1.31518 -1.54068 -0.884157 -2.54065 0.934336 
-9.9786 0.381822 -13.5794 0.776171 0.34855 -4.70388 9.21886 -6.01081 5.98344 2.82048 0.937109 -4.33008 13.4482 -2.06544 2.7059 -1.12448 2.44155 -1.15787 -1.56229 1.33405 -0.98415 3.35714 -1.24521 -0.546892 -2.43745 1.20701 
-10.893 7.73742 -13.3203 4.44175 -2.63393 -5.78293 17.3661 -1.67129 12.5241 4.69995 0.604329 -4.86388 15.7273 -1.23997 2.67637 -0.628262 1.87319 -1.35994 -0.868314 2.5119 0.430796 2.9056 -1.64645 -0.545323 -0.841037 1.01871 
