-7.83379 4.83351 -5.79812 1.00522 5.39731 -3.24976 7.28182 0.639606 4.73014 1.39186 0.368313 6.83072 11.8881 0.04638 -0.506242 0.100678 -0.0998108 -1.02853 -0.0858703 0.0500447 0.00213765 -0.545044 0.151649 -0.151682 -1.32924 -0.000370693 
-6.89056 4.02138 -4.13422 1.75286 1.56227 -3.69787 6.98875 4.81214 7.03641 3.95112 2.25295 2.57286 11.8393 0.129815 -0.315916 0.2234 -0.26917 -0.807714 -0.201338 1.38373 0.199586 -0.451732 1.07134 0.0155608 -1.36293 0.000669861 
-8.0735 2.70837 -6.12668 0.13235 2.17219 -3.45506 7.67858 -1.43597 0.851787 0.870473 -1.33241 2.31345 11.9107 0.0236825 -0.617837 -0.739206 -0.281106 0.226706 -0.354961 0.769565 -0.279094 0.260321 0.537953 -0.467036 -0.557018 -0.0195224 
-7.06486 4.3165 -4.51684 0.0958099 2.9713 -4.1538 14.0021 2.67532 4.41066 7.00924 1.29648 2.27473 11.8802 0.0741489 -0.271618 -0.78416 0.0392563 1.21218 -0.518492 -0.485504 -0.89331 -0.268472 0.912782 -0.0590564 0.458575 -0.0488083 
-7.62823 1.59676 -9.30284 0.428216 5.82633 -4.7966 7.62298 0.312542 7.34462 2.55256 -1.48863 4.1947 11.77 0.0431918 -0.138098 -0.329573 0.706927 0.280565 0.146667 -0.353687 0.746854 1.16587 1.12428 -0.359521 0.324997 -0.00331841 
-6.74245 3.21909 -6.46694 1.80121 5.79612 -5.61956 4.58903 -0.528669 2.44763 7.67399 2.03577 3.92511 11.6655 -0.0258389 -0.104262 -0.16386 -0.0270319 -0.879993 0.27615 -0.831107 0.539532 -0.174964 -0.563779 -0.474816 0.916843 0.0590853 
-8.01875 2.56659 -6.7995 2.81429 2.1626 -1.98885 10.6167 3.9003 7.66263 6.15949 -3.49967 3.11324 12.0014 0.437606 0.737979 0.658674 -0.0196583 -0.90787 0.711074 -0.290549 -0.560973 -0.529306 -0.196888 0.539277 -0.116703 0.125283 
-6.99879 3.31028 -6.58781 -1.23238 0.403197 -4.17693 8.34971 3.57911 3.37684 2.38688 -0.0720843 7.39967 12.0599 0.507943 0.684612 0.511872 0.85855 -0.212215 0.65593 0.106879 -0.300086 -0.330125 -1.67256 -0.925827 -0.719041 0.0488525 
-5.31203 5.24106 -5.94903 1.84672 3.98344 -1.96255 4.2899 -4.54621 4.23349 4.21168 2.26168 1.8739 12.1993 2.19764 2.15799 1.91386 2.13057 0.768834 -0.300688 -1.639 -2.65668 -2.90995 -2.22323 -0.613156 -1.43207 0.0307083 
-5.5561 5.30491 -4.33281 6.57774 3.82463 -2.35306 8.28682 2.19415 2.51158 0.285074 -5.47404 0.949573 11.8109 3.87766 2.57577 2.46146 1.19483 0.765616 0.408177 -3.97627 -3.68936 -2.22623 -2.19458 0.0815474 -0.938274 0.532476 
2.24812 12.3592 1.6423 9.56207 4.29605 -4.40422 2.45314 -8.69064 -6.4545 -3.90574 -3.86447 -0.822041 12.2795 4.34742 0.687749 2.09345 -0.161928 -0.118454 -0.163201 -3.87951 -2.56556 -2.35625 -1.81345 2.06401 0.563799 0.942834 
8.60942 12.63 1.9238 0.884068 4.07497 -0.915202 -10.6133 -12.7955 -2.41032 -4.52733 3.39873 4.05628 14.6822 4.00024 -1.36406 1.10672 -0.779134 -1.18443 0.745681 -4.25021 -2.31923 -1.1654 -0.670309 4.18033 0.827878 1.2188 
9.34233 5.01725 1.38992 3.88392 3.266 -3.49748 -5.65762 -9.8792 -5.0868 -2.44938 8.14535 3.13954 15.4778 2.10592 -3.40891 -0.155451 -0.0529364 -1.96397 1.15369 -2.34301 0.309328 0.93836 0.106476 2.80949 1.06896 1.04956 
10.898 2.15563 1.32699 5.52115 -1.58247 0.921975 -8.90885 -8.8077 -3.99928 -3.79465 9.4227 3.10817 16.3057 0.659962 -3.22818 0.122896 2.27281 -2.81123 0.61423 0.251699 -0.0364502 1.13571 0.91687 -0.711376 0.463265 0.622066 
11.6334 0.551909 1.16346 6.97885 -2.69505 0.445644 -10.1141 -9.1379 -0.968226 -3.7397 7.17099 4.99683 16.7155 0.2861 -2.23439 0.842289 2.21411 -3.46885 0.966452 -0.0254459 -1.42239 2.49683 0.745282 -2.59434 0.338651 0.561428 
10.7637 -1.27819 2.65152 10.7006 -7.00065 0.184385 -7.12653 -13.3484 1.20896 0.70218 0.329029 5.44395 17.1737 -0.0139609 -2.29491 1.54481 1.69842 -2.78164 -0.337058 1.12297 -1.61754 2.36087 1.11329 -2.62383 -0.304049 0.525808 
10.84 -4.43778 4.93911 12.3647 -11.3692 1.70357 -6.676 -14.7208 4.79322 -0.971385 -0.279517 3.66491 17.8509 0.129309 -2.48113 1.75742 0.684153 -2.74818 0.0516483 0.532629 -0.774337 1.32403 0.836662 -1.31585 -0.542191 0.538128 
11.2249 -6.82408 7.1632 11.3203 -11.1536 -1.39228 -5.01306 -14.1039 4.92436 0.387661 0.0287932 2.25389 18.367 0.317587 -2.07092 1.04821 -1.19121 -1.81048 0.509552 -1.1666 1.26143 0.0429034 0.268423 0.709786 -0.602058 0.49217 
12.0493 -9.0808 7.6947 10.0898 -14.3595 1.49222 -8.50773 -12.6318 3.79422 0.60087 0.741883 3.88091 18.8095 0.235975 -1.69307 0.215255 -3.06841 -0.838154 0.918667 -1.95094 1.81657 -0.344805 0.661973 1.77025 -0.37663 0.492601 
11.7469 -9.31127 6.51474 5.88207 -14.5579 2.83782 -12.0437 -8.08573 1.92297 1.25817 3.36726 2.32566 19.1553 0.0165812 -1.32282 -0.893983 -4.01138 -0.26953 1.65796 -2.21138 2.21751 0.0933333 0.938123 2.35188 -1.36335 0.452192 
11.7588 -11.6595 6.33961 -0.258189 -13.8578 4.18186 -12.9154 -8.64704 4.56988 1.90323 6.90248 1.74587 19.9198 -0.147654 -0.818374 -1.73721 -3.69891 1.18195 1.5605 -0.666114 2.22668 0.114441 1.2121 1.37777 -2.30306 0.296206 
11.4531 -12.1488 3.37083 -3.5626 -12.7521 5.55272 -13.8662 -5.00877 5.00319 4.4271 8.70789 -3.49533 20.0728 -0.113686 -0.464651 -2.09444 -2.54162 1.81214 1.51727 0.638289 1.85502 0.176783 1.29475 0.152852 -2.43412 0.151843 
11.458 -11.7539 0.580608 -3.68241 -9.35263 7.93727 -10.9271 -3.03687 2.82632 5.0769 4.96041 -4.72387 19.8317 -0.103614 0.023098 -2.11125 -1.3617 1.85117 1.11964 1.08862 2.26921 -0.532866 1.12178 -0.856684 -2.17915 0.0127516 
11.3289 -11.5874 -1.07794 -5.11394 -7.74975 8.54645 -9.84638 -1.61572 3.67867 6.14506 5.10255 -6.61004 19.9585 0.00122671 0.0202484 -1.34843 -0.561404 1.40918 0.690966 0.841648 2.42336 -0.819255 1.07497 -1.12632 -1.0624 0.0136755 
11.3028 -11.8248 -1.99226 -6.29102 -7.10311 8.28321 -9.48215 1.00248 2.56782 6.65313 4.42173 -7.59253 20.0407 -0.107328 0.0551662 -0.706878 -0.351363 0.739707 -0.222915 0.0647146 2.51555 -0.502176 0.769462 -0.65896 -0.536646 0.0216743 
11.5368 -12.0121 -2.08486 -5.06532 -6.83096 8.83459 -10.3804 5.08837 1.03617 9.01382 3.34562 -7.37303 20.0367 -0.0946089 0.00622635 -0.13946 -0.135083 0.740238 -1.26949 -0.010574 2.2103 -0.499424 0.202802 -0.909587 -0.181793 -0.0414494 
10.8174 -11.2657 -2.45032 -5.46354 -6.11349 6.67862 -10.3365 6.18884 1.63669 7.48983 2.54408 -7.02561 19.901 -0.269535 -0.0330318 0.457537 -0.154205 0.949404 -2.15437 0.204797 1.38345 -0.0813383 -0.103522 -1.17278 0.0669944 -0.0620888 
11.0986 -11.8358 -1.54621 -6.20309 -4.54337 3.0013 -9.47208 6.8426 1.64711 6.74072 1.49344 -7.80247 19.8211 -0.500329 0.0997589 0.67237 0.0357292 0.657547 -2.74928 0.763972 0.0562514 0.749934 -0.989076 -0.700901 -0.258447 -0.0556677 
10.1743 -12.0781 0.0261011 -6.49316 -3.49988 0.427996 -8.91231 7.04263 1.85565 7.27206 -0.516079 -7.04284 19.8381 -0.497245 -0.0143841 1.0847 0.549677 -0.0887898 -2.26317 0.732014 -0.261098 0.651895 -0.85641 -0.240878 -0.398446 -0.0410984 
9.35672 -11.1071 0.0387752 -4.37186 -4.85003 -1.7865 -7.2726 4.94273 4.67635 4.17732 1.3712 -8.65665 19.7898 -0.530547 0.131539 1.13896 0.950826 -0.614934 -1.76686 0.657162 -0.386071 0.635313 -1.12358 0.193135 -0.150185 -0.0455763 
9.20215 -11.7019 2.1807 -3.63077 -6.40411 -2.24333 -7.77617 5.83329 3.38154 4.48948 1.40082 -8.59074 19.7112 -0.296393 0.264163 1.026 1.04976 -0.75058 -1.04748 0.296 0.156213 0.262145 -0.887562 0.0102275 0.389879 -0.055768 
8.93191 -11.3662 3.07129 -2.88016 -6.16593 -4.49732 -6.75434 5.51692 4.06073 2.51412 1.50067 -7.77944 19.6567 -0.188398 0.328403 0.672407 0.744108 -0.358486 -0.815849 0.144663 0.379236 0.0142876 -0.41829 -0.678813 0.79761 -0.0511484 
8.90471 -10.6278 3.63983 -1.99022 -6.59484 -3.45397 -7.69144 7.5366 3.47419 3.66586 -0.529679 -5.53205 19.6258 -0.294864 0.439041 0.0549168 0.497526 -0.0146188 -0.287374 0.140076 0.614616 -0.00539629 -0.161051 -0.993613 0.550224 -0.00578365 
8.56345 -10.0022 2.67124 -1.4716 -6.5471 -5.26042 -6.59165 5.98725 4.70147 2.49769 -1.05762 -6.19795 19.5768 -0.402695 0.242105 -0.310748 0.141941 0.185453 0.325395 0.157911 0.863944 -0.146575 0.269394 -1.01918 0.126304 0.0538155 
7.91206 -10.1887 2.65531 -1.84742 -6.28662 -3.29865 -7.15713 8.6712 3.03419 3.69244 -2.2881 -6.63037 19.7222 -0.265103 -0.259477 -0.413245 -0.601957 0.854376 0.396611 0.743516 0.643884 -0.271954 0.104252 -0.919819 -0.523311 0.0752794 
7.41476 -10.3752 2.00981 -2.24186 -5.39277 -2.94801 -6.23194 9.26934 3.54786 3.8478 -2.71603 -6.59876 19.8776 -0.0572725 -0.471997 -0.551601 -0.941938 1.25487 1.06138 1.15536 0.59809 -0.54433 -0.18005 -0.94325 -0.863954 0.0409391 
8.15354 -11.7386 1.90432 -4.61488 -2.90012 -2.62712 -4.15371 9.11497 2.69122 3.51206 -4.29957 -7.9482 19.8518 0.217737 -0.443283 -0.703055 -1.02085 1.56483 1.36452 1.26298 0.00783105 -1.2396 -0.174541 -1.19232 -0.722535 -0.0512089 
8.15634 -11.5872 0.28873 -4.79756 -1.96601 -0.289297 -2.31657 8.75581 2.1513 1.68762 -4.76814 -9.8588 19.7167 0.257902 -0.169613 -0.809524 -0.655659 1.55007 2.05424 0.750314 -0.573726 -1.90248 0.0109032 -0.73442 -0.524745 -0.110227 
8.62995 -11.7991 0.000571251 -5.67381 -0.175832 2.19461 -2.79991 8.96712 -2.46555 3.89982 -7.22365 -8.61302 19.5466 0.0802484 0.261419 -1.00341 -0.112895 1.26839 2.3812 -0.0190794 -1.31507 -1.9971 0.0601432 0.457642 -0.476923 -0.102819 
8.46606 -11.193 -1.08593 -4.99069 0.995456 4.91233 -3.15727 6.47463 -3.38614 3.70843 -4.92609 -8.89007 19.479 0.229288 0.588992 -1.07677 0.169821 1.09494 2.39478 -0.395508 -1.85434 -1.67955 0.187871 1.69566 -0.266977 -0.0864557 
8.39992 -10.6286 -2.4254 -5.08279 1.9611 6.67809 -3.82876 3.68019 -4.52557 2.80237 -1.93239 -10.8172 19.4565 0.407913 0.947996 -1.29109 0.235427 0.822403 2.19598 -0.67468 -2.09929 -0.85517 -0.638675 2.88529 -0.27284 -0.108802 
9.4178 -9.22748 -3.88214 -4.24397 2.44025 9.44286 -3.77969 2.12759 -5.21644 3.1757 1.06452 -10.0916 19.3295 0.749511 1.27604 -1.08924 0.147787 0.384846 1.72897 -0.404595 -1.84435 -0.819086 -1.52281 3.46975 0.24618 -0.225454 
10.1936 -8.04192 -5.05678 -4.87003 3.21378 10.9092 -5.8621 0.64421 -5.82624 0.972812 4.20749 -9.37645 19.0774 0.53535 1.8622 -0.69289 0.526889 0.285374 0.369664 1.01172 -1.63006 -1.20558 -1.9025 3.38722 1.2997 -0.423934 
11.3168 -6.10616 -5.21647 -4.35813 2.29334 11.4416 -4.16357 -1.22914 -6.83123 -2.99083 9.35274 -8.37954 18.5413 -0.175367 2.24139 -0.172825 1.22499 0.134397 -1.16697 2.33364 -1.22039 -1.4213 -1.79116 2.6445 0.968735 -0.606459 
10.1272 -2.87828 -5.22268 -2.39127 3.46142 7.52703 1.4218 -2.79172 -9.74607 -3.62688 10.8596 -5.17472 17.7309 -0.627337 2.09438 0.398769 1.72711 0.0540762 -1.84447 2.91213 -0.327788 -1.52069 -0.723979 1.24051 0.66209 -0.629156 
8.57419 -0.602364 -4.66331 0.641618 2.98842 5.29912 4.24658 -2.2564 -10.363 -3.48026 10.961 -7.34879 16.9704 -0.914636 1.74215 0.136512 1.36239 -0.0906313 -1.55525 2.15537 0.00784369 -0.759652 -0.332047 0.320774 0.0764078 -0.427272 
8.42825 -0.321908 -3.33951 1.26564 3.13663 4.75814 4.49345 -0.4811 -11.6638 -2.40237 9.60594 -6.58138 16.7171 -0.823732 1.42091 -0.915441 0.568077 -0.573288 -0.0414555 0.726956 -0.293091 0.638907 -1.12243 0.937654 -0.776675 -0.063072 
7.59305 1.32642 -5.47549 0.625385 2.00258 5.04982 5.07744 -2.34523 -9.67064 -5.26332 11.5834 -7.29417 16.9119 0.215911 0.0249676 -0.806259 -1.16883 -0.43199 1.51145 -0.82239 -0.371558 0.662379 -0.938748 0.725978 -0.061629 0.27579 
6.49911 3.26189 -9.3938 0.457234 1.0879 7.44441 4.64115 -4.21276 -6.89774 -8.34749 15.2366 -9.08541 17.4448 0.935197 -1.15055 -0.443637 -2.41416 -0.208737 2.3355 -1.78255 -0.499936 0.825591 -0.720066 0.230878 0.241494 0.486149 
10.6183 -2.26942 -5.66746 -4.79832 1.85283 11.5133 0.0607805 -2.24836 -9.43416 -5.20143 11.7755 -6.40492 17.9855 1.07864 -1.96384 0.268402 -2.91006 0.476336 2.30257 -2.22331 0.0301305 0.137987 0.803874 -1.2519 0.781015 0.553403 
11.5916 -4.27675 -5.46171 -8.09328 2.16782 13.2039 -1.91095 -3.02922 -7.65405 -6.03364 10.6643 -5.81853 18.611 0.785684 -2.23196 0.805209 -2.61539 0.88403 1.46277 -1.76324 0.274451 -0.286658 1.79292 -2.35342 1.02969 0.493124 
10.44 -4.72345 -6.09952 -9.64964 3.8443 13.6829 -2.76305 -2.78635 -8.60255 -2.40088 7.61011 -5.02254 19.0958 -0.084002 -1.48909 0.423937 -1.56886 1.11713 0.263561 -0.493733 -0.189797 0.42186 1.41656 -1.78938 0.100473 0.377864 
10.5167 -6.67088 -5.15172 -10.194 4.51231 13.6734 -2.76316 -2.5715 -8.74683 -0.783144 5.55221 -4.62814 19.3553 -0.30845 -1.28911 0.58501 -0.842608 1.24538 -0.694784 0.00385809 0.0650888 0.452868 1.60833 -2.16282 -0.398241 0.200229 
10.7358 -8.51783 -3.70277 -11.5923 6.26625 12.5963 -1.98178 -3.4262 -6.77847 -0.743887 5.38463 -6.49776 19.5027 -0.509399 -0.790884 0.688872 -0.264196 1.05289 -1.33529 -0.0440289 0.762398 0.417859 1.68854 -2.75822 -0.555259 0.0458122 
9.90146 -8.82511 -3.73504 -11.335 7.18376 10.2733 -2.2823 -2.38385 -6.30175 1.17954 0.96292 -7.07213 19.4087 -0.925532 0.301143 0.265372 0.931816 0.499928 -1.82053 0.071981 1.48461 0.648739 1.70713 -3.1443 -0.366012 -0.113047 
8.20061 -7.60076 -3.36351 -10.4001 7.77301 8.70652 -3.22363 0.931809 -7.7358 5.06047 -3.88634 -6.57684 19.2981 -1.22246 1.67098 -0.310698 2.44005 -0.751523 -1.59955 0.149165 2.15597 0.789747 1.87948 -3.58375 0.699308 -0.298932 
7.15661 -5.6237 -3.99449 -6.13103 6.25858 6.51569 -1.78233 2.67256 -5.02448 4.85032 -5.5338 -6.41866 18.8923 -0.900646 2.83166 -0.430692 3.36701 -1.32886 -1.62104 0.694111 2.26707 1.47013 1.31255 -3.46012 1.29504 -0.529753 
5.99591 -1.76364 -5.12653 -1.99402 2.97122 6.47737 -1.48594 4.82543 -3.46837 6.81814 -9.28577 -3.32795 18.2662 -0.880481 4.10231 -0.260706 3.36332 -0.292927 -2.11626 1.81873 0.41818 2.44072 -0.092983 -2.9525 1.54144 -0.79777 
6.50058 2.41464 -5.00698 1.29699 2.94033 3.28268 0.319413 7.00467 -1.08481 6.86347 -13.638 -2.22135 17.2759 -2.55662 4.77885 1.01261 2.93366 0.64342 -2.49482 1.55067 -0.382394 2.52391 -1.5552 -1.14991 1.10985 -0.598142 
4.12622 8.89163 -4.16079 2.70248 7.9675 -0.25829 4.81915 0.856653 2.49796 3.58898 -14.5968 -0.968312 16.1175 -5.13513 3.04671 0.508731 1.1642 0.636638 -2.47742 2.65777 -1.04309 1.09847 -1.42483 2.42854 0.975166 0.05963 
-4.69165 12.9429 0.585706 6.18903 6.97754 -2.59057 2.81849 2.74498 4.61189 -1.31108 -8.62787 -2.04921 16.976 -6.37977 1.72995 0.574976 -0.416872 0.0999668 -0.754104 1.81765 -2.07806 0.207984 -0.277688 3.26331 1.8849 0.722197 
-14.0836 8.20578 -5.37922 1.38094 4.1358 -2.9731 10.5534 1.73981 -0.824374 3.78127 0.351883 1.46181 18.7143 -5.95064 -0.0941102 -0.401725 -1.58112 -0.104511 0.829139 0.716379 -0.633303 0.42846 2.15502 3.48266 2.38936 1.03856 
-16.2933 11.4073 -1.52289 -0.126602 5.35601 0.86957 6.54052 -3.82719 1.61628 5.37888 -4.79576 5.98809 19.5885 -3.82041 -0.719408 -0.946315 -2.40763 -0.163498 0.877262 0.281671 -0.0888962 0.12369 1.55419 1.18078 2.3984 0.770882 
-19.8261 9.18889 -5.11512 -2.0453 8.25571 2.15733 6.54003 0.976221 6.13807 11.0191 0.900496 6.95986 20.004 -1.85323 0.217537 -0.0433149 -1.98983 -0.439194 -0.193716 -1.02353 2.17125 0.83273 0.51 -0.720998 0.356435 0.400972 
-20.9225 8.85433 -4.27792 -4.13602 4.1001 -0.769483 6.23353 2.68229 1.74912 2.84096 -2.99827 7.19375 20.1855 -1.25272 -0.391913 0.276989 -1.25 -0.399894 -1.60167 0.274687 2.30251 -0.316908 0.0271871 0.630601 -2.05407 0.164086 
-21.0352 10.5699 -4.21828 -6.56351 2.56779 -3.12216 5.58923 9.3413 3.27285 7.60023 -4.15185 2.64115 20.4207 -0.946618 -0.583235 0.75172 -0.211226 -0.312732 -0.663341 0.519597 0.972099 -0.792382 -0.509462 -0.902255 -2.54386 0.0836603 
-21.9524 8.7572 -0.586361 -4.11748 6.2005 -4.49903 8.38935 3.50282 1.46435 7.22426 0.883418 -2.12293 20.2006 -0.751828 -0.516659 0.797315 0.296665 0.730778 0.741883 0.104487 -0.0672091 -0.167304 -0.541936 -0.825812 -1.19941 0.0595793 
-24.0443 6.32128 -3.20229 -3.1107 5.64185 0.705398 8.0601 5.42645 2.31854 6.28016 -5.55162 -1.10112 20.4148 -0.171949 -0.671494 0.83801 -0.150196 0.374225 1.25269 -0.252813 -1.95067 -0.419061 -2.13139 -0.0800528 0.589595 -0.019109 
-23.1771 8.39537 -0.799341 -4.3791 6.21695 1.02616 5.52053 4.30367 1.38976 0.791317 -6.42744 3.06786 20.4864 -0.114647 -0.709257 0.576989 -0.174269 -0.193408 1.58915 0.117571 -1.42679 0.592934 -2.07433 -0.886723 1.22627 -0.0416801 
-21.2826 7.39339 0.0782568 -7.18368 4.43069 0.378707 5.75958 -0.81248 1.21484 0.159746 -0.896687 2.99374 20.1822 0.431348 -0.464105 1.05497 0.58031 -0.912832 1.40429 0.255806 -2.80391 0.62696 -0.622368 -0.640449 0.264146 -0.170655 
-23.9064 4.67487 0.658307 -2.95234 5.83904 3.61009 10.1275 -0.511664 4.98087 -0.0871685 -5.87767 1.961 20.1084 1.585 0.835677 2.32701 1.79546 -1.3699 0.00954341 -0.457381 -3.4464 -0.684342 0.89337 -1.83378 -0.495908 -0.264809 
-21.5228 5.86101 1.34373 -0.922528 1.26665 6.4349 7.03566 -6.18543 3.65778 3.60756 -9.02876 0.773039 19.7505 3.51191 1.67557 2.3649 2.24179 -0.691655 -2.22352 -2.45111 -0.648724 -2.20458 -0.439083 -1.14852 0.476174 -0.448975 
-15.132 13.3399 10.203 1.46762 0.949496 -1.95422 2.59558 -10.2419 -3.25343 3.53426 -11.5303 1.69866 19.3782 4.97519 1.28931 2.44986 1.62605 -1.45472 -3.69311 -3.58837 0.53464 -2.65321 -1.9563 0.774356 1.07972 -0.561416 
-8.1103 11.4387 7.13042 1.81528 3.41719 -7.95674 -2.73003 0.809006 -5.69092 -3.84638 -3.81296 5.50577 18.3025 4.48871 -0.252225 1.81056 1.27207 -1.07181 -3.71394 -2.14122 1.53029 -0.930644 -2.95414 1.16089 1.13833 -0.492431 
-5.73677 8.33259 10.0143 3.80901 -2.50982 -7.65962 -2.93155 -1.33568 -3.61081 -6.14169 -4.61379 4.99323 18.0254 3.01298 -2.1104 0.358924 0.673926 -1.2709 -1.21984 -0.810785 1.75999 0.97101 -2.40262 -0.0665384 0.638604 -0.351542 
-3.77686 7.10356 10.4909 4.26714 -2.36276 -9.2821 -0.906874 -2.9871 -0.816743 -6.32515 -6.68258 4.8174 17.9647 1.95645 -2.21587 1.21421 0.0306387 -1.25473 0.816351 -0.0513396 0.0942066 2.12147 -1.84338 -1.06429 -0.735185 -0.0839361 
-2.23376 4.9555 10.3173 3.61132 -2.51503 -7.39072 -2.36992 0.456116 -0.835464 -7.23944 -10.4282 5.23587 17.7894 1.60594 -2.12997 0.98163 -0.251498 -0.102265 1.81607 -0.497523 0.78089 1.30115 -1.8781 -0.207838 -0.685452 0.0139507 
-0.0795612 2.04788 13.0499 2.06732 -2.85385 -4.00944 -3.26754 0.38414 3.52876 -12.5144 -6.22722 1.70853 18.0008 1.40968 -2.19368 1.46981 -0.357564 -0.0170962 2.30135 -1.23136 0.827764 0.19265 -1.3878 1.0223 -0.690983 0.0555578 
0.444283 0.210593 13.6429 3.65143 -2.7756 -1.21561 -4.23883 0.883148 0.722174 -12.4375 -5.88066 3.12041 18.0771 1.09177 -1.58015 1.33316 0.220239 -0.222923 2.01316 -1.46207 0.234501 -0.397692 -0.75978 1.9176 -0.886286 0.0423288 
1.93254 -1.49239 16.1772 2.45927 -2.31795 -0.862928 -6.12921 0.938202 -0.632313 -10.6651 -3.84486 2.42022 18.0987 0.751431 -0.724103 0.749325 0.324092 -0.260463 1.22953 -1.45078 0.20839 -1.06311 0.206914 1.42422 -0.188355 -0.048538 
2.21905 -1.1751 15.4195 4.51654 -3.89759 1.10182 -8.24943 1.35159 -0.743386 -11.963 -2.03134 0.448594 17.9521 0.265501 0.222443 0.451818 0.149886 -0.206166 0.0475003 -1.02108 -0.0689753 -0.686453 0.257977 1.91314 -0.574297 -0.105217 
2.79021 -0.879784 15.9082 3.25522 -3.59517 0.979498 -8.51616 1.19187 -1.05401 -11.7171 -1.03076 2.10266 17.8206 0.04714 0.515356 -0.0999229 0.356185 -0.295873 -0.538081 -0.198243 -0.393214 -0.379662 -0.0230299 1.24212 -0.0714674 -0.144406 
1.34295 1.01651 16.0365 4.00288 -3.16782 -1.89932 -8.15075 0.411437 -2.49924 -10.6217 2.27801 0.407701 17.69 -0.0947104 0.517244 0.0766592 -0.112281 0.290217 -1.22371 -0.223457 -0.377881 -0.115535 0.229521 0.40737 0.750339 -0.141152 
2.60628 -0.0114107 15.3691 4.49702 -4.1622 -2.05276 -7.16977 -0.557792 -1.6527 -11.4509 0.211088 2.08333 17.5076 -0.030338 0.617887 -0.0121952 -0.172621 0.5494 -1.23294 -0.4586 0.0287517 -0.302648 -0.467832 0.0192994 0.776444 -0.215698 
1.83746 0.976934 16.0724 3.33423 -2.16299 -3.50061 -10.0399 0.337018 -1.02172 -10.9485 -0.615419 4.20995 17.4028 0.100229 0.887896 0.67048 -0.574055 0.0920378 -0.377183 0.12901 0.0618405 -0.780975 -0.955873 -0.902425 1.21007 -0.309533 
2.39127 2.22944 15.8293 2.72644 -1.35059 -4.38457 -9.86458 1.37284 -3.30601 -13.8929 0.512448 4.08375 16.8857 -0.32432 1.60597 0.579255 -0.633695 0.050699 -0.241703 0.81434 0.163709 -1.73645 0.176067 -0.790705 0.661053 -0.386048 
1.9516 4.33556 19.1588 2.0179 -4.11344 -2.61933 -6.1583 -0.244676 -5.57746 -14.1801 -2.38479 5.45785 16.4533 -0.272403 1.96915 -0.514877 -0.404774 -0.131643 -0.150178 1.54573 -0.995297 -1.23742 0.56348 -1.31454 0.170365 -0.58439 
0.927611 6.33914 16.7222 1.98671 -2.93348 -3.70191 -5.03888 0.551599 -8.05707 -8.95481 -2.85775 4.76464 16.0521 0.103642 1.83254 -1.65312 0.603398 0.321551 -1.01047 1.39304 -0.986054 -0.474089 1.04378 -1.21568 0.214548 -0.706261 
1.20727 8.76785 13.0516 1.68023 -2.02976 -4.59282 -4.7241 -4.22885 -4.83328 -10.6001 -5.503 4.72134 14.8977 -0.388368 1.24297 -2.56074 1.19793 0.8745 -1.90828 0.747656 -0.952994 0.231474 0.741263 0.279415 0.0352503 -0.830936 
3.28165 9.17601 10.6173 5.91227 -0.784673 -8.45019 -3.61647 -1.56535 -6.04855 -10.464 -4.00683 5.52475 14.1323 -0.288383 1.00155 -2.51683 1.23215 0.548 -0.999973 0.752435 -0.494241 0.81584 0.610205 -0.329863 -0.551989 -0.727938 
-1.16725 9.13199 9.40753 6.04476 -0.815341 -9.78657 -3.13122 -3.95117 -5.42435 -9.71916 -0.413174 5.25405 13.2586 -0.577421 0.272258 -1.66243 0.99195 0.591922 -1.05155 0.683457 0.356603 -0.252139 1.52395 0.238689 -0.0058422 -0.503705 
0.67296 11.1648 5.96008 5.9652 -0.800686 -6.1049 -2.07314 -2.05844 -3.68233 -6.34425 -7.05198 1.73833 13.232 -1.81656 -0.89216 -3.54015 -1.34073 -0.0315722 0.501013 2.73464 0.28563 0.949983 2.36423 -0.555417 -0.717024 -0.521961 
-0.375491 9.13474 7.06803 6.61351 0.937862 -11.0232 -2.07848 -2.19928 -7.27708 -5.04022 -2.78698 6.58533 12.8293 -1.86963 -1.73258 -4.44677 -1.98378 0.767297 1.20559 2.86374 0.610654 2.44631 2.85877 0.412158 0.0383438 -0.456248 
-6.19704 4.71384 -5.91375 -1.07578 -1.81914 -5.32681 9.53033 -1.01314 -0.372265 -0.982259 -5.59701 1.27399 11.7371 -2.1635 -1.92674 -4.05242 -2.21715 0.495278 0.797763 2.64626 -0.757452 2.80033 2.05952 1.29713 0.104628 -0.376523 
-7.08043 3.69456 -6.8894 -0.353641 3.53037 -4.14769 5.38575 -1.42055 5.15215 1.89372 0.920137 5.67795 11.7248 -1.61378 -1.78753 -3.32513 -1.82586 -0.385151 0.77464 2.41447 0.990732 2.58519 1.40801 0.817071 0.300472 -0.179068 
-6.79209 4.25122 -7.3233 -1.63697 0.37945 -5.55385 7.42604 -6.23507 4.10469 0.486403 -2.41989 2.71517 11.9016 -0.376749 -0.917054 -0.757182 0.0873816 0.681347 0.61354 0.740646 0.885936 -0.0588695 0.453212 0.86004 0.937868 0.0706467 
-8.14688 0.428383 -8.85283 -2.23521 -2.08719 -7.0365 11.046 5.36534 3.41041 1.26551 -0.290184 7.3671 11.8517 -0.0325612 -0.502545 -0.564612 0.531978 0.0909024 0.769367 0.560723 1.20369 -0.201591 -0.0111578 -0.325857 0.014006 0.0542287 
-7.54755 1.76165 -8.71795 0.301915 4.39638 -0.814708 10.4034 0.0235913 0.204256 1.5979 -0.691655 5.11875 12.0269 -0.0943295 0.0973496 0.713594 1.4663 0.953725 1.47147 -0.318693 0.792836 0.489558 0.476545 0.874049 -0.0921795 -0.0119295 
-6.8655 2.42662 -9.01514 1.33681 1.97642 -2.67043 6.70068 1.46854 6.09441 1.28218 -1.57327 4.54619 11.9333 0.160499 0.153054 0.639375 0.479896 1.08294 1.63837 -0.0135881 -0.660087 0.08965 0.911028 0.873343 -1.64707 -0.0268314 
-7.90443 3.73885 -3.67417 3.90854 3.11628 -0.379528 8.00525 -0.322494 5.21048 2.86079 2.59189 3.66473 11.8012 -0.289064 0.00404043 1.25131 0.224774 0.295819 0.379828 0.0938073 0.367225 0.165969 0.712688 0.164332 -0.532922 -0.0238979 
-7.16595 0.205054 -8.17784 -1.63905 3.96755 0.937745 12.1772 2.23795 1.35555 5.18921 2.43475 -0.141228 11.8304 -0.0666115 -0.109524 -0.173305 -0.132201 -0.397182 -0.496884 0.458973 -0.319341 -0.23413 1.55113 0.825652 0.762854 0.00421858 
-8.84265 2.89264 -2.88003 2.91371 4.8799 -0.719656 8.13422 1.47501 3.40353 3.20783 -1.87401 4.79784 11.9589 0.0585958 0.0101164 -0.614995 0.314652 -0.689874 -1.73691 0.551443 0.953344 0.0786603 0.391041 -0.344468 0.3406 0.0475054 
-6.72945 2.3021 -10.2787 1.17322 -0.891308 -4.98479 8.93106 -1.02691 5.82723 8.8643 4.78794 7.7939 11.8755 -0.225171 0.391935 0.442219 1.54952 0.00598719 -1.03099 0.670702 1.11194 0.817314 -0.698943 -0.247118 0.0909429 0.0261525 
-7.8297 2.74091 -5.6987 4.07567 2.09633 -6.1028 12.3855 6.07666 3.36794 2.97845 -0.307039 1.40016 12.0161 0.123332 -0.225016 0.301551 0.623077 -0.193869 -0.42576 -0.0860914 0.586649 -0.0949687 -1.41891 0.11599 -0.491409 0.0104518 
-8.79828 2.2406 -4.55741 5.52757 5.38927 -1.52562 13.405 5.49681 5.45992 1.80918 0.415677 2.01233 11.9325 0.0522182 -0.239144 0.633239 0.0135037 0.486476 0.15878 -1.36491 -0.0728308 -0.8391 -1.58413 -0.149745 -0.139794 0.0057169 
-7.19158 1.79831 -4.23294 3.85192 0.77027 -4.57804 5.46677 1.1464 3.11234 -0.359164 0.892074 5.23158 11.9826 0.263176 -0.405441 -0.542251 -0.76514 -0.217358 0.698146 -0.992777 -1.20399 -0.500535 -0.711296 0.439862 1.17556 -0.035478 
-6.78742 1.57768 -7.84542 1.35261 2.2041 -4.95326 5.56589 1.07406 1.75953 2.61248 3.43966 5.17922 11.9209 -0.097876 -0.265078 -0.507371 -0.157135 -0.0877618 0.40126 -0.495115 -0.720564 -0.817525 0.0734659 1.34478 1.58354 -0.0283566 
-7.51925 1.04516 -6.76596 2.33745 2.60213 -0.898249 11.3412 2.26807 2.71546 -0.979681 0.38028 5.69452 11.8446 -0.399014 0.0961294 -0.973005 -0.328888 0.0278344 0.160356 1.03076 0.217455 -1.03224 0.509708 0.414395 0.439063 -0.0334706 
-9.12382 1.29178 -5.82776 5.49913 4.03453 -1.35921 7.99224 1.33315 1.57074 2.48677 7.39549 9.69854 11.8598 -0.197559 0.677854 -0.240846 -0.503239 -0.125384 -0.0338084 0.73745 0.254243 0.865471 1.00434 -0.859024 -0.717119 -0.000217152 
-8.01844 2.42191 -10.1068 0.134216 -0.00577402 -5.57329 9.40741 2.10413 -1.95447 2.25223 0.986134 5.16723 11.8458 0.20679 0.792607 -0.0865781 -0.930553 -0.10925 -1.05228 -1.15336 -0.406948 0.643677 0.257271 -1.09114 -0.437472 0.0073678 
-7.52561 4.27858 -7.37923 -0.0619678 2.88114 -2.78479 10.22 2.42725 8.42185 6.01822 -1.15839 1.85726 11.9191 -0.321016 0.870225 -1.15398 -0.512788 -1.03271 -0.761391 -0.307708 -0.942614 1.9079 -1.52517 0.583245 -0.574885 0.386498 
-7.2844 3.5148 -6.42311 0.465234 2.63258 -5.44687 4.46052 -0.313714 2.50829 -1.45905 -0.798467 7.42779 11.8517 -0.972527 0.6167 -1.27257 0.810258 -1.02142 -0.175678 -0.225344 -1.31485 2.21236 -2.03731 3.27982 0.488977 0.57571 
-11.0959 5.09647 -13.4395 2.76968 -2.4482 -5.22938 8.92714 -2.171 8.87884 -3.28346 11.204 5.69383 13.7893 -1.09521 0.321745 -1.91369 0.796775 -1.57395 -0.46717 0.188081 -1.10538 0.728454 -2.04278 3.67273 0.593918 0.567791 
