-0.521547 -1.20381 -5.28936 3.46903 6.17632 -4.5129 -1.63842 1.77597 12.091 1.46861 -0.782577 4.51822 11.9968 -0.28257 -0.544544 -0.30539 -0.529278 -1.96508 -0.368377 2.63451 1.42772 -0.100214 0.492617 -0.804731 0.15113 -0.0997442 
-1.60485 -2.51364 -4.86312 3.89637 -3.33533 -9.18795 7.99989 11.4273 11.9116 2.98642 -3.30034 5.78084 11.6888 -0.661175 -0.722531 -0.538396 -0.637094 -1.36265 0.268755 2.59427 0.177336 -0.61249 0.675302 -0.201901 -0.535786 -0.0831071 
-1.39275 -3.27161 -7.02944 0.608973 1.10676 -4.01727 6.71496 4.08891 11.6796 3.17278 -3.54735 4.64256 11.6521 -0.73588 -0.756464 -0.785887 -1.13927 -0.733485 1.33736 1.95866 0.0376317 -0.0925296 -0.224657 0.411874 -0.0398492 -0.0616062 
-3.39182 -3.78256 -7.11131 1.71359 1.89784 -3.41694 7.15626 1.50619 9.23424 3.99303 -0.409696 1.77712 11.7536 -0.390767 -0.585054 -1.08027 -0.467227 1.40834 1.92814 -0.603464 -1.0218 0.174837 -0.558571 0.568076 -0.144388 -0.0204082 
-3.30746 -4.35166 -8.0947 -1.13593 -0.107693 -0.711606 8.5767 6.92471 12.967 -0.157982 -0.16853 6.32083 11.6564 -0.217007 -0.0409074 -0.741457 0.553634 1.39645 0.723792 -0.808642 0.374678 -0.332681 -0.643137 0.213707 -0.0438663 -0.0399938 
-2.60132 -4.89889 -9.73186 2.43269 4.31358 -1.20008 4.0517 4.90046 12.1421 1.85895 -2.14937 4.21976 11.5846 -0.00976067 0.388968 -0.720885 0.307302 1.58893 0.802543 -0.938248 0.544491 -0.36188 -0.132151 -0.917967 -0.686081 -0.0308153 
-2.87303 -2.91799 -9.42644 3.01759 6.88113 -1.50674 4.22403 4.26516 8.5623 1.02414 -1.60898 3.20191 11.5366 -0.172983 0.319039 -0.740212 0.622599 1.7161 0.284508 -0.463884 -0.585863 -0.0988133 1.59749 -1.60781 -1.05937 -0.0082696 
-3.65784 -2.55456 -10.0499 1.17334 6.34808 0.993338 4.64136 5.55842 9.62721 2.74121 -4.2793 -0.0938244 11.6594 -0.0530138 0.506228 0.131181 0.0559393 1.19941 0.959045 1.36545 -0.237207 0.598854 0.787901 -1.77007 -0.507713 -0.0149286 
-3.64412 -3.92863 -11.6368 2.60674 7.45556 -0.385774 5.96245 3.66642 13.7304 7.38834 -7.14262 3.18079 11.5776 1.2493 1.83096 4.63386 0.542524 -0.239482 1.10469 -1.55296 -1.00778 -1.27567 -2.2763 -0.29378 -0.601983 0.39723 
-2.48085 -1.86242 -7.97079 2.91781 10.0234 3.03467 10.0097 4.0138 12.5523 2.61636 -8.23293 1.69176 11.4895 1.98879 2.40157 8.87411 -0.150432 -2.20135 0.794505 -4.40019 -0.960507 -4.70334 -4.14376 2.30586 -1.25242 1.19547 
2.78497 5.89075 12.7033 4.85798 3.84605 2.99606 -6.22495 -0.0014144 0.721399 -10.2949 -1.10107 -0.700796 13.6077 1.9458 2.3819 9.69928 -1.11629 -3.56746 0.798463 -6.2335 -0.11239 -6.67425 -3.84824 3.41088 -2.45434 1.65598 
3.07155 4.54362 22.1506 -0.704436 -2.85392 3.27495 -11.2659 2.5898 -7.38499 -9.13594 4.22924 -4.41514 16.6217 1.07046 1.36585 6.71264 -1.25862 -4.22361 1.1788 -5.58449 0.227931 -5.69173 -1.28072 3.26651 -2.52707 1.61655 
3.30866 4.77783 21.7989 -1.1636 -3.94308 3.4864 -14.5672 3.81647 -9.67221 -5.97671 3.68072 -6.03745 17.2914 -0.621035 0.665287 1.09152 -0.91375 -1.60161 0.123701 0.0285244 -0.0640844 -1.5889 0.789604 0.790219 -1.08375 0.906006 
2.60961 5.52327 21.0446 -0.364508 -7.20007 8.68349 -13.7416 3.24451 -10.7095 -5.94636 5.70873 -8.27527 17.7304 -1.6935 1.57885 -1.84081 0.66782 0.826807 0.156509 3.25926 -2.24545 0.745092 0.219295 -1.03606 1.46098 0.166148 
-0.0892334 8.72736 18.714 0.119266 -1.9889 0.910301 -4.84449 -0.649191 -5.56084 -7.9417 2.11027 -4.18947 17.5834 -2.03383 1.65543 -2.64188 0.518088 1.8332 0.653117 5.34236 -2.12375 1.54764 0.856308 -0.695605 2.08006 -0.456224 
-3.69702 10.4631 14.4891 1.99323 0.303023 5.34554 0.169043 -6.40464 -5.71522 -7.05696 -0.165829 1.96578 17.3065 -0.801336 0.063207 -4.89185 0.602291 3.4761 0.274257 6.38458 0.0328985 3.2243 0.49517 -1.7263 1.94247 -1.43014 
-3.7072 10.5851 11.8673 0.247965 1.47137 8.42096 5.18927 -1.97769 -4.43118 -1.13986 3.13998 -0.757697 15.2223 -0.159505 -2.07263 -6.96893 -0.636215 2.58608 1.72094 3.90616 0.638878 3.7091 1.61575 -1.51518 1.24401 -1.75951 
0.411914 4.91044 0.00868917 2.5826 8.45028 6.29944 13.1644 4.07325 4.84714 -6.87143 -3.43763 -0.2788 11.7603 0.20537 -3.51547 -7.05359 -0.460565 1.10492 -0.333075 2.45203 1.55421 3.85809 0.622385 -1.68006 0.22115 -1.53318 
-2.94123 1.14052 -8.89047 -3.35649 6.86785 9.03803 8.18863 -2.69374 7.70347 0.0443055 -3.82972 3.15287 11.559 -0.314063 -3.42884 -5.18414 -0.0510085 0.779476 -0.156372 2.30141 1.9208 2.52386 -0.469775 -1.75641 1.31995 -0.769765 
-3.05316 -2.39197 -10.4 1.49263 3.12939 3.37163 10.9295 1.72442 7.50789 -4.53712 -5.08128 1.11624 11.4722 -0.763659 -1.55367 -1.64671 -0.22583 -1.18685 -0.624453 1.00755 1.22903 0.556798 0.0476321 -0.0782791 0.99882 -0.0649006 
-3.54498 -2.90788 -8.84905 0.537904 8.02919 9.10301 17.8138 8.80074 6.85773 -4.65589 -4.82027 5.14452 11.5175 -0.867749 -0.713127 2.38685 -1.3155 -0.220258 -1.14072 -0.755924 0.679675 -1.20249 -0.224129 0.572734 1.62959 0.453965 
-3.10451 -0.833736 -8.24559 -0.493753 1.93535 3.14469 13.3896 4.47118 8.054 -4.28317 -3.33375 3.71948 11.4565 -1.94256 0.015928 3.27985 -2.72868 0.0100693 -0.351979 -3.79334 -1.70718 -1.9625 1.32098 0.678765 2.11827 1.00996 
-7.2543 -3.20423 1.96658 -8.94081 6.36359 3.44789 3.17896 -0.668747 1.41798 -1.20332 -1.83981 9.99921 13.8366 -2.35107 0.947738 1.62061 -0.975568 0.468865 -1.6278 -4.5423 -3.09055 -2.16561 0.505391 -0.0556581 1.4916 1.36982 
-10.9113 -2.16416 0.591423 -7.41142 4.01254 4.43929 -0.719772 -2.07674 0.415253 0.341489 -3.17768 9.28024 15.3624 -1.77924 0.701063 0.140873 -0.59701 0.861375 -1.30587 -3.00669 -1.80926 -1.97506 -0.629471 -1.27143 1.08592 1.66577 
-11.3969 2.49602 -5.16451 -0.881099 9.33492 0.316701 2.15695 -3.37806 -0.150967 -4.44126 -5.17659 9.82212 16.4136 -0.408494 0.671314 -1.42367 0.38419 -0.949672 -1.16489 -0.979922 -0.498192 0.0251645 -2.0607 -1.54227 -0.125047 1.32286 
-9.92939 -0.178545 -3.97568 -7.50866 4.75656 -1.81906 -1.13285 -3.22045 -1.03684 -5.81155 -8.02252 9.23759 18.4969 -0.112431 1.50003 -0.280861 0.780135 -0.320055 0.733316 -0.152602 -0.0636884 2.22965 -0.711945 -0.734406 -1.40629 0.746748 
-9.78772 -0.840466 -2.8682 -6.97124 1.24322 0.752621 -1.51411 -2.58785 2.26984 -8.43031 -7.12873 9.39529 18.8837 0.418942 2.85659 2.60512 2.02075 -1.10708 1.20522 -0.504147 -0.396021 1.49934 -0.575284 0.135157 -2.5977 0.165111 
-12.2781 7.00424 -1.96103 -0.465678 6.45811 7.88791 0.352746 -2.79029 10.3531 -1.22371 -5.87365 2.46221 17.8611 1.69534 3.66087 4.50507 3.36264 -1.62512 0.336512 -0.397771 -0.78054 -1.79567 -0.778497 1.82844 -2.77949 -0.376328 
-8.12789 13.1876 6.85377 5.70116 2.94875 1.48931 -1.10658 -5.57325 1.65076 -9.6116 -5.57525 0.221316 17.557 3.33573 1.9715 4.67585 2.01952 -2.88015 -1.03297 -1.59184 -0.973597 -4.64615 -1.04096 2.70512 -3.28334 -0.38375 
-2.28261 11.1118 13.6887 2.96835 -4.22179 -0.504842 -3.32547 -5.63045 -9.70565 -9.11339 0.342923 -0.0728507 17.2786 3.98365 -1.02852 3.60626 0.26297 -4.96073 -2.28988 -2.18774 0.00165691 -5.94134 -1.53182 2.78269 -2.67961 -0.0531097 
1.89319 6.96327 12.6862 1.40936 -7.8176 -0.21584 -7.63418 -6.03576 -10.9315 -9.69028 3.28858 -5.75386 17.2562 2.73008 -2.61978 1.58922 -0.309759 -4.15909 -1.2246 -0.931249 0.379482 -3.2853 0.248511 2.37365 -2.18939 0.172132 
2.62967 4.97378 13.1541 2.99507 -12.9624 -2.70893 -7.32214 -2.55075 -13.0625 -8.84347 3.60788 -7.94825 17.746 0.580332 -1.41786 -0.106779 0.12375 -1.13906 -2.99335 2.17459 -1.46484 -1.31301 0.713576 0.654739 -0.201862 0.32888 
3.0664 3.15768 15.0672 4.13901 -13.4764 -3.53166 -3.76449 -5.21569 -13.0973 -8.50401 4.66053 -6.78795 18.184 -0.399382 -0.243705 -1.32294 0.369594 0.826927 -5.12741 3.94049 -1.91112 -0.924541 1.12384 -0.0782692 2.08304 0.354813 
0.0324478 5.92529 11.9643 2.22228 -7.08766 -13.8137 5.61261 -13.3647 -15.1878 -6.13865 2.93064 -0.565113 18.4591 0.640525 -1.03994 -2.6493 0.703138 0.288324 -3.71736 0.577923 0.820457 -0.227107 1.32466 0.031754 1.28019 0.248055 
1.19489 5.26899 6.66639 3.64372 -6.62031 -20.3005 5.60091 -10.1844 -14.4916 -5.42347 3.23585 0.969783 18.6737 1.72639 -2.15776 -3.45312 0.708123 0.00876179 -1.37173 -3.81737 3.591 1.86103 1.79566 -0.376909 -1.30323 0.132217 
6.76805 -1.28157 4.10799 6.7584 -14.9488 -12.9113 -9.11522 4.03588 -13.5009 -3.76043 4.47899 -5.42616 18.7414 2.44514 -2.7129 -3.29574 0.178854 0.120523 2.80917 -6.86142 3.53642 3.93955 2.86397 -0.615327 -4.36005 0.0240637 
8.33057 -4.02771 1.72975 5.41156 -9.50206 -10.8415 -15.4874 4.03901 -4.63565 -0.714806 2.00181 -10.8736 18.704 1.9956 -1.55702 -2.98448 -1.31841 1.68514 5.31855 -5.2531 0.0723793 4.27829 3.65044 -0.448657 -4.52305 -0.057855 
8.6903 -2.99085 -2.04611 2.23263 -5.04417 -4.49734 -18.1503 -2.79427 -0.417979 5.82688 0.471029 -16.4437 18.5643 1.08772 0.202521 -2.79967 -2.9221 3.04581 4.97544 -1.17777 -3.26185 2.39236 3.28227 0.389469 -2.04958 -0.0792261 
10.2118 -1.66149 -5.17895 -0.685458 -3.14691 2.08524 -16.147 -6.4074 0.358408 8.03509 2.99655 -16.1367 18.473 0.876067 0.889929 -2.48648 -3.31576 1.18535 4.43245 0.5825 -2.15485 -0.975281 1.1881 1.34476 0.560727 -0.0566345 
11.2661 -1.45207 -6.43599 -4.80358 -2.89731 5.50254 -14.6743 -7.05015 -4.03613 8.27595 5.92897 -13.0425 18.4607 0.590824 0.739616 -1.84752 -3.16605 0.138248 2.28272 1.50239 -0.206578 -2.88962 -0.637043 1.06146 2.62395 0.0314938 
11.423 -0.347454 -8.50772 -7.64915 -4.64873 6.32079 -14.3129 -4.60728 -7.70298 4.00118 5.99665 -9.77052 18.4726 0.379679 0.220692 -0.852857 -2.59457 0.0618109 0.331783 1.34315 0.577853 -2.52491 -0.98992 0.549564 2.81866 0.129516 
11.0388 0.0502143 -9.61933 -10.1158 -3.60202 4.7985 -11.5555 -4.72722 -10.8354 4.65862 4.27825 -6.50702 18.722 0.0855274 -0.170125 -0.119265 -1.6583 0.385273 -0.0825968 0.584528 0.498011 -1.1811 -0.342323 0.604328 1.73558 0.193412 
12.2238 -1.30918 -7.85156 -11.0022 -2.4855 4.09617 -10.9907 -4.6796 -8.86651 4.89416 6.56973 -5.31115 18.99 0.0566504 -0.717294 0.941054 -0.727176 0.791514 -0.363985 -0.0882925 -0.269145 0.29791 0.803979 0.921999 0.72711 0.143882 
11.2933 -1.82183 -7.36039 -11.4186 -2.05256 6.20186 -13.4128 -4.52394 -9.35985 6.11785 8.66407 -6.59431 19.1691 -0.130604 -0.655497 1.34829 0.388403 1.46399 -0.349561 -1.18155 -0.053335 0.552291 2.2877 0.757085 0.69828 0.0693254 
11.579 -2.9979 -4.93192 -10.6336 -1.46589 3.79919 -13.8258 -6.05465 -6.9512 7.29146 8.41374 -6.09133 18.9684 -0.0934228 -0.951926 1.59338 1.29707 1.77017 -0.834664 -2.03421 -0.187655 0.628705 2.52995 -0.0512365 0.538636 0.00316963 
10.7081 -2.38291 -4.3377 -8.35805 3.20813 3.19919 -16.0457 -4.30637 -9.03158 14.8985 7.14167 -2.62553 19.0794 -0.0118501 -1.07407 2.00151 2.14596 1.86703 -2.13437 -1.67415 -0.0188995 0.882648 2.47311 -1.42369 0.499458 -0.0400076 
12.0493 -5.78827 -1.39598 -6.04712 3.73502 1.42419 -19.8453 -5.72666 -5.88712 13.1536 7.07474 -4.60236 19.0507 -0.374613 -0.814695 2.05511 3.04536 0.225154 -2.12061 -0.753008 0.967449 0.399334 0.925467 -2.02446 -0.575642 -0.0667179 
10.9989 -5.79699 0.879182 -2.98203 4.68213 -3.28246 -18.7737 -4.78243 -5.47865 15.5524 2.21511 -4.8415 18.9279 -0.743791 -0.289031 2.40156 3.38012 -2.28233 -2.43475 1.9366 1.93998 -0.6958 -1.4881 -1.73945 -0.861378 -0.147701 
9.56056 -5.36433 2.73516 1.90514 -1.07712 -3.56302 -16.2268 -0.979373 -6.731 11.5919 0.754726 -7.86156 18.7106 -1.25115 0.659176 3.21035 2.50718 -3.53505 -1.84132 4.24406 2.75944 -2.76713 -2.04844 -0.371101 -0.151234 -0.158031 
8.23354 -4.04003 5.60451 4.56641 -5.79746 -6.48095 -8.17197 3.01988 -12.0886 8.23881 1.60446 -5.30282 18.5109 -1.27793 1.02878 4.19846 0.919339 -3.56746 -0.669331 4.50491 2.26745 -3.66438 -3.00662 0.713484 0.867816 -0.171811 
7.1762 -3.37087 12.2931 2.71458 -8.70045 -6.18315 -3.92588 4.16937 -16.4178 6.56816 5.52457 -5.12787 18.469 -1.12579 1.28886 4.24561 -0.308049 -3.11735 0.401715 3.57601 0.422805 -2.45332 -3.28607 0.0929762 1.7 -0.253548 
5.80146 -1.64983 17.0925 1.20995 -9.3435 -5.31905 -2.39963 3.98044 -18.9572 3.03111 3.39761 -1.86926 18.1897 -1.0816 1.49511 3.6493 -0.889392 -1.58085 1.03831 1.47102 -0.882629 -0.862076 -3.20029 -1.30194 1.34208 -0.361171 
5.14766 -0.115135 18.2192 2.04313 -14.8908 -2.1354 -1.23292 0.654371 -15.5634 -2.23463 0.323028 -1.07832 17.6034 -0.96223 1.10247 2.57707 -1.1962 0.220454 1.34878 -0.208169 -0.675816 0.292598 -2.38066 -1.78783 0.906491 -0.293386 
3.8398 1.80763 20.888 0.455182 -10.6065 -3.31329 -2.16333 0.364231 -16.8262 -3.36126 -2.30447 -0.617182 17.1379 -0.787645 0.923875 0.257894 -0.692712 1.74924 0.85125 -0.0291308 -1.42261 0.575032 -2.69345 -0.709268 0.0226497 -0.558477 
3.34588 0.412751 23.2807 -2.88903 -6.96668 -0.442117 -5.08488 2.59839 -16.0202 -2.13894 -0.563527 -1.22146 17.528 -0.474449 0.783637 -0.226982 0.0602692 2.50371 0.0681946 1.25081 -1.56293 0.432373 -1.70156 -0.573994 0.069051 -0.695507 
2.76412 2.7056 15.8512 0.212471 -4.55939 -1.90945 -0.619305 -4.10464 -15.8536 -10.484 0.294554 -1.68445 15.435 -0.581035 0.493417 -4.43178 1.00273 2.04769 -1.11083 1.5275 -3.08976 1.12162 -0.875362 0.206945 -0.150307 -1.13523 
3.31326 3.35407 19.6027 2.46583 -5.39585 -2.49635 4.24913 -4.92583 -13.8878 -7.18104 -3.84645 -0.199434 14.9773 -1.18544 0.213048 -7.35941 1.19625 2.218 -1.16104 1.4593 -2.5125 3.21752 1.08075 1.12958 2.07841 -1.41385 
0.95094 2.80406 0.568084 2.79142 -1.15345 -7.84033 0.807168 -11.3225 -12.2844 -5.21702 0.371718 -1.87973 12.737 -1.64193 -0.839356 -7.92539 -0.281147 1.80391 0.729441 1.41791 1.81193 6.18494 2.91526 0.8296 2.51646 -1.07386 
-1.67474 1.42876 -5.87478 1.80276 2.42033 -3.28189 1.49839 -6.35523 -1.71722 0.63132 5.0458 9.26822 11.8077 -1.73105 -0.866445 -6.82202 -0.60901 1.58435 1.09734 0.902908 3.7307 7.67864 1.91577 0.617101 1.5639 -0.75413 
-2.95151 -0.528526 -11.037 -0.861732 0.552064 2.13053 7.84559 5.6697 8.98585 0.186131 -0.00357318 6.16403 11.6505 -1.07047 -0.44423 -1.68293 -0.290376 0.128523 0.353049 1.4136 4.39741 5.52934 1.59106 -0.117034 0.571401 -0.29247 
-3.39079 0.688133 -8.70494 1.24735 1.67315 -1.99506 5.24446 5.23157 13.8703 -0.303783 -0.573305 3.59819 11.7499 -0.452041 -0.467052 -0.0827798 -0.148551 0.901392 -0.263002 1.20219 2.73041 2.11067 -0.0056376 -1.15658 -1.24836 -0.121608 
-3.54338 0.953221 -6.43151 1.61724 -0.137252 -6.7185 6.00214 4.87118 7.56861 3.20581 2.5961 3.81229 11.3035 -0.220069 -0.487497 0.54253 0.860209 1.73761 0.192903 -0.18292 -0.0614237 -0.567577 -0.627167 -0.515605 -0.00777416 -0.0972931 
-3.63902 -1.64737 -8.59141 -0.179484 7.27194 -0.172385 8.43106 7.69607 9.54472 -0.906708 -2.03694 4.20228 11.3731 -0.0872411 -0.864636 -0.0250719 0.33538 0.292637 0.950949 0.313352 -0.40957 -0.902283 -0.244341 -1.16005 -0.155422 -0.0546741 
-3.92774 -1.79826 -8.38108 4.15273 6.4407 2.18371 5.33769 4.13033 8.31074 -2.64824 -1.84978 5.82311 11.3524 -0.0464441 -0.222026 -0.275885 0.644091 0.00102412 0.985963 0.67735 -0.528723 0.0422969 -0.553837 -1.73819 -0.881689 0.0500445 
-3.63481 -2.25931 -7.85551 1.65651 -0.152638 -1.69142 7.14344 3.55414 8.9878 1.40154 -4.1506 1.81567 11.4521 0.106221 0.284371 0.424917 -0.142591 -1.42084 -0.285708 0.257782 -1.87184 0.269505 0.291017 -0.657891 -0.359891 0.0831064 
-3.7777 0.149058 -8.17888 3.9197 3.58016 -1.02917 10.0327 4.29853 8.05856 -0.717499 -5.03802 0.597147 11.5143 -0.23051 -0.243091 0.430766 -0.495185 -0.271487 -0.0304707 0.224853 -1.05279 0.911506 1.11492 0.479219 -0.32301 0.10387 
-3.18293 -1.19917 -6.56792 -0.775925 1.59802 0.00551605 7.37246 -1.74722 11.0183 -0.416997 -3.73228 5.01581 11.7078 -0.552477 -0.371163 0.224357 -0.496756 0.988083 1.1841 -0.539929 -0.656475 1.11135 0.749954 1.26902 1.26996 0.137696 
-5.30623 -3.54378 -6.87104 2.89303 4.20794 1.18289 6.34745 1.51709 11.853 3.83563 0.337156 2.608 11.744 -0.770909 -0.725822 0.168445 -0.046312 0.244916 1.11282 -0.458037 -0.292783 0.289885 1.101 1.04854 0.516727 0.0752928 
-5.63293 -2.2687 -7.38764 -0.313936 4.47389 3.12307 6.28643 1.66249 12.6473 2.87475 -0.493078 7.16006 12.0258 -0.665948 -0.25801 -0.259762 0.395226 0.827014 1.09673 1.02453 0.425875 0.280268 0.514086 -0.387076 -0.255686 0.0340091 
-6.40724 -2.94529 -6.9268 3.45715 3.36681 2.97614 8.28553 1.12976 8.69349 3.14164 -1.41491 2.10866 11.7317 -0.227263 -0.21861 -0.710788 -0.263254 0.0837825 0.951286 2.39893 0.433383 0.0724604 0.498359 -0.432948 -0.34959 -0.0140615 
-5.96216 -2.78847 -7.83885 0.918146 6.15366 4.59254 11.5261 0.575818 13.9994 2.50043 -4.79162 3.98705 11.8839 0.428254 -0.37657 -0.176182 0.0391109 -0.444891 -0.474724 1.00996 -0.636324 -0.84541 0.644825 0.448662 -1.00481 -0.117754 
-6.27792 -4.37694 -10.1994 0.960717 3.78696 5.20459 15.7223 4.22734 11.5393 6.51458 0.321688 2.44655 11.7446 0.582103 -0.276743 -0.0640959 -0.140725 -0.241519 0.329898 -0.363183 -0.422151 -0.811369 0.484967 1.22492 0.157809 -0.114003 
-3.55632 -3.43572 -6.63226 1.12983 2.03935 -0.36477 7.61788 -3.06793 6.9974 4.4124 0.881934 1.96704 11.4306 0.50987 0.242385 0.496213 0.0186841 -0.43323 0.102869 -1.46036 0.609317 -1.59648 -0.725041 1.63464 1.28264 -0.11976 
-4.69965 -4.00538 -7.85057 2.64768 4.21636 7.10429 8.42371 0.840872 8.13766 4.61049 1.87293 3.9077 11.3884 0.236066 0.330904 0.124626 0.0815071 -0.167729 -0.718296 -2.02536 -0.305431 -0.8436 -1.56421 -0.141119 0.239157 -0.0573838 
-4.20195 -1.76233 -6.53219 0.168087 3.77281 4.15704 7.87353 5.31564 7.71782 -0.172732 2.60594 9.66968 11.4632 -0.131734 0.251745 -0.0732434 0.171101 -0.35389 -0.641191 -0.574595 1.46047 0.800998 -1.37705 -1.50626 -0.317636 -0.0262457 
-4.77478 -3.55912 -9.62628 1.84912 2.08159 -0.647797 5.46766 -1.4916 6.96104 0.986086 -1.24591 -0.208987 11.4413 -0.0501406 0.322022 0.254788 -0.737867 -0.712252 -1.95065 0.211891 0.256634 -0.215855 -0.35426 -1.08755 -0.611117 0.0525406 
-4.17743 -2.40013 -6.11062 2.38461 1.33729 0.305319 6.22293 5.40068 11.5907 -0.660657 -5.08993 2.43721 11.2729 -0.0693504 0.459939 0.658852 -0.444482 0.097794 -1.07012 0.47614 0.64337 -0.541353 0.283589 -0.780708 -1.80292 0.140093 
-4.96261 -2.07637 -6.78741 -2.14992 1.87287 -0.723082 10.3085 2.08152 5.12194 3.08315 0.283094 4.46835 11.7463 0.0362638 0.890634 1.13911 -0.624727 0.759796 -0.247745 0.634321 1.78203 -0.772098 -0.0721471 0.139545 -0.707004 0.187808 
-4.45478 -0.204011 -4.65736 -0.0548005 4.36614 -1.15591 7.83382 6.74593 5.9306 0.196681 -2.0621 -1.6836 12.0112 -0.0046875 0.626459 0.503656 -0.278371 0.855099 -0.335528 0.0747144 0.735491 -1.05115 -0.117179 0.371046 -1.43936 0.174163 
