-3.90696 -3.72344 -7.15218 -3.69063 2.68836 -0.200919 3.66348 1.1857 8.82059 0.466675 -0.90134 1.53158 11.4451 -0.154371 -0.365893 0.132082 1.18026 0.29426 0.444474 0.482141 -0.374289 0.611623 0.757595 -0.279879 0.996288 -0.0688493 
-3.65523 -4.51499 -8.32333 -2.40336 -0.132 2.48294 6.11625 -0.377127 6.52624 -2.6197 -1.85755 5.96014 11.1713 -0.044887 -0.170689 0.796216 1.22489 0.311734 -0.46667 0.417942 -0.398608 -0.340389 0.607751 0.356059 0.176372 -0.0768098 
-4.80469 -5.15712 -5.9062 1.56701 5.56985 0.679525 4.84779 0.0956643 13.0259 5.79784 -1.82263 4.29874 11.2377 -0.246066 -0.0428854 0.712531 0.518287 -0.0868633 -0.241672 0.82956 0.73183 -0.212066 0.649527 -0.0436781 -1.12363 -0.0138213 
-3.68254 -3.86004 -3.7941 -0.19499 2.80629 -2.97449 5.16103 -0.262326 5.016 0.839848 1.3396 1.02986 11.1647 -0.301981 0.166276 0.490873 -1.19118 -0.584084 -0.0439115 1.23935 1.60282 -0.0783494 0.663396 1.06721 -0.402767 0.0632973 
-5.12364 -4.26534 -5.85415 -2.20338 0.7849 1.31943 8.28889 4.78745 8.51538 1.98454 -2.7183 -1.62144 11.3793 0.0348326 0.335072 0.190072 -0.932002 -1.19207 0.953063 1.3887 0.0802056 -1.35085 -0.354374 1.41194 0.974983 0.00996304 
-5.00566 -4.1295 -5.89499 -6.47408 -0.659946 1.94342 10.5925 5.29109 8.38974 2.60393 3.92632 6.90639 11.417 -0.151825 -0.141102 0.212835 0.595381 -0.245472 0.708236 0.797764 0.296174 0.743911 0.543798 -0.0135957 1.47518 0.00303974 
-3.96897 -3.34703 -3.9054 0.0465455 1.34262 2.98588 9.0756 -2.28001 4.58478 3.14393 3.94372 6.23539 11.1614 -0.0584822 -0.11889 0.543144 -0.0990346 -0.0978542 0.160964 -0.859759 -0.827451 -0.0150206 0.161967 -0.0200946 1.11591 0.08918 
-5.019 -5.0247 -3.70429 1.65695 1.30007 -0.266535 8.75649 4.75227 10.7009 2.97914 -2.05939 4.47733 11.2889 -0.612759 -0.0961702 1.83821 -0.130743 -1.69604 1.49641 -3.00447 -0.790759 -0.217593 -1.45675 -1.19879 -1.34469 0.560898 
-5.40938 -4.41219 -4.23378 -6.76407 -0.684381 3.22923 4.90808 0.919599 7.28472 2.60677 0.174077 5.17263 11.8893 0.51312 1.81729 4.31482 0.374969 -1.68901 2.08338 -3.72716 -0.359425 -1.06668 -2.66997 -0.406236 -2.30525 0.768335 
-7.34924 -4.07777 3.46026 -3.72249 -8.12663 9.3038 -2.34613 -0.262518 5.95181 -4.41123 -0.182826 0.714329 13.8576 3.05029 3.89669 5.5116 1.51985 -1.84289 0.75893 -3.79964 -1.83118 -2.3108 -2.50637 -0.618438 -1.18856 0.733648 
-0.238243 5.26595 14.0864 4.61111 -2.38906 8.61762 -4.0089 -1.56974 1.62592 -6.51076 0.974259 -3.40937 13.7187 3.78008 5.00294 5.12828 1.51454 -1.18715 -0.891078 -2.18444 -0.608411 -1.98163 -1.49927 -0.861462 -1.71089 0.592422 
7.6469 9.61969 14.6936 3.56863 -7.06206 0.833918 -5.78323 -3.15897 1.97627 -4.99396 -5.55167 2.82556 14.0424 3.21662 4.49742 2.22082 -0.699344 0.609747 -2.35909 -0.535369 0.645512 -2.10992 0.958928 0.247542 -1.38306 0.349354 
5.99294 13.7538 15.7909 -2.83694 -7.15243 3.00878 -4.29558 -0.674226 -0.63564 -4.59819 -1.44881 -4.43745 14.759 0.848906 1.7038 0.122979 -2.34632 0.588363 -0.862148 -0.0140273 0.695672 -1.96207 1.90663 1.13743 -0.589997 0.4145 
5.61829 14.1654 13.7121 -3.49518 -2.69621 0.312763 -4.87963 2.51728 -3.46702 -0.572868 2.26642 -5.68694 15.0842 -0.748511 -0.393553 0.27453 -0.963049 1.11157 1.32607 0.342211 1.33136 -0.787196 1.51084 1.01286 -1.26168 0.296524 
5.02059 11.5121 15.1921 -3.5886 -1.63017 4.56746 -4.53084 -0.929515 -5.46281 0.811865 2.75237 -2.10311 15.2703 -1.46931 -1.49238 0.620704 1.02778 1.73187 1.00425 0.637808 0.623123 -0.804301 2.19574 -1.3134 0.324157 0.234775 
4.39051 8.77277 16.3657 -0.870783 -4.26536 6.68491 -3.95455 3.62548 0.453877 -0.144778 -2.58795 -4.65 15.2693 -2.03764 -1.19072 0.387827 1.74086 2.36885 0.375021 0.0486957 0.988489 0.626405 1.66528 -2.0634 0.0382536 0.001758 
-0.739724 8.98816 17.5676 0.989748 2.2915 4.84397 -1.56908 1.88729 -6.61759 6.16645 -5.58863 -3.33514 15.8403 -1.44977 -1.57502 -2.49169 2.84586 3.08566 -0.122117 1.96087 0.753552 3.12614 0.334797 -1.1278 0.146365 -0.82169 
-1.68976 9.47378 14.4634 2.91994 7.18722 2.04961 -6.11703 6.05132 0.242399 5.07625 -3.88009 -4.87966 14.808 -1.31677 -2.46183 -5.2947 1.21659 2.05257 -1.01712 3.02996 0.218799 3.44187 -0.16266 -0.634809 0.43808 -1.26383 
0.811877 3.28646 3.68476 8.74536 8.07186 6.27452 6.35475 1.62533 10.2736 -0.124666 -2.24055 -1.25646 11.3925 -0.83777 -3.55606 -6.57072 -0.361054 -0.259134 -1.12153 2.70647 -0.301278 3.87548 -1.09287 0.890689 2.14501 -1.25449 
-2.96912 -0.685547 -3.16638 1.33435 3.10733 0.88404 7.23332 4.85046 9.2176 2.18748 -7.43604 -3.49894 11.1741 -1.24179 -3.48917 -5.37941 -1.97098 -1.39628 -1.36404 3.28366 -0.083 1.20266 -0.307313 1.48514 2.37166 -0.671793 
-4.2889 -3.71248 -6.47107 -0.0227284 3.03578 -0.180885 5.28807 0.981331 8.27221 2.1465 0.642791 6.69953 11.3848 -1.46458 -2.05552 -2.39698 -2.35262 -1.43242 -2.20495 0.691073 0.642586 -0.343959 -0.184617 1.01353 1.65602 0.0149938 
-5.34832 -4.47259 -7.35569 -2.5509 2.72388 -1.54288 10.8346 5.95832 7.25643 2.4041 2.10392 3.00062 11.4529 -0.654925 -1.07386 -0.0553984 -0.879594 -1.50942 -0.898408 -0.25502 0.533319 -1.06693 -1.89362 0.679693 1.27806 0.053743 
-5.32144 -5.09764 -6.20548 -1.0751 1.10149 -3.53675 8.00946 4.28433 9.53444 -1.15606 -1.94289 3.77387 11.3281 -1.2243 -0.947686 1.70198 -1.73229 -1.17957 0.533527 0.275757 0.0571414 -0.433078 -1.19029 -2.10498 0.168133 0.451558 
-5.72747 -5.36225 -3.57617 -2.53743 -3.47262 -1.93007 4.59752 5.86556 3.25183 -5.62932 -2.74473 4.3542 11.4712 -2.53716 -0.982863 3.27921 -1.23087 -1.14982 0.49615 -0.995372 -1.06498 0.336056 -0.199393 -2.67991 1.61187 1.40519 
-10.2208 -8.00608 0.149075 -8.69094 0.236163 2.68034 9.7854 1.31342 8.10912 0.211747 -7.45777 6.86341 13.6334 -2.09181 -0.0242843 1.37885 -1.42638 1.11445 0.72164 -1.42669 -2.01234 -0.869902 -0.37377 -1.14139 0.726832 1.77375 
-15.5844 -7.93268 5.86311 -4.89734 -2.59257 -2.17068 4.9698 2.11885 9.64937 0.723235 -8.53817 9.51522 17.3262 -1.31749 1.75644 -0.470618 -0.324923 2.68696 0.00925745 -2.33703 -2.20298 -0.916104 -1.11253 -0.416114 0.0758115 1.57525 
-10.852 -3.93385 -4.03087 -7.02702 6.23372 0.191754 0.689881 -3.90401 1.98616 -6.20119 -4.75312 4.82752 17.2693 -0.203745 3.1984 -1.36704 0.964052 2.1557 -0.317327 -2.54733 -1.58232 -1.82174 -2.32701 0.198866 -0.739355 0.852716 
-11.9993 1.38382 -3.83929 -4.994 6.9634 -0.639487 -2.53986 -2.54063 1.73279 -7.9855 -6.17763 5.7512 17.5295 -0.216907 2.6118 -1.23285 1.06102 1.66824 1.88689 0.0328866 -0.448953 -0.695567 -1.51305 1.30877 -0.614904 0.0622032 
-13.0321 3.32769 -1.83492 -3.82235 6.23669 0.328113 0.803603 -4.26845 2.95872 -7.06895 -7.64372 5.04864 17.7953 -0.667851 1.6831 1.71747 1.87417 -0.602208 2.29506 1.43904 0.292801 0.748303 -0.0571376 1.56918 0.337972 -0.0942865 
-15.5789 1.49557 -1.39914 -1.19459 5.74713 7.19558 5.07737 0.0563025 5.68526 -6.40813 -0.549034 6.33014 17.3742 1.47053 1.73451 4.38007 1.86808 -1.75141 1.23705 1.30306 -0.953148 -1.05347 -0.675345 1.39741 -0.415479 -0.270991 
-12.4015 4.42577 3.33641 0.444137 3.83082 7.74951 4.07649 -3.73847 3.75144 -7.27556 0.27847 6.22791 16.8755 3.62322 2.26906 4.52571 1.87046 -3.44905 -0.262025 -1.50608 -1.60352 -4.1787 -0.682902 1.90707 -2.11458 -0.309878 
-4.96198 9.5073 15.4754 2.21315 -0.590688 1.83506 2.339 -7.57136 -3.93092 -11.2589 -3.15165 3.08417 16.6344 4.65937 2.20749 3.56923 1.72805 -4.95542 -1.4174 -3.25612 -2.39007 -5.37407 -0.67125 1.63589 -4.00029 -0.186754 
-0.22446 10.6671 12.3563 3.82608 -7.83964 1.69824 -5.35762 -8.47221 -13.1267 -8.05807 3.19293 -3.90126 16.6158 3.63439 0.150093 1.46243 1.62992 -4.28956 -0.892599 -2.53006 -2.26714 -4.45829 0.16972 1.7769 -4.07655 0.0183605 
1.62942 9.41236 11.9371 5.7547 -13.1947 3.13423 -6.48615 -9.52717 -12.746 -9.37313 6.17319 -8.60674 16.5703 2.03679 -1.62605 -0.783954 1.56751 -2.78295 -0.255781 -0.165486 -2.12468 -2.79798 1.02075 1.8397 -2.70434 0.194227 
2.47479 5.2237 12.4177 6.82298 -11.315 2.63694 -4.16122 -14.0963 -14.1324 -7.36985 4.50054 -8.30936 16.9994 0.782621 -1.53502 -0.319377 0.876113 -0.23383 -1.86731 2.46203 -1.75511 -2.22954 0.85784 0.587317 -0.0075635 0.272533 
3.87234 4.09876 11.5249 8.55223 -12.7678 0.086808 0.913377 -15.3827 -17.4179 -6.49926 5.39303 -8.2335 17.4138 0.087747 -0.439974 -0.853568 -1.04162 2.06735 -4.38201 2.10029 0.0899481 -1.64634 0.80751 -0.308793 2.23339 0.286728 
2.56719 5.64883 10.9655 6.80787 -9.22225 -6.11461 3.25275 -14.32 -21.9384 -5.20581 6.51959 -4.1257 17.5567 0.917335 -0.315522 -2.30357 -0.971463 0.657795 -3.25532 -1.30556 3.53736 -0.137718 0.457019 -0.133664 1.52391 0.181258 
2.02196 6.99993 8.39533 0.554165 -3.90433 -14.4001 0.308337 -8.96557 -17.0748 -6.4176 3.6197 0.46837 17.7253 1.90592 -0.823022 -3.67231 -1.19821 0.109949 -0.484206 -4.74848 5.00968 2.04198 0.428486 -0.829375 0.230809 0.0476454 
7.98666 2.1955 2.46471 5.9647 -12.4577 -6.39625 -10.3865 0.381938 -14.9926 -5.12558 4.71889 -5.04074 17.75 2.83503 -1.01201 -4.84904 -1.10007 0.544776 2.60889 -6.42294 4.64468 3.28372 1.55829 -1.03362 -1.86371 -0.0645323 
10.6922 1.71031 -2.58621 2.98277 -10.6003 -2.1934 -16.0094 2.31468 -10.681 -4.39694 2.14651 -6.62194 17.5554 2.61129 -0.584683 -4.51484 -1.33221 1.24489 4.28712 -4.80365 1.57384 2.39571 3.27861 -0.669785 -1.96281 -0.120003 
12.4072 3.23359 -7.78889 0.0932193 -3.15038 0.826525 -20.7031 3.26328 -8.71675 1.57529 2.08808 -9.89908 17.319 1.54578 0.526235 -3.50524 -3.00686 3.13501 2.63599 -1.21949 -1.02645 0.874768 3.34416 -0.115917 0.623513 -0.0669945 
12.8682 3.55747 -9.05209 -3.17112 -2.33357 3.42412 -18.5516 -2.53706 -8.23415 6.62502 1.58618 -6.91651 17.3407 1.32069 0.668673 -2.35696 -2.86927 2.25393 1.60227 1.55377 -1.72295 -1.13675 2.88316 1.23968 2.07869 0.0656874 
14.6276 3.9031 -11.8285 -5.99266 -0.916032 3.97493 -15.2128 -2.32446 -11.8422 6.08424 4.41946 -1.77588 17.5223 1.24828 0.195302 -0.979043 -2.20326 0.357917 0.568214 3.33013 -2.22848 -1.45373 1.28392 1.54789 2.82274 0.163379 
16.1855 4.71892 -12.3512 -8.32065 -0.447864 4.24373 -10.9856 -3.50621 -14.802 7.76439 7.17922 -0.290066 17.7821 1.20487 -0.145394 -0.0599585 -0.987067 -0.403761 -0.00771256 3.04783 -1.69007 -1.22883 0.828821 1.18803 2.14976 0.160718 
16.9899 3.62937 -11.0346 -8.34833 -2.30364 3.25779 -7.83541 -7.39454 -12.7015 7.42519 7.031 0.901377 17.9152 0.754809 -0.76721 0.89724 0.372859 -0.609975 -0.111871 1.72048 -1.9231 -0.15641 0.630873 0.811724 1.65766 0.113283 
17.7113 2.96736 -9.74887 -6.92862 -3.65857 3.74413 -7.00119 -8.45234 -13.9487 10.0987 6.22056 2.49366 17.9479 0.315796 -1.08911 1.20974 1.27335 0.291716 -1.25159 -0.125928 -0.784869 1.12142 0.0501493 0.243908 1.08733 -0.0180334 
17.6387 0.942824 -8.64348 -4.82438 -2.36055 3.66537 -8.60264 -9.46688 -13.0509 8.07148 8.95742 5.12055 18.0059 0.0952204 -1.44273 0.960558 2.05797 1.60116 -2.36602 -1.6085 0.600796 2.0183 0.285767 0.393629 -1.16515 -0.119789 
17.4401 0.616627 -7.49801 -3.71586 1.03917 -2.21803 -11.2317 -6.39438 -9.02019 7.692 7.43555 3.037 17.6466 -0.29552 -2.16177 1.41285 2.6783 1.86637 -3.52148 -2.0302 2.01007 3.457 -0.052677 -1.16307 -2.33344 -0.224474 
17.6017 -2.40891 -7.35721 0.335146 3.35331 -5.59122 -13.7627 -5.41954 -5.07424 10.0574 8.39165 -5.19603 17.4669 -0.933198 -2.28543 2.85681 3.08128 -0.0767493 -3.90296 -0.945503 3.88405 2.56546 -0.526084 -2.52883 -2.06776 -0.30566 
16.2523 -6.16563 -3.32775 3.88311 2.81636 -9.23499 -14.5722 -0.425643 -0.652007 8.84233 0.688086 -4.01523 17.095 -1.94121 -1.82661 5.01924 2.23445 -2.64088 -2.62298 1.115 4.05266 -1.02341 -0.964982 -1.41942 -1.06143 -0.172319 
13.5666 -7.09322 3.55541 6.78255 -3.63289 -12.3409 -11.6599 6.96902 -4.40771 4.86589 -0.313019 -1.69215 16.7534 -3.13329 -0.193037 6.51725 0.587465 -4.09257 -0.884722 2.52833 3.14181 -4.7757 -1.4949 -0.359076 0.146733 0.00459194 
9.75151 -6.17427 12.1419 4.23269 -8.67215 -11.9581 -6.70808 7.67462 -14.4705 5.46282 4.69079 -4.0221 17.1418 -2.86255 2.55588 5.37749 -0.426012 -2.35809 0.226256 2.83535 -0.118491 -5.19503 -1.8194 0.901368 -0.230979 -0.354394 
5.18558 -3.36977 17.4942 3.09768 -11.3653 -8.6533 -5.05309 6.23935 -22.0435 4.27261 4.59492 -4.45893 17.4665 -2.60671 3.52301 2.73988 0.166458 0.45354 3.32973 2.50184 -3.46252 -1.6069 -2.42239 0.513032 0.467187 -0.855998 
6.13004 4.75206 16.5903 3.59549 -5.10791 -9.94753 -3.69886 -0.653265 -17.8093 0.041952 2.74096 -3.78674 14.9665 -2.12326 2.59762 -1.43801 1.09309 3.42442 4.25526 1.61991 -2.82583 3.79632 -2.61087 -1.58711 -0.663166 -1.41329 
2.34379 5.05867 15.0306 7.93345 -3.14731 3.30245 -0.655328 -6.17964 -10.7728 -4.53562 3.22706 0.5261 13.561 -1.21432 1.62586 -4.3095 0.465983 4.04104 2.39322 2.33409 0.263108 6.56667 -2.40828 -2.33585 -0.0818146 -1.44004 
0.556108 2.59962 6.18364 7.28026 4.34097 3.34035 -0.807389 -0.245026 -1.12424 -3.1874 -2.56085 -9.83045 12.028 -1.00653 0.0123342 -4.44502 -0.376369 2.2442 0.511055 1.24538 0.749561 4.90918 -0.911447 -1.60971 -0.466339 -0.800026 
1.90096 5.83574 1.15009 3.58521 4.11549 -3.33114 5.17165 7.35077 2.44733 -6.15413 -4.43344 -1.84615 11.7355 -1.01692 -1.45046 -4.32624 -1.59231 0.298621 -2.18639 0.138773 0.446087 2.45971 -0.609599 -1.5858 0.106 -0.483918 
1.31882 4.4252 1.30545 3.88776 2.48167 -4.07546 -0.38547 -3.67067 0.126551 -3.70603 -1.47735 -4.93231 11.8791 -1.44956 -2.20612 -2.97692 -1.83059 -1.26041 -1.25886 1.3405 0.783073 1.21979 0.372264 0.463833 2.7787 -0.196693 
-3.12218 -3.10642 -4.16153 1.66817 -0.724553 -3.92161 -0.172424 -2.23639 0.900337 -7.32429 -5.24368 -1.39297 11.2159 -1.89999 -2.96982 -2.53331 -0.871915 0.822271 0.83926 1.41824 0.877791 1.34682 0.644141 1.02534 1.68331 -0.103304 
-4.18011 -3.95989 -6.04516 -0.914149 0.458941 -2.65869 8.56717 8.46392 5.74821 -0.740992 0.163438 3.83647 11.3044 -1.40004 -2.07198 -1.49112 -0.639574 1.15256 0.967289 0.887797 1.3944 2.45768 1.95394 0.735215 1.64256 -0.0888824 
-4.84954 -4.82079 -7.84117 1.62659 9.23821 0.156777 7.78653 5.67244 6.37061 -4.41594 -0.127131 2.186 11.5064 -0.139052 -0.316307 0.010149 -0.240627 1.46011 1.55705 -0.499216 0.384186 2.29271 2.96584 0.520048 0.302825 0.0416554 
-4.81772 -5.07752 -4.31031 0.710681 3.26311 -1.2782 0.0740395 -0.653095 9.67981 4.60949 -0.359553 1.49102 11.2895 0.0427094 0.0126912 0.424433 0.0906272 0.828375 1.22721 -1.17113 -0.740616 1.08552 1.28106 0.220158 0.328188 0.00124159 
-3.49864 -4.12914 -4.97821 -0.347383 5.17389 3.1734 1.57806 4.24305 10.3981 4.82965 -2.38195 1.29388 11.4316 0.102656 0.181587 0.312033 -0.197377 -1.18657 0.509545 -0.414953 1.11828 0.383618 0.686019 0.10025 0.140022 -0.013556 
-4.64202 -4.24226 -5.35447 0.525972 6.63297 1.96905 5.81576 5.47553 9.16207 1.04153 2.39163 5.92347 11.348 0.0938869 0.628887 -0.278416 0.0108049 0.169058 -0.194406 0.346868 1.56966 -1.341 -2.18585 -0.781074 -0.402044 0.0371472 
-4.42412 -4.33049 -5.75892 0.732059 1.62045 1.08088 2.8409 8.1995 8.54757 0.798134 -1.00147 0.669887 11.4094 -0.0627245 0.305357 -0.044855 0.251215 -0.656904 -1.70604 0.560337 -0.713166 -1.57003 -1.12201 -0.917743 -0.174038 -0.016243 
-3.88555 -1.83241 -5.31204 0.224985 5.88512 -1.20398 1.17696 5.21699 3.90005 -4.304 -4.95516 -0.207199 11.4864 -0.176684 0.186778 -0.0765818 -0.173362 -0.60637 -1.49843 0.291401 -0.97204 -0.480152 0.267072 -2.09686 -1.66528 0.0236118 
-4.1905 -3.80728 -5.2237 1.05919 2.2633 -3.7703 6.69914 0.806493 5.17895 1.89237 -3.29726 3.48903 11.2812 -0.100715 -0.337088 -0.791334 -0.940716 -0.0311559 0.270107 1.64364 -1.48223 -0.46486 0.732157 -0.601224 -0.3479 -0.00640068 
-5.64225 -3.56997 -6.00499 -0.504403 3.2797 -3.0975 5.34365 4.31184 8.44562 1.82977 -6.94477 -3.81251 11.5301 0.0815172 -0.681043 -0.986674 -1.00834 -0.875773 0.960768 0.468965 -1.14014 -0.163403 1.74051 0.716932 -0.511553 -0.0242551 
-4.04934 -5.14715 -9.36911 -3.60683 2.76738 3.37818 8.97578 1.24091 3.95048 1.39203 -3.01279 0.733046 11.3555 0.106999 -0.246736 -0.101791 -0.362282 0.166109 1.16257 -0.718254 0.174421 0.612496 0.742989 2.20201 0.029655 0.019098 
-3.54854 -4.5677 -8.1727 -2.48369 1.25421 0.0256268 2.38347 -0.700913 3.69727 4.64873 -1.51273 -1.38697 11.3279 0.112275 -0.150726 0.531491 0.745113 -0.293543 0.843486 0.241496 0.30527 0.895731 -0.0142378 2.30442 1.91834 0.0011734 
-4.70236 -4.5421 -4.6488 0.23742 4.10659 0.480985 4.58796 4.18497 10.6156 4.19783 4.99676 2.42453 11.4778 -0.266567 -0.0854877 1.51597 1.14253 0.378975 -0.277765 -0.333825 0.691701 1.04429 -0.945821 -0.824084 0.276293 0.0437446 
-4.75437 -4.62612 -5.70769 1.29904 1.14238 2.56853 8.74504 4.36616 9.59171 0.355681 0.572534 4.93343 11.4748 -0.276924 -0.436975 0.601799 1.4135 1.60964 0.174121 1.65942 0.521793 0.00740184 -1.80804 -2.03215 -0.491811 0.0353131 
-4.77926 -5.54537 -3.02178 0.214441 4.71817 0.7179 4.12587 2.16589 6.22469 -1.19055 -8.17584 -1.04569 11.5008 -0.037084 -0.405624 -0.411246 0.197255 1.02644 -0.784361 -0.115887 -1.07925 -0.7176 -0.756192 -2.21266 -1.35659 -0.0209438 
-4.89471 -6.25094 -5.97722 4.59532 8.99662 0.777776 10.9116 2.9176 5.92974 -1.69729 -5.08717 -2.11092 11.493 -0.386971 -0.606396 -1.31454 -0.348269 1.4431 -1.05506 -0.523042 0.143013 0.811112 1.48353 0.666101 -1.1446 -0.0212014 
-4.81761 -5.75782 -6.57026 -0.424443 5.31165 -2.54545 2.92524 -0.486983 8.85859 1.44336 -3.23669 -0.836228 11.3639 -0.276869 0.0654407 -1.34827 -0.815878 -0.0219337 -0.475284 0.0993466 1.33367 0.885359 1.6191 2.97453 1.62788 -0.04469 
-6.67005 -7.55188 -10.5061 -0.122866 8.06114 -1.0751 6.73014 6.40766 12.3303 6.45635 1.43346 -0.894302 11.4372 -0.13747 0.806141 0.497188 -1.56615 -1.43878 -0.271483 -1.2177 0.159205 -0.0174499 0.739872 1.37351 1.03927 -0.0212467 
-5.27594 -4.5677 -7.49864 -1.50586 5.07624 -0.732083 6.71334 7.08919 7.4512 2.82813 3.4365 6.48538 11.3052 0.0246592 1.06216 1.45654 -0.711246 -1.29232 0.170704 -0.379347 -0.565707 -1.04089 -0.541403 0.0371256 0.084058 0.0083312 
-5.35289 -2.81529 -3.02709 -2.69474 1.92042 -1.48632 2.92905 -0.07446 6.54619 1.30968 -1.55622 -0.575393 11.4161 0.255736 1.12256 1.94297 -0.633262 -1.54373 -0.157667 -1.13865 -2.01279 -1.24733 -1.18118 -1.09721 -0.642295 0.00687656 
