-8.02299 -4.95962 -2.67931 -1.06584 1.71099 2.3267 4.8969 1.3611 7.79852 1.04951 -1.81917 7.29349 11.8033 -0.112409 -0.179608 -0.306273 1.6986 1.04736 0.269352 1.30063 1.00152 -0.202915 -0.30802 -0.103993 -2.79419 -0.0949491 
-8.55853 -6.79071 -3.4018 2.45661 3.67679 2.68993 1.98689 -0.0161914 6.59515 0.704285 0.279699 6.46083 11.7175 0.127314 -0.0966737 -0.378521 1.13736 0.280987 -0.98339 1.55287 1.35784 0.269133 0.761284 0.549509 -2.52898 -0.167829 
-8.31726 -4.94211 -3.84943 5.66593 5.96487 3.49184 12.855 7.05736 7.38563 -0.317972 -3.38857 -6.26111 11.3715 0.206746 0.195739 -0.678846 0.25684 0.175867 -0.56132 1.37976 0.796368 0.390578 0.879604 0.261593 -0.950794 -0.172697 
-7.23928 -5.45174 -3.98685 1.25508 0.988988 -3.17282 8.68219 5.30214 9.35063 5.53967 1.71307 1.42589 11.1801 0.491014 0.800614 -0.73431 -1.19717 -0.32258 0.0283075 1.14035 0.569732 1.07325 0.769572 0.300452 -0.170106 -0.0743138 
-7.64888 -4.65041 -5.78101 0.819131 3.93423 2.45148 8.44803 2.68377 8.37367 3.02984 -1.22789 5.05699 11.2085 0.0674908 -0.0750211 -1.21246 -1.65985 -0.133948 0.314915 -1.08032 -0.598927 -0.338756 0.330489 0.438827 1.9071 0.00737238 
-6.43765 -2.93349 -6.10756 -1.10586 3.07921 3.35165 9.89212 5.01926 11.4674 2.87824 0.701623 -0.0487511 11.4274 -0.0836206 -0.0508644 -0.804632 -0.160137 0.685178 -0.174521 0.200126 0.334481 -1.37058 -0.265078 0.314473 0.544023 0.0437905 
-8.38062 -6.57634 -8.85136 -1.45284 4.25003 1.80418 6.84845 4.20416 4.63349 2.66519 -0.68871 4.01172 11.2848 0.0301308 -0.479871 -0.133851 -0.351406 0.39357 -1.65655 -0.268581 0.303517 -0.869984 -0.313657 0.274914 -0.246615 0.0316374 
-7.29151 -4.7431 -6.47484 1.59038 4.25698 -3.72178 10.4826 6.21435 4.3678 4.39661 3.01585 4.66864 11.3609 -0.00317802 -0.240339 0.361362 -0.342755 0.14849 -1.64331 -0.969983 -0.467513 -0.445387 -0.311711 0.407677 0.137137 -0.010877 
-7.07129 -6.14496 -6.26662 -2.28602 5.31319 -2.29453 6.80988 3.60382 7.57353 0.702369 -1.01044 1.46522 11.4 3.19897 2.82311 1.0282 0.208586 -0.803403 0.210873 0.293238 -0.627138 -0.122786 -2.0955 -1.39965 -1.54277 0.311455 
-7.1082 -4.35088 -5.59312 -2.40305 3.29008 -2.81555 5.06148 2.98187 7.7704 2.3011 2.90087 1.91018 11.3154 5.10355 4.49855 0.741415 -0.844493 -2.18739 1.05942 0.357448 -0.493582 -0.609745 -1.87378 -2.15038 -1.30336 0.708434 
7.52258 7.34311 -4.15123 1.5868 0.716463 2.40544 11.0252 2.68471 2.31826 -6.76454 -7.62949 -2.32291 12.8648 5.59074 4.50514 0.968869 -0.469512 -2.87528 0.00660276 0.310319 0.667489 -0.795987 -0.423792 -1.05302 -0.373411 0.915807 
10.9293 11.0056 -3.82546 -4.5685 -4.38159 -0.774645 10.1622 4.20599 3.94672 -1.23885 -4.42652 0.0458875 14.1707 4.08095 2.67729 0.614313 -0.437713 -2.74834 -0.170033 -0.951562 1.51654 0.0968587 1.08168 -0.708023 0.540953 0.902648 
11.8637 8.70251 -2.30611 -3.55085 -5.22736 -3.28197 5.81112 6.32921 5.50543 0.353381 -2.61186 0.530313 14.5513 0.752323 -0.306167 -0.0192562 -0.212426 -3.12917 -0.416539 -1.0337 0.87852 1.2756 3.65153 0.77323 1.64376 0.620024 
11.126 8.3559 -3.44411 -2.02279 -7.47971 -0.822016 2.91071 8.74231 6.6611 4.15052 -3.14806 3.18834 14.9854 -0.0698634 -0.888258 0.250181 0.922479 -2.52691 -0.659562 -0.203687 0.919044 0.927143 1.40636 0.160475 1.46434 0.410147 
11.1859 7.13713 -4.43819 -0.748185 -13.3803 0.346429 9.48245 4.80915 7.33905 8.79844 -4.40257 4.32466 15.5576 -0.12277 -0.938716 1.0197 1.20817 -2.1343 -1.04446 0.74801 -0.733715 0.0720201 0.946141 0.334789 0.293958 0.275139 
10.9189 7.34702 -1.50851 -1.35744 -12.9396 -5.88666 7.30809 9.56124 7.66562 1.57044 -2.72879 5.4704 15.7183 0.189733 -1.19988 1.75806 1.44222 -0.996848 -1.05293 -0.308443 -2.49591 -0.192144 0.793116 0.344872 -0.444609 0.124997 
11.3534 4.51337 1.8246 2.1573 -13.1689 -5.97196 7.35248 2.25116 5.36328 6.37413 -1.14755 0.859073 15.5606 -0.0990365 -1.41687 1.90734 1.44977 1.42125 0.237827 -1.10007 -2.78014 -0.612155 0.281088 -0.256836 -0.862868 -0.182627 
11.9909 3.6684 2.2148 3.73555 -12.5697 -2.92746 2.43348 -2.45827 6.68827 9.32825 -3.05122 2.69808 15.6089 -0.933462 -1.14532 0.434382 2.8505 2.49432 2.51903 0.617838 -2.65667 -0.805804 0.502035 -3.38882 -2.05195 -0.335153 
10.1547 1.89208 3.23686 3.95418 -6.45906 0.055968 6.4194 -3.0818 4.76695 6.32497 -5.52554 1.39648 14.6992 -1.65436 -0.419796 -0.49996 3.4922 2.2361 3.13701 1.21679 -0.0647103 -1.23053 -2.18794 -4.43514 -3.04626 -0.257889 
6.85094 2.93107 -0.0427363 11.9966 -3.82293 3.69451 10.8638 -1.05561 3.93476 4.1052 -17.4839 -5.05807 14.4733 -1.68971 -0.0667852 -0.420762 3.50939 0.624737 2.82649 1.34559 0.91733 -1.7675 -3.4208 -3.95003 -3.79778 -0.0957382 
5.65155 2.78305 0.453563 15.4878 -6.36175 6.4021 9.22127 1.22628 0.587361 -1.95402 -16.1069 -10.4942 14.8389 -1.05372 0.453146 -0.577374 2.38957 -1.37062 2.024 0.279622 -0.188386 -1.1557 -2.93402 -2.59121 -2.19701 0.179656 
5.79394 2.88898 1.50264 15.5157 -9.49463 8.03193 7.76052 -0.0256589 -0.0594437 -3.63622 -17.5107 -10.3455 15.0603 0.149567 0.67004 -1.01852 -2.10589 -2.09392 -0.0284762 -1.55468 -0.790676 -0.966146 -1.15788 2.10236 1.11116 0.349767 
5.41457 4.17885 -0.422693 14.1425 -10.4763 8.00727 9.36917 -4.5387 0.985553 -4.47441 -18.4682 -6.94486 15.3039 1.12033 0.765828 -1.82028 -5.19897 -3.00382 -0.845735 -2.09613 1.02078 -0.107166 -0.833383 3.8618 2.58395 0.600194 
7.71726 5.58337 -4.6972 2.13979 -12.2352 2.74954 3.01647 -2.12649 -1.09506 -0.423995 -5.79141 -1.27693 15.9896 1.54391 0.231073 -2.46438 -5.93695 -2.0206 -0.623431 -2.36063 2.1193 -0.42198 -2.05667 5.69281 2.6645 0.764491 
10.2916 5.26499 -5.54794 -3.81914 -20.0105 4.81462 1.11266 7.38061 0.569342 -7.72705 -2.65755 -2.10868 17.3753 1.44675 -0.61594 -2.55523 -4.94001 -0.230453 0.557259 -1.80333 1.19466 -1.72616 -2.87732 5.7651 2.52179 0.794665 
11.075 3.50128 -8.25665 -5.18823 -14.8305 6.51109 0.0856047 4.6112 -1.96124 -12.2932 3.04802 0.558894 17.8471 1.01018 -1.28605 -2.07158 -1.90273 2.31429 1.48782 0.00308409 -1.89644 -2.09942 -2.48292 3.71773 2.77396 0.573003 
10.9695 2.1402 -11.4191 -6.89352 -10.3309 8.91279 1.81795 -1.93427 -7.21216 -12.9264 5.93761 4.74619 18.3485 0.459653 -1.39294 -1.42039 -0.352774 4.75549 -0.57056 0.369494 -4.89025 -2.19934 0.851827 1.65985 3.07599 0.147219 
12.4292 0.715533 -12.1195 -5.83669 -5.50359 8.13956 2.67925 -6.95127 -7.70141 -10.2389 8.49967 9.16542 18.368 0.327316 -1.25212 0.621568 -0.500926 4.96483 -1.70842 -0.179446 -3.71042 -0.990124 2.85189 -0.587937 1.08817 -0.134239 
11.9127 -0.306813 -10.7185 -5.25878 -0.896523 1.14759 1.66331 -11.2894 -7.55725 -4.49507 2.91586 8.96802 17.8509 -0.454233 -0.502897 2.0006 -0.00553417 5.06112 -2.50933 -2.55036 -1.1181 0.577095 3.22449 -2.89745 -2.22815 -0.446092 
12.24 -1.53583 -5.49912 -8.51023 5.27644 1.85161 -0.734307 -9.26335 -6.73931 -2.24943 1.61922 3.8888 17.4247 -3.42751 0.927884 3.63957 0.945853 6.05447 -2.04126 -4.07567 2.2143 0.865452 1.94607 -2.29829 -4.72215 -0.195364 
8.79294 0.751397 -4.72631 -5.58442 9.58465 -0.489869 -9.22706 -6.36872 -4.80773 -0.798693 -5.1094 -3.75626 16.5897 -6.36805 1.88767 4.13452 2.39761 5.4456 -1.45082 -3.09234 5.39452 1.06564 0.0255267 -0.905638 -4.11764 0.277257 
-3.14841 4.82585 3.08224 -0.944604 19.5282 -1.24802 -12.2539 1.6599 -4.74891 -2.35678 1.02083 -8.08319 18.0218 -7.85498 2.63299 2.9417 1.85819 3.60265 -1.49015 -1.80705 6.11785 1.48443 -0.167566 -0.335584 -2.18277 0.671616 
-12.2334 5.95068 5.66343 2.94646 19.2056 -4.5567 -8.03857 10.2215 -3.22427 -4.31377 -1.31313 -5.6342 18.9387 -7.48627 1.58207 1.49251 -0.425701 1.57652 -0.678459 2.28896 4.12103 1.36938 -0.29447 1.00103 0.948679 0.807905 
-16.5218 9.02947 4.0145 -3.48473 18.4792 -3.56573 -10.3638 13.0308 -0.108879 -1.32973 -1.95684 -6.08606 19.6083 -4.50439 0.133822 -1.59903 -2.85451 -1.32029 1.09512 3.20817 2.19871 1.77458 1.19945 0.584856 1.42721 0.448959 
-21.9517 6.55995 2.27014 -6.44287 17.9918 -2.7233 1.27269 8.55098 -0.280821 -2.78457 1.3846 -0.0114245 19.836 -1.8088 0.281166 -1.48116 -2.60836 -2.30348 2.75929 1.38199 -0.397893 0.830588 1.55587 0.709189 1.36294 0.109729 
-20.8112 5.19032 -3.21626 -10.5225 13.5337 3.31087 -0.868674 13.4887 2.65226 2.87588 2.59625 -3.75852 19.8179 -0.451308 0.268309 0.0720095 -0.0196796 -2.22446 1.80199 -0.157412 -2.32416 -1.49835 -1.2348 -0.753873 1.36272 -0.00361481 
-19.1327 9.27608 1.87303 -6.57647 10.161 5.80147 -5.87619 8.0031 -0.451894 1.36278 -0.0437317 0.0167203 19.3825 0.521431 0.950825 1.86015 0.743049 -2.00396 0.15234 -2.88717 -2.82735 -1.75382 -1.75182 -1.40492 1.11035 0.0559372 
-20.1879 9.01295 4.5731 -3.51632 11.2723 1.18181 -7.5764 1.68392 -7.51511 -9.5774 -5.01203 0.713469 19.8169 0.206234 0.851183 2.81064 1.24285 -1.18846 -0.719315 -0.565386 -1.64193 -1.35539 -1.99488 -0.576865 1.49297 0.147882 
-19.6562 9.40277 7.6762 -6.23071 9.10267 -0.897076 -9.8093 0.316598 -3.96626 -5.31703 -1.83587 3.30431 20.1161 0.323294 0.0510052 1.66412 1.05774 -0.949024 0.758168 2.778 0.694243 0.987949 -0.136153 0.658449 1.2987 0.153805 
-19.5182 9.3829 7.93536 -4.48115 8.12053 3.06357 -1.72905 9.1223 -2.36749 -3.75859 0.607992 2.06255 20.1905 0.747486 -0.957648 0.507521 -0.0732264 -0.974249 1.90065 3.00553 1.87975 2.62614 2.2487 1.56438 0.411625 0.0936771 
-17.851 9.34613 8.51249 -0.805347 6.99175 8.65143 5.09014 7.75513 1.91404 -2.2274 0.4385 5.83567 19.9647 1.83774 -1.10294 1.10692 0.529476 -1.12818 0.917532 0.703966 -0.241292 1.12219 0.517605 0.602554 -1.42856 -0.0886824 
-17.353 4.25302 6.69256 -6.59514 7.45649 5.91082 0.00152683 7.3634 2.67544 0.121291 1.67267 1.50591 20.361 4.51954 -1.61806 1.10242 1.69292 -3.72318 -2.6946 -1.99919 -3.7772 -1.30852 -1.45765 -9.60112e-05 -0.686961 -0.508205 
-11.5501 6.45298 13.8322 -2.52634 3.79376 2.26696 -7.15476 -0.0104133 -0.876752 -4.66895 0.644558 -3.56018 19.5874 5.74887 -2.14985 0.665904 2.26402 -5.36229 -4.53791 -3.6703 -3.76762 -4.00022 -2.37325 0.532565 -0.113568 -0.578484 
-0.07096 2.73915 10.7876 4.84392 -8.89637 -7.2172 -5.60256 -5.88091 -7.51467 -9.82607 0.504482 3.32567 17.8381 5.80475 -2.13979 0.160181 2.94924 -5.66531 -3.76386 -2.35085 -3.00393 -4.54961 -2.46731 0.924479 1.06929 -0.489687 
2.2523 -0.646196 9.79448 4.79521 -11.6433 -7.47412 -10.4593 -4.46083 -12.992 -9.11995 3.68542 4.35795 18.3338 4.27233 -2.75933 -0.599936 1.95561 -3.3922 -1.91084 -1.03318 -1.39722 -2.78579 -1.2178 0.642245 2.04176 -0.245562 
4.76952 -2.89634 9.51234 4.49029 -13.1516 -8.03796 -10.1004 -5.43102 -14.015 -9.98976 4.77463 2.8933 18.5394 1.87654 -2.23509 -0.209911 1.1524 0.800566 -0.0431426 -0.29327 -0.601094 1.2817 -0.142677 -0.92244 -0.0303732 -0.293201 
7.3913 -4.52593 11.4702 7.42852 -11.0396 -6.87686 -10.0717 -7.22144 -11.5556 -10.6761 1.72071 6.86479 18.009 1.06822 -1.76324 -0.872934 1.06693 3.12374 0.882422 1.64731 -0.399017 5.60889 1.26494 -3.63395 -0.526392 -0.775009 
6.74224 -6.49641 8.90022 9.28929 -5.19535 -7.73155 -7.26269 -7.50607 -1.82437 -9.76139 -3.12536 1.92038 16.5345 0.481132 -0.278993 -1.94509 -0.157314 3.73756 0.782711 0.0672276 -0.463719 6.84924 2.50968 -4.55702 0.124961 -0.553068 
6.60702 -7.66234 5.73587 7.73036 -0.00267506 -3.21522 -3.64166 -5.41839 8.95712 -2.90944 -10.5343 2.21245 15.4612 0.830168 0.631024 -3.57928 -1.62929 2.03201 0.510159 -2.81137 0.858224 4.28077 3.42447 -2.55741 -1.54997 0.0702803 
7.56732 -2.7231 2.65403 3.5528 0.017755 -5.95523 -12.9793 -8.65114 9.97482 -1.32466 -11.8829 5.84427 17.048 1.78018 0.83542 -3.64083 -2.57534 0.150273 1.73917 -5.63519 1.42044 0.804081 4.18079 0.119171 -2.89264 0.680584 
11.1296 -3.25747 -3.30312 2.15033 -3.48614 -5.21422 -21.2703 -2.35779 3.94868 2.22791 -6.68755 -2.84703 18.1036 1.59963 1.11298 -3.85771 -1.94209 -1.17871 2.10907 -5.18347 1.44256 -2.32644 3.83009 2.12252 -3.09457 0.787411 
13.3818 -4.52175 -4.78442 -0.797379 -2.70225 1.9638 -26.6243 -1.93418 4.70025 8.57387 -4.45289 -10.0131 18.6162 1.1823 0.605554 -2.98866 -2.72632 -0.227015 3.12514 -0.818387 0.272755 -2.91543 3.09624 3.16362 -1.83277 0.413483 
11.6979 -1.19812 -9.83347 0.194999 -4.5362 3.37062 -22.7365 -1.56406 -0.0378079 11.2917 -3.63674 -5.33171 18.6141 0.503961 0.976367 -1.27221 -3.82339 1.05257 2.25574 2.5915 -1.89487 -2.20908 1.3713 3.25016 1.04708 0.194942 
13.1947 -0.725004 -9.02408 -9.10114 -0.592288 5.37808 -16.3381 -7.68423 -2.60908 9.62463 2.40977 -2.07723 18.8602 0.345471 0.856174 -0.0576729 -4.0635 0.904109 0.671365 3.99738 -2.22075 -2.41074 -0.378293 3.39379 1.58089 0.100474 
13.743 -0.274006 -7.54435 -12.8147 0.72174 4.35733 -13.4559 -8.95711 -3.44204 8.55901 6.1319 -1.57958 18.9564 0.61168 -0.166666 1.30616 -3.21876 0.743156 0.383005 2.59237 -2.2821 -0.896458 -1.34725 3.58581 -0.0262322 0.0709713 
14.0867 -0.702937 -6.21734 -14.61 -0.810678 4.82727 -11.2778 -9.3414 -5.65132 8.04877 7.63172 -3.98472 18.9474 0.168821 -0.516504 1.31249 -0.691232 0.487427 -0.208576 0.966511 -1.35156 -0.587063 -0.20064 2.67737 -0.323758 0.0480829 
14.3103 -2.04248 -4.70603 -13.1444 -0.711228 5.56104 -12.3049 -12.1459 -2.99898 5.34341 11.6813 -4.50913 18.9253 -0.0551984 -0.85647 1.55465 0.909829 0.884604 -0.859715 -0.425005 -0.870213 0.576632 0.0488904 1.97267 -0.740696 0.0151606 
13.7551 -2.42329 -3.88078 -12.3925 2.56133 3.73334 -12.0811 -12.8476 -5.76593 10.2292 13.0219 -2.23124 19.1161 -0.458451 -0.895272 1.89362 2.50359 1.82087 -2.41235 -1.80354 -0.122836 2.37741 0.18841 0.515502 -0.796494 -0.0311937 
13.6328 -3.69618 -0.93936 -9.37435 3.45875 0.605715 -15.1793 -11.5551 -0.501578 7.71323 13.3002 -6.1598 18.9478 -0.801356 -0.837189 2.40544 3.13739 1.30822 -3.69846 -1.79507 1.67469 1.70216 0.1766 -1.84205 -0.664346 -0.124035 
12.1332 -4.35245 1.36741 -3.97703 6.20869 -4.75681 -18.8583 -10.251 4.98703 7.80591 9.39982 -7.14185 18.7802 -1.09916 -0.62074 2.80302 3.82532 -1.18344 -3.63429 0.370519 2.30857 0.667724 -2.00266 -2.30851 0.040573 -0.284402 
11.1145 -5.26385 4.69707 -1.66511 4.00621 -8.68616 -17.8916 -5.07077 0.135345 7.43807 4.2821 -5.37556 18.4731 -1.49546 -0.400737 3.18244 3.48936 -3.66847 -2.21695 3.64627 2.43317 -2.78249 -1.51216 -2.28838 1.11511 -0.267791 
9.51844 -4.74316 7.31609 2.87947 -3.62961 -9.79218 -8.87233 -4.54695 -2.74577 0.353531 5.98841 -2.4205 17.9315 -1.89131 0.083562 4.10017 1.50754 -4.3717 0.0820769 4.72734 2.28784 -5.36912 -1.65277 -0.831412 1.11588 -0.194825 
7.46283 -5.50451 11.9985 4.64418 -9.96445 -7.96133 -1.94088 -2.24123 -10.5477 3.87862 3.56399 -2.94495 18.0333 -2.15886 0.901464 4.35159 -0.0637191 -2.63504 1.50844 3.40603 1.12193 -4.80678 -1.5743 0.0672508 0.317764 -0.160471 
4.50245 -3.8143 18.2175 0.406014 -8.66446 -4.70885 -3.1969 -0.226619 -16.5171 1.32179 5.60182 -2.77775 18.026 -2.10164 1.45783 3.94291 -1.24773 -0.0879849 1.65095 0.896028 0.876756 -3.74016 -1.20335 -0.100777 -0.289623 -0.195948 
2.82821 -1.22095 21.0043 -0.746981 -6.65156 -3.68565 -3.69917 -1.62128 -17.0129 -0.917577 4.81165 -3.60811 17.6235 -1.75979 2.10981 2.45266 -0.915649 0.843495 1.26324 -0.493546 0.544648 -1.3637 -2.48374 -0.183685 -0.446925 -0.370014 
1.32756 0.404227 22.5278 -0.663614 -5.72599 -3.67526 -3.51305 -0.473146 -18.214 -3.26512 4.86069 -3.53704 17.1566 -1.05495 2.12134 0.540919 0.169954 0.65877 0.27144 0.406493 0.131703 0.321419 -2.27309 -0.325744 -0.593248 -0.527736 
0.251331 2.93528 22.1067 0.600752 -7.21622 -2.16192 -4.25054 0.605268 -16.5177 -6.24661 3.01612 -4.79993 16.6179 -0.33242 2.10524 -1.01421 0.935665 0.734858 1.22927 1.19362 -0.71793 1.65971 -2.00221 -0.249402 0.0336372 -0.746093 
0.516112 4.71426 20.3709 0.581917 -5.08829 -4.11351 -0.888759 -0.681378 -15.1576 -7.37915 4.87086 -5.14808 15.8901 -0.078674 1.527 -2.87717 1.30389 1.96571 0.434502 0.762434 -2.13612 1.89152 -0.849275 -0.320058 0.436576 -1.01661 
1.57183 7.15024 17.0116 3.30858 -3.29612 2.67981 0.956804 -5.10681 -10.2426 -8.87164 3.55956 -2.6344 14.5263 -0.218919 0.298741 -2.66194 2.07368 3.60947 0.24611 0.625564 -1.18235 1.7575 0.646558 -0.00544028 -0.0482826 -0.881741 
0.27394 5.93173 10.6895 4.5019 2.14252 -3.92362 -2.30455 -8.29773 -11.8939 -6.19898 2.98868 -2.43692 13.1194 -0.731878 -1.07097 -4.15921 2.28885 3.02622 0.0781404 1.32666 0.143026 2.47659 0.874269 -1.35528 -0.315963 -0.982034 
-0.722176 3.82025 13.6377 9.00917 7.21573 -1.02632 -0.414822 -1.49832 -9.36203 -3.6039 3.93001 -6.39692 13.5946 -1.84154 -2.77978 -5.84647 -0.176187 1.229 -1.00781 2.12788 1.77074 3.34314 0.751761 -1.6446 0.319562 -0.798124 
-1.99628 1.0244 1.2618 9.17585 4.78688 -1.86975 6.43036 -1.7705 -3.21488 -5.64167 -2.09076 -4.84664 11.4458 -1.65474 -2.68622 -5.29349 -1.81148 -0.186448 0.67039 2.60944 2.64937 4.76079 1.06162 -1.35337 1.53132 -0.609898 
-6.50077 -4.29501 -7.50685 0.0906672 1.52672 -3.38617 7.22875 0.483282 2.1336 -5.39149 -2.12374 0.168269 11.3724 -1.70251 -2.29535 -4.20127 -2.03959 -0.858253 1.30265 2.23291 1.63181 2.75383 1.61079 -0.105937 2.61056 -0.478148 
-5.11046 -3.44176 -5.20568 -0.096262 4.05479 0.608258 6.92087 3.95831 6.1622 0.00292981 -0.75131 1.93708 11.181 -0.952065 -1.52089 -1.27601 -1.33988 -0.576434 1.28808 0.547879 0.843192 1.75405 2.56856 1.84216 1.60908 -0.0301088 
-7.67763 -5.42341 -4.13488 3.44729 3.29051 4.24794 10.5045 3.79634 -0.281426 1.62775 2.7306 3.26401 11.3362 0.000758553 -0.482871 -0.215218 0.867628 -0.169873 0.580922 0.272152 0.32349 0.352163 2.16673 0.131715 -0.847877 0.00276012 
-6.16817 -6.01584 -6.80422 0.798124 1.02281 0.753615 7.5319 0.788936 6.76289 3.69151 4.69285 1.65091 11.3133 0.0601248 -0.31042 -0.107842 0.790582 -0.794025 -0.544481 -0.0967604 -0.788619 -0.456108 0.511405 -1.25584 -0.858065 0.00225182 
-5.96812 -5.42232 -7.78367 3.98161 2.19334 -0.554235 8.28399 3.68542 3.59406 3.59787 -4.18725 -3.92803 11.32 0.528521 0.93933 -0.010821 -0.0878012 -0.0998675 -0.685299 -1.06153 -0.563422 0.673725 -0.635146 -1.83451 -0.223736 -0.0471377 
-5.66459 -4.9944 -3.92049 3.58948 0.633255 0.286943 7.5473 0.0706717 1.94391 1.5749 -3.57157 1.24278 11.2003 -0.00396652 0.861587 0.424932 0.505983 0.904916 1.00397 -0.639668 0.445021 0.239136 -0.270497 -0.293291 1.31204 -0.0334965 
-5.28682 -1.23748 -5.63085 1.6126 2.98596 1.05479 5.18911 1.33837 5.49669 -0.489667 -2.30974 2.34939 11.1571 -0.113234 0.404394 -0.0417183 -0.920392 0.719737 1.45228 -0.718834 0.106722 0.550674 0.195981 2.77689 2.84657 0.0187164 
-6.52866 -3.80033 -5.75597 4.51254 5.15108 4.96895 5.881 4.18757 7.00726 4.3828 2.28763 5.07237 11.2274 -0.722374 -0.584744 -0.742479 -0.267229 0.74569 -0.0923988 0.66234 2.17205 1.19873 0.831702 2.61836 0.869014 0.0387321 
-6.10226 -3.99739 -7.07453 -1.08188 3.53311 4.36616 5.52297 2.16059 3.81576 3.17382 6.76758 8.39 11.4001 -0.45362 -0.86749 -0.0389288 -0.436483 -0.146989 -1.38903 0.819601 0.303786 0.186623 0.712561 0.631871 -0.737576 0.0130871 
-8.86874 -6.53817 -6.91105 3.60058 4.08813 -1.83074 10.6921 10.5198 8.77802 3.90166 4.98159 2.56754 11.2725 -0.276515 -0.0651856 0.253634 -0.800491 -0.976682 -0.815556 1.24873 -0.0630411 0.102527 -0.300699 -0.939111 -0.929597 -0.0269229 
-6.38487 -4.20601 -5.24795 -0.113831 2.78249 -2.49054 6.88158 -0.308839 5.54442 3.31371 -0.497361 -0.0860732 11.2 0.00998592 0.169182 0.340724 -0.255343 -0.492653 0.251426 1.27813 -1.14329 -0.93666 0.0302014 -1.08987 -0.878282 -0.0415029 
-7.76992 -4.02194 -5.40109 0.0260673 0.642988 4.31952 11.4453 5.10707 6.65556 2.80936 1.22455 4.66242 11.1928 0.257155 0.568206 0.305714 -0.130393 -1.06996 0.941889 0.303685 -2.27742 -2.31892 -0.0785815 -0.505042 0.41595 0.015573 
-6.60174 -4.40959 -6.12589 -0.571333 2.79241 2.54816 11.537 -0.849491 0.193693 3.87098 3.19673 2.95115 11.2324 -0.0396507 -0.0410714 -0.241219 0.482515 -0.267249 0.63941 0.102766 -0.590868 -1.35484 -0.571318 -0.018509 0.218619 0.0169072 
-7.47453 -3.59535 -4.94351 3.17737 -1.26663 0.359359 9.88279 -0.59695 -0.141237 3.23012 0.609331 3.12868 11.3341 0.255958 0.25691 0.628041 0.586539 0.00673418 -1.79498 -1.25321 -0.735945 -0.0551522 -0.548012 -0.324864 -0.482129 0.0155732 
-6.73083 -4.62467 -6.68283 0.723092 2.40105 2.68659 8.17668 -0.411166 2.16863 0.246741 -0.282296 1.77389 11.2139 0.0258009 -0.124362 0.404517 -0.222152 0.187947 -1.41162 -1.43593 0.246506 0.745685 -0.696351 -0.5706 -0.0150258 0.00353546 
-6.42559 -2.62985 -1.98241 2.31155 0.872341 -4.72457 6.85942 1.20819 5.39233 1.88142 1.33975 2.84041 11.28 0.030789 0.266995 -0.0896739 -0.876981 1.29014 -0.981805 -1.77327 -0.797407 1.40959 0.0919742 -0.243876 0.173207 0.0290537 
-6.9972 -5.51415 -5.58385 -1.24919 2.66266 -1.96798 5.86903 -0.519531 1.15533 1.06357 -0.0214738 3.02016 11.2772 -0.157515 0.11487 -0.365684 0.0581515 0.985651 0.318509 -0.679234 -0.324022 1.59581 -0.136742 -0.113496 0.376785 0.0385636 
-7.1874 -1.81563 -5.94137 -0.221399 5.05327 -2.22238 2.17026 -4.5298 7.41336 3.28157 -0.740458 3.37158 11.4477 -0.0447718 -0.486155 -1.23554 0.133626 0.906156 1.3109 -0.168504 0.0751493 1.01637 0.589788 0.600867 -0.172224 0.0149864 
-7.1375 -4.45743 -6.53177 2.28032 5.23884 3.02804 7.12509 0.837717 9.13716 -1.13705 0.190324 3.39223 11.3228 0.14439 -0.392304 -0.594942 0.636455 0.196651 0.415412 0.225829 0.828479 0.972574 1.23833 1.3498 -0.403214 -0.00058136 
-6.5793 -5.58899 -7.68616 1.21493 4.11504 -0.668076 5.38887 0.905309 6.48326 5.93067 4.23818 1.79326 11.3321 0.177439 -0.867828 -0.464397 0.180725 -0.300028 -0.0587513 0.4701 1.09378 -0.451411 1.23659 1.40051 -0.475562 -0.0222002 
