-5.10912 -2.13951 -7.26048 -1.73415 7.26963 1.67396 10.1474 6.40757 6.20076 8.51966 -0.563993 -1.79485 12.3971 0.0125515 -0.0793308 0.388421 0.327269 0.126476 -0.466247 -1.39726 0.985489 -1.21344 -1.29035 -0.158123 0.131836 0.168695 
-4.17311 -2.07699 -5.74428 -1.30364 7.90859 -2.00978 6.10419 7.87664 3.02057 5.74547 -0.323547 -4.06506 12.7208 0.145345 -0.0552404 -0.128327 0.641715 0.565159 -0.381321 -1.35422 0.534706 -2.4002 -1.16268 0.513086 0.273428 0.165843 
-5.51436 -2.56742 -6.07648 -0.313061 7.58253 1.18459 5.18272 10.6005 1.72364 3.45499 -1.47483 -0.000563145 13.0787 -0.197062 -0.548467 -0.31296 0.442915 1.06899 -0.0995859 -0.832744 0.461418 -2.11271 -1.23301 -0.0906611 1.81513 0.0977809 
-4.17977 -2.20175 -8.49412 0.76388 9.93897 0.0120373 5.85862 6.98464 -3.56171 5.23861 2.45686 -1.32485 12.8855 -0.347447 -0.860522 -0.295605 0.0952643 0.183966 0.466467 0.991843 0.440355 1.18963 0.893577 1.0408 3.05115 -0.0594867 
-6.0911 -4.81946 -7.45036 -0.553333 11.5994 0.16512 6.10647 9.16066 -1.07166 2.60803 -2.4075 5.91067 12.8036 0.0963575 -0.441446 0.262711 0.203256 -1.21568 -0.45468 1.42841 -0.0922824 2.19224 0.430946 -0.290299 2.04521 -0.193456 
-5.62198 -5.25358 -6.53536 -0.707181 6.81999 0.832293 10.6015 10.7983 10.3664 10.6368 5.3468 8.23506 12.5609 0.14359 -0.173409 0.963732 0.888005 -0.915598 0.188759 0.751173 -1.55247 1.40601 -0.450486 -1.98593 0.901903 -0.198473 
-4.31147 -3.24873 -5.7423 1.43875 3.06362 -1.49894 9.95329 8.23223 5.72082 2.91061 -4.3713 5.44555 12.2737 0.398174 0.528351 0.81542 1.14507 -0.812125 0.0577613 -0.88458 -2.51813 -0.205091 -0.429947 -0.361176 -0.115128 -0.166196 
-4.35164 -3.85416 -4.52949 4.20786 9.62886 1.78786 7.69108 -0.31347 0.0721208 2.83489 -6.49092 3.41722 12.1581 1.533 1.96677 1.8398 0.835906 0.140002 -0.746477 -2.7999 -2.51132 -3.13781 -3.36349 -2.59122 -1.32302 -0.00183601 
-4.7354 -2.87741 -4.3762 2.71451 6.13431 -0.0238585 3.1388 2.1259 3.05 4.35927 1.70548 7.74395 12.1741 2.18229 2.62633 5.00609 -0.810105 -0.617546 -1.70705 -4.25339 -0.764717 -3.0484 -4.23623 0.530126 -1.09204 0.650673 
2.25498 4.39462 1.98058 2.83447 5.98466 -3.63763 0.00928211 1.2949 -3.98726 -6.90495 -10.6477 0.470742 12.6015 2.57543 2.46869 6.09008 -1.283 -3.03752 -2.10263 -3.62974 0.904018 -1.88217 -4.26982 1.06842 -2.12433 0.98242 
3.29668 5.75854 16.0331 -1.92508 1.79799 -7.32144 -7.47278 3.60446 -7.49146 -13.4006 0.357706 1.45861 15.3053 2.37998 1.24026 5.16799 -1.22374 -2.43812 0.0805586 -3.00577 0.815607 -2.58008 -3.6503 1.75052 -2.11941 1.13702 
4.50948 4.17133 15.7163 0.11263 -3.39056 -5.0765 -5.15184 3.46734 -4.06801 -9.63429 -0.474936 -4.06174 15.5045 0.762324 0.475778 2.29857 -0.751902 -2.00793 1.1082 -0.912385 0.912786 -0.437074 -0.986277 2.12999 0.505153 0.809249 
6.03725 3.43555 14.5959 -2.04325 -1.3687 1.09837 -9.30948 5.11771 -9.81004 -12.5276 5.37169 -0.586867 16.4077 -0.659647 2.2813 -1.23301 -0.347104 1.14759 0.918741 1.33492 -0.656804 0.777231 0.696341 0.176125 0.229595 0.302386 
4.69631 7.935 14.192 -0.865956 -2.47163 -2.30652 -3.63429 5.1022 -5.01334 -12.2729 -2.50472 4.01925 16.0966 -2.41798 3.4813 -1.69564 0.00251627 3.52077 -0.620244 1.13037 -1.43937 1.29956 1.49667 -0.154692 0.390137 0.366049 
-0.0949678 15.2832 10.6302 -3.1713 7.07647 -4.11274 -1.55693 -0.49699 -3.13264 -8.59961 2.25322 -1.43391 16.5212 -3.41226 3.22518 -1.37887 0.890895 3.45695 -1.1983 1.77849 -2.00637 1.2483 2.38372 -0.259761 -0.172553 0.15651 
-4.51433 15.654 9.22091 0.689236 9.99071 -5.57217 -3.37625 -0.922165 -0.908923 -4.11491 0.310836 -1.68753 17.278 -2.50813 -0.892141 -1.83972 2.28133 2.55475 0.921835 3.02497 -1.41307 0.177377 3.52791 0.210835 -0.96002 -0.455664 
-6.41874 15.7019 10.1871 1.63363 9.68487 -3.2603 -0.546041 -1.90197 -5.62075 -4.68793 2.6651 1.40376 16.5995 -1.04556 -5.3921 -1.86715 2.59984 -0.539455 1.64076 3.14919 0.386929 1.81216 3.55159 -0.71317 -0.158176 -1.00011 
-4.68247 3.26494 5.21499 8.13822 8.9979 1.87644 10.9851 -1.26064 -2.8824 3.41087 -1.65649 -2.19969 13.7792 0.278193 -5.96909 -3.52541 0.254661 -2.18056 0.835919 2.77811 1.90721 3.90737 3.0561 -1.88803 0.700497 -1.35447 
-5.23868 -5.48277 3.2974 6.10341 4.8756 0.366773 7.00836 1.60689 6.91492 5.39546 -0.328964 -1.96872 13.2701 0.816525 -4.35549 -4.28264 -0.198387 -1.43315 -0.667033 0.909167 1.59734 3.68813 1.72456 -2.2473 0.785345 -1.08513 
-3.71339 -3.59911 -4.96126 -0.272348 1.49254 -3.20611 6.73708 6.85944 12.3601 6.1239 -7.63227 3.50119 12.1704 0.530879 -1.06359 -3.62936 -1.65759 -0.724991 -0.822975 -0.532053 0.554659 0.51191 -0.943323 -1.14552 1.84815 -0.502922 
-2.82065 -2.64349 -6.13794 4.84697 6.27179 -4.05419 6.12381 2.0247 5.19864 2.57834 -5.5835 2.48004 11.9783 0.325104 0.49072 -2.12307 -0.642467 -0.339027 -0.0341767 1.81073 -0.0530619 -1.30543 -0.558627 -0.291878 0.462499 -0.257312 
-3.23709 -3.47268 -8.21413 0.478511 4.67485 -0.0279541 8.76712 1.30376 0.535288 0.102818 -4.75685 4.81669 11.9105 -1.21272 0.152228 1.26119 -0.301436 -0.391927 1.10413 1.19325 -1.0345 -1.74543 1.07993 1.10758 -2.26501 0.379922 
-3.85131 -3.09238 -5.69151 2.51564 1.58931 -1.39319 15.047 4.11943 6.30018 5.61287 -3.22607 -0.313971 12.1135 -2.23692 0.415372 0.265755 -1.94608 -1.675 1.21198 0.407445 1.60823 -0.317575 1.18824 0.921482 -1.01546 1.10161 
-9.26167 -2.61352 1.12145 -0.613863 1.87414 0.984057 8.24172 0.639569 3.08218 10.0063 -3.27308 -6.42683 14.0024 -2.43535 1.32578 -1.35042 -2.06641 -1.2423 -0.577371 -1.78501 1.18813 -0.485483 0.00130396 0.125083 0.079076 1.86124 
-10.993 -0.996204 -9.47696 -4.33722 -0.702845 1.49972 8.42373 10.3979 2.33732 3.56782 -1.71797 3.02453 16.4404 -2.62613 1.20058 -1.75064 -1.92835 0.57295 -0.879246 -2.15618 0.206978 -1.77273 -0.97177 -1.24352 1.6446 2.00774 
-11.843 2.10813 -13.0735 -6.4271 -0.390562 -4.36126 3.15368 4.10515 0.089303 1.13186 -4.88548 3.54282 19.0532 -2.22841 1.79808 -1.25472 -0.599373 2.27574 -1.36432 -1.0673 -1.14942 -1.13352 -1.05226 -1.95292 1.93717 1.40538 
-15.6913 0.549681 -7.34723 -4.21951 5.58641 -3.11676 6.8101 3.42153 -1.06705 5.19123 -8.63747 2.9242 19.6268 -1.49728 3.07357 2.5325 1.22642 3.87489 0.412086 -1.45342 -2.49898 -0.912511 -0.682419 -2.11883 -0.529642 0.626687 
-18.0546 5.60395 -6.217 -3.66958 10.1082 -3.52929 3.71201 -1.61934 -0.883231 3.93325 -9.57794 3.30918 19.4361 0.584232 4.24699 4.37221 3.21809 2.60221 1.14265 -2.6984 -2.96028 -0.0114619 -1.13028 0.15471 0.0109592 -0.0104395 
-15.3736 12.6237 -0.242712 0.416111 13.4222 3.14416 0.877475 0.765282 -1.73897 -1.24497 -9.96591 0.493141 19.3824 2.8184 3.81077 4.59831 3.2259 -1.2619 0.848792 -2.78941 -3.19198 -1.24115 -2.46614 1.08882 0.611781 -0.215415 
-9.0807 17.3061 5.2353 7.34553 8.70258 -1.77848 -7.37203 -9.36814 0.367954 -1.30143 -3.44771 4.81315 19.1232 3.74324 0.698698 5.22676 1.6175 -3.83234 1.39876 -1.71292 -2.7328 -2.14622 -2.97908 1.92459 0.883444 -0.0844826 
-6.08626 13.7525 9.91814 6.40241 -0.0202503 0.251797 -1.59492 -8.66397 -7.89837 -4.52215 -6.25846 5.23111 18.7062 3.02537 -2.19783 4.23456 0.199279 -5.46119 0.444778 -1.06502 -1.78043 -2.11471 -2.15805 1.82949 0.482082 0.0724134 
-3.98202 8.53308 14.8364 1.42479 -2.33225 4.9107 -3.61641 -10.5687 -8.53465 -9.32356 -1.8087 5.35741 19.3518 1.97807 -3.70514 2.53969 -0.357276 -5.16643 1.48323 -0.102737 0.16419 -1.86268 -2.5716 1.86644 -1.1452 0.262371 
-2.79609 6.02109 16.1296 4.37288 -8.36632 2.02347 -6.32543 -7.53658 -7.86124 -8.02416 -1.63797 2.63142 19.6301 1.53455 -3.21613 0.966075 0.754926 -4.34905 0.45879 -0.644416 0.207935 0.102871 -2.02446 3.08963 -2.32658 0.367282 
-0.835439 2.64606 14.828 6.57392 -12.9566 4.75183 -5.52046 -9.11089 -8.964 -12.4084 3.57423 0.386977 19.9731 1.46523 -2.6932 -0.762408 1.75484 -3.91103 -1.22764 0.633182 1.10677 -0.18544 -1.04582 2.93267 -2.79612 0.29928 
0.0131807 0.615352 14.7527 7.60248 -16.4534 2.62518 -3.86498 -8.3532 -7.16934 -13.102 6.49821 -3.91657 20.2319 1.70535 -2.85728 -1.67758 1.01898 -2.23606 -2.41674 1.21076 1.74333 0.139102 -1.34444 3.31663 -2.2692 0.246207 
1.93951 -2.23006 11.7128 8.58419 -17.8439 -1.52835 -1.68072 -4.62654 -9.8078 -12.0137 8.78655 -5.34922 20.5473 1.9935 -2.78908 -2.28178 0.175948 -0.334813 -3.81122 0.185639 3.16113 1.27699 -0.471674 2.11131 -1.32151 0.0805788 
4.34319 -5.82723 9.29932 8.46265 -17.103 -6.92012 -2.19148 -1.06212 -6.74383 -14.9437 12.339 -5.8465 20.5741 2.39247 -2.56431 -3.14157 -0.908675 1.73919 -2.85818 -1.7467 2.48199 2.59707 1.54103 0.174251 -0.962694 -0.136991 
6.96707 -8.07807 6.1458 7.02357 -14.3058 -9.53164 -5.42902 3.0492 -2.79182 -13.8459 11.2104 -5.25563 20.2049 2.50714 -1.23874 -3.91309 -2.03039 2.7145 0.249313 -3.14772 0.0553527 3.96144 4.32924 -1.50456 -0.625375 -0.307458 
9.46177 -9.28219 1.82834 3.83941 -9.52642 -7.66406 -10.7243 0.218858 2.30804 -4.48076 6.15755 -8.77683 19.7182 2.35585 0.258159 -4.99625 -2.65753 2.48015 2.85888 -2.73749 -2.70433 2.94089 5.9198 -1.18426 -0.506746 -0.236712 
11.9159 -6.69627 -4.11721 0.743878 -8.05964 0.0901821 -13.1529 -4.99027 5.47347 4.40099 4.35449 -7.01093 19.438 1.98888 1.08582 -4.73284 -2.87419 1.50012 4.04101 -0.358619 -3.94515 0.935557 5.5957 0.0357108 0.352706 -0.027672 
13.648 -5.22734 -10.5504 -1.68516 -7.82527 2.56337 -12.017 -10.564 3.82797 5.53181 9.84568 -7.50258 19.774 1.49724 1.50358 -4.17941 -3.11677 0.210699 3.75337 1.6809 -3.721 -0.348332 1.88049 1.47722 1.20918 0.148123 
14.8183 -4.67642 -11.329 -4.5851 -7.65578 5.55968 -6.57579 -11.2851 1.12599 9.1263 9.54486 -4.12923 20.0386 0.913692 1.34434 -2.782 -2.67473 -0.385893 2.52858 2.91949 -2.09078 -0.549351 -0.234054 0.353405 1.7228 0.15833 
15.4968 -2.7742 -15.4628 -9.07994 -8.67486 8.36805 -5.60839 -15.2388 2.74012 2.55903 10.9484 -4.17179 20.1584 0.434194 1.21408 -1.10895 -2.89085 -0.234207 2.08011 1.93397 -0.20176 0.682374 -1.65452 -1.47418 1.82129 0.0324835 
15.56 -1.20115 -15.571 -8.93236 -9.56431 9.83073 -1.75973 -13.1068 3.27064 4.71711 5.57013 -0.062331 20.0374 0.0325532 0.907066 -0.147284 -2.66285 -0.203061 1.83158 0.929725 -0.0307651 1.5362 -2.50718 -1.26393 1.06349 -0.0463408 
15.4482 -0.894561 -13.9742 -13.9658 -8.04204 10.8284 -4.75516 -10.662 6.16752 -0.536181 4.46215 -0.429592 19.937 -0.119696 0.296805 0.827145 -1.94883 0.346854 1.14699 0.672961 0.272941 1.46954 -1.37515 -0.972342 0.635147 -0.0775906 
15.0054 -1.08091 -12.8097 -15.4564 -8.98749 13.4874 -2.35378 -13.7273 7.09329 -1.86201 6.46834 -0.682862 19.9176 -0.211212 -0.153479 0.809704 -1.47471 0.68583 0.392813 0.415003 -0.766051 1.22007 -1.06923 0.631996 -0.703405 -0.0683832 
15.1756 -1.3503 -12.7077 -15.5621 -7.229 12.2747 -1.94656 -13.5638 8.17647 -1.02713 5.63762 -0.685794 19.8304 -0.374198 -0.377497 0.331762 0.247256 0.327286 0.315651 0.513125 -1.33106 0.252503 0.657745 1.50818 -1.16735 -0.0525932 
14.6402 -1.74068 -12.1558 -15.5078 -6.54168 11.0716 -1.08901 -15.4861 8.36654 -0.383568 8.14237 -3.45125 19.7488 -0.532074 -0.81057 0.158561 1.53529 0.511957 -0.274886 -0.885171 -0.0880396 -0.63459 1.48989 1.87656 -1.81571 -0.0704044 
13.7598 -2.45216 -12.6424 -12.7038 -7.62851 13.6145 -2.82191 -16.4379 6.79341 2.01332 11.166 -4.88215 19.7585 -0.631761 -1.07029 0.391002 2.54677 0.59522 -1.02413 -1.83893 1.03021 -1.04696 1.8924 1.79825 -2.90271 -0.0956434 
13.0529 -4.58283 -12.0496 -9.20907 -6.22795 11.443 -6.34195 -12.7305 4.61187 4.06722 13.0869 -7.66321 19.6015 -0.694948 -1.46585 1.47994 2.84065 0.743182 -1.9103 -3.26894 2.82023 -0.870812 2.10506 0.286021 -2.55947 -0.121755 
12.8104 -5.28066 -10.8058 -5.97759 -4.40977 6.96836 -8.51473 -9.79055 4.81901 6.20946 12.1566 -13.0934 19.4258 -0.644319 -1.3857 2.57411 2.87388 0.300391 -3.87166 -2.96591 4.53029 -0.545819 0.322431 -1.65933 -1.06478 -0.196375 
11.6401 -7.65566 -5.67436 -4.66765 -4.43515 4.84321 -14.5873 -4.70862 4.99968 8.04365 9.07721 -12.143 19.3064 -0.7512 -0.846581 3.85349 2.82819 -1.09529 -4.90911 -1.31443 4.84696 -1.63816 -1.79135 -1.66896 0.736939 -0.191321 
11.2446 -7.84426 -2.95946 -0.605137 -7.02296 -2.44384 -13.5288 2.20265 3.87041 1.63726 4.87427 -7.96615 18.9242 -1.12177 0.029535 5.40049 1.8183 -2.03796 -4.13446 0.482566 3.9193 -4.50766 -2.50081 -1.30119 3.51331 -0.132726 
10.0799 -7.53393 3.29467 2.24564 -10.3978 -8.39641 -10.4071 5.50774 -3.10463 -2.60341 8.38326 -6.54212 18.8957 -1.3936 1.64072 5.68103 1.40461 -2.68982 -1.92306 1.95189 1.2964 -5.40028 -2.7021 -1.23417 4.07109 -0.21116 
7.98172 -5.19385 11.7122 -0.342731 -11.6182 -7.08414 -8.19202 4.69775 -13.6671 -0.971063 5.99763 1.67277 18.9675 -1.66186 2.85287 5.32153 0.0856202 -1.52529 2.14981 0.501273 -1.36486 -3.96457 -1.67948 -0.572744 2.90448 -0.234174 
6.30358 -0.777291 15.395 2.22421 -15.5866 -2.45196 -7.49622 0.525849 -13.2329 -4.16271 2.34467 3.39302 18.2289 -1.50915 3.53754 3.48772 -0.941831 0.723639 3.62563 -1.16203 -1.40008 -0.882484 -1.72092 -1.51213 1.46349 -0.316222 
4.82341 3.04176 17.598 -0.166319 -12.055 5.33298 -12.4778 -2.1307 -10.8883 -5.98049 5.02985 1.58869 18.0867 -1.42993 3.33131 0.992324 -0.391341 2.00997 2.61742 -0.420749 -0.719013 0.528079 -2.0618 -0.677052 -1.311 -0.440328 
4.11328 6.03598 17.7903 -2.55172 -6.56122 3.52317 -14.0743 1.92155 -8.90647 -8.7033 1.30652 0.817362 17.755 -1.26036 2.48674 -0.612413 -0.109219 3.08611 0.185979 0.510362 0.752889 0.443638 -1.52604 -0.818158 -1.92024 -0.442103 
1.92724 8.05605 15.4761 0.0885286 -6.08107 3.01537 -7.00672 0.404841 -13.19 -9.00976 3.13144 -3.59439 17.0028 -1.1819 1.38599 -1.34349 0.779988 2.96578 -1.1791 0.354789 1.46055 -0.570026 -0.778998 -1.37361 -0.998733 -0.386178 
1.44985 9.14925 13.3939 1.55069 -3.14301 -0.363259 -7.67997 3.02252 -9.86392 -10.2783 -0.79692 -3.61662 16.5604 -1.09598 0.370117 -0.484163 0.999913 2.13582 -0.768927 -1.22806 1.38136 -1.25987 0.171425 -0.455834 -0.271871 -0.16408 
0.245649 8.41506 13.0788 1.68242 1.06483 1.38068 -13.9011 4.62157 -13.2597 -9.088 -0.786463 -1.18799 16.7531 -0.673856 -0.16097 0.601949 -0.232244 1.17029 -0.0597078 -1.67728 1.92717 -1.18296 0.503209 -0.172952 0.0514889 0.0189156 
-0.525838 7.70706 16.5681 1.6509 0.54495 0.495878 -16.7675 6.71997 -15.1709 -7.80706 0.986307 -1.7452 17.0594 -0.868037 -0.843105 1.41884 -0.839714 0.371794 1.11444 -0.295906 1.8234 -1.8136 0.956625 1.00048 -0.333722 0.202624 
-0.4542 7.9723 16.8987 -1.1228 -2.07363 2.28726 -10.8494 8.19199 -16.4513 -7.72932 1.37506 -4.27266 16.8479 -0.534873 -0.502842 0.129953 -0.379264 0.935131 -0.418365 1.02083 0.689829 0.0636585 1.38697 0.699139 -1.03118 -0.122651 
-2.54041 5.15511 18.5781 -1.24527 0.285191 4.75565 -10.6853 10.3543 -17.3361 -6.17447 3.12472 -3.74289 17.5261 0.199711 -0.718941 -2.75616 0.646546 1.69789 -1.7069 2.61501 -2.61533 1.42055 0.363315 -1.3529 -0.648945 -0.854484 
-1.42143 7.17683 12.7236 1.23418 5.87036 -2.84103 -11.838 6.25355 -11.8588 -2.96942 1.64003 -5.34506 15.9065 -0.0915567 -1.7274 -5.88134 1.63662 2.10748 -2.64719 3.46727 -3.56074 4.22688 1.39934 -2.58801 1.47623 -1.39444 
0.956333 4.51009 4.87492 3.70514 5.06241 -5.47449 -3.19811 -5.38747 -10.3644 -8.37043 -5.91067 -4.45372 13.2577 0.0266046 -2.01284 -7.36334 0.489197 0.730997 -1.10676 4.62392 -2.1331 5.29988 2.18007 -2.31119 3.13823 -1.55906 
-2.66035 -0.342204 -5.65642 4.58509 6.07516 -5.83359 2.74335 -1.74085 1.19726 0.36534 -7.04731 3.46389 12.0099 -0.663624 -2.16317 -4.82696 -0.691305 -0.0988124 2.24291 4.90482 0.280731 4.16441 1.74987 -2.46544 1.81234 -0.981852 
-1.78792 -1.14959 -9.0486 -0.474742 3.83778 0.718147 5.14362 3.686 2.63521 3.05848 -4.08755 7.5438 11.6791 -1.23087 -1.82096 -1.27419 0.113156 -0.329862 2.23944 3.3177 2.5896 2.94911 2.39573 -0.666564 1.10554 -0.240445 
-3.36742 -0.809164 -4.44948 -0.132401 5.98862 5.27719 8.51528 3.12047 2.4634 0.0654931 -11.5987 -2.2821 11.7865 -0.668784 -1.64225 0.813955 0.454151 -0.182767 1.27149 0.92133 1.45484 0.144153 0.622031 -0.538858 -0.23372 0.145871 
-4.84451 -4.36121 -2.09951 6.62966 3.45637 0.167317 10.5044 5.12988 3.74807 3.75816 -6.96777 3.94696 12.1671 -0.690387 -1.25695 0.271964 0.905651 -0.189066 -1.18147 0.937425 0.534283 0.946594 2.12047 0.584741 -0.0534633 0.142657 
-4.47598 -6.94764 -5.06118 3.30364 5.35203 0.799275 4.66959 4.81143 1.3616 3.12565 -8.30149 4.09371 12.4953 -0.273355 -0.659102 -1.06825 0.632141 -0.188263 -2.54652 -0.059466 1.22272 1.00634 2.0297 1.65698 1.69807 0.0539968 
-4.68558 -4.36508 -7.38293 2.33549 3.21074 -2.95025 11.7536 5.51194 7.91909 12.1307 -2.81247 4.08858 12.038 0.355825 0.633494 -0.765139 -0.445829 0.955334 -1.8501 -0.082844 0.605492 0.0238619 -0.350448 0.207637 -0.228365 -0.0717447 
-4.81366 -4.10274 -7.14904 5.17539 5.17012 -5.89666 7.59338 9.04303 5.40961 6.02769 -5.39152 6.13746 12.1211 0.485492 1.03892 -0.080643 -0.389934 0.396051 -2.07803 -0.36492 0.0842779 1.15132 -0.194401 0.156238 -0.704463 -0.0859933 
-2.89654 -2.61619 -4.88128 3.46464 8.324 -5.73524 8.62833 6.04154 1.84338 0.554897 -7.38458 1.78325 11.9955 0.326861 0.36166 0.192507 -0.744293 0.0140562 -0.48231 -0.625705 -0.695258 0.842918 -0.844643 0.16686 -1.00874 0.0210524 
-2.94304 -2.6275 -6.71522 0.789394 4.77566 -8.19839 4.40762 4.96802 10.1561 7.94156 -5.23424 1.72406 12.0866 -0.637148 -0.0225143 -0.280566 -1.54562 -0.238276 0.248184 -0.537156 -1.48179 2.24942 -0.33567 1.18649 -0.726389 0.231109 
-3.98658 -3.29439 -6.6373 0.807021 3.47825 -4.21093 10.2179 4.07315 9.76045 6.95058 -2.05681 1.25159 12.1606 -0.474087 0.224803 1.19777 -0.714104 -1.30677 0.878797 -0.860435 -2.25611 0.377111 0.551648 1.6062 -0.0286402 0.410225 
-7.45438 -3.87621 -7.67386 -1.22391 6.40161 -5.41789 4.11279 2.61827 12.6982 1.1515 -2.12294 2.77135 13.1941 0.11304 0.346667 2.64434 0.41657 -0.995955 0.446465 -1.19582 -2.18545 -1.85985 0.569965 1.02638 0.751224 0.319762 
-3.0113 -0.867826 1.58688 0.900775 0.977166 -2.7315 4.47357 -4.06411 2.45788 6.70816 -0.909245 1.1164 13.4929 0.326511 -0.0508784 1.12661 0.354762 0.384419 0.70754 -0.663434 -1.6119 -1.63356 0.761103 -0.267807 1.43668 0.0455319 
-2.86548 -2.10745 2.39436 2.82537 1.04643 -6.70578 1.30069 -1.89059 4.50811 10.9126 -0.676116 5.54777 13.0192 0.239122 -0.298522 -0.557516 0.48153 0.284777 1.4629 1.62841 -0.19148 -0.714154 1.20069 -1.15291 0.889889 -0.291076 
-4.64848 -4.43316 -6.03838 0.556193 8.07794 -0.0292833 8.30683 -1.7319 5.68769 5.87555 -4.11925 7.04679 12.4756 -0.731322 -0.922422 -2.61116 0.34984 0.910188 1.02862 2.36463 0.988554 1.27152 -0.0635314 -0.975364 -0.304356 -0.324673 
-5.44019 -3.58615 -6.64881 1.35603 4.27511 0.545501 10.3382 0.494771 7.51249 7.57126 -6.28248 4.2556 12.2473 -0.428276 -0.0926245 -1.68136 -0.081047 -0.275585 -0.329 0.826706 0.675688 1.19399 -0.792206 -0.141836 -1.50423 -0.216141 
-5.38056 -4.74059 -6.94735 3.38464 3.91376 -1.21404 11.778 -0.314024 7.31327 8.06117 -2.98288 0.240712 12.2555 -0.129815 -0.248547 0.000247514 -0.0260581 -1.57459 -0.271523 -0.560654 1.29304 1.3632 0.279791 0.836193 -0.482134 -0.0279196 
-4.64082 -2.41686 -5.55793 1.00591 1.75059 -7.7584 3.69865 0.778908 9.66525 5.85875 -1.95348 1.42968 12.0486 -0.153231 -0.393134 0.29546 -0.264482 -0.42106 0.903769 -0.102313 1.23778 0.703795 -0.394328 -0.218557 0.701325 0.0577538 
-5.69723 -6.26054 -6.58258 0.600964 1.46726 2.76505 8.82335 4.5912 11.4273 8.13076 -2.10279 6.04908 12.4354 0.264525 0.0691739 0.061291 -0.0439575 0.542195 0.72274 0.51308 0.578734 -0.17331 -0.786929 -1.97192 1.50138 -0.000670528 
-6.04801 -4.79184 -5.35389 1.42546 3.39306 3.0748 11.304 4.23107 8.97446 5.56483 -7.81531 4.85803 12.4461 0.559403 0.317607 -0.35093 0.354696 1.15831 0.256566 1.32388 -0.190815 -1.639 -0.506624 -1.74646 0.55163 -0.0398353 
-3.35435 -3.20723 -6.74291 2.95508 5.80351 -3.01694 10.5407 0.853561 6.79212 4.27349 -9.91155 6.03341 12.0534 0.839672 1.02465 -0.317819 0.217959 0.979443 -1.93586 -0.0572538 -0.833252 -2.04656 -0.606355 -0.832327 -0.436919 -0.119557 
-3.01525 -2.35548 -7.23241 1.60233 5.374 -3.58457 9.45938 1.69365 3.78782 5.25427 -6.78138 4.19567 12.0404 0.64046 0.572446 -0.424654 -0.0999023 0.353238 -1.38864 -0.477053 -0.423475 -1.33776 0.0359656 0.519803 -0.316247 -0.0824214 
