-4.50493 -3.73643 -4.94618 3.27421 3.10311 -0.286373 2.5931 -1.00766 11.1699 8.19161 0.0384994 9.09389 11.9984 -0.260629 -0.0257334 -0.749956 -0.263073 -0.205292 0.0493551 0.146408 1.44302 -1.4935 -1.02287 -1.1643 -1.58165 -0.0817623 
-5.74598 -4.01636 -5.96522 3.13885 4.47793 0.756007 4.21464 4.78771 11.3893 6.2522 -6.26467 3.57787 11.8971 -0.131188 0.0961986 -0.860806 -0.0133178 0.274207 0.431056 1.22817 2.04551 -1.53354 -1.02599 -1.38434 -2.08112 -0.0798499 
-5.18755 -3.72512 -8.18644 2.02653 1.38924 -0.560788 2.51436 3.30976 3.5927 4.04694 -2.63144 3.94367 11.6403 -0.18431 0.173937 -0.517512 -0.14801 0.381372 -0.0194316 1.46273 1.255 -1.48075 -0.984369 -1.15059 -1.35487 -0.0268212 
-4.81956 -3.26108 -7.63008 3.83147 5.33108 2.00611 8.77332 7.06118 7.29081 5.13399 -5.54825 1.26339 11.7783 -0.0491425 0.654921 0.616596 0.107235 -0.0193956 -0.225954 1.2901 0.141325 -0.641569 -1.21661 -0.142781 -0.0405578 0.0179652 
-5.88969 -3.24438 -6.70131 2.18785 4.58339 -1.00858 7.62742 4.1306 5.81537 3.82888 -6.07268 3.47679 11.9237 -0.0379265 0.478667 0.449269 0.146215 0.651137 -0.0944395 0.862476 -0.0901915 0.47933 -1.61179 0.452818 0.498139 0.0488543 
-5.64062 -0.982129 -3.6248 3.59437 2.78387 -0.149866 8.10863 5.08391 7.07011 0.278163 -5.25796 3.60852 11.8452 0.203008 0.66847 1.22836 -1.09323 0.328926 -0.182862 -1.52139 -0.966705 -1.5155 -1.41571 0.187345 -0.260993 0.107275 
-4.96666 -2.47127 -7.94273 2.87615 5.91853 0.0450045 7.15909 3.84744 6.09971 -1.5841 -0.512497 5.26181 11.8511 0.609237 1.42116 4.0414 -1.23216 1.69833 0.043303 -4.4279 -0.502793 -3.74775 0.741548 0.62825 -1.3727 0.666188 
-4.26604 -0.305291 -0.86759 -1.97883 6.30814 0.565009 1.40052 2.36924 -0.428854 0.761913 -7.39162 -0.934082 12.3509 0.14309 1.34458 3.9203 -0.224743 1.62016 -0.0802098 -2.80006 0.752566 -3.08286 1.87475 -0.732055 -1.20659 0.625397 
-3.5308 3.523 12.1271 -1.18634 11.3129 -1.14951 -11.158 2.97397 -9.1739 7.29474 -1.8646 -1.11539 15.0018 0.765075 2.40646 5.03232 0.673312 -0.523536 -0.671171 -2.22496 1.29755 -2.99606 0.391779 -1.19224 -1.30453 0.601807 
-5.6431 2.74365 5.94179 4.50189 8.18748 0.0463401 3.26686 9.28347 -0.707389 5.21249 -8.24218 0.76416 13.3968 1.21547 2.73268 2.78182 1.00437 -1.07358 -1.59454 -0.407036 0.40674 -0.614197 -1.6069 1.19903 0.0126256 0.591427 
-0.452752 8.03655 13.8142 3.00235 2.36118 -3.05152 -4.89887 6.87805 -8.74135 -1.85049 -6.04839 -2.10997 14.3372 0.724987 3.30767 0.405093 0.343847 -0.838651 -1.50601 1.69519 -2.61406 0.693375 -2.55686 1.55835 1.80803 0.291642 
0.272314 11.1013 12.1979 0.948667 5.4161 -6.45669 -3.76423 2.45091 -3.71612 -2.69998 0.695423 -0.373666 15.6404 0.470819 2.28431 -0.172455 0.349673 1.3714 -1.89858 0.648453 -3.09458 0.86746 -1.10439 0.512549 1.69577 0.221687 
-2.86357 15.8825 11.0245 2.30951 8.50536 -5.42804 0.833492 -6.68006 -4.20266 -1.53333 1.45833 8.49369 15.3382 -0.386226 -0.844004 -3.27537 1.89959 2.0123 0.541224 3.50426 -1.10506 2.41489 0.882032 -1.09931 0.680101 -0.593233 
-2.0836 10.2422 6.47439 6.59668 11.9724 -8.2583 3.64295 0.589619 1.36057 -0.468061 -9.43279 3.94117 14.0048 -0.762564 -3.26145 -3.50128 2.3726 0.276081 2.43193 3.5167 1.91497 1.76269 1.53459 -2.37118 -0.369751 -1.02786 
-1.20593 4.2461 0.29912 9.67631 9.14456 0.555411 8.91885 2.28337 0.794774 1.4437 -6.48084 -0.866878 12.1889 -1.08794 -4.49523 -4.06607 0.151538 -1.76762 1.45029 1.8974 2.87353 1.98766 0.836144 -1.71486 -0.598037 -0.817517 
-4.36933 0.61231 0.054194 9.12825 6.47691 2.71122 9.7766 7.54404 2.59859 3.48447 -7.19088 2.45786 12.0758 -1.67793 -3.3759 -3.17414 -1.57093 -1.46347 0.562931 1.06621 1.36219 1.44744 1.21833 0.502856 0.944536 -0.345208 
-7.16043 -1.77873 -6.09579 1.80141 2.415 -3.66133 7.25369 4.2104 5.11661 0.671124 -8.23693 6.24516 12.2152 -0.954889 -1.61988 -1.79088 -1.72297 -1.65044 -0.787058 0.108223 0.128117 1.51206 0.440212 0.427369 1.23382 -0.0105108 
-7.496 -3.62487 -6.19886 2.67948 8.0198 -3.33527 9.80657 6.43707 6.43684 6.0099 -6.04047 5.10783 12.2656 -0.126029 -0.583952 -0.270845 -0.389389 -1.10777 -0.479135 0.161578 -0.448391 0.982677 -0.436749 0.340899 -0.0722746 -0.028641 
-4.41704 -1.73471 -5.52878 4.28587 0.120907 -0.356633 9.44498 3.47744 6.43597 2.38205 -4.91921 3.97724 12.0414 0.425296 0.164588 0.0338055 0.67751 -0.827462 0.0930829 -0.809383 -0.286093 0.900767 -0.210132 1.03702 -0.0629532 -0.0490467 
-6.37117 -2.32946 -1.58354 5.93908 2.08513 -1.3368 9.48884 5.66857 6.8523 0.445257 -7.14525 3.23045 12.0194 0.0601571 -0.0906316 -0.900628 0.201392 -0.265272 0.827507 -0.792791 -1.13028 0.125129 -0.545116 1.32856 -0.297118 -0.0151945 
-5.59636 -1.60349 -8.23442 3.55916 1.24503 -4.19515 3.36564 3.16419 9.41272 2.40279 -2.49945 6.86908 12.093 -0.614209 -0.762141 -1.08839 0.00915284 1.85679 0.658113 -0.826875 -1.39831 -0.0727498 0.879965 1.79642 -0.873562 0.095839 
-6.60555 -4.14363 -9.34918 4.04979 6.13138 2.72152 8.88228 0.942296 5.57411 3.27395 -0.607562 2.17632 12.1638 -1.1493 1.3785 1.73649 -2.66017 -0.561391 1.84572 -1.68941 -1.85649 -1.49137 -0.0147925 0.533158 -0.884607 1.37575 
-7.37089 -4.63833 -7.08791 5.27628 7.38171 0.904772 5.61388 -1.15097 6.71131 5.36752 0.794034 0.136496 12.4484 -1.52309 2.39183 3.46932 -3.05431 -1.06053 1.90768 -1.67174 -1.80226 -1.82197 -1.30806 -1.12595 -0.5359 2.0693 
-11.2304 6.08044 6.52563 -8.22034 -3.79017 5.34184 -0.082335 -1.4563 0.746145 -1.11107 -6.12621 2.17371 18.7205 -1.27041 3.53218 2.10659 -2.23612 -0.980945 -0.863732 -2.09436 -1.64919 -0.649187 -1.23875 -1.36043 0.647207 1.83523 
-10.8994 5.24364 1.17476 -5.57735 0.903137 4.03309 -0.510766 -4.6478 2.71684 -1.945 -5.3699 4.19088 19.1612 -2.10933 2.83242 0.101432 -0.473854 0.298945 -2.13375 -0.0237524 -1.3507 -0.420575 -1.26128 -0.948768 0.72834 1.09483 
-11.1934 8.57627 -2.94754 -1.70398 4.46594 -3.1613 1.47282 -5.55525 4.32541 0.736442 -4.32777 3.38516 17.9836 -1.0311 1.67006 -0.682921 2.46646 3.06004 -1.6308 1.54069 -1.10406 1.25146 -0.924722 -1.34438 -0.468719 -0.289158 
-17.9361 8.27583 -1.84417 -0.351171 4.74838 -5.51239 4.71754 -5.85498 2.8188 -1.86266 -4.84903 3.17247 18.291 1.10667 2.50164 3.57771 2.26593 1.22566 -2.32782 1.3283 -1.46354 -0.280476 -2.37004 -2.24412 -0.531757 -0.448567 
-12.8676 12.9146 4.62049 1.49885 9.58741 1.96057 5.00697 -6.37299 6.95247 -5.77585 -13.1086 0.339318 17.7098 3.78554 0.622225 5.99788 1.13323 -1.70972 -0.684869 -0.566091 -1.06551 -3.10679 -3.173 0.240736 -1.03672 -0.291903 
-4.52894 15.5827 15.2793 4.15087 4.47072 -10.1669 4.36365 -11.5566 0.000934124 -10.5391 -12.2001 3.05502 17.0552 5.62934 -1.04454 5.18758 0.934344 -4.34208 -0.135409 -2.95681 0.168628 -4.40426 -2.86436 3.59401 -2.68243 -0.163681 
1.03076 8.03398 18.4801 1.71117 -3.94384 -4.25837 -1.18069 -8.03197 -9.7996 -10.7904 0.55144 -1.73972 17.142 4.19801 -3.20617 2.57636 0.693779 -6.1881 -0.553746 -3.42948 0.928882 -4.21805 -2.02858 6.03111 -3.15258 0.176387 
3.26145 5.49344 17.1639 4.21439 -10.1964 -3.07997 -6.9727 -4.18235 -10.8264 -13.6772 6.29101 -9.20019 17.7565 2.07339 -3.55986 0.0201134 0.272572 -5.03636 1.29766 -3.00496 2.43272 -2.35713 -0.592919 5.42784 -3.60394 0.476831 
4.22727 1.92837 16.56 4.93599 -14.0196 -4.35165 -6.47228 -5.41572 -8.72409 -14.3497 7.80146 -9.29598 18.2411 0.923279 -2.14288 -0.840645 0.438557 -2.89913 -0.480042 -0.92843 2.0802 -0.974479 0.171335 3.18516 -2.04615 0.495339 
4.23978 0.836184 16.3399 3.90132 -15.6732 -3.632 -8.01538 -0.701153 -12.3225 -11.724 11.3141 -11.1865 18.8898 0.822304 -1.79045 -1.10568 -0.06141 -0.915486 -1.16229 0.0939362 2.12758 -0.937568 1.24811 2.13248 -0.28133 0.309144 
5.15799 -0.351773 14.6889 4.06049 -15.7011 -6.38256 -5.3015 0.628456 -13.924 -10.9103 13.9657 -10.9773 19.052 0.791989 -0.912376 -2.15581 0.0970974 0.46312 -1.37246 -0.00401497 1.90259 -0.0663918 1.22003 1.44552 0.172186 0.0868578 
6.90761 -2.31875 12.571 4.34508 -13.933 -7.87595 -7.08841 3.43345 -12.9143 -9.15635 13.8713 -9.76618 18.8968 1.02952 -1.12315 -3.69055 0.816127 2.19555 -1.43878 -0.634404 -0.268937 2.41272 2.19908 -0.987916 1.05244 -0.091975 
6.8533 -1.05604 7.66534 5.19959 -12.574 -9.09198 -6.95584 2.02993 -8.76012 -9.53332 13.7504 -9.14523 18.6719 1.26862 -0.456293 -4.59209 0.281822 2.73421 0.212649 -1.77018 -1.26518 2.80665 3.18036 -1.7609 0.949221 -0.153582 
8.53974 -4.42743 1.39895 7.41241 -6.25898 -9.47119 -10.3602 -2.74657 -2.84079 -1.41705 6.48213 -6.8404 18.62 1.32933 1.03964 -4.95174 -1.83725 2.44319 3.41003 -1.7295 -3.87513 2.38309 4.27316 -1.42401 0.378019 -0.0625771 
10.685 -1.5789 -2.68552 3.93594 -5.86706 -4.5217 -12.5165 -2.60743 -4.92749 1.12186 8.85574 -7.69409 18.4225 1.54675 1.56119 -3.78516 -4.00051 1.92344 4.69061 -0.863675 -3.7794 0.506638 3.4639 0.290961 0.0355578 0.0587765 
11.6384 3.1409 -7.01226 -4.20935 -5.07055 6.88907 -12.9556 -13.6235 -2.91522 6.88188 9.19858 -8.60166 18.7086 1.51243 2.17974 -2.78562 -5.16321 0.776386 4.53988 0.161829 -2.14873 -0.690675 0.408616 1.06024 1.00575 0.158082 
13.0377 2.96574 -7.05483 -8.99211 -3.55105 6.18097 -9.97654 -11.4286 -6.18971 3.63672 13.847 -8.08681 18.9215 1.27621 1.17327 -1.44577 -4.36574 0.0945017 3.0011 1.14124 -0.513393 -0.407918 -1.35461 -0.48224 2.4078 0.227219 
14.9255 4.19893 -10.3445 -11.9396 -3.53505 7.87687 -10.8211 -9.07964 -5.66305 -0.631399 9.28769 -1.61528 19.1609 1.46985 0.394909 -0.844507 -3.01363 -0.0873491 0.427755 2.27775 1.23153 0.0427395 -2.7816 -2.26556 3.53795 0.191319 
15.4225 3.75845 -8.24825 -14.0276 -6.1623 9.98988 -7.87755 -7.44635 -5.59317 -1.89457 6.39999 0.851736 19.3324 1.17418 0.276952 -0.473591 -2.15102 -0.657091 0.654467 2.29428 0.944358 0.247429 -1.69225 -3.34464 3.05936 0.171973 
17.7952 4.71909 -10.6381 -16.7597 -4.20167 7.12339 -2.61634 -9.45702 -2.99979 -4.2605 1.59432 4.61883 19.4597 0.714551 -0.0647861 0.302634 -1.80702 -0.780094 0.723564 2.28695 0.384487 -0.253277 -0.630946 -2.04978 1.1396 0.137895 
17.4738 4.09042 -9.276 -17.3371 -6.50319 9.83004 -2.60749 -6.51811 -6.2842 -3.00999 0.970519 4.09294 19.6319 0.253001 -0.0636943 0.0710206 -1.30785 -0.160813 0.885683 0.978823 -0.25045 -0.051021 -0.303967 -0.576333 0.231703 0.0945721 
17.4727 3.70901 -8.31746 -19.32 -7.26507 11.5746 -2.02135 -7.62132 -6.58392 -3.22842 1.75352 2.46214 19.7006 -0.26994 -0.305741 0.174524 -0.220249 -0.111994 1.08726 -0.35035 -0.635719 0.359359 0.385747 0.521146 -0.279303 -0.00934086 
16.8488 3.94502 -9.05345 -19.2868 -5.43466 12.1927 -3.28093 -9.61645 -4.0562 -3.93044 3.43873 3.0886 19.6848 -0.244346 -0.613704 0.0468425 0.746188 0.539075 0.223292 -1.21323 -0.64647 0.936922 1.03699 1.10099 -0.624411 -0.130149 
16.758 3.26308 -9.87674 -16.8861 -5.29591 11.3783 -4.03137 -11.0864 -2.317 -1.87154 2.96594 3.72448 19.3866 -0.253075 -1.19507 -0.104096 1.75647 1.0238 0.232109 -2.62815 -0.232936 1.53144 1.30023 1.44133 -0.631277 -0.174181 
16.6094 1.24487 -8.26215 -14.8231 -4.7924 11.0446 -7.66865 -8.0179 -3.73305 1.49653 5.86923 0.339712 19.1382 -0.263548 -1.77491 0.224947 2.16137 1.81795 -0.381055 -3.25093 0.528983 1.22335 1.81101 1.84159 -1.62048 -0.150776 
16.327 -0.916284 -9.23359 -12.7694 -2.4672 13.3092 -12.9682 -9.58528 0.911697 0.559267 7.74493 0.680191 19.103 -0.465122 -1.89916 0.902545 2.22793 1.96639 -1.02577 -3.4454 1.15371 1.47662 1.81394 1.19314 -2.44083 -0.148626 
15.7466 -2.83983 -8.25029 -10.5383 2.24074 9.32199 -15.0672 -7.72212 0.4462 3.9092 10.2572 -3.49167 19.0727 -0.702221 -1.26318 1.71691 2.12579 1.17334 -2.32831 -2.67336 2.25969 1.55433 1.23635 -0.775274 -1.73657 -0.199338 
14.8638 -4.19038 -5.36994 -7.8889 1.01947 7.11082 -17.5591 -5.4658 2.9765 5.99182 6.73767 -6.56396 18.6762 -1.06212 -1.07535 3.07075 2.982 -0.74668 -4.40533 -0.699727 4.46406 -0.61879 0.473033 -1.09694 -1.33672 -0.223824 
13.8299 -3.43399 -1.60942 -6.63443 -0.669053 2.50228 -18.74 1.22083 3.00621 4.96198 2.49649 -4.72107 18.3549 -1.77418 -1.16675 4.46797 4.13115 -3.79276 -4.37182 1.87047 4.66275 -3.29302 -1.63905 0.488131 -0.430145 -0.0237597 
11.9748 -5.99594 2.79974 0.188656 -4.74571 -5.30762 -14.6304 8.26355 -3.46226 2.39804 6.14057 -5.38872 18.3428 -2.42314 -0.715705 5.36125 4.31679 -4.73131 -3.33112 3.7907 3.24334 -4.80769 -2.85798 1.50111 -0.00883503 0.130041 
8.32017 -7.77078 10.0047 6.07872 -13.8405 -6.3279 -7.17915 8.72696 -12.7995 -2.48918 12.9964 -6.23002 19.1206 -3.0631 0.130456 5.82729 2.36658 -3.65275 -0.299927 3.21345 0.94517 -4.50774 -3.4057 0.676468 0.0891061 0.242803 
5.50294 -5.60051 15.6292 7.33848 -16.0513 -5.12969 -4.38607 6.99783 -13.1591 -4.57251 8.99329 -5.85366 18.9436 -2.80315 2.34155 4.86301 -0.0982704 -1.14588 2.07693 1.75525 -1.24618 -2.43234 -3.45049 -0.543977 0.771422 -0.117406 
1.7503 -2.97943 21.1123 1.62353 -13.28 0.913676 -7.795 6.57955 -14.6841 -8.58122 4.45247 -4.04306 19.2686 -1.65258 3.41536 2.9073 -1.56335 1.64646 2.02368 -1.14368 -0.98979 0.295605 -2.6937 -1.859 1.17747 -0.446033 
1.24398 3.31615 21.561 1.9249 -10.7554 1.45626 -5.54626 3.10634 -14.6817 -11.8084 7.69264 -2.62508 17.6818 -1.26667 1.80492 -1.13892 -1.71005 2.94359 -0.204755 -0.147767 -1.77933 0.144616 -1.97745 -2.85154 -0.039088 -0.949375 
2.18674 4.8477 21.5753 0.96876 -8.25619 0.497538 -12.3174 5.72375 -10.5602 -12.3398 4.35169 -1.95695 17.5213 -1.30091 -0.369921 -4.72631 -0.153413 4.37466 0.014862 2.59475 -1.20239 2.35665 0.902628 -3.76225 -0.282116 -1.17599 
-1.04865 -0.489475 9.70315 -0.884378 -3.84528 -5.9454 -2.86369 -1.47093 -14.4979 -12.5805 -5.21402 -7.09216 15.0703 -1.65385 -2.68112 -6.49187 0.199209 5.01249 0.903813 3.61959 -0.509389 5.35772 3.80346 -4.00255 -0.0546537 -1.01969 
-3.60793 -2.92622 3.40971 2.2611 5.13832 4.68882 3.83746 2.85622 -2.99272 -3.68203 -7.90548 -3.22011 14.6943 -0.895984 -1.29867 -5.43896 1.70367 3.67093 1.53635 4.61149 -2.2425 4.98958 3.88655 -2.56203 0.609753 -0.852175 
-4.12793 -6.20249 -1.81554 2.27478 7.60983 3.87968 4.47427 1.99316 8.32318 2.88007 -6.19151 -2.26678 13.9969 0.243181 1.15983 -1.15508 1.60173 2.01682 1.24178 1.52601 -1.48012 2.85352 1.81049 -0.916856 0.138905 -0.257378 
-0.753548 1.21085 0.139825 7.90751 4.37093 3.26674 7.07103 -7.22079 2.97713 -0.63725 -7.96973 -1.32088 13.7972 -0.302369 0.512071 0.228725 -0.426633 -0.124993 -1.67573 -0.854186 -2.00269 -0.810834 0.741835 -1.28115 -0.699508 -0.0177157 
-1.25994 3.24112 5.56269 4.30106 6.62251 0.974553 3.14956 -3.83301 -3.2153 -5.05043 -9.76617 -7.34725 14.232 -1.17599 -1.28881 -0.39846 -2.3286 -1.24661 -1.15589 -0.628087 0.309513 -0.802551 2.36134 0.775463 1.22531 0.105383 
-6.55377 -5.08767 0.864217 -0.88521 5.00701 -2.23725 0.228888 -4.24415 -1.27765 3.9924 -12.5239 -4.17741 14.4882 -1.56941 -2.99816 -2.32582 -2.87567 -0.827421 -0.508998 -0.976636 2.48223 1.76255 2.39841 2.47423 2.42814 -0.108697 
-7.10775 -9.49727 -4.17004 -4.97186 1.05876 0.852203 4.7549 2.05241 6.43781 12.372 -0.0371256 5.28803 14.1783 -0.815091 -2.1068 -3.10281 -0.633923 -1.15133 -0.752739 1.1459 2.36751 2.68322 1.76275 2.68801 3.61629 -0.422041 
-5.6767 -7.41076 -6.62293 -1.83437 3.0157 0.782919 1.38518 2.24765 6.96331 2.64358 -0.463087 4.50218 13.2806 0.0502491 0.435305 -1.25125 0.732027 -0.521157 0.12461 2.56389 2.25257 2.01279 -0.45082 1.38068 1.68921 -0.545572 
-5.77393 -6.13132 -6.20778 1.60603 1.86151 -4.29923 8.30092 4.75865 6.08034 4.4377 -2.35651 6.39441 12.7256 0.25691 1.60178 0.353203 1.76186 -0.506324 -0.759084 1.61151 0.378528 -0.486987 -0.688859 -1.05788 -0.461217 -0.478976 
-6.96944 -4.59412 -4.37316 -0.514019 1.99985 0.961514 11.2753 5.66559 8.96505 5.70543 -4.46079 3.71543 12.4867 -0.122785 0.801042 0.621853 1.43083 -0.745234 -0.731862 0.71789 -0.87348 -0.902694 0.461015 0.0858163 0.322084 -0.273337 
-5.17683 -2.89669 -3.52891 3.17729 -0.964935 -3.03251 7.86741 2.23608 3.00201 7.39675 -3.32769 3.37532 12.1803 -0.0497604 0.268694 -0.403884 0.362743 0.420305 -0.156931 -0.802284 -1.16866 0.718026 0.827053 1.14186 -0.130268 -0.151588 
-6.58917 -5.02287 -4.8531 4.53416 0.702754 -3.50975 5.19138 -0.858461 3.989 3.46913 0.451587 7.62215 12.1865 -0.138241 -0.153043 -0.371695 0.972982 1.40958 -0.568295 -1.72932 -0.8888 -0.00733774 0.160607 0.656957 -0.871826 -0.0320507 
-6.21286 -4.57347 -7.98723 0.895653 4.61159 -2.84825 7.33147 2.17739 12.1585 9.69112 0.896585 3.78972 12.1177 -0.471965 -0.274757 -0.0597652 0.269589 1.73371 0.400045 0.0193619 1.91182 0.982406 -1.85628 -1.26485 -1.74525 0.0103894 
-7.14263 -4.52094 -4.00247 5.49171 6.25949 -1.97209 2.89671 1.25093 4.35012 5.36128 -3.28815 -0.850897 12.3577 0.199457 0.632175 0.689159 -0.110893 0.126963 1.01669 1.38586 1.91831 -1.22915 -1.646 -0.538778 -1.58554 -0.0447787 
-7.25993 -4.52144 -4.25305 4.04646 4.92524 -1.80111 9.11155 10.7405 7.73348 -2.83073 -7.78207 -1.11441 12.1467 0.367021 0.455674 0.550455 -0.16636 -0.77143 1.13871 0.826397 -0.441853 -1.48485 -1.65595 1.05222 0.0201415 -0.0512852 
-5.06836 -1.88802 -3.2744 2.40429 1.18074 1.05015 11.2306 4.45155 0.0557547 1.50004 2.09703 2.14653 11.9481 0.417406 0.478421 -0.417404 -0.210341 -1.29804 0.569547 0.627569 -0.672779 0.0223361 1.20353 2.41468 1.30645 -0.0588394 
-5.41489 -3.61157 -5.599 1.60756 3.29381 1.3342 7.2965 -1.63218 6.88145 3.34199 3.46508 2.39171 12.0661 0.155123 0.0869729 -0.787553 -0.262857 -0.859985 -0.629994 -1.37978 -1.40577 0.983256 2.46262 1.50949 0.658306 0.0416546 
-5.97812 -2.58377 -5.41652 5.65946 0.585022 -0.692016 6.94208 4.07337 4.88781 8.29259 3.16167 3.92829 12.1038 -0.12707 -0.339162 -0.194739 0.473224 0.459096 -1.19043 -2.16815 0.238756 1.00345 0.776403 -1.54728 -0.734933 0.0445759 
-6.02944 -3.73869 -7.11975 1.1046 0.923174 -4.08 4.35691 3.9007 10.2337 6.0861 -0.766966 1.28624 12.2771 0.0811159 0.0711639 0.010276 -0.268784 0.0875973 -1.39207 -1.03327 0.774016 -0.205775 -0.45296 -1.82388 -0.0931876 -0.00802116 
-5.39644 -3.52027 -3.48772 5.0219 4.66154 -2.1949 1.85965 2.87889 3.39686 4.01 -3.52334 -0.9754 12.0655 0.194818 -0.108052 -0.219455 -0.795433 0.496002 -1.08759 -0.83522 -0.00732956 1.04282 -0.0451381 -0.0378649 0.379651 -0.00208788 
-5.30015 -2.7875 -6.51202 0.582421 1.69354 -4.8747 4.67136 2.83515 6.59804 3.21848 -2.31183 4.37762 12.0451 0.0042345 0.0790525 0.0321951 0.141941 0.145835 0.0507942 0.128628 -0.0807929 -0.950829 -0.0571502 1.73016 1.19608 -0.0363957 
-5.36867 -3.59963 -6.81766 1.94338 2.67985 -5.73262 2.60876 4.5695 11.9198 9.50071 3.74478 4.28086 12.2094 -0.237112 0.0441892 -0.272875 -0.0924209 0.301338 1.55136 1.51808 1.27642 -0.241159 -0.97897 0.387356 0.471427 0.0225652 
-6.02215 -3.30375 -5.2938 3.35356 2.6432 -2.05717 4.6255 2.65143 1.21814 3.05499 4.24977 4.63853 12.0232 -0.269402 0.00510445 0.345811 0.641445 1.10133 2.79415 1.64675 1.78188 -1.04728 -1.8347 -1.37232 -0.928225 0.0268262 
-6.221 -3.0412 -5.4612 3.17422 5.6934 4.15315 9.47299 9.35287 4.88102 -0.803099 -4.86736 1.25128 12.1893 -0.190351 0.137942 0.254553 0.228235 0.907731 2.59819 1.85759 1.62682 -1.04146 -2.44657 -2.63414 -0.94464 0.0125928 
