-9.4189 -3.10623 -4.66897 0.235652 10.6571 -3.02132 4.19894 2.74336 10.3027 3.82364 -6.53217 -4.25175 12.2442 0.436678 -0.128469 -1.17586 0.251418 -1.00019 -0.320686 -0.570029 -0.0268099 -0.578182 -1.1928 0.0346233 1.36197 -0.0168839 
-7.12788 -3.58189 -8.23976 2.39299 10.6923 -5.26936 2.32463 1.7608 7.51296 -2.73179 -4.91134 -1.62938 11.9139 0.335106 0.357352 -0.696774 0.252609 -1.79867 -0.0179609 -0.0337143 0.527713 0.181251 -0.632999 0.211656 1.00082 -0.0193357 
-8.38103 -3.51074 -8.76289 0.414072 5.63856 -3.50073 2.28595 3.10059 8.80669 1.13736 -7.16946 1.24692 12.325 0.187287 0.552326 0.17497 0.348343 -1.25087 0.363851 0.523355 0.327371 -0.320506 -0.284681 0.768956 1.86039 -0.0312999 
-8.26231 -1.11721 -6.10588 1.40949 4.17302 -2.87142 4.98686 5.20331 11.957 2.00178 -5.15524 -1.99697 12.1072 -0.403708 0.154034 0.923184 -0.244771 -1.60301 0.690226 0.445246 -0.19598 -0.750591 0.125414 0.967236 0.961685 0.0215127 
-7.91525 -1.57694 -4.86106 2.46912 7.66238 -2.40103 5.4846 2.65896 6.47817 0.0334447 -2.56544 5.23399 11.9911 -0.307156 0.240792 1.03184 -0.0956944 -0.580783 1.19 0.72817 -0.178923 -0.882069 1.06485 1.3409 -0.107689 0.00934601 
-9.3793 -3.77862 -5.57475 0.141613 1.66532 -2.36808 2.95153 1.00171 4.92427 -1.55277 -2.37717 1.1855 12.1884 0.233291 1.15072 1.28892 0.261241 -0.205847 1.46602 1.44026 -0.355554 -1.00908 0.746689 -0.398186 -0.843501 0.0635096 
-9.35831 -0.97608 -3.86927 0.569538 3.9885 2.19762 6.94446 4.30677 7.91271 8.23887 -1.85397 -0.882765 12.3311 1.53336 3.07219 2.68497 1.24517 -0.0635827 0.363981 0.281092 0.215739 -1.85961 -0.848559 -0.821344 -2.32507 0.213082 
-6.37433 4.33599 -0.157149 3.66548 4.98073 2.15937 11.4582 2.60163 6.19432 1.63251 -7.5019 -3.1561 12.2547 2.28627 3.60779 3.601 1.16458 1.06593 -0.55837 -1.59964 0.133033 -2.31332 -0.736646 0.431707 -2.42823 0.37089 
-1.75095 9.72671 5.85499 6.93302 5.68676 -2.84486 2.63672 2.93769 -3.45492 -5.80199 -4.1098 -4.22058 13.0233 1.52165 2.72496 3.49938 1.07233 -1.1331 -0.048489 -2.94482 -1.15252 -3.34165 -0.266954 2.50214 -1.85026 0.583984 
-1.75162 8.90894 7.56814 2.78275 6.14584 -2.63869 -2.89281 2.35142 -0.958523 1.78443 0.909274 -9.28672 13.6967 0.286928 0.665019 3.23577 -0.584578 -2.87765 0.598234 -3.32322 -0.0175698 -2.96836 1.08661 3.65436 -0.719962 0.875223 
-4.06142 10.3622 9.76497 6.37255 -2.25954 4.3542 -0.604128 -1.33074 -5.21909 6.82814 6.45114 -7.06876 14.53 -0.494628 -0.28492 1.85995 -1.6604 -3.41933 0.904822 -0.965501 1.20893 -1.49005 0.851386 1.58316 0.943191 0.774196 
-3.78445 7.34333 14.0667 1.02283 -5.43437 1.55101 -3.53745 4.648 -7.7654 0.750484 5.48946 -5.33182 15.8775 0.0121232 0.153475 1.00167 -1.49461 -2.52421 0.47779 -0.264645 1.02513 -1.89268 -1.16669 -0.302597 2.19769 0.532841 
-3.20767 9.08492 11.9054 -0.489014 -5.61981 -0.415597 -1.86847 7.83408 -7.50172 -1.02809 1.51589 -1.48208 15.8039 0.907965 0.324161 -0.191148 -1.65989 0.604882 0.195832 -1.85141 0.0413883 -0.471308 -1.35294 -1.39327 1.66269 0.175354 
-2.11788 10.315 11.5063 -1.25952 -4.79508 2.13516 -3.58387 2.89468 -9.28061 -0.120903 1.86391 -1.09163 15.724 0.456776 1.40691 -0.676596 -0.416923 2.21667 0.53047 -2.08352 -1.64344 0.116445 0.0445063 -1.76653 1.31029 -0.0357901 
-0.354878 10.4972 10.0895 -0.78573 0.445228 5.04129 -9.83798 -0.247133 -6.81803 0.499132 1.29757 -0.875397 15.4835 0.548374 -0.139353 0.286652 0.978444 1.82435 -0.685529 -0.857644 -1.92839 -0.169904 -0.666983 -0.959243 0.340733 0.0226049 
-2.92697 13.6718 11.5917 -0.913432 2.61645 1.47492 -9.97031 0.471392 -7.52502 0.209407 -3.23403 0.91627 15.8587 0.395853 -1.12674 1.53961 0.998068 0.0214523 -1.83579 0.489074 -0.430645 0.106035 -1.59671 -0.849378 -0.0885775 0.198535 
-0.061254 6.70976 13.2959 4.23016 -0.203813 -3.51312 -2.96347 -0.596223 -9.22903 -4.52816 -0.731355 -0.782366 15.8496 0.418912 -1.98032 1.24833 1.90922 -2.18859 -2.71565 1.55366 0.797274 -0.999919 -1.22144 -0.21876 -0.475276 0.355887 
-0.285424 6.575 17.6011 1.22287 -4.3633 -2.76659 -4.57575 0.915996 -7.54493 -5.59083 -1.36852 -1.58104 16.5336 1.09161 -2.94578 -0.18032 3.20528 -3.65774 -2.24873 1.73087 0.0469728 -0.747028 -0.541793 1.09515 -0.443296 0.488894 
0.418909 4.14399 13.3264 7.69224 -7.00785 -6.41622 -4.76698 3.51694 -11.8077 -2.70794 -0.728984 -2.00312 16.9255 1.09548 -2.98776 -1.44727 3.1594 -2.96215 -2.4343 0.546478 0.0701534 0.220898 -0.640715 1.96836 0.267072 0.70849 
2.29099 0.225732 10.6749 13.3819 -12.2702 -8.31718 -0.414192 -1.35032 -9.97084 -3.40967 2.24054 -0.68983 17.7652 1.72384 -4.00076 -2.57359 3.02827 -1.29183 -2.65979 -0.416281 0.357236 1.40083 -1.546 2.39432 0.583001 0.690878 
4.12793 -5.0544 9.5227 13.9476 -11.0611 -12.9093 -2.31186 0.887704 -6.91159 -8.82231 7.3059 0.10739 18.7762 2.04036 -3.43328 -2.68058 0.601071 0.579926 -1.65058 -1.40222 0.0933181 3.50049 -1.44311 0.888148 0.120953 0.48673 
6.47928 -8.8296 6.63501 13.2365 -8.79581 -12.819 -7.88472 4.01679 -2.98885 -10.2636 6.58565 0.27871 19.0627 1.92104 -1.83532 -3.31918 -1.57159 2.67075 0.627113 -2.22484 -0.156147 3.29695 0.75414 -0.57162 -1.34812 0.0454235 
8.52655 -8.49476 1.94345 10.7703 -5.84542 -12.4182 -8.04284 1.29997 2.2038 -6.49651 1.5392 -1.88263 18.7105 1.58591 -0.290217 -3.25547 -3.46307 2.8845 3.9063 -1.18159 -2.30051 2.0068 3.13609 -1.24915 -1.90969 -0.250273 
9.69687 -7.2307 -2.13141 7.11263 -1.52431 -5.42717 -8.67288 -2.33719 1.9562 -0.801867 2.26579 -6.43544 18.0252 0.881478 0.634387 -2.13545 -4.86803 2.09932 5.44633 0.161715 -3.32155 -0.0987 3.24274 -0.0654699 -1.35512 -0.224074 
10.4487 -7.30494 -2.37145 -0.305776 -0.274356 2.92624 -7.82572 -7.43784 0.649909 2.12724 3.22006 -6.08397 18.0436 0.597511 0.742089 -1.0321 -5.16241 0.772131 5.71049 0.939726 -3.35366 -1.32163 1.66829 0.995801 0.523143 -0.0147114 
9.92559 -6.25258 -1.88481 -5.5656 -1.08475 6.74042 -7.18471 -8.22204 -2.7054 1.63816 5.41788 -4.39624 18.2757 0.636052 0.440408 -0.52767 -4.41813 -0.130146 3.96431 1.46966 -2.61421 -1.12838 -0.0727544 0.441549 2.09598 0.197942 
11.3997 -5.27337 -3.34034 -8.70265 -2.20455 10.0504 -4.08829 -12.5259 -2.07354 0.624932 4.94216 -0.286513 18.5117 0.794286 0.516102 -1.19307 -2.4907 -0.682805 2.078 1.46612 -1.8246 -1.0343 -0.159846 -0.492636 2.52719 0.245505 
12.4016 -6.04444 -4.28531 -10.7796 -1.20995 10.8323 -3.1933 -12.8642 -2.32397 -0.414485 3.61248 1.14572 18.7809 0.759069 0.0343781 -1.30665 -0.980956 -0.44078 0.921747 0.878357 -1.28034 -0.0935942 -0.20191 -0.155575 1.37988 0.225903 
13.1821 -4.8285 -7.13657 -10.1523 -3.62578 11.2703 -2.49082 -14.2398 -4.71231 2.35433 1.65958 3.781 19.0185 0.366325 -0.192055 -1.09727 0.246526 0.0200838 -0.265539 -0.0521529 -0.516396 -0.374116 0.892371 0.254382 0.0056649 0.157126 
12.8297 -6.30313 -6.51994 -9.74556 -2.57804 10.7392 -3.59166 -13.7668 -1.85399 -0.23609 6.28129 0.469385 19.1518 -0.362165 -0.146298 -0.268594 0.882709 0.901299 -1.66607 -0.746589 0.410708 -0.531031 2.14925 -0.163054 -0.829271 -0.00108643 
13.0173 -6.10431 -7.70936 -7.98705 -1.42008 8.76927 -4.14988 -14.6566 -4.17912 4.99759 4.87967 0.0799798 19.1118 -0.670669 -0.407289 0.268265 1.76813 1.62458 -3.17206 -1.19966 1.02229 0.574079 1.69779 -0.33819 -2.02865 -0.126627 
10.6732 -6.13803 -5.34189 -7.44868 2.1937 3.75243 -6.09672 -10.6022 -5.24572 9.01014 1.18717 -1.15013 18.7288 -0.740688 -0.314153 0.373969 2.73287 1.27037 -4.23706 -1.57895 1.62325 0.759999 1.34624 -1.56975 -1.71301 -0.183725 
10.9071 -6.94749 -6.38427 -2.46009 2.11125 -1.09658 -7.2366 -10.7106 -0.14605 6.22015 2.51569 -5.5525 18.5969 -1.1575 -0.242532 1.10359 3.24549 0.523679 -4.77137 -1.52844 3.07626 0.650829 -0.517976 -1.34632 -1.26902 -0.163148 
10.1814 -7.4523 -5.31264 1.15533 2.00814 -5.51319 -9.94303 -7.62357 -0.0705266 5.88381 -0.38547 -5.27942 18.4907 -1.44632 0.0638296 1.75314 3.47341 -0.826931 -4.04765 -1.09489 4.14545 -0.945732 -2.28769 -0.420106 0.0166623 -0.0861938 
7.4757 -6.65983 -2.20605 3.9384 1.29109 -10.4548 -9.86891 -0.764616 -3.51257 3.97088 -1.06563 -4.20049 18.4152 -1.74693 0.438186 2.79946 3.02479 -2.33812 -2.68249 0.220975 4.33738 -2.73216 -3.03591 0.572698 1.16864 -0.0469595 
5.15728 -5.96271 1.33471 6.71911 -1.53088 -11.8067 -10.255 5.15198 -8.29112 -1.30368 0.877296 -1.74282 18.3887 -1.62587 0.815717 3.20249 2.46122 -3.82167 -0.449553 1.89828 2.44739 -3.16816 -2.74744 1.86237 0.0226144 0.0277615 
4.68449 -5.50136 4.28936 9.88195 -7.80985 -11.3623 -5.97573 4.58852 -9.69655 -5.36565 4.7478 -1.47759 18.4131 -1.29139 0.759795 3.41428 0.898982 -3.32814 1.69873 2.52324 -0.117307 -2.44929 -1.13462 1.30654 -0.872348 0.0326397 
3.44768 -3.95295 7.45212 10.4897 -12.5497 -7.3072 -2.39824 1.93684 -12.8193 -3.18512 6.01965 -6.5278 18.6305 -1.64009 1.51583 2.93109 -0.530972 -1.98092 2.54585 2.02915 -1.41246 -0.666678 -0.048469 0.242243 -1.31072 -0.0159401 
1.87356 -3.86573 11.8066 6.54803 -9.84016 -4.21087 -1.18112 0.256421 -13.4949 -0.761515 2.89588 -6.16974 18.4575 -1.81655 1.68936 2.19924 -1.408 0.14859 2.31333 0.185451 -0.755248 0.292854 0.436462 -1.23584 -0.490375 -0.119608 
-1.63772 0.798615 12.2315 5.73121 -10.4203 -2.65316 -2.50655 0.255707 -9.72532 -3.84809 3.01447 -5.95032 18.2868 -1.45009 1.59761 1.15819 -1.06727 0.72279 1.85754 -1.33688 0.128298 1.37978 -0.714747 -1.0258 0.247521 -0.21117 
-1.85555 0.569667 12.8959 5.2212 -8.13161 -2.12261 -4.99432 1.65284 -9.77928 -2.85185 0.0711873 -4.2182 17.9869 -1.26195 1.24534 1.207 -0.443286 0.496154 1.38061 -2.05839 0.899079 1.26613 -1.69014 0.00432477 0.482462 -0.0747881 
-1.93822 1.8174 12.6984 5.81676 -9.79006 0.936346 -7.17602 1.88012 -7.77826 -5.71369 2.30302 -6.26596 17.81 -0.268102 0.769374 1.12159 -0.336337 0.425996 1.15623 -1.56924 0.82347 0.00140085 -1.44768 0.991406 -0.0349783 -0.120465 
-4.28593 1.85157 17.6082 4.28883 -7.67453 0.897421 -9.13835 3.93961 -8.13781 -8.27944 3.27323 -3.59961 18.3219 0.107877 0.806469 0.721526 -0.283561 0.798847 0.458933 -1.16117 0.109605 0.0202188 -0.70116 0.532084 0.000824213 -0.19751 
-1.76304 4.00453 15.4833 4.51571 -8.5189 1.61799 -8.28072 3.22967 -10.5391 -8.37271 6.37048 -6.43451 17.517 0.619982 0.331625 -0.0329548 0.219939 0.559576 -0.396314 -0.0299587 -0.936938 -0.514166 0.32975 -0.108912 0.620643 -0.275592 
-1.40375 3.50844 15.1111 4.45392 -4.77295 -0.168773 -10.2478 1.52609 -8.29779 -5.02814 0.697879 -4.12981 17.1458 1.16283 -0.13861 -0.999837 0.692435 0.0406973 -0.628027 0.843267 -1.65155 -0.518882 0.434305 -0.175206 0.845773 -0.324677 
-0.279396 2.64709 13.7822 6.8339 -8.44297 -0.512125 -6.77107 -1.59781 -10.2691 -5.69059 3.04614 -2.89765 17.0201 0.848204 -0.889842 -1.19325 1.64298 -0.534653 -1.9668 1.46022 -1.09798 -0.892081 0.678378 0.162936 1.27403 -0.0391626 
0.786387 1.83724 13.4595 6.59191 -7.509 -1.17766 -5.67684 -1.9044 -10.8672 -7.44897 4.05937 -1.13917 16.947 1.02423 -0.906895 -1.41915 1.43814 -1.02196 -2.90674 1.99071 0.76898 -1.1702 0.356073 1.56642 1.0956 0.0602375 
1.38291 0.390925 10.3428 11.6616 -9.82414 -7.71159 -3.26509 -0.544991 -13.7148 -3.7704 5.50441 -1.55968 17.4206 1.22601 -1.28092 -1.73212 0.323839 0.0356457 -3.46703 0.309066 2.68823 0.570495 -0.0240575 0.931051 1.44435 0.0978893 
2.88624 0.102051 9.73503 9.23075 -9.19216 -11.1027 -2.04725 4.84458 -12.426 -4.20786 7.30086 0.679192 17.2468 1.26563 -1.15883 -2.39363 -0.825349 1.20447 -3.20209 -0.608203 2.34516 3.32608 0.565673 -0.794627 0.912256 0.0521938 
4.80071 -2.88989 6.98384 7.13368 -7.42316 -12.8847 -7.04053 8.46886 -6.63724 -7.43143 6.08065 3.41494 17.3596 1.58491 -1.26088 -2.73699 -2.35166 2.40008 -0.724892 -2.12635 1.20052 5.27146 0.528386 -1.79312 -0.0037077 -0.02997 
5.40563 -2.3165 3.17087 4.72914 -2.68712 -14.6015 -6.83013 5.31446 2.22447 -2.79009 -0.201882 0.934801 17.2384 1.5961 0.135726 -3.61123 -3.26522 2.27096 2.74601 -1.74357 -2.23714 4.59816 2.76457 -1.5852 -1.01233 -0.0408457 
8.04775 -4.70418 -0.0600696 2.15415 -1.07625 -9.58665 -11.5054 5.22266 5.31732 -1.83736 0.290187 -1.70602 17.2749 1.20137 1.24941 -3.84374 -3.55607 1.78323 4.38646 0.690697 -4.65037 2.35343 3.82519 -0.116662 -1.6399 -0.0470827 
9.24324 1.68783 -4.79917 -4.60557 -1.01082 0.978277 -8.53267 -4.71802 4.58755 6.81795 2.27009 -1.82199 17.0849 1.28205 1.87745 -3.35761 -4.26207 0.727134 6.12491 2.18902 -5.04186 -0.53548 2.56864 0.875712 0.471287 -0.0330694 
8.88873 1.35502 -8.24984 -5.9793 0.654817 1.25766 -2.73578 -9.76675 3.94839 6.8905 4.26135 -3.40617 17.201 0.940688 2.10287 -2.21177 -3.83195 -0.409008 4.89569 3.43128 -2.98371 -2.13895 0.851822 -0.315895 2.21395 -0.0235107 
11.3954 4.04113 -9.52229 -12.5145 0.0830202 10.6009 -0.269851 -12.4002 0.231528 5.68916 2.19109 4.14131 17.11 0.668895 1.52849 -1.10403 -2.25114 -1.0806 2.45096 3.41548 -0.052054 -2.40976 -1.32573 -1.01966 2.61441 -0.100928 
11.6751 4.6335 -8.75735 -13.0512 -3.66821 10.0805 1.5196 -5.85481 -3.19944 2.98615 -1.24979 6.38206 17.1447 0.450775 1.74187 -0.438641 -1.36709 -1.81005 1.37567 2.50264 1.39818 -1.35445 -2.16584 -1.23809 2.03234 -0.15512 
11.1945 7.69105 -10.0656 -12.3253 -4.25231 8.82166 6.41706 -6.93426 -3.88734 2.1415 -0.0726326 6.35592 16.6084 -0.357724 0.910232 0.347459 -0.886287 -1.14334 -0.329111 1.49379 0.926411 0.775496 -1.95085 -1.22481 0.343827 -0.1246 
11.243 8.23943 -10.1714 -12.9093 -6.22776 9.02563 6.43395 -5.50882 -0.764445 -2.16485 -0.797255 5.64821 16.6762 -0.595055 0.197591 0.570542 -1.4267 -0.377182 -0.137101 0.673059 -0.230663 1.7932 -0.867517 -1.23085 0.228278 -0.0979799 
9.82279 6.78932 -7.07797 -17.0168 -4.35388 9.48275 4.74193 -7.94111 2.89151 -1.48961 -4.1592 6.22738 16.7213 -0.73311 -0.594827 0.462628 -1.36161 -0.320763 -0.354827 -0.281694 0.499768 1.49886 -0.647203 -1.20299 0.830205 -0.0399319 
9.38572 6.07232 -7.39844 -17.8389 -5.50333 9.06447 5.72246 -6.5047 2.37712 0.464121 -5.36075 7.58772 16.5984 -0.80927 -1.10063 0.428509 -0.821739 0.0387711 0.36658 -0.726801 1.04148 1.35262 -0.660877 -0.886406 0.788076 -0.107714 
8.45762 5.80047 -9.13892 -16.6686 -6.21834 7.02812 5.36433 -3.93748 2.03618 -2.40901 -3.80584 9.53719 16.4476 -0.853624 -1.75603 0.862208 -0.508367 -1.36236 1.25332 -1.69232 1.52914 0.928092 -1.93237 0.33611 0.140751 -0.0268467 
7.87926 3.23069 -6.99838 -17.1921 -5.10167 12.0859 2.48875 -2.30325 6.4263 -5.00954 -5.40597 7.93369 16.2745 -1.92128 -1.26609 0.616488 0.308559 -0.374243 0.514911 -1.11432 1.61806 0.96628 -1.11628 1.00029 0.732372 -0.397993 
6.3079 -0.569991 -2.96696 -19.8821 -11.3665 14.2386 -2.1028 -2.39612 5.50738 -8.41463 -2.45605 6.75815 16.749 -2.94415 -0.666358 0.773672 2.71472 1.84956 -1.2737 0.45263 1.46195 0.485488 0.414217 0.405538 -0.172801 -0.951058 
0.854187 2.92709 -7.40198 -14.6894 -4.80046 8.03376 3.88442 0.814898 5.47292 -2.11445 -1.03419 12.6391 14.4577 -3.95668 0.593567 0.351362 5.06181 5.34514 -3.20217 3.68673 2.44265 -0.55379 1.28905 -0.373108 -1.20173 -0.98061 
-2.75057 2.62048 -5.06876 -4.34633 2.87886 2.68567 6.92965 1.81318 4.94031 -1.78546 -3.96404 6.32047 12.6007 -3.34911 1.53212 1.00753 5.54849 6.64224 -2.65874 3.2314 1.86083 0.683181 2.37002 -0.786719 -1.71124 -0.876295 
-7.37488 4.60329 -4.19067 0.349025 14.5013 1.85147 16.4062 7.80536 3.94088 -1.87889 -6.51751 2.14387 13.4456 -1.73993 0.192966 1.03342 3.56011 3.60296 -0.238896 0.994356 1.05925 1.17383 0.766484 -0.0664967 -2.27097 -0.392899 
-6.32313 6.25252 0.465056 0.341198 12.1938 4.03607 7.7933 3.41282 9.6893 3.31768 -3.64798 3.44958 12.8736 -0.680933 -0.581909 -0.0664469 0.963273 0.561373 1.01799 -0.0414622 0.6891 1.11947 -0.352819 0.280201 -0.552239 -0.219046 
-6.05917 2.07589 -5.00177 0.7674 8.55688 6.16409 8.42437 5.31131 8.96759 -0.833603 -1.5247 2.71971 12.3568 -0.357137 -2.04766 -0.827223 -0.249927 -1.57771 0.382652 -0.814016 -0.193124 0.0998362 -0.26325 -0.241428 -0.649543 -0.375485 
-6.81309 0.974634 -4.99545 0.260845 8.65796 5.61931 10.7132 6.5057 8.02433 -4.07221 -5.05944 3.27136 12.0499 -0.939492 -2.29423 -1.48613 0.00646205 -0.49847 -0.42632 0.235841 -0.591567 -1.38753 -0.334607 -0.774494 -0.822381 -0.210464 
-8.91559 -2.99608 -5.59654 -0.860431 8.3807 2.9731 10.8761 5.29329 5.27255 0.4998 -7.01893 -1.01474 11.98 -0.975883 -1.13833 -0.684282 -0.392295 -1.15473 -1.51784 -0.681083 -0.869999 -0.599228 1.56771 0.638421 0.328034 -0.0592031 
-9.59238 -2.68265 -6.66821 1.18742 9.78954 3.49996 7.74663 0.463998 4.59918 0.977941 -4.77334 1.20489 12.0097 -0.465023 -0.333306 -0.652131 -0.181172 -0.866465 -1.56167 -1.29641 0.104126 -0.0297131 1.97861 1.4571 0.718274 -0.0140137 
-9.54894 -1.78712 -7.5868 -1.65737 2.21745 -0.365433 6.50226 3.98217 7.68403 4.47986 1.52436 5.39311 12.0809 -0.0472615 0.42631 -0.352738 0.171786 -0.222973 -0.650481 -1.10959 -0.274229 -0.181957 0.079944 2.16684 1.52835 -0.0329823 
-8.82152 -1.29638 -7.26097 -0.246548 7.40726 -0.519754 6.41813 7.6819 6.67003 3.83082 -2.04558 3.65881 11.9294 -0.0904415 0.233527 0.245615 -0.213631 0.153425 -1.20992 -0.605179 -0.146509 0.956863 0.993376 0.663299 -0.406151 -0.0338895 
-9.53732 -1.55767 -7.06385 0.715482 8.45697 1.73056 5.99241 0.313199 3.32734 -0.526922 2.4514 5.40003 11.8552 -0.0405728 0.269796 0.539692 0.486977 0.559712 -1.86636 0.499322 0.0496926 0.195815 0.1548 -1.13159 -0.964365 -0.0338806 
-10.0504 -1.62973 -5.70161 -1.06716 7.4369 -3.59764 4.97566 1.56594 11.5618 8.44821 -1.92037 -0.829322 11.953 -0.17591 0.0258281 -0.0602015 0.540872 0.16674 -1.42964 0.739944 1.05348 0.807852 0.905839 -0.608667 -0.359917 0.0433988 
-9.13737 -0.271458 -5.66802 1.18782 5.00119 -8.15831 9.7201 7.28861 6.2172 2.94516 -4.19619 2.81535 11.8996 0.133404 -0.134884 -0.131674 0.543303 0.0563007 0.15871 1.10697 1.68628 0.389088 0.0817046 -1.18401 -0.627678 0.0292354 
-9.90105 -1.81034 -8.2599 2.22164 9.96885 -2.72353 8.254 9.4616 9.26436 6.62397 -1.76513 3.15156 12.1242 0.383791 -0.0504483 0.197747 0.693087 -0.0177238 1.59364 -0.370493 -0.590959 -0.834969 -1.21571 -0.032351 -0.465421 -0.012049 
-8.94498 -2.14178 -6.44308 1.7876 7.4725 2.08705 9.88808 4.79678 6.42152 0.79372 -3.54625 0.271203 11.9158 0.016032 -0.407925 0.562692 0.284156 0.214611 1.22738 -1.555 -1.09771 0.308059 0.789835 0.220146 -0.835005 0.0187898 
-8.22764 -0.946815 -4.32534 2.09839 6.11263 -0.752138 3.03921 -0.142942 7.28483 3.44538 -2.40709 -1.88435 11.8847 0.000105858 -0.588766 0.104451 -0.565426 0.0268729 0.116689 -0.674585 0.289365 0.487524 0.726042 0.834519 -0.526859 -0.0155343 
-9.89391 -2.74285 -4.82183 2.67023 8.00236 -3.00712 4.55249 6.60231 8.74726 8.48364 -2.77448 1.15828 12.1133 -0.314717 -0.41808 -0.601663 -0.663595 0.467235 0.344079 0.199635 1.38991 1.84838 0.73379 0.511601 0.56111 0.0258372 
-9.42605 -4.45364 -8.54826 -1.0468 9.83829 0.407003 7.54887 10.0057 10.5391 6.40923 2.02158 0.0737253 11.9478 -0.241385 -0.049092 -0.0637939 -0.478701 0.150598 0.600735 0.891824 -0.575042 0.0967775 0.137333 -0.304428 0.707474 0.0170973 
-9.91936 -2.47877 -7.33994 0.0422196 7.94584 3.22788 8.63142 6.67203 14.0363 2.98075 -3.20258 2.09772 12.0135 0.173512 0.275872 0.531339 0.108142 -0.257533 0.248211 0.469336 -2.74995 -1.37933 -1.02082 -0.713164 0.693821 -0.0309659 
-9.42184 -1.32431 -3.38526 1.01889 6.89388 -0.865959 5.45886 -3.05302 5.1242 6.88349 -3.71518 1.1833 12.0201 -0.00749979 0.240827 0.77317 1.03541 -0.235744 -0.0172142 -0.282749 -2.77472 -1.28705 -0.695087 -0.812961 0.837585 -0.0251418 
-9.02846 -2.92815 -4.74664 2.17809 8.1869 -1.12958 7.94417 -0.6181 4.55809 3.14239 -3.47192 4.0726 11.9223 0.147787 -0.425456 -0.498798 0.351383 0.704927 -0.580894 -0.760931 -0.801888 0.0517416 0.695041 0.375331 -0.208039 -0.0155406 
-9.909 -3.02482 -5.97906 3.06229 8.53904 2.49966 6.47875 -0.222878 8.84298 2.85297 -1.90856 3.27421 11.8676 -0.223662 -0.670896 -1.20932 0.201775 0.766123 0.499 0.160196 1.03057 0.974126 -0.89366 0.36128 -0.639363 0.0515429 
-8.93684 -3.7558 -8.53703 0.777433 10.6479 -1.35941 4.31682 1.24752 12.4356 8.47121 -2.22924 0.0120684 12.012 -0.379196 -0.391379 -0.713766 0.0765797 0.356915 0.499136 0.185347 0.496021 0.0209046 -0.988541 0.126204 -1.13692 0.0986672 
-10.586 -4.26497 -7.53666 2.72809 9.49399 1.74395 8.07352 1.16704 6.05607 -0.249223 -2.53012 0.0167501 12.233 -0.300304 -0.298948 -0.211484 0.128226 0.0756017 0.159194 0.694625 0.269936 -1.19534 -1.49248 -0.154399 -0.651023 0.0951708 
