-5.13733 0.0455508 -5.20851 4.90125 5.15947 -2.12296 8.42719 -3.99969 5.11457 0.179655 -5.49371 3.69992 12.0593 -0.571517 -0.121026 0.759547 0.018045 -0.169024 0.409463 -0.516179 1.65397 0.231993 1.25612 0.288422 0.133445 -0.0372405 
-5.35609 -1.30656 -4.63763 4.77352 3.06978 -3.50125 4.22244 -2.94223 9.43822 4.00339 -7.80775 1.54391 12.0493 -0.930837 -0.348677 1.0233 0.592186 -0.0241089 -0.453874 -1.85077 1.35426 0.686415 2.41236 1.66471 0.535684 -0.0489926 
-7.88554 0.11648 -1.69621 5.05534 5.35919 0.613498 7.94867 3.74145 4.11271 4.54839 -2.89458 5.44515 11.8781 -0.778218 -0.597715 0.190749 0.581894 0.661385 -0.298744 -0.811619 1.18587 0.360636 0.820405 2.68973 0.38215 -0.001929 
-8.41741 -1.7333 -1.84815 7.78513 4.93906 -5.76056 -0.587399 -1.09898 9.04758 10.0571 1.53027 5.50573 11.9049 -0.426618 -0.829853 -0.749266 -0.446633 0.690575 -0.370693 0.0619292 -0.940688 -0.778121 -0.950141 3.38081 0.862769 0.0743677 
-7.49776 -2.72966 -5.64951 6.30491 7.53175 -2.48703 6.77401 1.00805 7.11307 1.25484 3.28595 3.62976 12.1218 0.0367952 -0.532905 -1.60061 -1.27342 -0.0500807 -0.0259751 -0.334216 -2.45523 -0.23082 -1.29897 1.01978 -0.633182 0.074013 
-7.68307 -4.03276 -6.40731 1.91557 5.43637 -3.80445 5.11941 -6.27897 4.04744 0.899455 6.00604 6.76545 12.2993 0.195496 0.42137 -0.772651 -1.26393 -0.157687 1.25168 0.940864 -0.355461 0.0854061 -1.97365 -1.36348 -0.753425 0.0263844 
-8.06874 -1.39831 -7.41966 1.62303 4.86014 -0.494433 3.42418 -5.9447 5.45868 2.63233 -0.0335739 1.64938 12.051 0.266421 0.687053 0.290545 -0.223979 -0.285102 0.592419 -0.0562831 0.282479 0.252882 0.322086 -3.03541 -0.443456 -0.0442264 
-7.15444 -0.292119 -4.82632 3.8064 5.48644 -0.498447 5.79183 0.600093 10.3018 -0.499913 -3.62738 2.72879 12.0723 0.702903 0.827496 0.6467 1.0462 0.681958 0.332988 -0.0590891 0.854259 -0.381963 -0.425436 -3.31381 -0.460186 -0.0263909 
-6.42997 -1.16471 -4.98728 4.2396 6.08121 -1.17794 6.15638 -1.01909 5.2503 3.56496 -7.07439 3.43081 12.0142 2.48017 1.95367 0.985193 0.172764 -0.704083 -2.25357 0.971401 0.580439 -1.28198 -1.72529 -2.50106 -0.560851 0.143391 
-4.98794 -0.0120795 -4.39 5.8383 8.23562 -1.79776 3.45787 -4.47048 2.24181 -1.69404 -7.04259 3.57381 12.1857 4.35912 3.23279 0.267587 -3.40313 -2.8214 -1.34822 0.940574 0.480007 -2.1046 -1.56886 -0.75658 -1.33181 0.725428 
3.24887 8.23004 -2.71185 1.4709 -0.034873 -11.1126 9.44817 -0.507211 3.07878 -5.39708 -10.8313 -1.57738 12.7113 5.291 3.51721 0.122714 -5.57472 -3.89682 0.207613 -0.373985 2.48009 -0.555988 -2.14538 0.976303 -0.765499 1.20095 
9.80172 11.1744 -4.6261 -11.8249 -5.56253 -2.27217 8.84881 2.74419 0.864557 -3.86321 -5.53185 -1.42616 15.3509 4.58799 2.16163 -0.259378 -5.75644 -3.43053 0.881146 -1.10485 3.67887 0.851456 -1.54016 1.5617 -0.589538 1.37158 
12.6302 10.8281 -4.25566 -14.8024 -6.50381 0.0973342 1.59098 7.77403 3.15899 -6.07734 -2.94824 2.1033 16.4364 2.35805 -0.6933 0.0608568 -3.6143 -2.04467 2.42807 -2.27874 2.37118 1.76158 -1.07821 1.16381 0.784469 1.19758 
13.2613 9.49706 -4.91499 -14.8072 -5.68254 -2.99702 1.8622 9.78326 6.45899 -9.05471 -3.17558 -1.21422 17.1811 0.754247 -2.2554 1.43462 -1.27671 -1.36317 2.31628 -2.53193 0.999988 2.28935 -0.835599 0.221871 0.71324 0.723576 
13.3093 5.60223 -2.26313 -15.1094 -10.1982 1.39013 1.54776 7.82914 9.08948 -8.19237 -6.19033 2.23899 17.7841 0.0990948 -2.36878 1.80529 -0.678147 -1.60434 3.03772 -1.46111 -0.570096 1.52524 -0.31323 0.73597 0.434055 0.510648 
13.2334 2.51038 1.55073 -18.0549 -10.5312 8.66284 -3.78921 7.71658 9.34604 -6.9837 -2.80145 2.07219 18.2949 0.0210227 -1.6885 1.41324 -0.12655 -0.836848 2.71639 -1.88131 -0.840413 0.521126 -0.18763 1.36083 0.833819 0.260742 
13.1396 2.47754 1.53793 -16.5693 -12.1012 9.45601 -2.88888 5.95689 9.34167 -8.679 0.54455 2.63036 18.4327 -0.0753053 -0.114955 0.609043 0.722839 0.688254 0.571878 -1.63526 -0.431315 -1.12284 0.163156 1.31929 -0.451771 -0.0659697 
13.4513 2.61688 0.250677 -14.7101 -8.91528 6.55198 -5.32602 6.51732 8.93853 -9.74954 0.261157 2.75919 18.1605 -0.380145 -0.264333 -0.1801 3.7352 2.09821 -2.24286 0.221418 -2.21733 -1.53849 1.08963 -1.01279 -0.681001 -0.493086 
12.8238 4.97421 1.43212 -13.1677 -7.56488 5.30495 -5.86014 6.27219 3.67903 -5.99366 -1.12517 -0.36336 17.5214 -1.17533 -1.01507 0.930909 5.2705 3.30561 -0.439683 1.59406 -3.75395 -0.958936 1.39406 -3.32625 -0.753969 -0.777546 
11.4906 -0.0596199 0.703139 -1.07974 -2.3083 -0.475923 -1.19649 -3.52775 4.48491 -2.87822 -7.03053 0.164052 16.2851 -1.57296 -0.886399 1.67095 5.08474 2.62896 1.58742 3.30103 -4.5739 -0.766158 1.07945 -3.69778 -0.519105 -0.772985 
8.24331 -1.25955 5.96624 2.96803 1.12336 10.7716 3.01664 -7.79033 6.7738 -5.14437 -12.4408 0.158088 15.4827 -1.23871 -0.930342 1.83612 2.95282 1.91116 2.23308 2.84015 -3.25848 -0.129393 0.599972 -2.72357 0.0256038 -0.464044 
7.87673 1.30177 6.33839 2.64578 -0.114619 11.7558 6.74074 -9.32091 3.56036 -4.77694 -12.5699 -0.0970645 15.3149 -0.687613 0.177285 1.57469 -0.765992 0.906738 2.14651 1.28927 -0.913663 -0.434614 0.315067 -0.248708 -0.449271 -0.0760814 
8.43723 -0.358196 7.79512 -0.266335 0.894069 10.3545 4.372 -7.12361 3.49434 -2.04444 -11.9733 -0.104783 15.6863 -0.157055 0.307413 0.331753 -1.64067 0.694302 -0.244795 -0.378219 -0.0277533 -0.0908991 0.521199 1.35124 -0.795988 0.129584 
7.95555 0.376129 7.66214 -3.29251 2.34004 10.4651 4.57219 -8.42942 3.95157 -2.85285 -8.50783 -1.95087 15.8029 0.463012 0.274346 -1.27537 -2.76894 -0.982813 -2.08037 -2.06061 1.38147 1.09577 0.217177 2.21366 -0.64512 0.397692 
7.41863 0.740333 6.96313 -2.26617 3.36754 10.1929 2.20982 -8.37484 6.1237 -3.50042 -7.71566 -2.89495 15.8866 1.23032 0.475318 -2.95206 -3.60163 -2.25548 -2.41525 -1.84481 3.21755 0.247914 -0.342137 2.21021 -0.642388 0.698983 
10.7011 2.12423 0.377512 -10.199 -6.26542 1.43473 -2.48123 -1.78794 7.72454 -2.96307 -3.6304 -1.92758 17.2032 1.65349 0.199219 -3.5067 -4.18546 -2.21615 -1.3066 -1.26748 5.28554 -2.36241 -0.812117 1.59563 -0.170662 0.883138 
13.2161 1.14434 -3.32287 -14.8212 -6.08059 2.79345 -1.32532 5.64341 2.84743 -3.70001 -3.36101 -3.32837 18.481 1.48582 -0.168443 -3.34859 -3.60612 -0.389302 0.494552 -0.103506 5.03789 -4.40305 -1.24131 2.16771 -0.336288 0.791927 
13.3243 1.17022 -4.72835 -17.9423 -4.01665 7.63185 0.00238323 10.9892 -6.22235 -6.81363 -2.70703 -2.58747 18.9214 0.375814 -0.75552 -2.55146 -1.04897 2.83834 2.4541 0.500926 1.83918 -4.65881 -1.34155 2.58335 0.0636488 0.432884 
13.5361 0.375126 -7.22688 -16.4251 0.296644 9.56711 0.450486 10.426 -8.91812 -7.78171 2.66118 -4.24645 18.9872 -1.21504 -0.909211 -1.3211 1.18736 3.37224 1.71699 -1.08595 -1.26801 -2.06444 -0.0198057 2.89193 0.394166 0.152346 
12.4201 -1.26876 -10.4278 -14.6419 4.73767 10.3184 -0.864502 5.01666 -9.68671 -7.62998 6.27524 -1.1503 19.1146 -2.52198 -0.979321 -0.19618 2.90727 2.92186 0.456055 -2.34386 -3.32979 0.390439 2.84486 1.55425 -0.281818 0.102142 
7.59297 -2.18222 -7.07863 -10.5346 6.40343 10.0351 -6.32163 2.28964 -5.74258 -3.39087 6.60753 -2.07612 19.1462 -2.55652 -0.11315 0.707399 3.24025 3.03983 -1.48232 -2.25517 -3.75179 1.76195 5.35819 -1.99847 -1.17548 -0.104978 
3.68599 -2.44771 -5.78338 -6.35124 7.53926 9.67813 -8.33087 -1.59157 -5.85792 5.21523 3.09106 -5.08172 19.3526 -3.05943 2.55602 1.19993 3.61032 3.13237 -3.68347 -0.381506 -2.95674 2.77771 5.20129 -4.22184 -1.50467 -0.307923 
5.12058 0.398854 -6.01209 -4.36918 14.095 2.47563 -7.09219 -5.02881 -2.02279 12.5866 -5.73907 -8.15816 18.3433 -4.60273 3.64605 1.83876 3.78573 3.64568 -4.60501 2.69897 -0.170989 2.31294 1.8456 -4.91031 0.788749 -0.0518766 
-1.64082 10.2208 -4.96143 0.326987 16.5537 -4.3192 -2.38675 -6.10782 2.34194 10.3877 -8.66068 -5.63264 17.9764 -6.63305 2.82571 1.10471 2.03417 1.98727 -5.01188 4.7052 2.52699 1.53677 -1.13144 -1.48821 4.27668 0.288167 
-12.7573 9.71377 1.70418 5.05491 20.1246 -5.99127 4.20118 3.69282 1.7222 3.25088 -12.0682 2.14308 19.5749 -7.59875 0.806612 0.964988 1.4011 -0.136391 -4.67633 3.71002 3.08351 0.32386 -2.81073 1.18051 5.49829 0.672439 
-20.5403 7.0234 -4.11796 -0.892449 14.4608 -11.1478 9.54842 6.68255 -0.0465836 4.22592 -1.18545 11.1511 20.1776 -5.39861 -1.06291 0.313866 0.452622 -1.30614 -3.18792 2.57285 1.86634 -1.01146 -1.66963 2.22061 4.85653 0.692853 
-23.4234 6.03061 -1.60889 3.24602 14.4595 -17.4917 5.4903 3.99352 0.790773 1.61391 -3.57414 10.9415 20.6049 -2.57466 -1.33899 -0.450452 0.0860079 -1.67579 -2.25537 1.26108 -0.384827 -2.16408 -1.3781 2.47554 2.00342 0.27193 
-23.3008 6.74784 -1.73557 3.49454 12.8556 -14.5086 9.83294 3.07353 -2.24965 2.85803 -1.80466 14.2508 20.9257 -0.507744 -0.632558 1.00769 1.32281 -1.00617 -0.643884 0.739772 -1.10856 -2.60201 -1.20332 0.732038 -0.62619 0.0704658 
-24.2504 3.15657 -1.73928 3.29145 12.5483 -15.5877 10.3643 3.5732 -7.99666 -2.95565 0.619121 10.6103 20.5605 0.486278 -0.659776 0.262753 -0.0344992 -1.6085 1.27426 1.26822 1.19061 -1.66089 0.149401 0.741695 -0.857315 -0.0610487 
-22.6656 5.29763 0.985663 5.69889 10.3855 -15.3192 10.8103 1.34992 -8.6629 0.494112 0.378114 8.18569 20.5521 1.08459 -0.587636 1.0648 0.621313 -1.64736 2.03583 1.6668 3.28284 0.487346 1.30379 0.642551 -0.532984 -0.202995 
-21.3096 3.45684 -1.65574 1.97135 7.65206 -10.7151 11.3427 10.8084 -4.30704 3.54288 -0.957048 9.68745 20.4864 3.60658 1.21556 2.44647 1.10904 -2.39673 0.973026 -0.22953 -0.121399 -0.640497 1.53924 -0.43587 -0.734492 -0.443685 
-19.3482 3.65952 3.54667 7.26116 7.06685 -6.76575 17.6778 15.8701 -1.65773 6.12773 2.19618 12.0473 19.9477 5.77205 -0.111602 2.98642 0.997841 -4.34389 0.125572 -2.4632 -3.10178 -1.74442 -0.289462 -0.355512 -1.64802 -0.573356 
-7.87617 10.0534 9.21258 8.05552 2.22399 -14.9994 5.78294 -4.2939 -14.7017 1.92374 -2.46926 5.00702 18.6443 6.21239 -1.76962 3.55733 1.27238 -5.81988 0.073718 -4.44222 -4.60263 -2.34641 -2.71579 1.51843 -4.13832 -0.272618 
-0.52204 1.44132 10.4836 7.64601 -8.6199 -12.5492 1.27416 -6.60784 -12.1876 -0.143628 -0.643337 2.28582 18.6064 4.82561 -3.22513 2.09623 0.467529 -6.63083 1.62379 -6.23819 -2.15169 -1.66171 -3.88752 2.94805 -5.28026 0.131831 
0.339197 -4.28217 12.6624 8.14081 -13.604 -7.45477 -2.66655 -0.965766 -10.7742 -6.90042 8.05485 -6.12339 19.794 1.98129 -3.7973 0.616606 0.728242 -4.77336 3.25074 -4.35513 2.74231 0.921458 -3.44509 4.50803 -3.86131 0.379532 
0.672139 -5.29833 12.3029 9.55616 -18.1733 -2.4191 -9.28843 3.4476 -11.9301 -8.8978 11.6744 -8.78878 20.0321 0.493134 -1.54945 0.437912 0.489263 -0.854704 1.40052 -2.94958 2.48352 0.934698 -2.22054 2.4692 -1.13012 0.161173 
1.4332 -5.56325 11.386 10.7417 -16.8661 -3.81072 -10.7114 4.38993 -10.2232 -10.9246 13.9121 -8.76224 19.8291 -0.913489 0.905691 -0.309912 0.0368527 2.17096 -0.352027 0.671916 -0.894575 3.10232 0.0444319 -3.24126 2.44804 -0.395681 
1.39663 -5.6654 13.3114 8.7919 -11.2624 -7.36865 -9.45129 3.13191 -7.78962 -9.23424 8.77405 -2.04535 19.3947 -0.535172 1.59532 -1.45967 -0.570933 4.46077 -1.14059 2.0088 -4.30273 3.99114 2.80033 -5.25423 3.39187 -0.815665 
-4.5905 0.429821 10.6086 8.7072 -6.20467 -6.74013 0.774465 -5.2808 2.66723 -6.51004 -6.70128 2.74512 18.1342 1.1874 0.359122 -1.85351 -2.23799 3.65694 0.664152 -0.533308 -4.32612 3.73227 4.18556 -3.15159 1.63355 -0.499988 
1.00813 -0.318284 5.39321 7.71872 -1.20021 -6.65735 -4.98738 -13.2307 1.58039 2.89655 -4.29015 2.41688 16.8012 3.00285 -1.28253 -2.45396 -3.27296 0.856995 3.56399 -4.43822 -2.39877 2.35349 4.29362 1.73359 -2.04656 0.118712 
7.56444 -6.4412 6.07753 0.0883036 -3.61247 -0.845611 -15.6099 -9.05937 3.7531 3.93778 4.68623 -2.82563 18.6259 3.87184 -2.01249 -2.8878 -4.49275 -1.10135 5.10603 -6.56689 0.982338 -0.695218 3.7151 5.15224 -3.00325 0.64842 
10.3334 -8.64252 3.30714 -3.26344 -8.27348 7.50402 -23.4502 -6.97264 3.4349 7.00995 11.7483 -9.49279 19.7424 2.12547 -0.643487 -2.868 -4.05584 -2.58693 6.12155 -2.7401 1.81112 -1.01979 1.20076 4.15868 -1.58255 0.689689 
10.1061 -5.47049 -2.78733 -8.26545 -8.17477 11.7093 -22.8286 -3.49813 -1.73612 10.0088 11.0407 -6.31628 19.9057 0.440468 1.14915 -3.30373 -2.34622 -2.37122 5.36561 1.50832 0.170497 -1.34353 -0.806645 1.67352 0.538135 0.178082 
10.3647 -4.02108 -4.51439 -8.38359 -11.8537 17.6729 -15.0785 -6.9557 -0.773963 5.86483 13.326 -3.75055 19.6097 -0.215039 1.26955 -2.1735 -1.46646 -1.81317 3.77317 4.14585 -0.640732 -0.97479 -2.39274 0.072872 1.86077 -0.0508049 
9.75114 -3.00618 -6.53036 -9.08274 -13.6784 20.898 -12.2542 -8.21535 -0.860126 0.477117 12.2649 -3.00608 19.5827 -0.213265 0.344588 -0.737744 -0.968799 -0.721891 2.17118 3.58159 -1.16706 0.182251 -2.72649 0.0360793 0.793652 -0.0411758 
9.43566 -3.52691 -5.68884 -10.1871 -14.5875 21.7755 -8.00815 -7.81768 -1.87705 -0.187902 11.5005 -1.84406 19.6499 -0.104815 -0.410888 -0.149218 -0.589889 0.507098 0.46624 1.2136 -0.411219 0.454339 -0.893411 -0.324271 -0.584707 -0.0111198 
9.50425 -3.99463 -5.88883 -12.2077 -10.4173 20.5139 -8.45581 -8.90245 -0.27332 -0.597317 12.1339 -3.30127 19.6798 0.182762 -1.15221 0.656422 -0.0826181 1.65592 -1.28206 0.25504 -0.429497 1.06807 1.01177 0.131911 -1.03046 -0.0286701 
9.96405 -5.5813 -5.58125 -9.77056 -10.9488 20.1962 -10.9097 -8.66825 1.20433 1.93499 11.7702 -6.52649 19.5056 0.34563 -1.6289 0.886821 0.819949 2.44753 -2.77126 -0.925622 -0.129141 1.41771 2.03953 0.125416 -1.63085 -0.0542566 
10.4008 -7.74004 -3.30205 -9.7041 -7.2182 15.2774 -9.52818 -9.93755 2.93951 4.47451 12.7896 -5.81714 19.5115 0.261131 -1.72762 1.25679 1.79328 1.91072 -3.9394 -1.24172 0.414171 2.09079 1.82547 -0.390074 -2.10169 -0.0809626 
10.7156 -9.79868 -2.54812 -7.33915 -3.94942 10.5375 -12.1001 -7.94583 3.6051 7.47385 11.7997 -8.74035 19.4627 -0.181663 -1.21954 1.69843 2.20884 1.52471 -5.40472 -0.799021 1.80163 1.70414 1.08813 -1.41412 -1.32493 -0.102318 
10.4341 -10.524 -1.12142 -4.457 -4.36337 5.64624 -14.0692 -7.1928 8.98022 5.76061 10.1687 -12.7028 19.2964 -0.74151 -0.171712 2.18077 2.51558 -0.33726 -4.85912 -0.628529 3.1183 0.957965 -0.478392 -2.20844 -0.18582 -0.140856 
9.03904 -10.287 1.82058 -1.34989 -4.75264 -2.01185 -12.6343 -1.03249 6.70468 6.7326 6.01004 -9.70831 19.1016 -1.29316 0.822716 2.97843 2.95904 -2.97835 -3.8913 1.21159 3.56518 -1.95259 -2.07446 -0.0203729 1.05813 -0.134016 
7.53147 -8.35443 5.41746 -0.120843 -8.50289 -2.74354 -12.4037 2.19729 6.17955 2.45318 4.64225 -6.26226 18.9878 -1.73108 1.62617 3.50979 2.91404 -3.84903 -2.24026 2.3233 3.37672 -5.25301 -2.28253 1.11329 1.98788 -0.111922 
5.7011 -6.7699 9.07458 5.28796 -16.7714 -4.7241 -6.87488 5.18504 -4.75751 -1.24474 14.4611 -6.66996 18.9469 -1.9195 2.44055 3.19408 2.57658 -3.39161 -0.339584 1.49923 2.14449 -5.7355 -1.48255 0.352756 1.65858 -0.201102 
3.4477 -4.15175 12.8005 6.79429 -17.5991 -4.19891 -5.33245 6.58206 -11.5538 -1.66336 11.5097 -4.28258 18.8141 -1.88121 2.92687 2.4935 1.77114 -0.646375 0.386088 0.557071 0.439891 -4.39851 -1.21026 -0.550613 0.900741 -0.355591 
1.48344 -0.185629 14.0994 8.07546 -17.1626 -2.98209 -8.67375 7.49756 -13.1062 1.37813 4.3401 -2.40524 18.1829 -1.45894 3.26753 1.08798 0.708086 2.24795 0.497998 -0.373047 -0.218159 -2.30213 -0.769555 -2.95354 1.52485 -0.619053 
0.234254 2.98779 15.3725 7.34109 -11.5392 -1.6841 -8.71893 3.24049 -11.6387 -4.90955 6.94967 -3.89092 17.5919 -0.637776 2.90073 0.0236678 0.573755 3.19308 -0.339403 -0.0147913 -1.02546 -0.72013 -1.67377 -1.83429 1.22908 -0.885763 
0.0131388 5.99799 13.2285 8.55499 -8.56164 -3.49151 -7.04687 5.76503 -16.2257 -3.46942 1.97339 0.758455 16.4628 -0.510818 2.07972 -0.993164 0.338807 4.41571 -1.33604 0.144833 -1.91687 -0.0955791 -1.65125 -0.010588 0.21834 -0.769696 
0.993964 7.26008 13.3543 9.4233 -5.9342 -5.64122 -6.21984 2.32102 -13.5946 -7.60844 3.52158 0.280986 15.2453 -0.291807 1.45321 -1.09158 -1.40174 3.93721 -0.439339 -1.34343 0.0324419 -0.0932266 -0.444455 -0.316807 -0.0398749 -0.484873 
-1.45051 8.07681 10.1427 8.7284 2.11352 -7.68375 -9.19913 -1.62705 -12.6061 -5.52868 6.0012 -3.39949 15.5077 -0.45187 0.240619 -1.39345 -0.872682 3.86427 1.05502 -0.22792 -0.768866 1.444 0.507517 -1.30194 -0.477077 -0.612366 
-0.492956 9.21444 11.4575 0.245675 2.80929 -1.78468 -14.36 7.09873 -13.9146 -6.1022 3.35172 -2.01132 15.645 -0.352392 0.296202 -0.275481 -1.16825 2.14439 1.16854 -0.106787 -0.12266 0.441829 0.584936 -1.19045 -0.576002 -0.410662 
-1.50275 6.22391 7.20965 8.78039 6.38795 -0.144657 -4.11641 -0.468162 -8.84569 -1.68496 -4.45139 -0.480776 13.2011 -0.367506 -1.20513 -1.91331 -0.779298 0.726874 0.528884 2.05666 -0.455903 1.26907 -3.62396e-06 -1.7512 1.26426 -0.77843 
-0.741875 9.66754 13.4435 3.55604 2.65056 -3.56809 -9.29514 1.12827 -13.2657 -6.60563 2.79565 -4.05838 14.3453 -1.19544 -2.33538 -3.31083 -0.242308 0.546668 -1.0264 4.70803 -0.133717 3.26474 0.163498 -1.45525 1.37514 -0.796876 
-3.16358 1.82458 -0.416813 3.17672 5.82725 -4.14763 -1.44825 -0.921336 -6.58522 -5.27698 -2.47675 3.94533 12.2654 -1.63835 -2.9712 -4.05749 -0.748857 0.734216 0.317073 3.9006 0.462749 3.71505 1.25966 -1.26379 0.891375 -0.459649 
-5.63975 -0.262823 -1.28345 1.83597 5.82297 -4.91521 7.84613 6.65674 1.27885 -3.48869 -4.91186 2.65131 12.1285 -1.70417 -2.82973 -4.1321 -0.0905125 1.26061 0.728131 2.72463 0.380623 5.09672 2.62095 -2.04045 1.23165 -0.489473 
-7.24557 -3.66693 -5.71433 5.89615 8.47282 2.11427 6.81596 -0.918652 2.45728 3.05487 -6.91659 0.621254 12.0113 -0.781211 -0.749805 -1.20104 0.219125 0.000910795 0.77264 0.928474 -0.0451064 1.87509 1.33003 -0.691014 -0.447952 -0.0972857 
-7.22174 -1.73537 -4.56828 1.74377 7.63084 -3.05838 0.195916 3.03004 7.69666 2.33321 -5.18666 3.7619 12.025 -0.184734 0.312693 -0.320138 0.742418 0.178623 -0.55906 -0.51159 -1.03774 -0.979382 -0.149477 -0.291561 -0.526793 -0.016921 
-6.27864 -1.18817 -4.77961 4.31845 4.92787 -1.21284 7.01923 0.666478 -0.418694 -1.53779 -5.79442 1.15027 11.8307 -0.00373974 0.727984 0.668376 -0.0603736 -0.793715 -2.19966 0.501371 -0.50139 -2.53408 -0.98169 0.789363 0.61165 0.0851992 
-7.04688 0.0612583 -3.35151 6.33691 8.48856 -6.04695 5.18654 0.675491 -2.18007 -1.93974 -6.93075 -0.247166 12.1341 0.144193 0.224013 -0.0278547 -0.901186 -0.823651 -1.70539 1.65913 0.114686 -0.896264 0.921373 -0.532012 0.593186 0.196234 
-7.3517 -0.925326 -2.98084 3.29771 4.07538 -7.38974 6.8275 -2.24833 -5.27477 0.282897 -2.09772 5.68404 12.3827 0.403816 -0.199806 -0.444393 -1.55639 -0.488712 -1.74196 0.274453 1.51363 2.51694 2.075 -0.582951 -0.302556 0.114227 
-5.96424 -0.746722 -5.60694 -2.25179 3.93882 -8.49689 8.58745 5.06088 5.64338 6.02973 -9.69506 4.46095 12.7302 0.693756 -0.781301 -0.934076 -0.712879 -0.00520222 0.400001 0.794424 0.939717 2.78709 1.38176 -0.788525 -2.2675 -0.0323559 
-4.80088 -1.78321 -5.87385 0.83086 4.75918 -8.69766 6.69103 6.04193 8.25427 4.85245 -7.32702 -2.71656 12.1038 0.793942 -0.8958 -1.34419 0.343891 0.625278 1.46648 0.410189 0.510718 2.255 0.436194 -1.30112 -3.21555 -0.108427 
-4.85351 -3.41631 -6.57538 4.00594 8.12065 -3.39298 9.22689 1.22895 4.99087 2.68427 -8.25873 -7.38437 12.1118 0.053164 -1.06449 -1.36408 1.32797 0.165263 2.00081 -0.22052 -2.31707 -0.542438 -0.249886 1.31202 -1.61591 -0.0858017 
-3.93735 -4.06953 -9.21757 1.8883 5.11086 -2.60928 8.55872 2.22123 6.32651 4.1366 -9.32147 -4.47105 12.1498 -0.137646 -0.338522 0.517096 1.81267 -0.731342 2.04289 -0.163683 -2.79298 -1.23576 1.2665 2.31322 1.0264 0.119267 
-6.13018 -4.92603 -10.7555 3.85933 4.5893 -1.53703 6.55101 -4.61414 3.89507 5.13823 -2.13772 -2.74135 12.2782 0.0692198 0.488344 2.18804 1.66291 -1.42008 2.44746 0.801127 -1.67262 -1.4341 2.07566 2.59473 1.80527 0.225913 
-4.85077 -2.72096 -1.19832 9.9675 2.86815 0.588836 7.21056 -5.00145 2.62339 9.95799 1.17857 0.0939107 12.617 -0.349102 0.329036 1.75828 0.323943 -0.331724 1.26526 0.969356 -0.721601 -0.117123 0.767984 2.71069 2.59478 0.0656606 
-4.0507 -1.64887 0.355217 8.28089 2.14162 7.24527 13.9066 -3.52279 -0.328049 10.1519 -0.535077 -0.640517 13.0078 -0.0896617 0.682126 0.761372 -0.258715 1.07648 -0.314606 0.0564176 1.98592 0.638035 -0.532304 1.17473 2.90251 -0.15608 
-6.7226 -4.06293 -5.98152 1.29724 4.67608 -0.674112 9.7277 -1.93245 7.85245 5.4697 3.43068 7.45242 12.1133 -0.332266 -0.110723 -2.12933 -1.36231 0.948102 -2.21112 -0.761651 0.943249 0.192598 -1.61057 0.24149 1.82359 -0.282208 
-5.64258 -0.844408 -4.55702 6.90089 9.06773 -2.47859 5.57453 3.78095 4.47072 4.72086 2.60989 8.09196 11.7497 -0.329268 -0.0969224 -1.68756 -0.352516 1.16911 -1.51192 -1.14538 -0.658354 -0.0576883 -1.74391 -1.51938 0.407949 -0.2486 
-5.71616 -3.6768 -9.38886 3.84595 4.1456 -5.60483 7.56835 -3.93707 1.187 4.62066 0.813534 4.84564 11.835 0.0728459 0.518932 0.249871 0.922498 -0.131303 1.03581 0.270314 -0.613768 -0.492593 -0.103191 -1.00245 -0.72029 0.000945187 
-6.20027 -2.32655 -6.37891 5.24395 8.25242 2.151 9.25937 -5.81225 2.71624 1.85684 -6.82342 2.70262 11.9039 -0.113583 -0.01877 0.401461 -0.202885 -0.198112 0.921544 1.23679 0.535284 -0.0486414 -0.293798 -0.967155 -0.876744 0.0493771 
-6.07953 -0.727201 -3.82121 6.73819 4.42722 2.19014 9.23684 -0.204687 6.26673 6.38575 3.1351 6.54564 12.0409 -0.4055 0.0787347 0.51267 0.0902755 0.176024 0.791278 1.48752 2.59556 0.159641 -0.221305 -0.812183 -1.40254 0.026813 
-6.02881 -2.41306 -5.33354 4.44035 7.93636 -1.76835 10.9242 4.59118 1.68764 2.36932 -3.38666 2.85824 11.8936 -0.500811 -0.433933 -0.546555 -0.31287 -0.538082 -0.555842 1.47651 2.33462 -0.42007 -0.032575 -0.438554 -1.86855 0.00738592 
-7.82939 -3.23988 -7.3482 4.69913 5.18375 0.311242 14.1736 3.83901 2.4995 3.25789 -4.96576 -2.24487 11.9742 -0.530031 -0.585216 -0.906862 -0.381933 -0.123956 -0.167821 1.31228 0.733522 -0.67226 -0.536715 -1.77808 -2.26841 -0.00527582 
