-5.51542 -3.85927 -8.41018 3.24468 2.80503 -0.0474008 14.8406 4.41301 9.2307 8.90687 -0.458558 3.40702 11.5898 0.501103 0.347409 -0.418488 -0.145953 1.70121 -0.385482 -0.861657 -1.464 -0.431066 -2.078 -2.20613 -0.666237 0.112013 
-3.09845 -2.33966 -8.19267 2.08657 5.64858 -1.40648 11.4021 1.43824 10.4491 3.60203 -7.71861 2.78753 11.6855 0.378177 0.551042 -0.585142 0.0490682 1.06601 -0.857917 -0.70449 -0.813972 0.113535 -2.82388 -1.58664 0.0742843 0.141729 
-4.21839 -2.88204 -10.6114 3.09398 9.88929 -1.29527 12.2516 -1.41959 6.46615 1.1693 -7.85917 0.385575 12.1019 0.0850336 0.411477 -0.52677 -0.329226 -0.845371 -1.45842 -1.60984 -1.88951 -1.98754 -2.42543 0.427818 0.0633024 0.105869 
-4.27305 -1.59268 -10.2353 3.56538 4.59297 -3.71305 12.6127 3.25946 11.1807 -1.34374 -4.69147 5.28916 12.0423 -0.264181 -0.0752099 -0.661353 -0.351263 -1.53571 0.0439818 -0.383052 -0.709004 -1.84762 0.0415343 1.81891 0.0527874 0.0743529 
-4.50295 -2.17538 -10.0227 0.859146 -0.894018 -6.1862 6.18611 -5.94516 -1.07275 -0.747391 0.166966 2.47271 11.9407 -0.186362 0.301206 0.574294 -0.773187 -0.888489 -0.657551 -0.347397 -0.139549 -1.30681 1.44034 0.532115 1.03586 0.101019 
-4.27707 -3.06904 -11.7938 1.44767 3.36169 1.25889 12.5196 0.156003 4.98049 4.76804 -2.63711 2.0079 12.1379 -0.389114 0.469892 0.904275 -0.979617 1.69277 -0.000427437 0.0638462 1.94452 -0.946297 1.47933 -1.7312 -1.12475 0.262824 
-5.14819 -0.63783 -6.96068 0.286893 6.06249 -7.069 10.5612 -0.565608 3.03217 5.31511 -6.22577 7.2055 12.5592 -1.53622 0.813556 1.86407 -1.49014 3.61903 0.46392 0.949626 4.40491 -0.701686 -0.00703913 -3.20954 -0.18448 0.727177 
-5.896 -0.0119977 -7.24494 -1.04659 9.57859 -3.27379 10.7444 10.2923 4.39671 3.02167 -10.1511 -2.70097 13.0472 -0.894891 2.20799 3.40609 -0.0488222 2.60718 -1.55997 -3.38841 2.10452 -2.92321 -1.51725 -1.54556 -0.983186 0.817981 
-11.3746 0.363881 -2.97677 -5.34445 14.0927 -1.60026 11.8218 11.0113 -4.28929 0.0905981 -12.1237 3.90475 15.122 1.12138 3.38386 3.08962 2.11403 0.651819 -0.840311 -4.4757 0.290469 -3.32845 -1.79212 1.04464 -1.76638 0.616603 
-5.63834 7.47004 3.24474 4.01923 12.3825 -9.27534 -5.05278 4.89017 -5.97486 -0.205965 -7.41595 -1.25766 14.9464 2.46396 3.52648 3.94002 2.01014 -0.737877 -0.636656 -4.95343 -0.896493 -3.21482 -1.63531 2.51741 -1.10802 0.541115 
0.329891 12.5404 3.24258 8.32412 7.91963 -8.26977 -3.91871 3.5878 -8.42431 -2.03168 -2.37014 -2.34806 14.6926 2.85557 2.76059 3.06333 0.976908 -1.36364 0.702799 -4.03996 0.359429 -2.39839 -0.598245 3.17556 -2.27426 0.451868 
0.571547 11.5321 9.3455 2.16985 8.97573 -3.12231 -6.15251 9.52155 -9.60987 -4.09375 -2.44087 -5.11469 15.9674 0.463342 1.02461 1.89451 -0.886983 -0.0703141 -0.0956084 0.053562 1.75404 -1.24038 -0.387682 1.86054 -0.952988 0.634574 
-0.201633 12.1358 9.2895 0.46478 8.97784 -1.16278 -7.82808 10.4927 -14.4637 -0.956737 1.26652 -5.53804 16.8708 -1.4385 0.820337 0.7046 -0.738266 1.91382 -1.75179 1.60917 -0.123726 0.170557 0.478826 0.129088 1.25088 0.480653 
-3.05586 12.7954 9.69382 3.51398 11.5018 -13.3069 -2.83029 10.2079 -9.15706 -2.68185 0.0684371 -4.42761 17.0302 -1.56013 0.992418 -1.18786 0.549659 1.73738 -2.21345 2.8873 -2.42375 2.20963 1.54462 -0.459606 3.01899 -0.0646147 
-5.0489 16.0105 6.59142 3.96072 16.2257 -11.9364 2.46602 2.62598 -7.79793 -0.343497 -2.97935 3.56279 16.5645 -1.01881 -1.04041 -2.35349 0.743168 2.09415 0.427931 3.60845 -2.37212 4.10544 1.60943 -1.35604 3.38983 -0.732461 
-4.80549 14.5569 4.75525 3.17017 14.0387 -8.80274 3.13695 1.33617 -1.89463 3.32271 -2.61596 5.42984 15.7975 0.153492 -3.78312 -4.28971 0.0731943 -0.0821922 3.98565 2.40507 -1.55078 4.43549 0.801792 -1.56999 1.49206 -1.27841 
-4.42087 6.05301 -0.00867939 4.35252 18.1801 -1.2752 7.23054 3.06798 2.43225 4.08814 -4.17146 6.4824 13.8248 0.484075 -5.52342 -4.61221 0.0711066 -2.10792 2.79001 1.39568 -0.679469 4.10582 0.64959 -0.560254 -0.31551 -1.33994 
-2.60242 -1.14147 -8.45466 3.68405 10.1136 1.29077 6.81282 2.23301 7.9053 -0.888707 -7.18545 1.57288 12.008 0.379857 -4.03762 -3.6362 0.0164933 -2.09879 1.1758 1.62514 -0.57776 2.8334 -0.595884 -1.26462 -1.00502 -1.00003 
-3.73006 -3.75743 -9.86469 4.05932 7.64863 -3.03312 7.60648 -1.21978 7.8312 5.01016 -3.49588 3.91372 11.7596 -0.0380942 -1.85236 -2.29517 -0.74348 -3.43716 -1.0126 0.539764 -1.00825 0.759592 -0.587611 -0.92186 -0.968839 -0.405685 
-3.25161 -0.726027 -8.49773 3.39924 8.81046 -2.0448 11.0747 0.591254 9.57292 -0.117716 -9.27685 1.68907 11.83 -0.342313 -0.190898 -0.387515 -0.541142 -2.07768 -0.145656 0.658921 -0.625618 0.135843 0.639418 0.857791 1.83935 -0.0188781 
-4.28674 -3.41652 -11.463 0.777529 1.64592 -4.67039 7.79843 -1.15239 5.3964 0.764596 -7.73506 1.58011 11.8854 -0.660883 0.541805 1.83761 -0.818814 0.535665 0.633616 0.624047 0.215053 -0.428887 -0.326442 0.493955 1.99262 0.483131 
-4.03564 -2.26642 -9.59309 2.61924 2.72659 1.38112 10.0114 -0.928777 9.80191 4.43117 -0.776904 11.9364 11.8507 -2.7545 -0.390137 1.56953 -0.854028 0.113581 0.0089328 -1.76721 0.621161 -1.15553 0.933725 0.803314 1.60148 1.39592 
-6.64246 -0.278212 -0.128963 0.355249 13.3689 -1.578 11.2583 0.615494 5.57227 1.10351 -5.27608 8.75314 14.1649 -3.36269 0.737595 1.12031 -0.824272 1.49262 0.935988 -2.41335 1.16362 -1.30896 0.161883 -0.10194 -0.0362238 1.7911 
-15.8463 -4.24587 -6.31708 -0.65976 3.51689 -3.54633 0.508657 2.81312 3.70735 4.38145 -6.48977 6.10998 17.6699 -3.03905 1.78787 -0.69448 -0.932299 0.662487 -0.114725 -2.90121 0.315339 -1.9825 -1.08811 -0.913558 -2.29932 1.58598 
-15.1949 1.26118 -7.49942 -1.70433 8.71385 2.47327 0.483095 2.79476 1.89886 1.59887 -5.38832 4.31221 17.9313 -1.92739 2.48561 -2.13565 -0.377827 0.304188 0.510997 -2.61507 -0.823275 -1.28557 -1.34028 0.0323 -1.07488 0.873932 
-14.9547 5.90323 -9.38026 -1.01247 8.36655 -1.21814 0.893039 -0.441716 1.72609 -1.25705 -5.28857 2.66026 17.8974 -0.239757 3.25023 -0.313698 -0.458836 1.42175 0.499402 0.143161 0.0527586 -0.551091 -1.26808 -0.351168 0.107071 0.244816 
-16.7252 7.07528 -9.2756 -1.35753 12.465 -0.187112 -2.00922 -1.87347 0.13507 -2.77864 -5.71518 5.1036 18.4208 1.20457 3.67619 2.32779 0.755907 0.468821 -1.05339 -0.721031 -0.399171 -0.143339 -0.942849 -1.24056 -0.0535636 0.0919024 
-16.2799 9.09824 -6.99749 -3.12734 8.75006 0.280871 2.47062 5.41102 1.83379 0.229791 -8.08218 6.24963 18.6492 2.96459 2.70407 5.09868 2.58437 -1.82093 -0.933357 -0.665755 -1.33811 -1.53188 -0.491032 -0.301306 0.25994 -0.130642 
-8.50944 18.0446 2.94813 3.13264 10.8662 -3.54319 -3.91085 -2.12747 1.12831 -3.8588 -10.1943 2.2497 18.0149 4.0798 0.855414 6.40463 2.32586 -3.36587 -0.484288 -0.680534 -2.54182 -2.68351 -1.55491 1.11728 -0.340063 -0.159096 
-4.23964 13.9389 10.0013 9.66429 0.0612955 -4.20689 -1.48492 -7.00525 -6.42995 -3.17213 -4.55552 5.38691 17.4471 3.71799 -1.60851 5.78011 1.92353 -4.02841 0.529041 -1.49567 -3.49569 -2.94218 -3.22947 2.9603 -0.576847 0.0199175 
-2.34631 8.93202 14.2482 3.87593 -0.0199804 -0.364671 -3.43412 -8.37444 -9.15059 -8.85222 -1.89211 3.83465 18.2264 2.22773 -3.87027 3.26516 0.40599 -5.23321 2.68584 -1.06601 -1.72848 -1.16346 -3.57085 3.77965 -0.98801 0.335575 
-0.771522 5.61199 16.253 6.11866 -5.94888 1.33682 -5.2461 -8.94394 -7.73767 -13.4209 2.56821 2.57292 18.6431 1.32324 -2.78375 1.32958 -0.107223 -4.3474 2.94037 -2.01167 -0.571609 1.23945 -3.51845 3.11706 -2.4634 0.498259 
0.895173 2.85672 16.148 6.93541 -12.2947 7.11418 -7.36033 -9.80055 -4.0351 -16.5887 5.14207 -1.28335 19.0948 0.928588 -1.85143 -0.0743902 0.751161 -4.68484 1.77661 -1.19873 0.132967 1.7402 -1.16785 2.22688 -2.50283 0.412668 
0.755844 3.05781 15.6992 7.59844 -15.5383 6.75555 -9.58017 -9.15025 -2.79042 -16.8962 7.51271 -4.37111 19.5042 0.636648 -1.59719 -0.683281 0.212255 -3.99713 0.231952 -0.106982 0.581533 1.08913 0.458945 1.70886 -2.56802 0.399824 
1.53295 0.951976 14.1531 6.89184 -18.6495 5.809 -7.26072 -7.60645 -2.92322 -12.9538 6.77003 -5.20747 19.8592 0.749413 -1.9636 -0.895836 -0.166279 -2.37756 -2.32768 1.30293 0.878609 0.398645 1.29348 2.06824 -1.82653 0.327302 
2.09283 -1.4216 13.8341 7.20172 -22.7572 3.14916 -5.83082 -7.13333 -2.84797 -12.9436 10.2985 -8.30512 20.26 1.28815 -2.52361 -1.42637 0.0479426 -1.05046 -3.64704 1.45448 1.95649 0.497931 1.01436 2.03914 -0.675682 0.151517 
3.97375 -4.72156 12.6014 6.30237 -20.5731 -2.72104 -2.72035 -6.41596 -2.0131 -12.0976 14.0903 -8.44901 20.3534 1.8434 -2.37763 -2.05337 -0.179851 1.16426 -3.76248 -0.471302 3.12312 0.864058 1.87837 0.188967 0.652309 -0.155024 
5.9762 -6.72347 9.3432 8.13289 -19.8288 -7.21462 -4.57794 0.0369473 -0.755828 -12.2525 14.0483 -6.12875 20.0147 2.26268 -1.63281 -3.1882 -1.09155 2.74742 -1.45514 -2.8495 2.22546 2.1673 3.96043 -2.0716 0.718383 -0.335779 
8.80828 -8.28525 6.13172 5.527 -14.2924 -7.82153 -10.2437 4.424 0.350996 -3.90752 5.83999 -3.03411 19.2067 2.26579 -0.465396 -4.03011 -2.25934 3.27578 1.50739 -4.00657 -0.0329394 2.77544 5.67914 -2.80236 0.110639 -0.295712 
10.9889 -7.80382 1.12795 2.13165 -12.1605 -1.57629 -16.3166 -1.42602 6.80646 2.76357 4.0657 -7.42066 19.1545 2.23573 0.300662 -4.01333 -3.91763 3.3316 3.35613 -2.36016 -2.97914 1.79169 5.64776 -1.13614 -0.328002 -0.105472 
12.7963 -6.50837 -3.4415 -1.9937 -8.02838 1.99675 -16.8838 -5.84917 8.08298 8.79011 5.06984 -7.24986 19.3049 1.89463 0.768377 -3.37979 -4.50478 1.92763 4.05598 0.204721 -3.40088 0.195747 2.68027 0.930144 0.359352 0.0866293 
15.1608 -6.1086 -5.93684 -7.69491 -6.30274 4.6569 -13.0586 -9.72217 4.33662 9.63751 8.75265 -5.66088 19.4382 1.44551 0.723135 -1.99672 -4.17484 0.444108 3.78028 2.40029 -1.57875 -1.73416 0.569357 0.689873 2.07763 0.0755049 
16.1955 -5.29097 -7.23481 -12.0836 -7.58311 9.34179 -10.8491 -8.43231 2.56465 6.05688 8.14724 -2.11723 19.498 0.635772 0.684886 -0.503607 -3.36317 -1.3343 3.25536 2.81699 0.100439 -1.68552 -1.53078 -0.529011 2.24205 -0.000527382 
16.5169 -4.79685 -6.95899 -13.6976 -10.1625 13.6526 -7.33257 -8.02821 0.894819 6.97697 5.97637 0.401176 19.4355 -0.0127766 0.809285 -0.0328193 -2.12287 -1.68669 2.49985 2.31625 0.708856 -0.254023 -2.39009 -1.55256 1.81515 -0.0566027 
15.2971 -3.73982 -5.44846 -15.8082 -12.77 13.7757 -5.66195 -6.19396 1.37625 2.46648 3.81293 0.929389 19.3037 -0.447714 0.92821 -0.157402 -1.38021 -0.966984 1.33538 1.84476 0.156535 0.589008 -2.50634 -0.902579 0.354823 -0.0526497 
15.5461 -2.83775 -6.99412 -16.447 -12.1428 14.9392 -4.07095 -7.29706 3.6607 -0.517753 3.15702 1.89158 19.2523 -0.310526 0.839523 -0.370511 -1.01447 -0.111456 0.741866 1.1765 -0.0949362 0.880718 -2.32734 -0.102523 0.0133082 -0.0129339 
14.4423 -1.62947 -8.00426 -17.61 -11.4279 15.3754 -3.25606 -8.01521 4.12675 -2.72747 5.04402 -1.08832 19.3263 -0.190843 0.381804 -0.400667 -0.52032 0.386892 0.446403 0.924134 -0.728613 0.554426 -1.2243 0.822533 -0.327485 0.0257702 
15.3917 -1.65441 -7.53365 -17.8691 -11.3909 16.5621 -2.65302 -7.59226 3.92316 -2.06277 4.8482 1.47657 19.3595 -0.166931 -0.360329 0.287264 -0.216861 0.437752 0.113278 0.0639987 -0.297629 0.0707404 -0.0464747 1.02009 -0.586268 0.0309072 
14.4201 -2.42247 -7.18203 -17.6988 -11.2115 15.1963 -1.75025 -9.68942 4.01715 -2.88251 7.08 -0.500531 19.379 0.0587353 -0.928072 0.905169 -0.0296852 0.650414 -0.496295 -0.229609 -0.533456 -0.368287 1.31283 0.566461 -0.200912 -0.00456429 
14.7226 -4.24289 -5.96892 -17.4869 -10.0622 15.5951 -4.50387 -7.9481 4.0692 -0.672607 7.23949 -1.33365 19.3806 0.0428557 -1.06475 0.759086 0.846958 0.784019 -0.727267 -0.774447 -0.653466 -0.601181 2.14751 0.881407 -0.573446 -0.0215317 
15.0706 -4.97558 -4.26078 -17.9495 -8.84015 13.3774 -3.47868 -10.5046 2.2123 3.14159 6.68068 -0.687768 19.2929 0.193857 -1.17279 0.391743 1.86629 0.909464 -0.725551 -1.93956 0.192149 -0.919637 2.93624 0.553452 -0.317881 -0.0331009 
15.2807 -5.70158 -5.19884 -13.5089 -8.65641 13.8352 -5.66103 -10.452 1.81969 5.66272 9.4549 -1.29704 19.2948 -0.145016 -1.14187 0.416135 2.778 1.38019 -2.29848 -2.71813 1.20169 -0.721846 2.83696 0.18817 -1.11654 -0.0359953 
15.1103 -7.55706 -5.60835 -10.3563 -7.36705 12.4485 -10.8695 -7.47672 0.543725 8.63103 8.73955 -2.10824 19.2563 -0.43107 -1.13581 1.10338 3.483 1.4414 -4.19116 -3.62671 2.5387 -0.0723211 1.26652 -0.431036 -1.84096 -0.0735172 
13.9776 -8.66151 -3.21445 -7.3935 -3.89782 4.56716 -14.3991 -3.4536 1.29425 10.7675 7.15091 -6.20611 19.2189 -0.911827 -0.751937 2.51337 3.9227 0.385651 -6.132 -2.37946 2.93157 -0.92068 -0.833785 -1.18311 -0.731888 -0.122174 
13.5668 -9.17468 0.263908 -3.59222 -4.01243 -2.94441 -17.2432 -1.31027 2.11341 6.92181 5.6775 -7.43805 18.9633 -1.49674 0.422612 3.72643 4.38079 -2.43765 -5.30476 0.73239 1.99323 -2.36317 -2.53539 -0.542088 0.452306 -0.115876 
11.4934 -8.65245 4.43186 2.72252 -8.40547 -9.12833 -14.3715 1.12259 -3.56855 2.34841 5.07039 -2.29158 18.8305 -2.08503 1.37823 4.4485 2.96722 -3.64574 -1.61359 2.24921 1.237 -3.85508 -2.49048 -0.886773 1.55796 -0.0875711 
8.8687 -5.44853 9.20062 6.48963 -17.3015 -7.22755 -7.22135 0.201336 -8.84073 0.163634 7.06937 -1.80398 18.8712 -2.50813 2.32432 4.16014 0.633653 -2.10025 1.80069 2.09561 0.612672 -3.24677 -1.60278 -1.56371 1.27647 -0.0811411 
5.90149 -3.63341 14.5597 2.40168 -15.482 -1.35923 -8.16399 1.97558 -12.5041 1.69419 2.02111 -1.23336 18.8271 -2.26819 2.52297 3.03665 -0.777867 -0.0527096 3.80166 0.197938 0.28812 -1.02927 -1.86777 -0.81536 0.10936 -0.0191317 
3.82207 -0.0625908 16.0007 -0.263535 -10.9754 2.17448 -9.86884 1.3266 -9.6527 -0.764984 -0.616426 -1.58481 18.5593 -1.64583 1.77398 1.8029 -0.579219 1.77345 3.08811 -1.52025 0.247582 0.762347 -2.54264 0.0813778 -0.264253 0.00809441 
2.67573 1.26942 16.2151 2.20977 -11.8321 5.17894 -12.0581 2.00056 -8.3089 -6.52614 4.83649 -1.85437 18.8907 -1.24666 1.45741 0.642697 0.574221 1.79337 0.812868 -0.501246 0.0377648 0.911702 -2.84389 1.08202 -0.360148 0.0266392 
2.25245 0.969934 17.3875 3.68949 -10.2592 4.94391 -12.8756 1.42676 -7.12659 -8.43941 6.06857 -2.81475 18.8798 -0.786002 0.766066 0.724642 -0.0708945 2.16884 -0.642633 0.588084 0.581988 -1.41989 -0.89595 0.0809692 -0.0249543 -0.00308151 
0.453024 3.13739 17.0798 3.29627 -6.87326 1.32039 -9.16685 2.11433 -9.20861 -8.68806 4.0887 -2.41913 18.8 -0.580343 0.568845 1.14698 -1.07479 1.94211 -1.25131 0.68899 1.25858 -1.46179 -0.210631 -0.824038 -1.02606 -0.0418299 
1.00342 2.83376 19.1915 -1.16125 -2.61062 0.890589 -8.37403 4.17965 -16.3023 -4.16377 0.162318 -1.4272 18.5892 -0.902261 0.901425 0.857881 -1.36048 1.06131 -0.747286 0.200528 2.07764 -1.67623 -0.057297 -0.854883 -1.31732 0.0794395 
0.398531 3.18174 21.048 -0.738811 -5.94579 0.949065 -10.8639 6.91701 -11.03 -9.71711 3.66942 -7.67844 18.8269 -0.967939 0.79263 0.273126 -1.34475 1.16715 -0.792594 -0.208941 1.574 -1.01413 0.430255 -0.430503 -1.01286 0.154541 
-2.23161 5.45489 19.6928 -1.09535 -5.41641 1.39314 -11.0244 9.41362 -14.5971 -8.21137 2.00379 -6.7717 19.2636 -1.21503 0.937213 -0.848801 -0.278411 1.02222 -0.994743 -0.470555 0.75757 -0.104599 0.485467 0.349574 -1.05757 0.11932 
-2.76916 5.78997 18.1948 -3.46042 0.365368 -2.89386 -8.88635 7.36735 -15.1319 -4.51299 1.01545 -4.81119 19.2356 -0.847702 0.539837 -1.21886 -0.422989 1.91755 -0.993326 -0.12374 0.0977783 -0.969294 1.37012 0.141838 -0.440647 -0.0396858 
-3.48788 6.2157 16.3741 -1.19251 -0.65508 -2.16167 -11.7156 7.74233 -14.7743 -4.3385 3.23718 -8.14869 18.9815 -0.176854 -0.295262 -0.810018 0.547061 1.7823 -1.16469 1.28106 -0.571883 0.365099 1.13417 0.00544562 -0.300752 -0.503448 
-3.21184 5.50051 16.613 -2.80518 1.26128 -2.24016 -11.137 8.24155 -15.7878 -4.80294 3.76191 -9.19318 18.7695 0.631296 -0.430307 -1.96362 1.15594 1.85703 0.545788 3.11309 -0.879134 0.158385 0.586138 -0.0889348 -0.340802 -1.09302 
-2.89454 4.12331 16.4336 1.31234 3.04716 -4.75714 -3.49381 6.1171 -12.4436 -2.39554 0.657781 -6.08446 16.9794 1.20155 -0.451756 -1.95774 1.44751 2.43267 0.151676 2.67412 -1.7518 0.580798 0.106104 -0.710457 1.24004 -1.30468 
0.0906515 4.68463 8.34697 1.06684 7.79939 1.13282 2.56821 3.78429 -15.5053 -2.55377 1.86047 -7.54731 14.7715 0.963721 -0.347915 -2.65001 1.21954 1.56699 -0.633697 1.10142 -2.45882 0.700588 -0.137871 -0.893135 0.722621 -1.21441 
0.868604 4.36486 10.7184 4.10901 8.23921 -3.08978 -5.19759 1.21198 -12.0116 -4.93256 0.635615 -2.77144 14.4571 -0.289272 -1.56213 -4.78424 0.342879 0.303397 -0.785567 0.840671 -2.14164 2.79219 0.832664 -1.20433 2.04875 -1.10307 
-0.27481 3.64016 6.22054 1.8942 6.50021 -6.24233 -4.77805 -1.59997 -12.5009 -4.22378 -0.69268 -7.23659 13.9586 -1.33006 -2.26537 -4.60214 0.269565 -1.48984 -1.29567 1.82645 -0.928882 5.70228 1.84123 -1.93108 1.98667 -0.801877 
-4.15816 -3.16511 -6.42436 2.61305 5.21373 -4.9974 4.38267 -1.89896 0.0151019 2.60278 -4.0873 4.00391 11.8705 -1.47866 -2.06452 -5.31004 0.16508 -1.75668 0.107667 4.26676 0.365689 6.16367 1.69274 -1.50778 1.19476 -0.69344 
-4.04627 -2.87722 -6.09234 3.16265 1.8629 -4.39174 6.91036 0.695356 6.99272 2.88472 -5.43346 -1.00162 12.0554 -1.19235 -1.31287 -3.32598 0.813133 -0.94072 1.23942 5.11286 2.19842 5.44213 1.59928 0.138916 3.22661 -0.40256 
-4.63895 -2.69907 -9.67533 4.30019 1.77444 -3.47674 10.292 1.89276 9.05996 -0.0231043 -4.53291 0.0848613 11.9415 -0.379629 -0.162933 -1.25812 0.246487 0.63748 1.12616 1.73192 1.59959 2.31428 1.21597 0.583862 1.34437 -0.0296968 
-5.99619 -3.15719 -8.78389 5.1163 3.51625 -0.805583 17.8316 7.49628 10.1873 5.08555 0.224707 10.856 11.9103 0.133609 -0.538658 -1.17172 0.251697 0.856708 0.983332 0.617753 0.13574 0.709201 0.966106 0.0775829 0.980383 -0.0914145 
-5.08135 -3.83979 -11.3692 2.86866 7.57446 -1.15969 7.58166 2.69851 9.98921 7.58223 -3.99708 4.79694 11.7945 0.222332 -0.344524 -0.319645 -0.579702 0.802237 -1.05695 -1.31837 -0.632009 -0.78518 0.197872 0.294333 -0.928586 -0.0437758 
-3.15703 -5.00015 -11.104 5.1369 3.24643 -0.633603 11.3543 0.971178 10.0741 3.91258 -5.31346 1.54426 11.6718 0.579799 0.202615 0.553619 -0.907614 0.184087 -1.37074 -2.50271 -1.33562 -0.740997 -0.247355 0.0807707 -2.14184 0.0292811 
-4.94687 -3.50021 -10.1135 1.39138 5.92054 -8.8475 6.9388 1.99527 5.19068 1.55274 -0.29216 0.0978045 11.8419 0.190109 0.704529 1.06886 -0.722594 -0.972674 -0.274371 -0.0604947 0.0453837 -0.60075 0.184063 0.755963 -0.519443 0.0316664 
-3.16444 -2.31391 -6.64363 1.31686 5.26365 -3.81537 5.63946 1.1698 8.88161 6.86352 -1.2239 2.49634 12.0331 -0.247972 0.938927 1.01342 -0.306064 0.546658 1.51307 0.712794 0.000920662 -0.919463 0.209714 0.26617 0.562454 0.0415768 
-4.1271 -1.66026 -8.25507 1.1657 1.70248 -0.940659 10.1366 2.82612 7.58171 7.02708 -2.26204 1.72368 11.7722 -0.391901 -0.0373532 -0.773064 -0.4451 -0.179927 2.16217 1.68491 -0.0896971 0.051287 0.705349 -0.135046 0.0903695 0.00779896 
-4.80677 -1.22549 -6.96613 3.71942 8.08875 2.97831 13.3194 0.560353 4.28127 2.22398 -2.99767 3.54359 11.9145 -0.312363 -0.510603 -1.06883 0.0931776 0.488333 0.283791 1.05467 0.568588 0.438914 -0.711372 0.138538 -0.113936 -0.0385337 
-6.08521 -4.23119 -13.8176 -2.03539 3.60835 -1.4335 11.5234 1.8515 7.74728 7.39926 -0.0805039 0.0260301 11.9401 0.101769 -0.790947 -0.797661 -0.131894 0.200321 -1.55285 -0.672479 0.521555 0.669684 -0.163681 0.48236 0.457467 -0.00171604 
-3.7472 -3.58146 -9.20652 3.3833 6.75238 -2.15 10.2194 4.50005 10.9934 3.12057 -1.62198 2.77549 11.7565 0.543368 -0.266716 -0.0622666 0.257856 -0.599359 -2.03577 -1.46643 -0.0653111 0.459173 0.0573317 0.173612 0.210416 -0.00646734 
-4.14804 -4.43701 -11.1232 0.674292 3.37227 -6.14078 8.3242 3.46405 7.57407 5.76038 -0.53809 4.39506 11.8427 0.479272 0.16595 0.688048 0.905455 0.475687 -0.0973503 -0.706398 -0.787744 -0.967413 -0.343812 -1.41288 1.10182 -0.00767632 
-3.05851 -2.45615 -8.62465 3.65385 5.21 -4.84691 7.58685 -0.572476 6.66374 3.33008 -1.90082 2.41115 11.9309 0.0116451 0.278546 0.329054 -0.0146163 -0.428004 0.71939 0.525379 -0.468578 -0.659525 0.563616 -1.33698 0.953484 -0.0129851 
-4.03319 -3.96409 -10.6683 2.3566 6.75798 -0.571794 9.3077 0.449043 5.07504 5.57544 -7.00548 5.71732 11.8145 -0.243642 0.103132 0.263908 0.3424 -0.0656228 0.689634 1.11554 0.0831547 1.01574 0.622439 -0.520291 0.247489 -0.023357 
-3.7464 -2.42519 -7.78871 2.46907 2.91951 -1.33754 12.3545 3.66466 8.94528 6.03112 -5.07317 6.88178 11.7056 -0.15229 -0.251636 -0.350377 0.183291 -0.0908424 0.381181 0.586182 0.648928 0.0372489 -0.114792 0.363473 -0.368629 -0.0133135 
-5.02231 -3.93683 -10.2216 2.97869 4.1894 -4.44729 11.5181 1.76125 11.512 7.52205 -1.55337 3.39719 11.8386 -0.362646 -0.0856088 0.409071 0.589983 -0.218917 -0.17441 0.20015 -0.166297 -0.482898 0.11804 1.03756 -0.536632 0.120785 
-3.32541 -3.72796 -10.5999 4.25927 6.04007 -1.00325 9.41257 2.01606 3.6315 1.78281 -2.80951 1.72807 11.8523 -0.982352 -0.487893 0.855191 -0.138829 0.798137 1.14964 0.146123 -1.11493 -2.39274 -0.89452 -0.0968439 -1.09527 0.314514 
-6.05692 -3.74075 -7.21733 4.41142 4.10311 -1.61099 11.7794 0.441863 5.31744 8.28979 -2.9495 5.61102 12.3451 -1.10525 -0.328644 1.59984 -0.704098 0.644114 1.88753 0.641466 -0.928945 -2.64189 -1.3303 -0.866173 -0.762686 0.354534 
-8.14085 -4.96269 -5.0149 1.05855 6.95334 2.99249 12.9545 -1.25029 0.0788875 1.17465 -4.85932 0.298532 13.0249 -1.17148 -0.369139 1.33724 -0.975429 0.467676 1.2595 0.825884 -0.822486 -1.23438 -0.833148 -0.600945 -0.817155 0.302504 
