-3.10906 -0.0759974 -9.28397 -0.556805 6.80078 -1.75961 4.81892 2.5399 9.5402 2.73688 -5.13992 7.33753 11.9511 0.0766539 -0.274951 -0.131232 1.11256 0.345484 0.828947 -0.138505 -0.281745 -1.54033 -0.900795 -0.121447 -0.979303 -0.0482306 
-1.81842 1.24713 -9.88658 1.31783 9.6554 -0.355274 3.84275 1.55117 4.41978 1.36962 -4.00451 7.70634 11.687 -0.360336 -0.489135 0.105699 1.20545 0.149679 0.418877 0.77177 0.755637 -1.90882 -0.201238 -0.250312 -1.12898 -0.0231676 
-3.3711 -2.11232 -9.63883 4.0687 7.10089 1.68296 4.61449 1.62554 4.39875 -1.08347 -6.31486 2.2566 11.842 -0.355333 -0.307597 -0.340818 0.502701 -0.349918 0.444568 1.06947 0.0788523 -2.79711 -0.00940126 0.0090659 -1.51855 0.0287597 
-4.77971 -1.50351 -8.57804 3.15767 7.39912 -1.38651 8.77999 6.77526 2.56681 3.64086 -5.80401 4.23311 11.8898 -0.518491 0.101127 -0.167649 -0.722578 -1.39612 0.0470928 1.3908 0.112689 -1.51489 1.17846 0.851145 -0.369927 0.0691918 
-3.40508 -0.238665 -11.6423 1.03678 6.17933 0.978846 7.69767 0.322114 -3.51886 1.55425 -4.19484 1.4814 11.9935 0.172274 0.943927 0.0721904 -1.24984 -0.680488 -0.248425 0.514679 -0.849286 -0.13844 0.999252 0.904069 0.811713 0.00692368 
-4.39389 0.815935 -9.72307 -0.779096 3.13558 0.232247 9.25516 2.76633 0.804139 5.94306 -0.808795 6.2443 11.9572 0.433427 0.339605 0.763738 -0.131435 -0.0926583 -0.108331 -0.364003 -0.495858 1.19785 0.0632257 0.349867 -0.0977556 0.00121012 
-2.70265 1.4476 -8.70536 -0.212131 5.83022 -0.368545 6.9503 -0.616424 4.58788 2.76169 -4.29212 5.30957 11.843 0.061639 -0.178926 0.978245 0.251649 -0.293567 -0.637742 -0.320678 1.19465 0.940772 -0.921414 -0.419671 -0.551954 0.00460434 
-2.96379 -0.648619 -6.22784 3.12495 7.11038 -1.25447 7.33366 4.76524 4.50266 3.35327 -4.00603 1.83024 11.9711 -0.454731 -0.836582 0.785859 0.436918 0.124971 0.109438 -0.172894 0.932891 -1.87259 -3.27221 -1.34353 -1.31461 0.0107374 
-3.81193 -0.401017 -8.49872 0.343007 2.72409 -1.4665 7.05503 5.29589 -0.664264 -1.75792 -4.69457 0.928658 12.0096 -0.0911543 0.178005 1.50628 0.745699 0.320483 1.65708 0.931976 0.769344 -1.95831 -1.66436 -1.0797 -1.18741 0.0305903 
-6.1129 -2.44267 -5.8971 1.12792 5.3135 1.32842 8.33833 4.47463 -5.93274 -8.15817 -7.32524 1.86169 11.9276 0.645403 1.67058 5.89754 -0.67523 -0.703521 1.64288 -2.32126 -2.35566 -1.54069 -1.35015 1.17478 -0.295504 1.07565 
-1.58386 3.23465 -1.33931 4.51487 8.33108 6.62541 11.1079 3.3756 0.0140407 0.195594 -8.03102 -0.643207 12.0177 1.33762 1.62802 9.07841 -0.248256 -2.29758 2.01495 -4.8209 -1.62763 -0.335471 -1.45499 3.85554 -1.04606 2.00924 
-0.850813 5.88643 19.6801 -2.33714 0.789286 2.91399 -6.29906 -6.05291 -3.53996 -4.37426 3.53609 1.13865 17.3453 1.53918 2.14859 8.16358 -1.33896 -3.21764 1.48497 -5.96412 -0.306196 -0.228795 -1.50565 3.75346 -1.82006 2.20093 
0.245108 3.57455 24.1047 0.834257 -6.50172 7.81544 -9.73078 2.42148 -3.53801 -10.9248 9.15244 -3.94014 19.3469 0.362948 1.62087 4.82518 -1.01626 -3.24563 1.23998 -4.69352 0.946629 -1.08575 -3.21781 2.74017 -1.96176 1.63245 
0.668498 8.13031 22.1988 -3.72655 -3.35829 8.15824 -11.063 3.42071 -5.3007 -10.1262 2.85036 -5.59015 19.2676 -0.377407 2.25618 -0.274141 0.59704 0.016659 0.779946 -0.476109 1.9452 -1.21335 -1.48349 0.39329 -1.11669 0.28399 
-0.528776 10.2171 21.5273 0.128288 -5.82328 10.2032 -9.9778 3.37194 -4.53432 -13.0175 6.0127 -7.08761 19.2188 -1.12238 3.4313 -1.95236 0.538759 3.098 -1.90755 1.17826 -0.124862 -0.913759 1.38205 -1.38478 0.755937 -0.337492 
-2.35091 13.8461 19.5982 1.00104 0.53336 5.61985 -8.5561 3.19785 -9.10856 -10.7453 7.07241 -2.87105 18.8293 -1.43188 2.92363 -2.90208 0.83396 4.24469 -2.24457 1.46766 -0.387689 -0.252406 1.99605 -1.75134 1.52709 -0.465429 
-3.85707 17.8732 15.6432 1.16425 7.04243 -0.453097 -5.0929 1.9086 -6.20287 -3.705 0.11754 -1.52 17.8786 -1.11592 1.44841 -3.86339 -1.11526 5.13002 -2.50775 2.31161 -0.636335 0.957424 1.88212 -2.33406 1.14998 -0.493111 
-4.82675 18.9204 10.6304 -0.0747323 11.4323 2.26356 -6.16711 2.21393 -5.72845 -4.8022 -2.95878 -0.738494 17.6106 -0.86834 -0.479593 -2.41454 -1.33971 2.86626 -0.753877 3.04088 0.19321 1.04895 0.4026 -1.32047 0.254582 -0.555165 
-4.87045 14.9219 6.69423 -4.91013 14.3773 -0.657441 0.385782 0.682219 -1.43726 -6.57846 -0.642023 -2.404 17.3626 -0.243485 -2.00182 -3.12015 0.190277 1.67888 0.445293 3.50526 0.0390911 1.20266 0.840053 -1.2972 -0.36079 -0.9421 
-6.18591 12.9237 12 -2.66029 11.1972 1.95263 3.90894 4.77709 -6.24661 -7.29562 0.849821 -1.15613 16.3115 -0.48862 -2.31634 -3.79942 1.18466 0.771662 -0.384181 2.79658 -0.414458 1.03299 2.43426 -1.58473 -0.70142 -1.0248 
-4.39491 10.8624 -0.642324 3.40842 15.5544 1.92883 7.39538 0.82248 0.0694904 1.74197 -8.27275 -3.11513 13.8176 -0.0898807 -2.91746 -4.0665 2.37215 -0.178857 0.0759825 1.30983 -0.505994 1.45024 2.44056 -2.37337 1.03597 -1.17719 
-7.50762 9.36846 -4.69845 1.68928 14.7021 -0.950482 4.31098 0.0715113 -1.31689 3.20888 -7.06709 -3.89003 14.2591 0.118943 -3.34583 -5.21156 1.02407 -0.206351 -1.50551 0.499728 -1.25065 1.02721 2.28413 -0.555339 2.22861 -0.811715 
-4.65901 2.11228 -5.28904 4.77585 11.7306 1.17403 6.73392 0.505037 3.34911 0.372111 -8.5504 4.14281 12.5029 0.631435 -3.19541 -2.5623 -0.712908 -2.80401 -0.490668 1.22974 0.195163 0.130349 -0.00109417 1.12489 3.1213 -0.519304 
-5.45915 0.569668 -11.7345 1.77636 12.0773 -5.19753 6.73832 -1.31746 -2.75037 4.80995 -1.78805 6.35795 12.9103 0.266352 -1.99637 -1.51114 -1.38154 -1.46485 0.400979 1.24111 -0.0508219 -0.236643 -0.951539 0.456756 2.44633 -0.281518 
-2.26197 -0.715234 -9.9358 -0.199661 2.84668 1.59902 12.3304 2.49278 1.43797 0.935966 -5.28781 7.36739 11.8955 -0.350351 -0.187127 -0.319785 -1.40635 -1.07395 -0.570297 -0.0360664 -0.0274315 -0.466486 -0.0642967 0.299625 -0.105351 0.0168527 
-7.37438 0.800369 -9.93075 -2.73065 11.8198 0.841918 7.71831 -1.17647 -1.54454 -1.83074 -6.41461 6.72931 13.1552 -0.27153 0.405703 1.19822 -0.566087 -0.0487802 1.1808 -0.194636 -0.0170383 1.38856 0.74893 -0.322145 -0.621303 -0.06224 
-5.45315 1.06129 -7.78982 -0.00238323 6.48964 -4.69718 6.06359 0.297384 0.413759 3.37097 -4.739 3.43037 12.4647 -2.22262 0.391074 0.662951 -1.8258 0.829215 -0.376412 -0.922082 -1.4227 0.256372 1.9116 0.468892 -0.652254 1.27792 
-5.22122 1.70992 -6.81637 -1.15271 10.012 3.85456 8.89854 -0.304954 4.70452 7.3371 -3.67318 5.21994 12.3145 -2.41525 -0.0343724 -0.0477743 -2.1929 -0.634762 -0.0292697 -0.16118 -1.08794 -0.218814 0.785992 -0.150257 -0.812295 2.00877 
-14.4516 0.785362 -8.17823 -10.1176 7.89667 -1.78937 7.12988 -5.05647 -0.404696 5.91003 -4.31406 4.8608 18.7054 -2.5182 0.552605 -0.160438 -1.05724 0.666227 -0.00189688 -1.44153 -0.259069 -0.851013 -0.371057 -0.63757 0.0855176 2.14854 
-14.9514 0.76647 -9.97541 -8.63751 7.94247 -0.758335 6.37927 -3.93922 -2.22938 0.829692 -7.37836 1.95262 20.0787 -0.455989 2.59013 2.69894 0.623758 0.288422 -1.43823 -3.43454 -0.119395 -1.92256 -2.31768 0.0546195 -1.87811 1.37654 
-13.1791 4.29604 -7.01249 -1.54618 10.8555 -2.40021 0.115602 0.819174 -0.374359 4.76939 -6.07426 5.49162 19.3253 2.68809 2.55931 6.27703 2.03833 -1.67377 0.0117175 -4.11288 1.03643 -1.47078 -2.8982 1.45536 -2.50936 0.177843 
-8.13745 12.9052 6.09544 -2.31965 9.97464 -3.03119 -4.76701 -3.83975 -4.92346 -3.68098 -2.51998 -4.48601 18.8873 3.40183 0.968991 7.38813 1.2323 -3.82557 0.687606 -3.80704 -0.0365868 -1.16129 -3.25637 2.26558 -1.16167 0.165941 
-4.41816 7.51251 15.1715 -3.08493 -1.48825 -0.594355 -7.86138 0.0759416 -6.41157 -6.32563 0.533568 -4.46666 20.1903 3.15272 -1.58136 5.62611 -0.092937 -5.86512 1.68875 -2.64472 -0.581629 -0.867124 -3.88218 2.05675 -0.825076 0.434849 
-2.32267 4.00319 15.8732 -1.70665 -5.01349 1.77677 -8.66743 -3.75054 -5.01723 -9.90463 0.645624 1.12342 20.4759 2.206 -3.36268 2.12321 0.307239 -5.53995 1.35683 -1.30365 -0.20574 0.0110806 -1.76514 1.58103 0.817388 0.389475 
-0.322863 0.840269 16.2291 -2.31736 -10.976 3.63958 -11.1578 -2.13357 -4.66309 -11.5297 2.62666 -1.43847 20.7052 1.51273 -2.43722 0.2542 0.436878 -3.11725 0.214338 -0.30537 -0.842102 -0.337431 0.048907 1.10655 0.735058 0.150756 
0.844916 -0.572059 16.1827 -1.16724 -12.9812 1.63602 -9.63707 -3.76369 -5.74229 -9.90468 4.33864 -1.91316 20.5772 1.21089 -2.20095 0.297004 0.166312 -2.28985 -0.947126 1.3114 -0.548479 -0.691418 1.07048 1.02904 0.185619 0.250776 
1.56168 -2.38595 16.2878 -1.17025 -13.0906 0.547708 -8.90341 -4.12799 -7.73619 -6.08107 4.21981 0.726914 20.8934 1.09612 -2.50809 -0.38753 -0.49728 -1.6027 -2.44793 2.64736 -0.403506 -0.345763 0.672529 0.664207 0.0831464 0.40655 
2.7895 -5.38844 17.3289 -1.44865 -15.4054 -1.41293 -3.23762 -5.49573 -6.93777 -7.27651 4.99426 0.968819 21.6356 1.20058 -2.86355 -1.20221 -0.429712 -1.00775 -2.50962 2.56633 1.33255 0.640403 -0.822495 1.47263 -0.720675 0.435214 
4.18542 -9.292 13.7184 -4.66305 -17.7774 -7.07558 -1.12068 -3.28509 -5.79417 -9.48113 5.61989 -2.46373 22.2088 1.56317 -2.88114 -2.5532 0.453384 -0.0525101 -2.61924 1.07983 3.29055 1.83481 -1.83119 1.22091 -1.23359 0.146634 
5.53594 -11.4368 11.4563 -1.56939 -15.6765 -7.10046 -0.696814 2.47762 -3.51129 -12.3171 11.0017 -3.92122 22.0956 1.7582 -1.94376 -4.18777 1.41491 1.17853 -1.46697 -2.11659 3.72854 3.56307 -0.648237 -0.152705 -1.65427 -0.285854 
8.00433 -13.7675 6.45809 1.15705 -13.2176 -9.70472 -4.77469 8.33808 -0.275364 -12.7167 7.32059 -2.996 21.3966 1.79936 -0.297798 -4.72099 1.60675 2.65699 0.156007 -2.89508 1.74515 4.90741 2.45602 -1.51565 -1.58951 -0.542159 
9.67104 -12.8695 0.0202203 2.71583 -11.7927 -7.4332 -11.9936 7.3354 8.11816 -8.89991 3.38038 -7.0364 20.6124 1.52311 0.7548 -4.80275 -0.562705 2.92275 1.09159 -2.47526 -1.82311 3.72015 5.34399 -2.24189 -1.83564 -0.517412 
11.1147 -10.0646 -4.16856 1.22807 -6.43442 -6.12918 -9.9477 3.0118 12.9281 1.09035 1.85232 -8.8537 20.2395 1.25937 1.4364 -3.4287 -2.23516 2.2347 3.33104 -0.490317 -3.97002 1.72793 6.54489 -0.305744 -0.895488 -0.295309 
11.5963 -9.5142 -7.24408 -4.41843 -4.45438 -3.43028 -10.4866 -3.97478 8.48771 7.49929 2.52644 -10.1706 20.0871 1.004 1.66872 -2.50074 -3.47744 2.17814 3.31645 1.66631 -3.63104 -1.77888 5.83625 0.732032 0.666689 -0.0650223 
13.3385 -8.26313 -7.05327 -6.45162 -5.71327 4.94904 -7.97977 -5.85693 8.17952 11.8081 6.21885 -5.90635 20.1828 0.738011 1.06915 -1.65588 -3.5075 0.804487 3.22952 1.56622 -2.35858 -3.23644 3.45914 0.527033 1.22504 0.0487387 
13.5791 -5.42664 -11.0411 -10.8315 -1.26255 3.60992 -4.64602 -6.38542 1.59809 14.9224 4.85728 -5.17663 20.3157 0.273093 1.03281 -0.829188 -2.79689 0.550913 2.07283 2.11962 -1.04931 -1.56391 0.88497 0.396963 1.08865 0.0707531 
13.8133 -6.76268 -10.5494 -13.1029 -4.0079 6.49831 -5.03689 -7.5758 0.190718 14.6745 3.32207 -5.22549 20.3689 0.152502 0.520018 -0.711233 -1.72229 0.273278 0.406547 1.85234 -0.945844 -0.560026 -0.644743 -0.163794 0.137358 0.0332321 
12.7244 -5.10037 -9.64195 -15.0773 -2.5525 6.15925 -1.35997 -8.36189 4.66255 10.491 5.95964 -5.06775 20.3478 0.0589523 0.181318 -0.168973 -0.345141 -0.314458 0.775748 0.832154 -1.11577 1.29014 -1.26055 0.394011 0.153965 0.0156231 
14.5284 -5.82618 -11.309 -12.9402 -3.70191 5.70711 -0.361108 -9.59791 3.84716 10.8001 4.8487 -5.274 20.3329 0.0901604 -0.0685433 0.104079 0.389196 0.584577 0.13168 -0.302768 -0.433216 1.49432 -0.941089 0.948409 -0.21777 0.0293152 
13.5163 -4.9883 -11.5062 -12.6386 -2.98783 7.88426 -2.82314 -10.9532 6.2206 10.5569 6.06402 -4.38255 20.4118 0.215733 -0.916992 0.419402 1.38443 -0.174028 -0.0903048 -2.01708 -0.0966984 1.40218 -0.888557 0.834349 -0.89897 -0.00279369 
13.8682 -7.16143 -9.09689 -12.3762 -0.86734 6.29421 -5.81914 -8.44623 6.88328 9.93608 8.01192 -6.65694 20.4835 -0.0236968 -1.1068 1.43043 2.28836 -0.0734409 -1.42692 -1.58188 0.887931 1.92727 -1.07719 0.855799 -0.694779 -0.0307507 
14.1332 -9.0177 -8.65101 -8.43711 -4.83992 5.41418 -8.71636 -9.42123 10.1554 6.48022 8.54977 -8.87113 20.2585 -0.150785 -1.53101 1.91073 3.39191 -0.756964 -3.31819 -1.16503 1.55941 1.26392 -1.84052 0.109363 -0.357829 -0.0437651 
14.1015 -9.34546 -5.5845 -3.59915 -3.14307 -0.192435 -5.32391 -5.92425 11.5161 7.4525 7.88482 -6.50361 20.2558 -0.591795 -0.867702 2.15949 4.30453 -1.41849 -4.28145 -0.390021 1.65649 0.668563 -3.05979 -0.283108 1.20128 -0.0558537 
12.6458 -11.5513 -3.70873 -0.0675559 -5.63479 -5.46335 -8.8959 -4.41715 10.2238 2.59604 6.6744 -6.24836 20.3068 -0.776657 -0.315546 3.26807 4.14825 -1.79443 -3.87817 -0.065584 2.75564 -1.49483 -3.60824 -0.12392 2.69013 -0.0808613 
11.6529 -10.2331 -0.770563 4.96164 -7.56234 -9.67429 -7.67948 -2.66579 10.1919 -3.42081 7.53407 -1.96192 20.18 -0.852456 0.419256 3.935 3.11622 -2.71139 -2.28928 1.01003 1.92908 -3.8201 -3.60137 0.807292 2.24138 -0.144822 
11.4742 -10.1516 5.28238 8.02373 -11.6025 -9.23576 -7.8665 2.72774 3.34334 -6.12435 8.10555 2.30865 19.8921 -0.747288 1.66142 3.95322 2.07574 -2.80639 -0.056046 2.33829 1.35151 -5.47678 -1.18996 1.01045 1.47273 -0.218585 
10.425 -7.94905 9.59494 7.93629 -13.7162 -9.75264 -0.788436 0.148722 -4.14418 -6.19417 11.2057 0.424782 19.7391 -1.4127 2.88227 3.71624 -1.11047 -0.924972 2.10688 1.43648 -0.377914 -4.60643 0.465861 0.0871979 -0.186985 -0.264491 
9.52327 -4.38624 10.8746 8.82381 -16.5898 -5.7044 -0.649959 0.933144 -9.99211 -1.96707 9.89084 -0.0780611 19.4344 -2.1228 3.25528 3.76237 -2.62317 0.685288 2.78638 0.509058 -1.46803 -2.47421 0.405537 -0.487259 -1.16053 -0.122081 
5.56485 1.29554 15.0145 -0.990739 -9.69351 -0.905577 -4.10535 -3.65806 -6.17253 -3.17014 7.07741 -1.70348 19.0864 -2.2126 2.27003 4.32994 -3.2163 2.10611 2.53982 -0.934992 -0.777735 -0.574214 -0.410326 -1.05567 -0.988895 0.0726082 
3.29023 1.50252 21.3844 -0.628587 -10.1873 0.272592 -3.66275 -2.70904 -8.01354 -5.60868 7.7334 -2.42989 19.608 -1.80943 1.11025 3.7472 -2.39706 2.33752 1.80035 -1.30013 0.154592 -0.107213 -1.15778 -1.43248 -0.599796 0.127481 
2.47851 0.456717 25.9897 -3.419 -6.38685 -0.042038 -3.957 -1.91886 -8.00454 -6.42499 7.00609 -3.34378 20.0153 -1.07416 0.433366 1.72652 -0.140439 0.959811 0.334285 -0.154161 0.058801 -1.00368 -0.317375 -1.73713 -0.508558 -0.0769554 
2.01929 1.58442 24.123 -1.94736 -6.5556 2.86557 -7.22476 0.8365 -9.61217 -6.12854 2.76409 -2.25689 19.6074 -0.238736 0.856654 -0.930657 1.01259 -0.0491505 -0.383615 -0.190634 -0.644952 -0.496846 0.890122 -2.5973 -0.50741 -0.665016 
0.829519 3.42142 22.2778 -1.03355 -6.71032 -0.530645 -3.09515 -5.13683 -10.3916 -4.49708 0.876408 -4.33277 18.702 -0.657917 1.15922 -1.38498 1.75245 0.144397 -0.0216322 -0.829058 -0.388404 -0.258509 1.16693 -1.27979 -0.801575 -0.775899 
2.92104 4.30343 18.5871 3.24164 -10.2714 -1.40118 -5.04685 -4.32481 -9.30424 -2.12202 -2.18828 -4.47244 16.9396 -0.756139 1.23553 -2.32561 1.19803 1.11955 -0.387328 0.00494699 -0.0786901 0.145852 1.3879 -0.718747 -0.737671 -0.770467 
-1.26195 4.89333 21.8328 2.74878 -3.80699 1.98318 -9.19125 -1.28022 -9.45105 -2.5936 3.08334 -6.24388 17.4697 -0.783917 1.11817 -4.78267 1.4958 1.51707 -0.999696 -0.133997 0.84001 -0.988903 0.524152 -0.225189 -0.71165 -0.99406 
-0.715668 7.02609 12.7175 2.15161 -2.40954 -0.327976 -4.15198 -1.48525 -9.35318 -0.140761 -1.93312 -4.98969 16.3712 -1.29874 -0.175809 -7.9171 1.33297 2.06901 -1.51293 2.12032 1.19198 0.872417 0.660372 -1.10835 0.746415 -1.10822 
-1.27171 7.65093 1.2993 6.99044 -3.05586 -6.06572 -4.21257 -2.35656 -15.3116 -2.86695 -0.377115 -7.63239 14.0159 -0.780246 -1.27189 -9.0621 1.42734 1.03756 -1.11474 2.84267 1.0863 3.19283 0.346643 -2.64684 1.91884 -1.21727 
-3.56779 2.04559 -10.7316 7.78563 -0.301849 -4.94138 3.06542 2.17325 -2.01186 1.31651 -5.9998 -0.0461111 13.1254 -1.09275 -1.84237 -5.61659 1.25955 1.61455 1.20341 2.6136 2.31581 4.32901 0.14695 -1.28977 2.80266 -0.862197 
-3.73712 1.02415 -11.7532 7.06845 0.32695 -1.28381 1.4134 2.32203 2.84243 -1.58902 -8.11754 0.878552 13.0062 -0.720288 -1.91416 -2.4003 -0.635264 0.421136 1.91749 1.49513 1.04599 3.93869 1.95111 0.147498 1.54347 -0.339904 
-4.94672 1.12762 -8.83925 8.41033 3.9718 3.29813 6.10305 7.75451 3.21482 -0.0449736 -4.51178 4.76814 12.565 0.0801529 -0.354557 0.830188 -1.02516 -1.09434 0.871979 -0.106924 -0.63295 1.31734 2.09165 2.18056 0.110271 -0.124261 
-4.18368 -1.46086 -11.6484 3.50178 -3.08701 -0.598023 1.74426 0.0827351 1.76846 7.56934 -0.383635 -2.32218 12.5966 0.106638 -0.333026 0.536256 -0.510642 -0.214898 0.172038 0.204323 -1.00211 -0.248335 1.54254 1.95869 0.524514 -0.0777889 
-2.94375 1.51531 -6.63308 4.44318 -4.06656 -0.924372 2.36536 0.128145 5.11183 7.19558 1.03607 2.10561 12.7089 0.196143 0.418358 -0.302658 -0.602078 -0.184385 0.215503 0.417303 -0.54938 -0.764401 0.0558141 0.0846963 0.731485 0.0410351 
-4.20542 -0.834823 -10.175 6.49882 3.27164 1.68763 4.30386 1.12468 0.652247 2.50342 -1.09804 4.83239 12.5453 -0.298679 0.477618 -0.557264 0.281265 1.40668 1.60551 1.07683 1.50362 0.431855 -1.15889 -2.26605 1.7489 0.0489387 
-3.95514 2.90639 -11.0892 3.90142 -0.129454 3.23282 6.90977 4.48664 -0.049077 2.76706 -3.7311 4.84828 12.7958 -0.603021 -0.0894903 -0.929456 0.263039 0.658319 0.130399 -0.721489 0.92344 0.360166 0.287025 -1.69686 -0.359326 0.0253924 
-5.17138 0.231688 -12.2066 5.17898 1.97782 5.35095 4.85622 5.42158 6.50818 3.98914 -9.33029 5.05098 12.7978 -0.19155 0.199551 0.058605 0.28621 -0.758586 -1.64589 -0.735409 0.184177 0.692625 1.54112 -0.382368 -0.380751 -0.0362364 
-5.47587 0.534606 -10.2645 6.41829 -0.128057 -2.10403 -1.51826 2.5969 3.9847 7.88785 -3.33209 0.199685 12.7097 0.0600359 -0.401074 0.0479517 0.137279 0.36078 -2.9768 -0.41896 -0.327902 -0.813742 0.0906104 -0.244763 -0.565096 -0.132153 
-4.4028 1.34883 -10.2943 6.67143 -0.52199 -3.8734 4.84083 2.99043 2.09848 7.64864 -3.20938 5.25293 12.4072 0.400374 -0.3388 0.335412 -0.373812 0.872444 -1.45107 0.62794 -1.82188 -1.63806 -0.00650974 0.714388 1.33805 -0.156155 
-4.03925 0.34245 -11.8056 3.84159 2.92435 -7.03901 4.82266 4.0627 -1.91293 1.39036 -8.01537 1.92183 12.3304 0.235364 -0.542674 -0.126895 -1.38562 1.60328 1.12634 0.951952 -0.817164 -0.324649 -0.986068 -1.10233 0.862996 -0.142737 
-3.88782 -1.36623 -9.759 4.59827 4.81384 0.563073 4.82546 -4.42071 1.26672 7.20533 -3.41672 10.8802 12.2067 -0.164645 -0.740553 0.0981359 -1.67694 1.0598 2.08365 0.381459 0.00903391 1.7556 -0.727903 -0.428779 -1.20373 -0.136814 
-4.55654 -0.821232 -11.1667 0.526772 5.22042 1.30944 3.24919 2.21665 2.77733 3.17916 -8.74007 1.70105 12.0962 -0.0791895 -0.850116 -0.0747508 -0.711318 1.05516 1.61788 0.461918 0.224253 2.04466 -0.0353837 0.914191 -0.619685 -0.145361 
-4.96738 -1.7721 -10.1231 -0.0558639 3.62898 2.37063 7.53486 3.95863 8.53136 3.11472 -4.99092 -0.655316 11.8402 0.109675 -0.675663 -0.206477 -0.218976 0.116761 -0.170334 0.394918 2.09351 1.15197 -1.15366 0.115488 -0.347648 -0.106091 
-3.89542 -3.7052 -11.9973 2.61207 8.7926 0.146612 5.77755 0.994297 4.67803 3.25875 -2.65731 4.59115 11.7868 0.127269 -0.284376 0.21613 0.536618 0.0625165 0.0649122 1.02913 -0.20617 -0.66867 -0.0384682 1.50368 2.79192 -0.0574855 
-3.67001 -3.30257 -10.376 2.46075 3.61156 0.292816 5.53586 6.65803 6.0762 1.39721 -5.88065 7.69688 11.831 0.020961 -0.0193006 0.658994 0.809924 0.00116718 -0.618874 -0.644815 -0.778305 -1.68372 -0.916511 0.349152 2.03971 0.0267468 
-4.56888 -1.47788 -9.95954 1.95156 5.54172 2.6729 9.39431 -0.163906 0.661563 3.84557 -0.77678 11.4846 11.8134 0.624779 0.55477 3.65265 -0.805161 -1.94157 0.00574996 -0.457981 0.0164592 -0.547204 -0.663158 1.03145 -0.330254 0.34824 
-4.52584 -2.98226 -7.84705 4.32401 5.26026 -1.98689 2.5024 0.646211 2.12098 -1.76125 -4.18542 6.09653 11.9606 0.554074 0.000920534 2.93533 -0.548141 -0.930929 -0.546634 -1.02918 -0.0941279 0.291237 0.35108 1.14823 -0.884681 0.232824 
-0.343601 -1.0915 5.0014 -2.34537 -1.73961 1.31521 5.00437 4.0825 3.91962 1.52219 1.65232 3.74005 13.4632 0.117467 -0.0549101 0.797324 0.0371667 -0.210119 -0.0821974 0.369903 2.55869 1.91941 0.388905 0.549647 -1.95992 -0.0242433 
-3.01227 -3.49115 -3.17985 1.86851 2.59758 -1.76151 2.58491 4.06419 5.90335 4.31431 -1.35404 7.14572 12.1702 -0.126875 0.466317 -1.95589 -0.178462 0.225996 0.563694 1.78166 1.12089 0.274719 0.708462 0.519802 -0.138238 -0.210045 
-4.73833 -1.49798 -8.30652 3.36514 5.82246 2.14923 11.2026 10.9206 8.36743 2.75232 0.555767 1.16035 11.5874 -0.518909 0.433185 -3.97406 0.455157 0.870925 0.0374813 1.23411 -0.37343 -0.993059 -0.386069 -0.506501 0.545973 -0.355174 
-2.96285 -0.447435 -10.9726 0.576448 2.6092 0.414577 8.3116 2.83163 1.27067 1.166 -1.03814 6.69519 11.8483 0.187432 0.713798 -1.82515 -0.537281 -0.319001 0.261752 0.85624 -1.0554 -1.63621 -0.788294 -0.0962092 0.463377 -0.038309 
