-6.70116 0.18778 -3.16801 9.61009 9.12097 2.74111 -2.51622 -1.37619 -11.903 -1.63067 0.0739818 -3.81125 12.0137 0.304411 0.199051 0.309579 -1.7759 -1.14597 -0.718079 0.713259 1.86915 2.2297 1.12833 -0.370532 1.26031 -0.0199318 
-6.29209 -0.972923 -3.45927 2.26478 4.90641 0.914561 -0.332445 7.14688 -2.68182 0.86606 1.37552 1.08425 11.8681 0.0334572 -0.12561 -0.416764 -1.91003 -1.52726 -1.1649 1.02247 1.3531 1.45413 0.834099 -1.08047 1.26184 0.026717 
-5.38364 1.76339 -1.47449 4.40325 5.49838 0.0639935 -0.0418105 3.70802 -5.36509 2.76258 -2.42945 0.0425346 11.9868 -0.149305 -0.625527 -1.14581 -1.6583 -1.49576 -0.209469 0.716251 1.27546 0.741967 0.051241 -0.833171 0.021213 0.0442791 
-7.19263 -1.22807 -6.0986 2.66338 3.29595 -1.74481 1.35891 2.84721 -7.90133 0.343191 -4.07664 0.571068 12.1607 -0.0337767 -0.714208 -0.718394 -0.272629 0.433477 1.46328 0.659477 0.886132 0.0586478 -0.479362 -1.16381 -0.846194 0.0316691 
-6.99741 -2.81228 -7.57741 1.1193 2.44739 3.02346 0.21936 7.15094 -5.58342 -1.11304 -1.36579 -3.44859 12.0888 0.296756 -0.544133 -0.333344 0.403118 -0.0432228 0.266974 1.11604 2.33511 1.53299 0.0226766 0.475677 -0.104039 -0.0245978 
-5.65409 -2.25613 -3.99978 2.54361 8.59929 6.75125 2.83436 9.85609 -2.27941 0.407059 -4.97534 -1.40116 11.9755 0.753198 0.331273 1.1104 1.61995 1.11326 0.241598 0.428696 1.84799 2.29789 1.15458 0.424703 0.287201 -0.0720593 
-4.66913 -0.443253 -4.19061 6.47873 2.6306 -2.84916 4.80065 11.8791 -0.511094 2.84403 0.398294 0.50845 11.9565 0.490035 0.689843 1.19552 1.54796 1.13496 -1.19217 -0.668492 0.110115 0.997714 1.90966 0.339858 0.49451 -0.0780875 
-4.59078 -0.756223 -2.23998 8.08343 8.77067 2.39949 1.21174 9.72306 1.05193 4.13754 -2.83516 0.0285537 11.8666 -0.0167782 -0.0258142 -0.225896 -0.141002 -0.164186 -1.20862 -1.91387 -2.55171 -0.576128 0.175925 0.0566174 0.233144 -0.0403111 
-5.07889 -0.113019 -2.47972 6.08919 8.0365 -0.761501 -2.31179 7.76803 -2.26052 6.57001 -0.736596 -1.69089 11.7528 0.816892 0.436433 0.43942 -1.34117 0.0881962 1.85537 -0.784639 -3.29233 -1.13702 -0.407683 -0.394217 0.0506169 0.0627225 
-5.5331 -2.55031 -5.98471 2.03337 5.07541 -0.335674 -3.17876 -0.846907 -4.28534 -0.576307 -4.12481 0.864236 11.8758 2.95135 0.842217 1.23661 -4.03321 -2.95321 3.65823 1.03001 -4.36393 -0.854474 -2.18842 0.685017 1.58058 0.951743 
-0.11351 2.63596 -0.121148 2.79793 4.9192 7.79526 3.07271 0.702456 -3.52758 3.16254 -0.927965 0.343693 12.2655 4.10048 0.87317 1.64704 -5.42889 -4.15975 5.48079 2.22851 -4.1558 0.317236 -3.10489 0.595594 2.81564 1.72 
7.68328 2.08037 2.76378 -10.437 -4.43675 16.4123 3.66954 -8.5638 -2.58691 -5.10082 0.685609 6.91416 16.369 4.06953 2.08293 0.743699 -5.80521 -3.4644 5.08795 1.18707 -1.99762 1.82031 -3.50115 0.926513 2.76905 1.88889 
8.81531 1.93749 1.38124 -14.82 -8.00619 18.2685 5.40662 -9.15253 -1.52356 -6.69221 -0.163838 9.36236 18.1062 2.50693 1.97821 -1.3738 -4.60607 -3.0881 2.18744 0.655317 -1.90629 2.09413 -3.47012 -0.17999 2.18956 1.44801 
10.3502 8.21356 -3.01741 -18.1837 -5.78388 19.8675 1.58962 -5.90749 3.81422 -13.1547 0.125689 10.2002 18.3999 1.0806 1.95737 -1.61887 -1.03287 -1.43029 -0.906082 1.5485 0.0450628 1.48014 -0.869965 -0.767087 0.20251 0.52136 
11.0877 9.46043 -4.09955 -16.3591 -9.84772 17.0048 7.38926 -10.1572 3.7425 -10.1611 -1.54796 9.64851 18.4901 0.898016 1.1266 -0.124214 -0.00900478 -1.69212 -2.1163 1.86342 -0.317756 0.734447 0.463327 -0.828486 -0.991013 0.215042 
11.9501 8.10574 -2.59015 -14.8318 -10.6674 12.5137 10.4207 -7.83617 2.18077 -7.7162 -2.45777 7.78363 18.7838 0.678228 -0.721354 1.92463 1.08566 -2.36569 -1.89989 0.523488 -0.88815 0.0182185 2.41385 -0.279527 -2.18699 0.0953634 
12.5054 7.6244 0.546535 -16.541 -14.025 11.3639 10.3082 -9.77697 2.9654 -7.09482 -3.01454 5.61557 18.9894 0.480422 -1.83527 2.62083 1.57187 -1.15145 -0.527689 -2.25511 0.0129796 -0.579123 1.61598 0.892937 -2.86745 -0.102325 
13.0324 5.5248 4.28269 -12.6644 -15.5237 13.1885 2.74761 -10.5383 4.29386 -2.61857 -0.538655 1.28168 18.627 -0.156237 -2.761 1.92916 3.36988 0.825265 1.2073 -4.11048 0.915766 -0.43272 0.101779 0.33224 -3.36708 -0.319034 
12.9486 1.57455 5.56817 -9.58344 -13.1769 14.029 -0.0497441 -8.74117 -0.209665 -4.63 1.95717 -1.43775 18.0569 -1.07176 -2.51921 1.62679 4.45188 1.41528 2.15291 -2.93019 1.61696 -1.13235 -1.98391 0.168385 -4.04485 -0.383047 
10.9473 -2.67435 4.54482 -1.46121 -6.96518 17.2176 -4.95271 -3.77524 1.6047 -8.43972 -3.28243 -5.52512 17.6549 -1.44734 -1.57751 1.511 2.90744 1.44926 2.30956 -0.681961 1.18343 -1.48848 -2.57923 -0.893335 -3.00787 -0.239306 
8.18918 -0.872086 8.54944 0.116812 -11.2278 20.1138 -0.492636 -5.07373 -1.35177 -14.1038 -0.800728 -11.2053 17.5603 -1.3808 -0.354998 1.14807 1.39373 0.181065 2.15182 0.0960681 -0.0850321 -0.352497 -1.81102 -0.936789 -1.69368 -0.0278725 
8.17546 -1.13942 10.347 -2.97733 -9.25191 21.6939 -0.440749 -6.45491 -2.57747 -10.7778 -3.62638 -8.87393 17.6788 -0.645435 -0.19833 -0.0346727 0.0911262 -0.18747 0.168792 -0.590838 -1.14216 0.532474 0.0302774 0.0885009 0.385783 0.104039 
7.43053 -0.967909 8.40744 -1.85673 -11.1282 22.5499 -1.82538 -7.8265 0.118936 -12.5161 -2.5548 -8.23177 17.9056 0.51352 -0.761424 -1.88995 -0.813419 0.125269 -1.74426 -1.67658 -0.265609 1.77497 1.70773 0.217895 2.21659 0.238839 
8.09946 -3.61809 4.44246 -0.0188122 -7.95236 16.8435 -7.24052 -8.10966 3.53172 -9.08219 -1.96289 -5.08295 18.0024 0.872187 -0.115421 -2.28451 -2.48295 -0.941463 -3.27512 -0.0772627 0.749318 1.90278 1.36561 -0.0813914 3.02934 0.4162 
10.7948 -3.43987 2.052 -5.42954 -11.2513 13.8177 -5.47563 -5.5744 4.46847 -6.41293 -0.542998 -2.01782 18.5926 0.855033 0.370253 -1.58226 -3.79585 -0.99555 -2.98349 1.65539 0.90607 0.59433 1.59076 -0.440065 3.8572 0.503928 
10.8543 -0.48054 2.10221 -13.6057 -13.8977 9.68438 0.998064 -3.83437 4.76165 -7.00133 -5.03924 3.16579 19.4163 0.300742 0.514194 -0.794947 -3.77501 -0.546916 -0.963641 2.97705 0.177735 -1.03903 0.790726 0.0872779 3.97637 0.539774 
10.3283 -0.685421 1.66629 -14.0426 -13.1333 11.2121 2.33228 -5.43379 2.47562 -5.60267 -3.21695 6.92985 19.7183 -0.55996 -0.0964753 -0.828073 -1.92074 1.41142 0.318632 1.92065 -1.4116 -1.76272 -0.0787476 1.42028 3.03416 0.445789 
9.83641 -2.42434 0.660584 -14.5874 -9.74594 13.3281 3.74076 -7.29128 -0.667004 -5.53368 -0.189523 10.3251 20.1385 -1.2515 -0.56354 -1.3308 0.0644941 2.67387 0.201009 0.143197 -2.85887 -0.718453 -0.531681 2.9462 0.994735 0.313299 
8.50392 -2.95035 -1.36755 -14.5424 -6.27005 13.589 2.75625 -10.9039 -1.6308 -7.54049 4.13354 9.57332 20.4605 -1.39979 -0.173295 -1.91838 1.58558 3.02055 -0.907136 -1.02053 -3.34658 1.12047 0.332736 2.15657 -0.754746 0.170616 
5.50894 -2.16577 -3.03485 -13.0333 -3.95993 9.50097 1.50207 -15.3937 3.2226 -8.69082 6.01651 6.81773 20.6117 -1.2279 0.0702565 -1.76781 2.81256 2.84891 -2.81132 -1.71387 -3.45223 1.91516 1.43743 -0.609334 -2.45395 -0.130281 
5.49306 -1.68118 -6.07791 -6.89172 -0.923518 8.58997 -1.651 -18.1155 6.13318 -2.36042 4.46291 4.90979 20.3348 -0.803669 0.693005 -0.710157 4.00502 2.37074 -4.03348 -0.99628 -2.33126 0.604668 1.7011 -3.64698 -2.98286 -0.543409 
5.20234 -2.70764 -5.82328 -4.34992 1.82534 1.77103 -2.62495 -20.9466 5.02678 -0.936544 -3.40088 0.387102 19.5499 -1.37412 2.76901 0.0194884 4.1693 3.33306 -4.21889 -1.58244 1.40664 -3.43751 1.65432 -4.49713 -2.90838 -0.697486 
4.63887 0.785612 -3.52412 1.14102 2.69102 -2.71343 -0.161644 -19.7837 0.490446 -2.91212 -9.39268 -2.12565 18.2743 -3.85758 4.83049 2.34798 3.01204 3.2954 -3.9159 -1.45514 5.59462 -4.57308 0.929677 -3.85316 -1.36185 -0.145987 
-0.934542 10.4459 -4.2143 3.79686 10.8981 -5.9418 -7.15483 -7.52634 -11.1436 -0.14336 -9.54132 -4.20647 18.1545 -5.89491 5.00285 3.41268 2.57564 3.33552 -0.764614 0.606779 9.05652 -2.84882 0.924615 -0.707434 0.46006 0.503875 
-10.7264 15.8945 4.8575 4.09511 11.0171 -7.13313 -6.66178 3.14746 -8.64703 1.89137 -11.7327 0.397338 20.3026 -6.84164 2.72567 2.815 0.649175 2.43364 1.68698 2.10118 8.71593 0.373104 1.55433 2.17399 1.07805 0.96733 
-16.5896 14.7521 7.04929 7.05122 14.3399 0.157816 3.65901 12.8703 -4.64857 1.28478 -5.76806 1.42591 21.0552 -5.24683 -0.698089 1.42135 -0.533722 0.264752 1.57105 2.82358 5.27913 2.42323 -0.0966467 2.50116 1.07229 0.890345 
-21.7418 12.2608 4.91908 2.75972 13.1383 2.67166 4.93735 13.5975 -0.89155 4.14546 -0.40938 0.448407 21.6606 -2.62415 -2.01695 -0.158059 -0.818496 -1.60525 0.789412 1.15416 1.83801 1.64015 -0.0737274 2.23181 0.522963 0.344011 
-21.661 8.77227 2.86165 1.79594 11.1613 -2.98893 1.16351 13.6443 -2.90518 -1.75364 -2.69718 1.12946 21.9272 -1.08464 -1.43371 0.0296949 -1.3756 -3.00346 -0.733357 -1.30912 -0.320764 0.508486 0.700672 0.882342 0.705515 0.125608 
-21.3115 8.79971 6.16103 2.63027 4.58019 -1.6127 0.356753 11.9506 -1.31797 3.04195 -2.10907 3.16038 21.5866 -0.129365 -0.390122 1.06842 -1.11024 -2.21936 0.427227 -0.220359 -0.854176 -1.01202 -0.199103 0.391782 0.204901 -0.0450571 
-22.228 9.31415 6.57679 0.237922 3.60163 -1.36679 -0.596273 12.09 -1.89294 5.3399 -0.506503 3.5975 21.7202 0.864081 0.633177 1.66243 -0.326227 -1.41149 0.766448 -0.400038 -2.35492 -1.96857 -0.449406 -0.308939 -0.910421 -0.222002 
-22.1051 10.0393 8.40363 -2.01247 5.82129 3.99673 4.71545 10.1038 -6.45778 -0.396822 0.454196 0.238894 21.5388 3.47177 -0.813876 0.690134 1.34048 -1.37076 -1.75163 -2.34677 -4.17103 -2.24849 -1.88563 -1.48121 -1.31376 -0.356834 
-16.9437 11.3184 10.0525 2.48618 3.48327 -1.96141 -3.01603 2.79305 -10.1781 -2.28129 -5.5235 -1.96191 20.8411 5.18034 -2.78232 1.29617 2.2852 -1.93493 -3.37119 -4.58201 -4.67878 -2.01227 -2.55889 -1.63139 -0.701367 -0.440532 
-6.59476 3.72821 7.87383 8.20855 -2.21443 -10.0735 -10.1672 -4.25614 -8.41782 -2.5756 -7.00663 -0.628718 20.242 5.34955 -3.62059 1.30875 2.84367 -1.53928 -4.24799 -5.60336 -3.49083 0.0607009 -1.2982 -1.47982 0.896819 -0.469108 
-4.0815 -1.44191 13.3225 6.55343 -2.05517 -11.1876 -16.065 -4.12395 -10.9743 -6.36516 -4.93305 0.524468 20.166 3.00493 -2.94419 1.57123 0.903156 0.206734 -2.29932 -3.05864 -1.85752 2.72429 -0.488142 -0.527081 -0.310073 -0.323322 
-1.78851 -1.68352 13.3123 10.1723 0.894099 -12.6301 -16.7769 -3.89185 -5.7562 -4.84587 -7.24014 3.4798 19.5308 1.21595 -1.57707 0.869592 0.859331 0.844267 0.5422 0.805234 -0.224445 2.56058 0.731886 -0.966953 -1.03581 -0.499623 
-4.32223 -0.696737 15.1894 6.0201 2.96268 -12.1797 -15.0044 -6.6767 2.11253 -3.58687 -8.04215 -5.56653 19.5801 1.82791 -1.42295 -1.21128 0.362441 0.596433 0.664485 3.19323 0.636441 1.799 1.45797 0.133963 -0.989669 -0.523125 
-0.394634 -4.52971 11.2884 12.7719 -0.502016 -6.86648 -6.67134 -4.10198 -2.15833 -0.305319 -10.2868 -2.76228 18.0369 2.93289 -2.53632 -1.81191 -1.47821 -0.491364 0.186027 2.99339 1.39567 1.42931 0.707862 1.92594 -0.329276 -0.033992 
4.36109 -7.13358 8.27814 7.06583 1.62506 -10.747 -5.15161 -0.836673 -3.77823 -1.3456 -2.73988 -1.30284 18.2973 3.70077 -3.11934 -2.59238 -2.98095 -0.815214 -0.506832 1.28945 1.07506 1.35394 0.459845 3.15852 0.107881 0.377469 
8.53429 -11.1467 7.70843 2.25834 -0.893912 -12.4163 -6.73635 0.166485 4.33575 -2.42719 -0.261569 -0.298426 20.0023 2.90403 -1.96464 -2.46098 -4.22862 -0.367947 -0.213759 -0.467022 -0.173438 2.88867 1.44475 4.02903 -1.29172 0.774685 
9.71716 -12.985 4.01744 -3.62789 -0.917449 -11.9389 -8.52464 -3.43563 5.63518 -0.226707 2.73783 -6.25905 20.4847 1.52982 -0.588766 -2.44673 -3.67088 -0.160206 1.21181 0.69042 -1.47344 2.60391 2.43402 2.95765 -1.67158 0.626299 
11.4475 -11.4272 1.11383 -3.02439 -1.0705 -7.33931 -7.31994 -3.6697 7.57832 6.35897 7.11945 -6.74275 20.8166 0.253854 0.960049 -2.85242 -2.80881 0.0507946 2.21206 2.06007 -1.97859 0.916328 1.97758 2.28943 -1.98272 0.259381 
10.5536 -9.93714 -0.658194 -8.64719 0.91232 -7.22647 -1.40772 -6.28581 7.62006 6.43141 8.35784 -6.43858 21.0216 -0.338773 1.72161 -2.62702 -1.34839 0.0204988 2.70806 1.8298 -1.12314 0.0382982 0.974431 1.02433 -1.17712 0.0914793 
9.38534 -7.87036 -4.21584 -9.27605 -1.55482 -3.71225 0.0055356 -8.3014 7.92495 4.13165 8.37555 -10.1223 21.0307 -1.18977 1.85265 -2.16805 -0.666605 0.176 2.0114 1.10337 -1.3899 -0.186779 -0.386038 0.13386 -1.70756 0.0117249 
9.05438 -6.15534 -6.45282 -7.24403 -0.572793 -0.21213 -3.03837 -6.7355 5.65335 5.7591 7.23145 -10.4549 20.8351 -1.03475 1.30566 -1.13499 0.752036 0.343056 1.89891 -0.795049 0.133227 -0.521017 0.854141 -0.550086 -1.86648 0.0189531 
6.24827 -4.05488 -6.82911 -7.059 0.552059 -0.789467 -0.987746 -10.3944 7.62777 4.76493 8.35195 -13.2724 20.9685 -0.661587 0.578762 -0.033724 1.21768 0.727413 0.702014 -1.05756 0.728062 0.187546 1.19829 -0.99418 -1.49581 0.0160709 
6.94838 -5.31659 -5.02653 -5.99554 1.57416 0.80671 -4.88632 -4.57318 5.16356 10.3855 5.61921 -14.1959 21.1475 -0.247441 0.114031 0.371339 1.36008 0.401106 -0.654813 -0.506215 1.07035 0.561705 1.19225 -1.51403 -1.2042 -0.0208475 
7.13041 -5.39592 -5.0976 -3.81189 1.00876 -0.7116 -4.3583 -5.74225 9.10758 7.80991 4.21077 -15.7308 20.9548 0.474798 -0.0229703 0.370949 1.60378 0.505306 -2.05623 -0.14432 1.58438 1.15906 1.0103 -1.64554 -0.104515 -0.103861 
7.3761 -4.91466 -5.46188 -2.06721 1.20438 -3.52513 -3.88417 -3.7098 7.72197 10.1978 1.73188 -15.2466 20.7377 0.432766 0.692965 -0.665606 2.29125 -0.25159 -3.8168 1.52086 0.278067 1.73274 -0.57053 -0.713531 1.0416 -0.179744 
8.4084 -4.3707 -4.75669 -1.00424 3.26348 -8.90472 -2.21042 -2.90416 12.1439 9.91026 2.06793 -13.2696 20.6541 0.134378 1.07769 -0.540814 2.12591 -0.548978 -4.30013 1.6501 1.3617 0.546656 -0.658901 0.0423943 1.95269 -0.203189 
8.47321 -2.36438 -8.52502 4.05687 -0.811147 -14.1807 1.64405 -4.60189 12.3091 6.48265 3.12298 -10.2185 20.3991 -0.318423 1.51157 0.0044169 1.40395 -0.569028 -4.25449 1.55313 2.25096 -0.158693 -1.76192 0.45292 2.59626 -0.256568 
7.25374 -1.28263 -6.2701 3.75562 -0.72836 -16.8845 1.12808 1.51231 9.54727 6.373 3.72719 -8.48141 20.1082 -0.741363 1.6305 0.865766 0.819256 -1.07961 -3.14253 1.1403 2.38096 -1.18085 -2.70221 0.769348 2.98213 -0.372162 
6.36131 1.09916 -4.68309 2.57262 0.35516 -20.8077 2.21221 5.33678 8.2268 3.15686 3.16684 -4.65946 19.7278 -1.14898 1.31541 2.65388 -0.312114 -1.29764 -1.16112 0.626831 1.39004 -1.22759 -3.05517 1.02854 2.37779 -0.442736 
5.75753 2.05002 -2.34883 3.83416 -2.71774 -21.3038 3.20702 4.03129 8.28077 -1.93787 5.89273 -1.1385 19.129 -1.11118 0.442444 3.71018 -0.552411 -2.133 1.10253 0.328625 -1.31578 -1.30348 -2.81266 0.846832 1.79907 -0.46611 
3.47642 2.54633 2.78376 2.45703 -6.30468 -17.7766 3.73873 1.08881 6.80442 -4.63777 7.18289 -2.00101 18.6751 -1.02957 -0.777907 4.56906 0.350575 -1.38627 1.54239 0.248282 -2.52912 -1.4343 -1.34335 0.474517 1.38153 -0.460586 
3.14031 0.206012 8.54738 1.05136 -8.06345 -12.8874 2.00795 -2.94259 3.74108 -3.793 5.95333 -0.815265 18.304 -1.05682 -0.702786 2.77954 1.6289 -0.784816 0.16341 0.28703 -2.70217 -0.937093 -0.47666 0.336811 1.42342 -0.318959 
2.5221 -1.86837 12.7141 5.7169 -3.90332 -17.304 4.05316 -3.82188 3.32514 -2.63231 5.50913 2.08656 17.8374 -0.906241 -0.368679 0.217499 2.30082 -1.37453 -2.89564 -0.84301 -1.37347 -0.238303 0.617405 1.50512 3.20875 -0.588834 
0.950597 0.743436 6.5837 10.3487 -7.8425 -20.7231 4.48495 -7.0242 5.33494 -5.3239 8.41366 3.93481 17.953 -0.913284 0.437266 -3.2491 0.723874 -0.469034 -1.66703 -2.24766 2.47193 -0.538001 1.56236 2.09671 4.94925 -1.24134 
0.0400715 0.434219 4.85309 9.31246 -13.2878 -28.337 -1.71482 -3.73773 4.81598 -0.785296 13.4783 11.6677 15.9064 -1.27109 0.751544 -4.28117 -1.40049 -0.165202 2.03091 -2.63389 3.68583 -2.09423 2.34408 0.841998 3.44904 -1.64742 
-0.185098 1.24105 -3.7676 2.87295 -5.71637 -15.706 -6.34639 9.37499 0.305656 3.09531 12.4523 19.1404 13.0628 -1.24756 -0.0619215 -3.16862 -1.93855 3.28234 5.82427 -0.927727 3.37182 -3.40136 2.86377 -2.80964 -0.0976241 -1.57897 
-3.26552 1.64054 -3.51609 2.45235 -5.7924 -9.65799 -3.70061 6.40768 -4.63138 4.87848 7.69981 11.7289 12.0454 -1.45543 -0.545303 -1.96256 -1.87497 3.92285 7.00408 2.24146 1.89172 -1.98173 2.12318 -4.775 -3.64413 -0.891105 
-3.63441 -0.169333 -5.07483 4.08606 4.82149 -0.941243 0.839216 4.76218 -6.94817 6.16304 -2.74528 3.41607 11.9887 -1.07797 -0.795676 -0.43557 -0.306579 2.43625 3.37917 3.01331 -0.458683 -0.493517 0.811055 -3.10277 -4.14064 -0.218988 
-5.5124 -1.5871 -4.30607 -0.668942 1.05748 -0.698985 5.89966 8.02727 -1.46578 8.29673 -2.79791 1.30924 11.9879 -0.530309 -1.83108 -0.206411 1.64678 1.95144 0.450662 1.39175 1.14605 0.806033 -0.295141 -1.47973 -2.27764 0.19145 
-4.45149 -1.12351 -5.55046 2.9007 3.03992 -3.28972 3.92004 6.27178 -3.74473 5.44146 2.18731 3.64705 11.9966 -0.39036 -1.7111 0.360298 2.15647 0.935225 -1.06851 -0.0189426 1.14398 0.644245 -1.03625 0.268614 -0.647304 0.229018 
-5.50853 -7.03775 -4.31033 11.2789 4.85557 -6.23044 1.71772 11.3831 -2.20294 3.76356 -2.16513 0.225227 12.9987 0.00169601 -0.658511 0.268457 1.43351 0.565146 0.102805 -0.056185 0.787031 -0.814907 -1.20738 0.217833 -0.0982181 0.147543 
-5.58815 -5.99953 -3.27121 8.89447 7.59858 -3.51806 2.83548 8.80414 -3.35837 3.24837 -1.71859 0.721558 12.6284 -0.120657 0.553394 0.931702 -0.0271621 0.140855 1.67714 1.02142 1.85561 0.392215 0.225596 0.712865 0.779691 -0.0298137 
-4.93559 -2.44165 -4.10341 3.50174 1.60389 -0.0707912 6.16102 10.6962 -5.7335 3.35637 0.244207 2.28089 12.4097 0.0492421 1.39468 0.131173 -1.22228 0.854137 2.95505 1.02147 0.219987 1.01453 0.0948716 1.17193 1.4608 -0.271562 
-5.34125 -0.654586 -0.995409 6.65349 5.37004 2.01614 6.80549 15.8933 -0.0183752 6.77304 4.54697 6.51767 12.142 0.168182 0.917645 -0.535094 0.140469 1.32026 1.40067 0.0684921 -0.0239629 1.48829 0.792069 0.313471 -0.304435 -0.234504 
-5.38577 -2.73681 -4.79237 6.28803 10.2405 5.7777 4.84005 8.93851 1.19973 2.47559 0.561743 4.63117 11.8841 -0.137667 0.11882 -0.81803 -0.321574 0.743907 0.213978 -1.06673 -1.89446 1.04445 0.437958 -0.423176 -0.862628 -0.178545 
-4.52215 -1.26373 -5.6022 8.20367 9.88154 0.561037 3.83842 9.56319 0.616468 7.64911 -0.310007 -1.97575 11.7187 0.0400826 0.222206 -1.18172 -1.17059 -1.29057 -0.624205 -1.35136 -3.27077 -1.31594 -0.70728 -1.34612 -1.18369 -0.0854274 
-6.03347 -1.54298 -5.89016 1.11878 3.06767 1.72665 2.31088 4.38898 -0.82867 5.10813 0.556816 2.21447 11.7286 -0.12599 0.684076 -0.576307 -1.27864 -2.52526 -1.40716 -1.12716 -1.83325 -1.81337 -0.337989 -0.454252 -0.239077 -0.000137997 
-4.81698 -0.140473 -6.35513 3.38519 2.50361 0.920639 1.31327 1.81419 -5.58388 1.92037 -2.18115 1.80755 11.7926 -0.193692 0.166175 -0.12049 -1.16858 -0.662525 0.402058 -0.612318 -0.969349 -2.16202 -1.06622 0.696814 0.93486 0.0453923 
-5.8683 0.121944 -7.29744 2.30408 1.30319 -1.43789 0.46682 3.64676 -4.76696 3.65001 -0.773946 1.54413 11.8464 -0.20102 -0.486208 -0.194516 -0.0648153 0.677747 0.421826 0.0899489 -0.0298363 -0.573655 0.71618 0.7629 0.0326266 0.0331708 
-5.5732 -1.26531 -5.50101 1.7681 7.45115 4.15359 1.69886 5.08756 -8.22448 3.04704 3.83944 3.03372 11.8868 0.122024 -0.609666 -0.611584 -1.19722 0.329933 0.388065 0.141241 1.05405 1.26846 1.02112 0.42023 -0.0770072 -0.0339958 
-6.66046 -3.4116 -7.2898 1.60325 3.98263 2.2193 2.56784 2.60312 -2.37664 8.12569 1.36102 1.76452 11.8474 0.418829 0.444204 0.588285 0.259762 0.950563 0.517587 0.276256 0.0286014 0.787999 -0.655119 -0.839494 -1.16649 -0.00794048 
-3.81078 -1.42203 -9.41687 -2.25049 2.81356 1.03237 0.968972 7.60626 -0.436749 4.78815 -1.14748 1.31232 11.6221 0.765094 1.12942 2.195 0.633365 -0.578979 -0.104908 0.984609 1.35806 0.692085 -1.8701 -0.363975 0.895562 0.191444 
-4.65537 2.42132 -2.39808 5.61219 8.37481 2.71066 2.21304 2.53042 -4.72083 -0.496136 -2.47795 -3.42764 11.9391 0.437225 1.23372 2.62157 1.03304 0.22852 0.30885 1.38845 1.27488 0.170378 -2.11918 0.00704341 1.47764 0.15145 
-2.75027 1.46532 3.02815 2.93045 2.36017 3.38338 6.7993 11.9142 -3.59196 -1.99256 3.93905 10.1076 12.7981 -0.355192 0.267628 2.06242 1.04458 -1.02959 -1.26483 -0.156239 0.678443 0.317212 -1.16794 -0.706243 0.600588 0.0921044 
-5.00459 1.31331 -0.404473 4.17795 5.35192 2.58805 6.59492 6.82353 0.0528522 0.920151 -1.14703 4.75509 12.0166 -0.365881 -0.498543 -0.479722 -0.649413 -1.66989 -0.642856 0.0656536 0.131421 0.939386 1.67384 -0.771121 -0.00794325 -0.105176 
-5.41213 0.47012 -0.101566 3.68954 -0.822976 -5.23049 -2.00316 8.85191 -1.23753 -1.7597 -5.34416 0.223895 12.0438 -0.628193 -0.199278 -1.04152 0.563596 0.24275 -0.138842 -0.270223 -1.09626 0.596507 1.68119 -1.4064 -1.20458 -0.211047 
-5.15384 0.426209 -3.23183 1.98558 1.61695 3.80331 6.94254 4.71867 -1.20112 7.75661 -1.69195 1.4745 11.7903 -0.202853 -0.0359302 -0.138684 0.84884 0.644337 0.6299 0.463645 -0.00429471 0.118449 0.890492 -0.0823245 0.74409 -0.0508922 
-5.81661 0.912477 -0.765785 6.84461 5.44141 2.08153 5.27437 7.48534 0.0175557 2.99518 -2.82049 5.72499 11.8561 -0.147173 0.137098 0.113761 1.11692 1.63532 1.29023 1.28869 0.00335237 0.372884 0.474831 0.391881 1.52527 -0.0309856 
