-8.50075 -0.679655 -6.14986 3.20096 10.9579 1.94229 8.28281 -0.23035 -3.41116 7.24745 -0.585638 3.15598 11.2288 0.428496 0.21281 1.31278 -0.190915 -1.18282 -0.413972 0.245954 0.890506 1.68565 0.135628 0.626999 1.26713 0.0168462 
-8.09322 -0.184988 -1.36712 2.71932 10.4754 -0.383433 8.4723 2.52979 4.17613 10.3495 -0.516875 3.92573 11.3319 0.0460398 -0.165087 0.702941 -0.710459 -1.19721 -0.11359 -0.215531 0.409104 1.07712 0.00494058 0.548701 0.186338 0.000957203 
-6.56203 0.137061 -1.97731 2.48721 5.28503 1.03529 9.41784 2.84211 1.22343 6.37457 2.51497 9.10675 11.2615 -0.253109 -0.14503 0.0181859 -0.527182 -0.779423 0.12777 -0.103554 0.404036 -0.534077 -0.903525 -0.214137 -1.27077 -0.0172317 
-9.23991 -1.91345 -4.72143 0.00554466 7.80824 1.82784 6.63765 0.278937 -0.342852 7.7086 0.60756 1.11228 11.2173 -0.528422 -0.233227 -0.0586004 -0.168392 -0.0896809 -0.229587 0.464547 0.00348455 -2.16075 -2.78932 -1.03328 -1.77721 -0.00688868 
-9.19295 -0.540575 -4.38178 1.92194 8.39431 1.47551 8.68237 2.91525 -3.82205 4.05027 -2.21854 -1.79116 11.2 -0.113899 -0.335464 -0.452144 0.152194 0.328006 -1.48218 0.432046 0.229502 -0.555213 -1.91862 -1.38017 -1.94505 0.00338383 
-9.41987 -1.01231 -0.457888 2.16 8.47232 -1.75148 11.1628 2.51064 -4.10487 -2.43494 -3.31651 0.488616 11.3282 0.269687 -0.31934 -0.0640895 1.06573 -0.308839 -1.96792 -0.530609 0.115795 -0.344023 -1.57086 -0.140947 0.985028 0.015352 
-7.04155 -1.99083 -6.3698 2.17095 6.59302 -4.58596 9.31551 2.87377 0.328373 1.85326 -2.42385 -0.306685 11.223 0.206288 -0.416925 -0.60161 0.312652 0.100474 -0.987989 -1.22987 -1.11661 -0.320622 0.450158 0.672628 0.913118 -0.0198494 
-8.96717 -2.78502 -4.04786 5.20968 7.16469 -4.98102 3.66803 0.878653 -4.13818 0.952783 0.00548005 5.29519 11.2825 -0.111672 -0.235751 -0.869436 -0.116404 0.183435 0.276561 -1.71424 -0.752617 0.0896673 1.42378 -0.468006 -0.148579 -0.0145267 
-8.38786 -1.73884 -5.59484 1.96036 9.5505 -1.84967 6.28039 -1.8518 -5.40851 4.6072 -0.516399 0.371146 11.1236 1.3344 1.57212 0.904886 -1.00873 -0.511941 0.664348 -1.3508 -1.42585 -1.4035 -0.588473 -1.00267 -0.171652 0.042994 
-9.30508 -2.31706 -5.19255 1.68327 7.91076 -1.73682 4.10913 1.11034 -0.788092 3.30697 -6.61027 -0.593192 11.3053 4.30559 1.93355 0.516214 -3.82076 -2.13837 4.05784 -0.887761 -0.884346 0.151741 -2.65774 0.115559 -1.11853 0.804056 
-0.200607 5.6358 -1.27303 -1.1095 3.66028 -2.88632 2.34097 -4.37134 -8.36414 -2.2662 -4.12935 1.77925 11.4266 5.64494 1.40359 0.179081 -4.54102 -4.04292 5.3297 -2.06405 -0.359323 0.84244 -3.78866 1.52727 0.687676 1.58587 
8.46713 3.19542 -3.6277 -12.3592 -0.582072 15.8265 1.19894 -2.28331 -1.90165 -8.89923 2.38975 -1.00149 15.1513 5.10312 0.236614 0.293551 -4.57506 -4.55366 5.37647 -0.678197 -0.746532 1.55329 -2.67299 1.61528 1.43069 1.84668 
10.9507 2.52287 -5.48186 -13.7235 -6.41771 16.0172 -2.58479 -1.95159 -0.639525 -8.23301 2.61992 4.01368 17.1299 2.78973 -0.740221 -0.0890788 -3.23726 -3.97404 3.78115 0.821205 -0.210331 2.92796 -0.687481 -0.82887 0.90498 1.52386 
10.6348 0.422481 -1.62038 -14.885 -9.81854 15.6938 3.18102 -3.83219 3.11607 -7.07457 -1.90853 5.44302 17.687 1.05203 0.486672 0.641081 -0.417419 -3.53253 -0.194539 1.36065 -1.52558 2.93024 0.776516 -2.42241 0.317095 0.583361 
12.6642 3.32116 -2.72208 -16.0329 -11.5917 16.0858 5.45595 -4.64855 3.76677 -6.61594 -6.12456 3.08189 17.778 0.52943 1.21198 0.670178 0.557401 -2.095 -1.09994 0.760703 -1.37615 2.76347 1.01926 -2.01541 -1.4768 0.136504 
12.8706 5.22963 -1.80218 -13.2916 -15.6577 14.8195 3.98182 -8.56272 10.5464 -5.82519 -5.35007 1.04988 17.7441 0.624361 1.56413 -0.391103 2.06817 -0.271557 -2.58956 -1.27312 -1.08225 1.09973 1.90968 -0.204912 -1.40122 -0.0420607 
12.48 6.1792 -2.04007 -11.7332 -13.9731 10.9546 0.818324 -6.46706 9.46267 -3.76142 -5.73634 -1.17374 17.7839 0.0666372 0.318238 0.184444 2.87068 0.684213 -3.03054 -1.19907 -1.73614 -0.469074 2.03609 1.1855 -0.971367 -0.197484 
13.8487 6.81413 -3.9169 -6.69402 -9.98562 5.31159 -0.86577 -8.33418 5.76677 1.04657 -3.12719 0.564724 17.4738 -0.483255 -1.27405 0.147118 3.00458 1.81886 -0.872644 0.143771 -1.90744 -1.75523 1.64758 -0.0324781 -0.540542 -0.293649 
12.5083 4.1201 -0.742501 -4.97827 -11.0067 5.68708 1.88437 -13.4435 3.81123 0.128631 -1.30851 -1.53237 16.9257 -0.850219 -2.37649 0.441713 3.20075 1.51515 1.5276 0.468041 -1.88402 -1.0676 0.101747 -1.52454 -0.328415 -0.311196 
10.4402 -0.111079 -1.71538 -1.64616 -8.04661 13.09 4.16765 -14.6117 4.596 0.467671 -7.72638 -1.47352 16.7049 -1.04389 -2.42307 0.786345 1.80176 0.788763 3.05527 -0.603821 -1.13021 0.067554 -1.08954 -2.37525 -0.219533 -0.157087 
9.93322 -2.24063 -0.932264 1.74658 -7.36689 14.7034 0.641816 -12.7484 4.71003 -2.96324 -11.0594 -1.79669 16.6124 -0.479117 -1.03102 0.467469 0.0691989 -0.244543 2.26456 -1.56209 -0.139308 -0.137744 -0.561685 -0.714544 0.304912 0.00749321 
9.91679 -2.12086 0.109703 -1.04763 -7.86169 16.0798 -3.2636 -14.3328 5.65513 -2.85521 -10.128 -0.400779 16.845 0.164397 0.644766 0.536743 -1.33921 -1.69584 -0.47922 -1.39464 0.541107 -0.0323204 -0.298584 1.61159 0.345006 0.138408 
10.3744 -0.0300839 0.682303 -4.93154 -12.3218 15.515 -2.21048 -14.2795 2.59294 -1.01835 -3.68043 -0.544178 16.8932 0.513173 0.905619 0.604991 -2.82747 -2.29731 -1.24891 -0.674734 1.30628 0.746307 0.0629253 1.86419 0.519342 0.304395 
11.0416 2.00748 0.161057 -5.00317 -14.0483 10.2881 -1.37942 -11.1406 5.49295 -1.99769 -3.35794 -0.374743 17.2566 0.69924 0.266258 0.412372 -3.13248 -1.63112 -0.540081 0.015063 2.26109 0.601586 -0.608194 1.6008 0.462987 0.443093 
11.9367 0.223295 2.06701 -10.413 -15.7601 11.3547 -3.67394 -7.81308 8.52266 -3.07737 -5.1235 0.787004 17.9286 0.380383 -0.523114 -0.66353 -2.96781 0.353465 0.305124 -0.385187 1.41746 0.0705791 -1.55164 1.24257 0.597565 0.520504 
12.6318 -0.916259 1.47921 -13.9693 -14.2981 15.4596 -2.45655 -6.26056 5.6982 -4.86667 -1.40244 1.24857 18.5428 -0.200423 -0.739487 -1.49342 -2.0405 1.63789 0.66711 0.127702 -0.378249 -1.19411 -1.16085 1.87111 0.736528 0.406931 
11.4812 -1.18379 -3.29443 -15.2875 -10.4296 14.4549 -3.59785 -9.63224 2.84321 -7.34208 1.55469 1.63199 18.8526 -0.579426 -0.298784 -2.58954 0.588119 3.22305 -1.09651 0.215302 -1.64741 -1.83604 0.716273 1.82888 0.496869 0.202077 
10.2672 -0.986412 -4.62533 -12.7684 -8.52412 12.0736 -0.778955 -12.1223 2.3621 -5.66958 2.65853 2.8854 18.8292 -0.735735 -0.00749154 -1.97206 1.95626 4.42147 -2.80979 -1.41481 -1.37207 -1.32023 3.40641 0.691503 -1.0594 -0.0090107 
10.2219 -1.23555 -7.82843 -8.07282 -2.53191 7.56514 -3.43623 -13.1193 1.01049 0.905449 1.99043 2.45293 18.7957 -1.19885 0.813926 -0.330338 2.66767 4.45097 -3.20516 -3.90672 2.18193 -1.12831 3.71434 -0.591139 -2.35905 -0.188968 
9.58281 -0.927836 -6.11409 -7.79535 3.86036 4.85552 -9.61138 -11.3774 0.0134002 8.0416 1.8372 -4.45891 18.5261 -2.90086 2.89691 0.77876 3.23692 4.78705 -4.24428 -3.06693 4.30416 -1.49995 3.28994 -1.47655 -2.58736 -0.177493 
5.82911 2.85655 -4.20173 -4.43571 5.63301 2.03814 -18.7152 0.904984 -1.62399 4.37405 -0.990342 -6.49107 18.0593 -5.70994 5.04781 2.72088 2.70672 4.09203 -4.18851 0.322482 6.27769 -1.75353 1.06298 -1.06117 -1.39854 0.202371 
-2.04068 11.4521 -2.54488 1.5976 11.3286 -6.38434 -8.47412 2.38642 -3.82039 9.04581 -3.23383 -5.5794 18.31 -7.93677 4.61226 2.75093 2.0339 2.6622 -3.14112 3.56569 6.0947 -1.03258 -0.4716 0.178723 0.980173 0.715279 
-12.5161 17.8135 3.99137 0.764303 14.1941 -7.75746 -2.39245 11.3872 -5.84026 5.71824 -0.779907 -3.97951 19.9157 -7.15776 2.4503 1.61079 0.181098 0.757176 -1.34793 4.8221 4.01899 -1.60987 -0.626547 0.724742 1.48215 1.02409 
-20.9284 14.655 3.54401 -0.225864 12.8908 -5.9523 0.0556774 13.855 -3.04138 5.01151 2.6256 -0.813827 21.1743 -4.47166 -0.191286 -0.252437 -1.59996 -1.26921 0.232385 3.02885 2.76479 -1.27648 -1.04172 0.431108 0.974684 0.855174 
-20.5158 13.5066 0.807755 -2.61849 8.63781 -4.91751 1.13037 15.2657 -10.0629 3.25847 -0.296346 -1.46312 21.7476 -2.04678 -1.62442 -1.76562 -1.64682 -0.989088 0.0817752 2.50334 0.764922 0.19263 -1.15224 0.0351662 -0.330349 0.472226 
-20.3991 12.6491 -2.21526 -4.71082 7.76072 -6.64238 4.90871 14.2712 -8.09146 5.06709 -1.32007 -1.96417 21.6699 -0.181181 -0.987372 -1.2161 -0.734152 -0.204948 0.839749 2.15723 -0.185276 0.70652 -1.22391 0.0833132 0.432455 0.176252 
-23.0146 10.6944 -1.9571 -5.22731 11.8137 -7.00354 7.69773 15.0038 -2.35207 -0.0707579 1.36876 -5.05609 22.029 -0.514199 -1.26487 0.152493 0.771565 1.21895 1.79838 1.79009 0.902575 2.34698 -1.0859 -0.769007 1.12773 -0.00612106 
-20.5849 11.1242 -1.15408 -2.59221 10.2781 -0.710537 7.55817 13.0595 -3.36417 0.55657 2.20961 3.14493 21.9149 -0.0551678 -0.973427 1.16535 1.75807 0.863923 1.03065 -0.43767 0.39448 0.71999 -1.92816 -1.9073 1.53631 -0.143149 
-22.9939 7.94469 1.03963 0.180036 13.4738 1.10845 8.75611 20.3843 -0.691599 0.0842457 -5.90622 1.62097 21.5945 2.81694 -0.497753 1.61561 1.941 -1.65397 -1.653 -3.2817 -1.75146 -1.84912 -0.717309 -2.82123 0.666341 -0.525894 
-20.6853 9.15681 2.11314 1.37587 11.2503 -5.54512 2.19117 13.5533 -5.32175 -4.65122 -7.21906 2.37886 21.1714 4.92272 -1.59799 1.98065 1.70546 -4.24327 -4.10084 -4.40552 -4.75049 -1.43655 -1.70602 -1.98416 -0.124727 -0.664252 
-8.87973 9.18931 4.48735 2.49364 3.05777 -12.8513 -6.02726 5.9996 -10.6189 -1.05341 -8.02304 -1.34135 19.7713 6.52755 -3.1506 2.29808 1.53477 -6.6576 -3.0292 -4.31648 -6.30617 -0.128305 -2.74282 0.689644 0.629295 -0.454602 
-3.02842 2.51198 7.02533 4.77827 -5.73021 -14.2349 -7.07776 -3.50052 -5.5833 -7.40468 -6.65278 4.00246 19.5052 5.60521 -4.66796 2.37215 1.14803 -6.44912 -0.140401 -2.89465 -3.6798 1.69106 -3.5971 1.85013 0.0023898 -0.0876818 
0.815365 -4.4859 10.0739 6.15268 -11.3239 -9.69267 -8.19184 -2.6196 -1.20235 -12.2531 -2.74114 3.95565 20.1546 2.91629 -4.38093 2.23501 0.198079 -3.05656 1.02482 -1.2716 -0.651943 1.06756 -3.44226 0.639887 0.919464 0.191027 
2.49319 -7.34538 11.1806 5.28648 -13.8045 -7.82642 -11.1998 -0.536117 -1.57472 -17.0369 -0.609337 -0.257689 20.5414 1.38704 -1.79222 0.695382 -0.0682933 0.335147 0.891167 -0.736639 2.20146 -1.40564 -0.878622 -1.08159 0.760794 -0.0745993 
2.94091 -7.78664 13.5848 3.22993 -8.18788 -10.9314 -10.3243 1.25768 -7.28541 -13.4486 -7.84533 5.38605 20.2083 0.666124 0.272356 -1.3046 1.1277 3.04972 -0.461105 0.902945 3.35085 -0.836385 1.50516 -2.28925 -0.075183 -0.780418 
2.84403 -4.79874 8.74682 5.89818 -5.62249 -9.15967 -9.69474 5.56814 -9.56998 -11.2 -9.50865 7.09123 19.1053 0.89298 0.706825 -2.55347 1.39251 3.65759 -1.72609 1.43399 1.97444 -0.0227163 3.75976 -1.03287 0.133807 -0.74622 
3.97056 -4.39744 4.76783 11.4853 -0.166302 -11.3316 -4.42963 11.0825 -1.38664 -7.64574 -9.73772 -0.0947225 16.9705 1.76775 -0.669997 -2.648 0.357973 1.25365 -1.07335 -0.14944 -0.109586 2.10646 3.5035 0.500459 -1.84013 -0.176342 
6.44326 -5.50585 2.82174 8.12133 0.472642 -16.2568 -6.97715 4.42368 -4.63768 -1.1395 -4.8275 3.15173 18.4292 2.77185 -2.40977 -1.21534 -1.99078 -0.85235 0.758594 -1.94994 -2.23728 3.71706 2.64838 2.5452 -3.06809 0.478227 
9.98004 -10.7831 3.3073 3.90823 -4.96719 -12.7496 -12.4303 1.28198 0.780749 -0.961392 -7.6836 -1.84487 19.6647 2.8263 -2.47646 -0.800573 -3.7733 -2.19301 3.43028 -2.72333 -2.79858 3.44557 2.0163 4.23559 -2.33287 0.876481 
13.6986 -13.6548 3.40039 -0.267176 -7.4838 -4.6577 -15.4441 -0.718011 7.93164 -1.30032 2.19029 -7.37416 20.1494 1.87437 -1.26259 -1.6973 -3.61446 -1.16696 4.51409 -0.314508 -1.6729 3.5111 1.70943 4.14976 -2.1865 0.55573 
14.4744 -12.7053 0.475645 -3.18695 -7.15312 0.0202934 -13.8128 -0.33952 9.55653 2.51616 7.93133 -6.49611 20.4928 0.701539 0.777644 -3.00208 -2.49598 0.27036 3.795 2.37435 -1.4862 1.35275 1.92537 4.24032 -0.956814 0.269009 
13.568 -10.8577 -4.24891 -6.40337 -4.26917 -0.0713043 -7.85841 -3.13005 8.5299 5.66886 8.11382 -5.45517 20.7938 -0.340908 1.80349 -3.19493 -1.52182 0.726454 2.21445 3.55626 -2.13134 -0.391402 1.34321 1.49426 -0.120347 0.0882223 
13.553 -8.29338 -7.87846 -5.5036 -5.2227 3.93222 -4.3514 -4.94299 7.24536 5.18089 10.5562 -7.58844 20.6875 -0.706095 1.71773 -2.28622 -0.530034 0.150532 1.59765 2.89354 -2.49995 -0.831099 0.29918 -0.0927131 -0.600475 -0.0435892 
12.4547 -6.8433 -8.39719 -6.71795 -4.81674 4.45856 -2.39354 -9.07296 7.13022 4.08336 8.34912 -7.42973 20.4931 -0.710089 1.56183 -1.39773 0.608645 -0.217068 1.69232 0.796883 -1.55281 -0.192774 -0.578404 -0.00316629 -1.0419 -0.109702 
11.5005 -6.12387 -8.88133 -5.67983 -6.12668 5.74361 -2.07755 -9.8678 6.10088 4.80481 7.35012 -8.5112 20.4252 -0.855163 1.22583 -1.11275 1.28028 0.0011034 0.639848 -0.854082 -0.17261 -0.204706 -0.0389183 -0.43328 -1.28267 -0.0886366 
11.0438 -4.13331 -10.7361 -3.27203 -4.90253 7.48461 -5.01092 -8.4317 8.13827 2.96488 9.70105 -10.2033 20.3764 -0.554504 1.13948 -1.09642 2.2195 0.196031 -0.0502614 -1.71748 1.34542 0.0803393 0.786066 -0.760308 -1.1059 -0.107463 
9.9827 -3.51924 -12.2727 -0.825174 -5.17429 5.61844 -7.31311 -6.12667 5.7178 5.54554 7.71387 -12.615 20.3027 -0.432391 0.767305 -0.444752 2.07705 0.721694 -1.42376 -2.07621 1.89262 0.273517 1.22681 -1.65384 -0.866705 -0.139571 
10.4411 -2.44823 -12.1836 1.95225 -4.31278 4.26984 -8.36316 -4.21641 7.72346 7.64333 4.3657 -10.9073 20.0171 -0.239126 0.421639 0.626494 2.03945 0.661916 -3.14231 -1.46198 2.71835 0.223327 0.848291 -2.79453 0.434944 -0.234985 
9.63991 -3.12989 -10.3814 2.0933 -2.81308 0.232178 -10.7825 -2.51231 7.67587 8.59964 1.7486 -12.4927 19.907 -0.213036 0.130345 1.72577 2.1582 -0.0270829 -3.95743 -0.172161 2.58838 0.658148 -0.742378 -2.36721 1.51638 -0.258947 
10.0195 -2.2198 -8.54936 5.46599 -2.77355 -5.53383 -10.5861 3.3529 8.27587 5.67929 -1.28897 -8.08971 19.3994 -0.611451 -0.229261 3.25434 1.75029 -1.25056 -3.57928 0.787917 2.19564 -0.248293 -2.60193 0.22349 1.72402 -0.274007 
9.12831 -2.98173 -5.46103 8.20893 -6.07932 -9.26685 -7.06243 3.03056 8.73234 2.81567 -1.29486 -6.44192 19.3168 -1.06463 -0.147026 5.1799 0.68598 -2.29685 -2.34426 2.0485 0.997956 -0.797426 -4.30801 3.14473 1.82771 -0.212006 
7.63965 -3.66861 1.62794 7.64589 -8.93248 -8.87703 -6.28361 3.99033 5.95376 -2.47432 7.00488 -5.31262 18.9421 -1.42556 -0.0199106 6.48655 -0.576579 -2.34157 -0.718452 2.06771 -0.142428 -2.22316 -4.10343 4.53878 1.05281 -0.128217 
5.50672 -3.14061 10.4295 4.43325 -11.2179 -9.8175 -2.69128 2.15875 4.84979 -8.8636 13.3253 -4.74271 19.0756 -1.15123 0.266247 6.15373 -0.747772 -1.85907 0.932335 1.20798 -0.563049 -3.0446 -3.10657 3.35718 1.09717 -0.166397 
4.70252 -2.23991 15.9381 4.47094 -11.9121 -8.85076 -2.43316 3.07666 -0.898636 -8.99821 14.0949 -3.67527 18.8789 -0.648191 0.421337 4.54569 -0.309852 -0.886809 1.11682 0.408413 -1.06613 -2.36603 -1.56442 0.932978 0.708089 -0.210851 
4.84073 -2.36485 18.1525 6.05755 -13.8848 -4.61832 -2.94777 0.672144 -3.06445 -9.45526 11.9461 -1.77473 18.5164 -0.147905 0.314699 2.75896 0.0720719 0.050053 1.03028 -0.809467 -0.848354 -1.73581 -0.432358 -1.17883 0.750302 -0.330599 
4.73169 -1.94981 20.4948 5.28448 -12.033 -5.89252 -4.1133 -0.597034 -1.91927 -10.0006 12.3594 -3.25616 18.1675 -0.0531857 0.704146 1.26913 -0.385936 0.643413 -0.387483 -0.148767 -1.1196 -1.34032 0.147926 -1.69034 0.456917 -0.451315 
4.75261 -1.71216 21.9459 4.38684 -10.9072 -6.14523 -5.89854 -0.246171 -3.31892 -10.5242 8.29891 -1.20075 17.7783 -0.533766 1.31016 -0.0199827 -0.478732 1.45257 -0.86774 0.329777 -0.750834 -1.50627 1.15832 -1.02463 0.716509 -0.636084 
4.48065 0.954475 20.3871 3.37661 -10.1839 -10.0247 -1.70161 -2.06216 -7.47298 -7.7241 7.46674 -1.67767 16.9914 -0.919474 1.46122 -0.754022 -0.31552 1.24913 -0.127198 0.0145472 -0.744796 -1.55776 1.05943 -0.660643 1.20334 -0.720403 
2.29742 2.73381 18.1065 4.61783 -7.54657 -6.89092 -2.50473 -2.34946 -7.81894 -4.80189 9.26925 1.01857 15.9241 -0.835529 1.84833 -0.154534 -2.4571 0.930092 2.99776 -0.668362 -1.47668 -1.30168 1.85216 -0.596134 0.284427 -0.509749 
1.36191 3.13329 18.6445 3.59139 -7.4677 -6.15567 -5.73747 -3.26937 -7.45805 -7.56459 8.571 1.65088 15.4926 -1.14745 1.36811 -0.443206 -2.36698 0.871181 2.37675 -3.09456 -2.30451 -0.0561614 0.811947 -1.63119 0.479189 -0.608615 
2.13433 6.44006 22.0446 -8.00603 -7.6148 6.90906 -7.22242 -7.02598 -9.83477 -1.34319 4.7661 -1.44289 15.979 -1.49503 0.40023 -4.21812 -1.20539 2.02911 -0.607997 -0.509689 -0.796214 -0.50206 0.785787 -2.99375 1.18403 -1.0754 
-1.17507 5.94192 16.202 -2.14635 -5.79389 -5.04098 -14.8156 -11.2465 -6.74587 -5.39372 1.56236 1.94901 13.9208 -2.37136 -1.08566 -7.11739 1.08101 3.75507 -0.889379 2.01815 0.690473 -0.107489 1.08902 -2.64195 1.1433 -1.36195 
-3.90926 3.33064 -1.76289 1.45975 1.76208 -10.4882 -0.51413 -2.34199 -10.6853 -1.95839 -2.19517 6.78965 11.333 -2.94906 -3.2808 -7.90896 2.37586 4.37759 -1.25671 3.4971 1.7862 1.90692 1.26538 -1.35577 0.649421 -1.23117 
-7.47308 -0.740288 -5.03875 4.26353 6.61922 -1.90391 0.999135 -2.159 -7.57022 -1.81187 -1.1581 3.25109 11.0058 -1.93219 -3.27665 -5.82773 0.716383 3.75438 2.50634 3.11927 1.30766 2.6226 3.68404 -0.647843 -1.28443 -0.33944 
-9.46196 -6.62285 -6.87984 0.668312 8.06659 -0.943023 2.35571 -2.63873 0.112026 3.19277 -0.652508 1.15317 11.2806 -0.888302 -1.51554 -1.03949 0.178977 2.38805 2.77338 2.03527 0.849329 2.81287 2.10413 -0.180788 -1.08217 0.128971 
-8.05967 -5.46458 -10.3782 1.83129 9.82576 2.71812 -0.65413 -4.55976 0.968441 10.4509 -2.44819 -1.65488 12.2498 0.156307 0.436557 0.376212 -0.498003 0.291724 0.459959 1.14681 1.39963 0.91778 1.29914 0.773045 0.598784 0.121328 
-8.05748 -1.88489 -4.29063 3.57076 12.0991 1.06766 10.4889 3.10503 -0.890314 2.43086 -2.45406 3.83178 11.3558 0.447247 1.67368 1.57332 0.695308 -0.367333 -0.195504 0.806585 2.16842 -1.31513 -0.780663 1.35846 1.73368 -0.0774412 
-7.39379 -0.92648 -4.4523 0.322291 6.0616 -0.609454 2.66662 1.96726 -2.48014 5.06479 3.6079 4.90571 11.5749 0.0875334 1.02844 1.17694 -0.271137 -1.165 -1.70276 1.15297 1.99143 -2.07445 -2.40335 0.319376 2.34606 -0.191131 
-7.55866 -0.523484 -1.97619 4.89935 8.112 -0.256757 4.72826 4.93987 -4.73933 1.98251 3.11174 6.54126 11.2309 0.204743 0.28967 -0.0196436 -0.405566 -1.66376 -1.34578 -0.486599 -0.80055 -1.26863 -0.79011 -0.11778 0.598845 -0.0407853 
-7.87141 -1.00307 -5.65068 -0.188694 5.99427 -5.13346 7.99104 4.48 -7.47931 -1.34167 -3.63421 8.72071 11.3566 0.0350389 -0.472412 -0.529397 -0.263067 -0.789398 -1.51979 0.591179 -0.535383 0.103164 -1.19028 -1.46376 -1.03319 -0.0806097 
-6.79495 -0.398246 -3.78965 1.79842 3.81395 -3.39925 5.39367 -2.15408 -4.73387 1.68355 0.578098 4.9185 11.261 -0.206127 -0.632449 -0.166991 -0.684742 -1.0695 -1.08597 1.10853 1.76975 2.54502 0.858467 -0.366553 -0.360634 0.00466776 
-7.60045 -3.35116 -6.19255 0.557419 4.26364 -6.63713 5.28981 2.83732 -1.96705 -0.737105 -2.44407 0.551142 11.1567 -0.303584 -0.673552 0.131375 0.664258 -0.0611284 1.05471 1.43465 1.93906 2.68739 0.85171 -0.0435722 -0.716642 -0.00384159 
-8.72477 -2.51169 -2.54021 1.10258 3.62981 -4.93478 11.6215 14.6099 5.22964 5.97256 0.683902 8.82287 11.3541 -0.305502 -0.397079 -0.188061 0.226856 0.141486 0.676036 1.16041 1.99909 1.34467 0.734337 0.00155367 0.232847 -0.0142677 
-8.42442 -3.31411 -5.61853 3.48052 5.7807 0.907869 12.0504 5.79329 0.975899 0.772375 -3.90497 3.18531 11.2908 0.181325 0.757996 0.610168 0.662632 0.675609 0.784386 0.507063 -0.691096 -0.346371 1.01288 0.0843445 0.631665 -0.0421617 
-7.91047 -2.40216 -5.01697 1.47116 3.76286 -3.79157 7.81546 6.36339 0.518025 4.60049 1.31632 4.76565 11.1226 0.169906 0.861135 0.565067 0.314446 0.999165 0.486899 -1.0043 -2.4425 -0.571602 0.427569 0.0289899 0.490662 -0.0676994 
-7.10097 0.384059 -1.90333 3.68629 7.57516 -3.28681 9.72816 3.50512 -1.3431 5.01332 -2.33855 5.73807 11.0617 0.430994 1.12935 1.07207 0.601367 1.34042 0.422945 -0.811999 -1.28034 0.014739 1.36397 1.1866 0.610242 -0.0363664 
-8.53697 -0.0551 -1.57248 2.57192 7.7284 -0.402946 7.76112 3.54154 3.53113 5.98994 0.0456407 9.9998 11.1302 0.452524 0.938536 0.566841 1.6611 2.55071 2.25749 -0.0866678 -1.06189 -0.769181 0.0629555 0.248481 -0.742046 0.0201761 
-5.9562 1.1591 -1.98042 5.93697 10.5 1.32828 8.01754 0.802507 -0.456957 6.89748 2.66336 3.61945 11.1052 0.440094 0.417636 0.841533 1.65711 1.26677 1.06439 -0.00705048 0.218784 -0.0816686 -0.110433 1.39679 -0.934454 0.0672801 
-6.22023 1.903 -2.14422 8.65132 15.054 5.18831 8.23742 2.40526 -3.77095 3.97318 0.0577688 2.11473 11.2018 0.719152 0.831574 1.03283 1.70108 1.08165 0.480363 0.564484 0.979541 -0.221518 -0.813833 -0.633235 -1.43605 0.0483463 
-6.05887 1.49319 2.59021 8.93215 10.2462 -0.760466 9.45475 5.16718 1.8996 5.46953 4.63936 5.00834 11.3623 0.14429 0.117516 -0.0183412 0.431618 0.274172 0.689979 0.56395 2.5057 1.54929 -0.628146 -1.56255 -0.63186 0.0444059 
-4.88987 3.93572 1.30638 9.57971 13.2636 3.04324 9.86493 6.2569 1.24526 2.63475 -4.10853 2.12509 11.2434 -0.305554 -0.935891 -1.04523 -0.424599 0.249182 0.992918 0.241311 2.18176 2.0359 -0.0987469 -2.58832 -0.946356 0.222156 
-5.89993 0.730316 -3.79743 7.63086 12.7661 5.85071 10.0235 11.4052 4.78136 4.42597 -3.06625 0.45497 11.3064 -0.712351 -1.30609 -1.63742 -0.822531 0.701791 -0.17253 -0.600699 0.721966 0.436754 1.04527 -2.09247 -1.26731 0.345149 
-7.82747 -2.39502 -4.17656 7.17897 15.04 6.84731 9.15958 10.195 4.96765 4.00123 -9.03102 -0.340365 12.3405 -0.840312 -1.45392 -0.698995 -0.0743738 -0.064416 -2.51528 -0.31129 -0.912962 -1.07502 1.19797 1.0592 0.0939149 0.343081 
-8.15183 -1.87187 -2.85542 6.01987 12.867 -3.52515 6.80393 6.80795 2.22217 10.0126 -3.36173 -0.0954797 12.5395 -0.426912 -0.51639 0.379262 0.759933 -0.189896 -3.30844 0.0548202 -2.10333 -2.30811 0.464057 1.91692 0.804009 0.20734 
-7.96549 -2.03276 -2.6596 10.0133 12.891 -4.84523 9.91829 3.99072 -2.85024 5.83125 1.33522 2.86989 12.3422 -0.00896835 0.0563629 0.322975 0.966222 -0.427373 -2.47052 0.463177 -1.52258 -2.07082 -0.0521367 2.54294 0.938587 -0.0193778 
