-5.39988 -0.379432 -7.923 -0.22223 7.33503 7.18645 9.34897 7.44756 6.25096 12.1676 -0.860935 2.7118 11.4396 0.267185 0.45521 0.695673 0.351771 0.0204243 -0.394157 0.038271 -0.45311 -0.803093 -2.17189 -2.23437 0.491891 -0.0159262 
-3.87272 1.34329 -6.76428 1.28798 6.78916 4.41086 1.37877 5.49173 6.12529 7.07405 -8.00279 6.21052 11.3936 0.0931116 -0.55634 0.343831 0.256357 -0.593068 -1.76046 -0.541774 -0.330209 -0.710304 -1.42815 -1.58343 0.203898 -0.0730652 
-4.82753 1.03526 -5.02399 0.781523 7.71009 6.60346 13.5254 6.15993 2.29833 3.85501 -8.46186 3.4219 11.3829 -0.0776447 -0.430595 0.0669342 0.240628 -1.24552 -1.99932 -0.600526 0.0634537 -0.792422 -1.46371 -0.719674 -0.757303 -0.0530149 
-5.22049 -3.86848 -7.65335 0.55768 4.18216 -1.32436 4.55187 6.44033 4.67575 9.18322 -4.97764 3.37624 11.1026 -0.281166 -0.326903 0.252594 0.00657611 -0.9476 -1.15684 0.04884 -0.0834057 -0.0338878 0.0115885 0.979026 -1.11529 -0.0111489 
-5.11422 0.0734758 -7.1438 1.34606 2.41093 0.0574784 4.75979 7.29053 3.01361 3.79453 -5.97188 0.342424 11.32 0.0134153 -0.224908 0.114016 0.370822 0.21324 0.351471 -0.181812 0.697532 0.467794 -0.293429 0.266411 0.027863 0.0177922 
-5.13521 0.189663 -4.44141 1.03859 4.70074 1.89965 6.00579 4.5094 5.59821 7.16223 -4.35265 2.17383 11.3693 -0.0158903 0.0884533 0.390299 0.602832 1.30513 2.15523 1.31863 1.24917 0.458713 0.127891 -0.350539 0.0867565 0.0666546 
-4.80309 -2.11835 -6.05988 2.39518 8.517 6.74882 11.8894 10.6131 4.17607 3.39835 -7.4423 4.16242 11.3385 0.184246 -0.29807 -0.0327791 -0.378874 1.13815 1.09441 0.578503 1.43716 -0.0856913 -0.221027 0.0520212 1.34612 0.0248278 
-5.45551 -2.3303 -6.24381 3.04728 7.65477 6.10613 7.58023 11.0249 6.38809 10.0208 -5.99512 1.90003 11.4266 0.84504 1.38344 0.858522 0.109835 0.773683 0.536532 -1.91972 -0.114261 -1.58248 -3.03661 -0.547453 0.101056 0.0668096 
-4.03284 -0.156892 -6.40649 -1.55266 6.62468 3.42628 6.86508 11.2186 2.19022 1.26013 -4.89054 7.20993 11.4155 1.54592 3.61193 4.31334 0.26453 -0.327881 -1.06165 -4.01911 -3.12974 -1.83263 -5.17072 0.862751 -1.27017 0.606627 
-1.29514 6.12613 0.0245036 3.56168 9.51531 6.24357 -1.08063 3.63533 -1.32125 -6.95173 -8.36579 1.15535 11.6648 1.83192 4.48404 6.69942 0.0623847 -1.61931 -1.92351 -3.7787 -3.9284 -2.21631 -6.77741 1.6057 -2.21119 1.13885 
0.846315 11.7131 12.3726 3.46062 5.94733 1.37185 -3.87572 -1.34086 -1.13239 -13.969 -1.94321 -1.81611 14.2525 1.30656 2.73633 6.79949 0.997736 -2.8922 -1.66219 -3.29658 -2.8335 -1.67551 -3.93832 2.35594 -2.15651 1.35977 
1.26449 14.1549 17.8637 0.852563 -0.103099 -2.48422 -5.94286 -2.33738 -3.03215 -16.2517 0.559736 -4.6429 15.7024 0.471604 0.0106211 4.39473 0.454744 -3.48509 -1.3875 -1.99519 -0.0981811 -1.31183 -1.41396 3.33563 -0.456941 1.28946 
1.22017 9.51035 18.6713 4.79059 -3.02712 -0.520754 -7.18672 0.0374322 -5.33186 -13.7815 2.42641 -0.673477 16.1956 -0.261289 -1.90495 1.95602 0.0205552 -1.76291 -0.18008 -1.01795 0.945312 -1.01084 0.0508749 1.90659 0.87828 0.954946 
0.875953 7.28061 18.8488 5.17042 -3.42289 0.252359 -9.40107 2.45527 -5.78065 -14.1153 6.12755 -1.70067 17.1406 -0.877188 -2.25302 0.915134 -0.239615 0.118257 0.472078 0.0219283 0.633955 0.147324 -0.00451698 1.17639 1.11367 0.906412 
-0.26586 5.62551 21.6602 1.40447 -1.20732 -0.896844 -7.23634 0.989367 -4.81232 -14.7829 4.80581 1.10418 18.3081 -1.43399 -0.956889 0.580942 -1.1094 0.398689 -0.367679 0.681635 -0.515573 1.03985 -0.709302 0.404527 0.283336 0.892272 
-2.37843 4.83224 20.9449 1.34754 -0.421717 0.0642157 -5.8084 0.356428 -2.55531 -15.7736 5.25198 0.036624 19.1782 -1.47109 -0.258037 0.0876459 -0.65042 -0.0257328 -0.494807 0.989596 -0.675743 0.909141 -0.48482 -0.14276 0.246621 0.710942 
-4.32259 5.95009 20.528 1.15505 -2.53426 -2.26508 -5.57488 -1.49101 -1.74526 -16.4988 4.88683 -0.125444 19.6382 -1.05514 -0.107622 -0.265112 0.230364 -0.943411 -0.609461 0.340912 0.134101 -0.0936573 0.0482866 -0.00381155 -0.00735497 0.439676 
-4.45113 5.82813 19.8531 2.04303 -2.88808 -1.53756 -5.28382 0.316748 -2.76848 -15.6814 5.37324 0.147243 20.0303 -0.146616 -0.246932 -0.309822 0.321547 -1.63372 -0.564049 -0.0303653 -0.105016 -0.234341 0.829804 -0.76304 0.546991 0.151929 
-4.5052 4.58945 20.8805 2.20854 -4.69119 -3.14326 -5.79407 1.67971 -5.17402 -14.5875 4.72612 1.01209 20.0804 0.480867 -0.796916 -0.747961 0.158224 -2.41645 -0.602934 -0.194657 -0.671394 -0.278517 1.29773 -0.940184 0.643025 0.0204185 
-3.0202 4.2779 19.2196 2.42853 -7.51185 -2.31693 -5.85063 -1.75401 -2.01263 -12.5802 1.51714 2.20281 19.7167 1.03651 -1.3734 -1.81169 0.730375 -3.55464 -1.21026 -0.139026 -1.69824 -0.737457 1.98148 -0.205705 0.916692 -0.0487818 
-2.63371 2.74063 17.105 1.75342 -12.3046 -4.89006 -6.26476 -3.8126 -3.51577 -11.5607 2.11396 2.0619 19.8971 1.34745 -1.92936 -3.15027 1.30058 -2.84964 -1.69384 0.358819 -1.38313 -1.28133 1.84295 0.845285 2.24594 0.106439 
-0.204309 -0.114459 12.6825 5.92247 -16.8546 -6.71547 -5.74361 -5.42831 -7.28489 -7.28738 5.6508 4.2058 19.8781 1.08222 -2.60228 -4.3351 0.836997 -1.24052 -2.54067 0.324859 0.622553 -0.674324 1.11771 1.3652 2.16532 0.357934 
0.824096 -2.86119 8.3977 6.96448 -14.268 -9.41321 -4.05349 -3.39878 -8.94453 -8.0192 6.88571 11.2403 20.5319 0.994967 -2.36572 -4.67805 0.191942 1.71299 -1.48475 -0.460622 1.74282 2.33601 1.39294 0.0713148 0.418201 0.373761 
0.662002 -5.93258 1.89769 4.00799 -12.7327 -12.7587 -5.33198 1.15184 -2.66987 -8.76246 5.95729 8.44022 21.1889 0.660805 -1.61882 -4.4611 -1.77163 3.86743 0.0473158 -1.62051 0.993443 3.99113 1.89684 -1.86314 -2.87538 0.220041 
1.90796 -6.17893 -0.892877 3.67037 -5.80059 -9.29221 -8.77369 1.61142 5.8568 -3.85848 2.31729 2.03569 21.1104 0.582675 -0.435676 -4.15185 -2.77927 4.04184 1.67689 -1.55063 -1.34134 3.23368 3.26875 -2.10014 -5.60637 -0.0597231 
2.55778 -6.54968 -4.97773 -1.28861 -1.75111 -6.5394 -11.4861 -2.9662 5.27008 0.116472 -1.38069 -5.56879 20.689 0.560563 0.533175 -3.26129 -3.13478 3.41118 3.18345 -0.425474 -3.47061 0.671569 3.19395 -0.706124 -4.78597 -0.142607 
2.78958 -4.73101 -8.92385 -4.28356 0.450391 -4.1384 -8.72957 -8.04645 3.25391 3.88507 0.0540123 -9.78702 20.4833 0.246162 1.01787 -2.74052 -3.13533 1.51456 3.22692 0.80745 -3.35896 -1.09138 1.34258 0.841723 -2.53024 -0.061072 
3.02401 -3.99066 -10.3933 -7.68894 1.19768 0.581638 -7.48141 -11.3723 1.98942 3.3355 3.55831 -9.57829 20.7895 0.222551 1.24536 -1.49906 -1.74843 0.445734 2.82725 1.99484 -1.55274 -0.694122 0.323755 1.25129 0.394639 0.0258291 
2.90566 -2.36911 -11.8877 -8.80611 0.297812 3.28189 -6.73877 -10.9804 2.0402 1.24489 4.05641 -8.61075 20.7548 -0.06884 0.581406 -0.82879 -1.2626 -0.730889 1.5783 1.02439 -1.07609 -0.449565 -0.924262 0.043152 1.03545 0.0373962 
3.61249 -1.50385 -10.9911 -7.76946 0.553846 3.88673 -2.50725 -9.26297 2.40632 3.05534 2.87455 -4.18374 20.6824 -0.074261 0.262861 -0.228468 -0.113332 -0.870614 0.578698 0.665858 -0.437331 0.325267 -0.528078 -0.346468 0.809825 -0.00562 
2.15114 -3.06739 -12.7689 -10.5563 -2.88214 2.10054 -6.0947 -14.4816 0.79763 -0.596161 0.61165 -7.30705 20.7238 -0.191397 -0.407972 -0.036935 0.00289574 -0.750246 -0.860795 -0.356594 -0.941993 0.129693 -0.437146 -0.848175 -0.339342 0.00645313 
3.02996 -2.32722 -11.095 -7.38052 -1.56542 4.0658 -4.47415 -11.8083 4.23704 1.61563 3.54835 -6.18101 20.7769 -0.135208 -0.472321 0.488807 0.760974 0.485704 -1.20675 -0.670208 -0.279893 0.984047 0.611539 -0.274878 -0.903196 0.054767 
2.23994 -3.99728 -12.0204 -8.98611 -2.39378 -1.11162 -7.53829 -14.4176 1.77331 -0.220983 -0.521361 -9.30882 20.7398 0.0521612 -0.583593 1.3882 1.79908 1.6918 -2.07554 -0.537725 1.22374 1.56774 1.20377 0.277614 -0.790012 0.102568 
2.89206 -3.40051 -8.9213 -4.74968 2.73819 -0.540949 -5.1365 -10.6944 6.83872 5.92544 2.06667 -7.69883 20.9482 -0.0664297 -1.2474 2.01641 2.01929 0.862998 -3.67601 -0.822695 1.80278 0.952883 -0.693215 0.508831 -0.286447 0.123443 
2.4809 -5.44871 -6.91477 -2.87628 3.42508 -5.97379 -8.45215 -8.91983 7.33548 3.26777 2.74056 -10.4982 21.151 -0.157646 -1.247 3.04457 2.94617 -0.288362 -4.25722 0.35924 3.39532 -0.281675 -1.61009 0.9989 2.32589 0.184826 
2.57734 -7.83853 -3.56578 -0.338986 -0.15986 -11.8832 -8.1307 -5.54336 6.22037 -3.59482 4.46154 -7.01855 21.1885 -0.610411 -0.898681 3.55984 2.56846 -2.4701 -4.47312 0.720046 3.5361 -3.65961 -3.21753 1.0802 4.04058 0.197498 
1.60907 -8.01327 0.524669 3.5394 -2.38657 -16.7266 -4.24499 -0.0165768 0.674106 -3.51131 3.2757 1.98051 21.5438 -0.947383 0.440629 4.30108 2.47739 -3.67732 -2.50761 0.996493 2.15077 -5.60369 -2.6569 1.37117 4.45825 0.119069 
0.275917 -6.61163 5.15816 4.88478 -6.70651 -17.5301 -3.63985 2.53446 -8.12866 -6.77266 7.20009 6.26473 21.7393 -0.926805 1.64822 4.7746 1.34797 -3.42393 0.0868742 0.700595 0.405162 -5.24291 -0.711228 0.499883 1.9187 -0.116314 
-1.1053 -3.85901 10.2287 6.89878 -11.6882 -15.6883 -5.71511 -2.20491 -13.5084 -8.4278 8.22716 5.15139 21.471 -0.828792 1.90373 4.00587 -0.184988 -3.02772 2.127 0.113822 -1.14546 -3.53693 -0.188862 -1.13039 -1.3074 -0.385964 
-0.699502 -1.67457 15.4552 4.72116 -12.6287 -11.9679 -3.89266 -2.42338 -12.9029 -4.69271 4.48523 0.989526 20.6434 -0.816705 1.72907 2.66771 -1.52193 -1.33197 2.80338 -0.186847 -1.25048 -1.00685 0.0434903 -2.88693 -2.94462 -0.470466 
-2.04718 -0.963162 15.4055 2.69627 -14.5641 -8.87273 -3.54948 -3.26493 -14.6234 -5.4956 -1.0188 -1.9189 20.1619 -0.740932 1.36864 1.34425 -1.79879 0.660944 2.49722 0.0447619 0.219226 0.602446 -0.879943 -2.28159 -2.14809 -0.354512 
-3.33667 0.585808 15.9083 -0.623622 -11.9284 -6.92104 -5.6569 -3.18794 -12.6054 -8.02131 -2.61158 -4.92322 20.0415 -0.736517 1.13346 0.671807 -0.782157 1.53178 1.5571 0.0733279 0.789214 0.958159 -1.82654 -0.909361 -0.371712 -0.193503 
-3.49138 1.85402 16.7234 0.577201 -8.7336 -5.72566 -4.60918 -0.726502 -10.645 -11.1632 0.36763 -2.63267 19.9994 -0.334187 1.11878 0.935574 0.0545873 1.83616 0.980152 0.244328 1.14048 1.5808 -1.54453 0.0725151 0.529047 -0.11448 
-3.65999 2.58415 18.1553 1.8699 -7.88503 -5.75595 -2.99617 0.253472 -10.1014 -10.9916 -0.754792 -0.512152 19.7571 0.229262 0.687519 0.62395 1.08598 0.941259 0.68788 0.0926742 0.900468 0.833058 -0.0652675 -0.164977 0.825799 -0.195202 
-3.55646 3.63155 18.9599 1.72244 -7.40498 -4.55451 -3.6582 0.716783 -7.97146 -11.7331 -1.58462 -1.4792 19.7317 0.484661 -0.0940657 0.449941 1.3087 0.445592 0.267038 -0.210416 -0.514106 0.410782 0.51474 0.0228367 0.446417 -0.149937 
-2.15782 3.13464 17.9098 4.23368 -7.88645 -4.06722 -5.66902 0.59276 -9.77688 -8.06271 -2.46034 -1.37096 19.1993 0.731658 -0.975493 0.378101 1.26155 0.511691 -0.227693 -0.331725 -1.93218 -0.211526 0.219197 0.408375 0.551735 0.00210056 
-1.81916 1.10845 19.0959 5.93879 -6.50493 -5.23484 -4.32483 -3.46668 -8.75329 -10.054 1.33459 0.0288243 19.5286 1.20741 -1.60534 -0.260027 1.06082 0.0917179 -1.03883 0.194532 -1.40388 -0.358756 0.516258 0.648399 0.840744 0.133727 
-0.870349 -1.03176 19.9778 6.06947 -5.7766 -6.55426 -4.32148 -7.3157 -10.7681 -10.7352 -0.172523 1.49251 19.8692 1.28876 -1.68967 -1.55887 0.801488 -0.40478 -2.25299 1.13137 -0.186306 0.304034 0.853012 0.202915 1.04746 0.243868 
1.83687 -2.31193 16.6257 6.10863 -8.00132 -8.50516 -3.35931 -2.34839 -9.26965 -7.81558 0.513466 1.29278 20.0654 1.88285 -1.88156 -3.04453 1.11205 -1.28092 -1.93896 0.320043 2.66575 1.38044 1.72526 -0.483342 0.701659 0.119522 
2.45799 -3.60352 11.3505 8.1562 -9.16216 -13.697 -0.494919 -0.897917 -7.99853 -4.91683 -1.0352 3.23434 20.1502 2.22921 -1.59617 -4.93275 1.23681 -0.72564 -1.97418 -0.120685 3.26603 3.83082 2.62786 -0.746134 0.2513 -0.0388948 
5.93093 -7.01345 8.18684 10.4556 -11.2167 -11.3583 -4.6379 6.65316 -3.23585 -4.33685 -0.650784 2.6662 19.9857 2.14115 -0.813221 -5.7403 0.321442 1.29482 -0.777508 -0.572487 0.869397 5.48548 3.15893 -0.335154 -1.40433 -0.218374 
8.22865 -6.66184 -0.466481 10.08 -7.79709 -14.9986 -4.28561 4.5137 5.36912 0.664775 -3.32107 2.0623 19.7145 2.37143 0.170834 -5.348 -2.06167 3.23176 2.50143 -0.626401 -1.47813 4.7305 3.65271 0.497924 -3.04912 -0.360162 
9.65729 -4.84887 -6.16729 6.75393 -2.20976 -11.7419 -4.32641 -0.70721 11.4739 5.18827 -0.0193739 -5.14287 19.1914 2.01011 1.06122 -4.55574 -3.61562 2.78934 4.7907 0.865736 -3.39605 2.41057 3.39277 1.55958 -3.51431 -0.326936 
12.4519 -3.83163 -8.21244 -0.301289 2.49314 -0.998028 -3.78267 -4.60836 8.2991 8.58416 1.13871 -8.10675 18.7466 1.09083 1.45005 -2.44824 -4.46208 1.32811 6.53164 1.74268 -2.95468 -0.169331 1.59813 2.4448 -2.69871 -0.2656 
13.8698 -3.12243 -10.7189 -2.4318 -2.41518 5.59493 -0.560687 -5.76604 7.35201 8.66729 4.91723 -9.82084 18.835 0.169183 1.82577 -1.05801 -4.174 0.740214 4.84459 2.36396 -1.77731 -1.48166 0.285232 1.19538 0.00664167 -0.186876 
11.5765 -0.274817 -10.4319 -7.63752 -1.05382 8.9912 2.54495 -7.73029 6.58342 6.91591 6.43463 -9.09227 18.5647 -0.425583 1.86543 -0.409066 -3.22491 0.564862 2.41618 1.74556 -0.870827 -1.16349 -0.8421 1.15184 0.915635 -0.166924 
10.9409 2.50157 -10.3476 -10.448 3.26479 7.48645 4.32956 -8.03281 4.92347 7.44855 3.30958 -4.6169 18.3479 -0.855715 1.96719 -0.391675 -2.76347 1.17513 1.09304 1.16578 -0.643581 -1.01702 -1.24282 0.0863165 1.64453 -0.207437 
11.7885 2.68354 -10.4434 -12.4178 2.47746 10.1371 2.50002 -7.82911 3.69592 4.98303 7.70174 -6.13055 18.1555 -0.130009 1.02671 -1.21922 -1.00237 0.285204 0.691043 0.14403 0.525834 -1.32268 -0.834039 -0.192757 1.09209 -0.212578 
9.48527 5.23435 -12.6715 -13.859 1.69481 10.4872 5.29067 -8.93453 3.71064 3.41964 4.71526 -3.07903 18.0024 -0.691751 0.281915 -0.736027 -0.795222 -0.703217 1.85379 -0.0976356 1.33749 -0.735319 -0.336143 -0.078469 0.285965 -0.269732 
11.6543 3.49233 -15.366 -10.9438 1.15719 10.9461 2.78454 -4.65026 0.576415 4.76018 4.768 -4.40074 17.6746 -1.16506 -0.536515 0.694966 -1.17278 -0.672582 2.08595 0.0272046 1.69915 0.0383477 0.309111 -0.238159 0.0212152 -0.362924 
7.54925 3.50675 -11.5664 -15.161 0.408844 16.3509 3.69912 -2.93478 2.80662 5.87927 4.3841 -4.05198 17.2397 -1.19603 -0.580061 1.25608 0.409406 -0.108445 0.708495 0.917403 0.058385 -0.125396 0.158742 -0.66779 0.476752 -0.755698 
6.93118 0.86477 -7.52112 -17.6306 -0.242468 17.635 3.43182 -2.33321 4.33967 5.29877 6.67652 -5.538 16.7222 -1.04964 0.130411 0.996435 0.493158 -0.339853 -0.499386 1.89603 -1.94231 -0.117778 0.228905 -1.37606 1.42489 -0.680065 
5.86668 3.64783 -10.3136 -8.4686 1.85241 10.6852 9.55405 -9.80113 1.20203 3.94405 0.422048 -0.126643 14.7001 -0.859749 -0.175668 -0.394048 2.57605 0.879825 -1.93479 1.28908 0.625142 0.251337 2.41075 -0.740053 2.2291 -0.886115 
7.2474 4.07385 -11.0103 -11.8243 -1.26386 11.282 9.33725 -10.9287 0.789819 6.87231 -0.131282 0.761043 15.5441 -2.36535 -0.589255 -0.746461 3.45098 1.29199 -2.04208 0.646798 3.38529 0.755945 2.79097 -1.39029 3.06083 -1.11807 
3.0924 1.02387 -11.7921 -5.18395 5.31867 9.85348 7.19179 4.48865 5.83823 17.1462 4.08774 3.94402 13.3982 -2.97797 -1.12969 0.653815 2.25943 1.08683 -2.03371 -0.559018 5.56215 1.25204 1.42171 -0.188604 1.3022 -1.04221 
-3.50843 -0.769523 -10.5142 -2.01805 4.48437 7.84046 7.84694 7.44835 5.80129 12.6525 -2.1078 7.73081 11.7829 -3.54343 -0.676678 1.84386 3.43388 0.51845 -2.98377 -1.52189 4.16197 0.382578 -1.13042 -2.43251 0.275799 -0.948845 
-3.64523 0.421059 -7.29254 -2.07454 4.41245 2.2374 7.50411 8.8211 4.95648 8.1625 0.467283 2.89949 11.3696 -2.16866 -0.106951 2.58873 2.15862 -0.492963 -2.5241 -0.914624 1.83643 0.428534 -2.04945 -3.07871 -0.0553352 -0.398068 
-7.10091 0.991858 -4.04076 3.79045 1.7815 0.171225 1.57165 7.71498 3.14358 5.71205 -10.4836 2.66231 11.8141 -0.577192 0.11887 1.44169 1.94121 0.545931 -0.979865 -0.990002 0.0589455 -0.0962701 -1.04125 -1.31031 -0.758661 -0.0987611 
-5.95468 -0.391579 -2.08514 2.7049 4.20529 1.06761 5.75631 13.5375 9.30975 10.3692 -7.1179 6.2016 11.3922 -0.276361 -0.524355 -0.431639 1.14054 0.394048 0.329159 0.124714 -0.248361 1.01357 -0.0178258 -0.918405 -0.0465389 -0.0193764 
-5.23967 0.231145 -5.90942 5.29827 7.31761 3.52603 3.77083 5.38489 3.1433 6.34293 -4.86675 2.28645 11.2777 0.430932 -0.280953 -0.700902 -0.109722 0.731374 0.0110081 0.966627 -0.370142 -0.481447 -0.706798 0.153001 -0.568168 -0.0574541 
-5.95766 -1.82036 -8.51641 2.87427 3.61463 2.20579 7.02809 8.74434 10.0245 7.75793 -6.93317 2.85473 11.541 0.581766 0.0501101 -1.23834 -0.166829 0.243883 -0.633627 -0.34841 -1.29701 -1.91908 -0.810202 -0.303137 -0.807542 -0.0364846 
-4.94476 0.301483 -4.32964 3.15716 5.73369 -0.342824 5.76889 8.26084 0.378984 3.48368 -9.81097 1.4949 11.4525 0.248646 0.17353 -0.23129 -0.817081 0.274826 0.198024 0.450481 -0.0751394 -0.32492 0.161216 0.525318 -0.302722 -0.0313087 
-3.19331 -0.176198 -9.06675 2.94131 6.21666 -0.166098 3.01523 5.61445 1.0965 7.7478 -6.16147 2.55966 11.1224 -0.137639 0.655227 0.838505 0.0115827 0.816375 1.06377 -0.0276789 -0.554806 -1.00704 -0.611457 1.24885 0.606157 -0.0108944 
-5.37861 0.276716 -6.7907 1.17934 7.39072 5.70209 8.02966 6.57414 5.9827 7.15408 -2.62601 0.920373 11.3305 -0.520878 -0.131458 0.0554712 -0.531379 0.546304 1.31329 0.419417 0.00626499 0.871752 -0.862962 0.153049 -0.373253 0.0192308 
-6.42893 1.46816 -3.09335 3.92109 6.868 4.50218 5.75931 6.81366 2.18744 2.86545 -4.28139 6.17277 11.5475 0.401546 0.217081 0.178992 -1.03412 0.355425 1.06764 0.461903 -0.337266 -0.528045 -1.34851 -0.523183 -0.110897 0.0743507 
-5.93134 -1.17799 -7.03898 0.0103722 8.13955 3.88951 6.49393 7.69256 4.19228 1.61004 -9.98576 -2.17792 11.3361 2.52618 0.0794028 -1.47465 -2.09278 0.161112 1.00001 -2.10182 -1.67096 -1.67883 -0.508618 -0.326126 0.454119 0.31648 
-0.909212 1.63656 -8.04765 -1.6448 7.61938 6.07838 6.09261 3.36891 -0.648514 3.77724 -5.09751 3.55432 11.4913 2.50831 0.268283 -1.94896 -2.1515 0.504012 0.68435 -1.43091 -1.29889 -1.1047 1.39508 2.37469 0.441282 0.232806 
4.49245 0.589532 -11.6868 -6.50162 7.82059 9.91405 -2.64611 -0.0582647 -0.993459 4.15509 -3.84857 4.50019 12.9409 0.579254 0.332989 0.194261 0.0333728 -0.533155 0.0796167 -0.524168 -0.683223 -1.37028 1.59418 2.50281 2.00053 0.135869 
0.90075 1.92582 -10.5142 -3.58043 9.54753 4.91165 3.1748 4.19463 -0.743187 8.56832 4.52345 5.04013 11.9091 -1.50285 -0.485974 1.28702 2.11103 0.178287 -0.454153 1.19758 0.297784 -0.419732 0.124898 0.415583 0.879378 -0.095018 
-3.94006 0.342327 -4.83439 1.14505 4.50969 4.87095 5.332 3.86358 -2.61181 7.18539 -2.28218 7.08184 11.8066 -2.12539 -0.795298 1.22775 3.24802 0.59598 -0.679364 2.70983 1.54128 0.990636 -0.622931 0.225514 0.129391 -0.295091 
-4.20723 -0.669712 -5.03873 5.08702 10.1663 6.32916 8.09147 2.8969 -1.938 2.88658 -3.80279 6.66039 11.5834 -1.03562 -0.64278 0.0453911 1.60177 0.812113 -0.346428 0.435259 0.240484 0.937256 -1.62903 -0.408423 -0.241291 -0.129081 
-3.58053 -2.08919 -8.28576 5.40477 10.4911 5.80848 8.44468 8.29702 4.55713 3.88131 1.44211 4.33702 11.6283 -0.230817 -0.192324 -0.949465 0.294029 1.14622 -0.54448 -0.0050743 1.03221 1.05992 0.0303556 0.326565 -0.794409 -0.103399 
-4.45709 -0.0723233 -8.56159 2.29856 10.6174 2.71075 3.79475 3.18033 0.358626 2.07522 0.619183 5.20608 11.3529 -0.403052 -0.243855 0.723087 -0.312695 -1.82211 -1.2898 0.697689 -0.836472 -0.7355 2.59579 0.124816 -2.23477 0.0631743 
-4.96921 -0.917989 -7.82028 4.00943 10.0153 3.95776 7.45499 8.88292 1.53947 7.74285 -2.86035 3.83695 11.4049 -0.473863 0.384588 1.92894 -0.532153 -1.85898 -1.02808 0.278848 -1.45636 -1.08682 3.16829 -0.641229 -2.07832 0.0750997 
-5.52815 -2.47459 -1.65603 4.22122 1.29365 0.805504 12.0748 -1.57841 -4.10668 13.9348 -1.02748 -4.26341 12.011 -0.300046 0.0353779 1.21357 0.0219848 -1.10801 -0.122624 0.479584 -0.598069 -1.08731 0.912351 -0.416235 -0.679886 0.0485981 
-5.41431 1.03488 -2.09384 1.78268 5.8581 1.62069 5.69892 3.39457 1.35566 13.793 -0.9407 -1.31984 11.6747 -0.173775 0.169496 0.122574 -0.16745 0.014356 0.107746 -0.577262 -0.738494 -1.39303 -1.85847 -0.0517272 0.974466 -0.0438054 
-5.73477 -0.871868 -5.35695 3.52186 7.15591 3.26616 7.0707 2.93417 -4.98601 3.61192 -2.42182 4.38505 11.4609 -0.0733702 0.129869 -1.0665 0.0340454 1.30223 0.656679 -0.863632 0.856476 -0.810034 -3.08268 -0.426978 2.30018 -0.131407 
