-9.07418 0.554338 -3.92941 -2.168 1.34917 -1.68232 7.01215 3.72664 -0.17584 7.81251 -4.06234 4.14758 11.9658 -0.0579838 0.0199078 -0.204902 1.03938 0.529741 0.033429 -0.621587 1.44037 0.541325 -0.903752 0.889659 -0.562065 -0.0642284 
-9.03113 0.567985 -4.23817 3.29676 6.0122 -0.471688 6.03835 5.87413 2.099 5.88433 -0.501531 4.10966 11.6167 0.08381 0.221483 0.44643 1.64011 0.838348 0.655638 -0.486562 1.01976 1.30882 0.367828 1.16125 -0.967762 -0.00103703 
-9.38563 0.647054 -4.79953 0.296521 1.66636 -2.12049 4.39112 9.85475 1.39336 4.25783 -1.39445 1.35621 11.8192 0.85496 0.938916 1.30922 1.87684 1.0066 1.75692 0.325075 -0.396738 1.01496 0.337783 0.614703 -0.485294 0.0397383 
-8.49941 1.61539 -1.26219 4.80028 5.38231 1.81496 5.88986 5.7614 5.58365 11.429 0.409988 0.70445 12.0339 2.28467 2.35935 2.72901 1.33479 0.423282 1.24969 0.778922 -1.4323 -0.887154 -0.435172 -0.0982514 -0.746646 0.0950412 
-5.06524 4.72522 1.12873 6.46445 6.69711 5.95898 8.71177 1.79931 3.15664 6.7291 -1.44459 3.42371 11.9558 3.03046 2.98725 3.04434 1.62618 0.726652 1.17176 0.972127 -1.22293 -1.44181 -1.89515 -0.352088 -1.14147 0.0800704 
0.23205 10.3257 6.44276 6.88676 5.61323 1.73704 7.77263 2.74034 -3.2184 2.47284 -0.96772 -0.65732 12.0235 2.42257 2.80277 2.61887 0.562226 0.726429 -0.559051 -0.126638 0.0877071 -1.72624 -2.8046 -2.60439 -1.99013 0.158841 
1.40095 11.2282 6.56968 7.38417 5.18416 3.77729 8.31036 5.25066 -1.41464 -0.739856 -2.46604 -3.67025 12.2247 1.00854 2.14982 1.85217 -0.399229 1.69526 -0.990546 -0.822022 0.758796 -2.5266 -1.66184 -1.99887 -1.46532 0.247533 
0.38034 12.3778 9.11169 7.15155 9.77093 0.11055 5.45737 4.47427 -0.761913 1.14047 -12.1013 -5.69922 12.6937 -0.0892054 1.17136 0.338026 -0.345392 2.03748 -0.625315 -0.593089 0.790171 -2.5962 0.38502 -1.77445 -0.218577 0.247007 
-0.0967073 14.4483 9.05513 4.33591 13.0946 1.8195 5.7593 4.72633 -10.7046 -0.913895 -5.87215 -1.38191 12.8584 0.108947 -0.330277 -0.129845 0.302951 0.893825 -0.770944 -0.576457 0.00396906 -1.80772 0.918501 0.776623 1.0897 0.154264 
0.53485 14.5724 6.89017 6.68393 11.8454 -0.410639 6.08273 6.95336 -11.5544 4.48496 -8.1369 -2.89438 12.9417 1.38057 -2.93828 -3.01119 -0.548495 0.371017 -1.65762 -0.753973 -1.30955 1.45271 1.10151 2.73279 1.40466 0.643804 
1.86843 8.47947 7.03122 9.13274 8.61605 0.183161 5.1154 4.03096 -5.05697 2.1804 -0.565096 0.37583 12.872 1.42868 -4.10161 -3.92574 -0.564348 0.407536 -1.69747 -0.995282 -2.32686 3.39897 0.0904425 1.55087 1.17182 1.13029 
6.30063 0.670735 -4.93232 2.01066 13.8653 -7.3594 2.00945 -1.72578 3.67781 5.10088 -1.09082 0.44523 15.9059 1.05813 -2.86956 -2.02465 -0.502972 0.317363 -1.16808 -1.87519 -2.46351 1.45846 -2.33911 1.41585 2.54393 1.20912 
4.16378 0.89106 -4.66236 3.8508 14.1223 -3.19347 2.81952 -2.56841 -1.32586 -0.769641 -1.64085 2.80737 17.0278 0.557505 0.297192 0.0597649 0.27226 -0.355226 -1.64335 -2.23644 -1.0374 -0.281619 -1.72101 -0.254654 2.31459 0.891826 
4.67782 4.01886 2.61368 6.81004 10.6791 -4.56272 -2.14529 -2.06451 -6.12768 -5.73559 -0.51978 8.60952 16.9094 0.433455 1.69022 2.71419 1.83523 -2.25225 -0.760507 -1.9303 0.229377 -1.39611 -1.26327 0.0253306 1.65908 0.164536 
5.46736 8.29137 3.55704 8.09435 8.43302 -9.43192 -3.98942 -0.986663 -1.56232 -1.00642 -2.12389 7.86664 16.8294 1.08484 0.791334 1.7652 1.28996 -1.74797 -1.32769 -2.01072 -0.147176 0.140489 -0.457942 1.2484 0.242617 -0.0165819 
7.81612 5.42166 4.52895 9.06502 5.4487 -8.04271 -4.23757 -1.36977 -3.18453 -1.0971 -0.722647 6.211 16.8278 0.899868 -0.150824 -0.179871 -0.249751 -0.790314 -1.04895 -0.490726 -0.692209 0.504297 1.16281 1.65192 -1.45312 0.0689564 
8.01884 4.14633 3.20602 9.1731 7.99765 -8.09194 -6.18795 -3.65166 -2.09499 -5.37859 4.70259 5.21972 16.9857 0.781198 -0.484803 -1.28293 -0.425691 -0.314175 0.330574 -0.311593 -0.961007 -0.479598 0.490176 1.32117 -0.840187 0.100767 
7.90141 5.33725 1.88984 5.0219 6.9452 -10.4775 -3.49965 -4.19306 -3.33986 2.26457 4.32657 2.6674 17.176 0.52781 0.332354 -1.6079 -0.98755 -0.413755 1.0529 -0.882379 -0.428367 -0.338371 -0.00218964 1.3457 -0.618681 0.104729 
9.3307 5.90956 -1.53804 7.98745 6.11389 -6.56168 -5.91634 -4.38006 -3.88265 -0.236372 1.95736 5.43751 17.1591 0.557133 0.464879 -1.05358 -1.32836 -1.05128 1.76674 -1.14848 0.797101 -0.869821 -0.141995 1.12297 -0.869826 0.0930531 
9.79924 6.20181 -1.13854 4.72009 4.3218 -3.54335 -8.78527 -3.14741 -3.98256 -3.67916 7.37846 3.0087 17.2647 0.532001 0.0787307 -0.990082 -0.873359 -0.573724 1.57569 -1.27768 0.105211 -0.0876838 -1.00977 1.37463 -0.883934 0.113887 
9.8556 6.03845 -0.547704 2.68221 4.05297 -2.72531 -9.28754 -0.188975 -6.12275 -3.1167 8.7915 0.699935 17.4066 0.401803 -0.527355 -0.618148 -0.829262 -0.949707 1.14659 -1.25188 -0.228349 0.416101 -0.276762 1.84493 -1.45469 0.179274 
10.299 5.66646 -3.55574 3.30773 5.10704 -4.51722 -8.20244 -5.76254 -2.65823 -1.34413 7.78267 0.616516 17.6217 0.576191 -1.17039 -0.779396 0.00268696 -1.22675 0.470261 -0.552583 -0.563995 0.334412 0.953277 1.14629 -1.10211 0.256515 
11.0899 3.54046 -3.42018 4.54732 0.972737 -0.341791 -12.4672 -4.21424 -2.46431 -2.7877 10.9799 -0.639866 17.877 0.511941 -1.61058 -0.724567 0.169676 -2.0626 0.402003 -0.813942 -0.619881 1.18464 0.984292 1.43285 -1.09738 0.3947 
12.0631 1.59883 -3.59928 3.80097 -0.271821 -2.3838 -9.95837 -3.95475 -4.13971 0.922722 12.0157 -1.83193 18.3121 0.184399 -1.68171 -0.667601 -0.364047 -2.30432 0.0685931 -0.178353 0.875416 1.12637 1.88458 1.27828 -1.67798 0.544852 
11.5333 0.0193796 -4.14877 3.28396 -3.5706 -1.782 -12.4793 -4.19228 0.541205 0.671332 13.8392 -3.56274 19.0349 0.165498 -2.08286 -0.631236 -1.41663 -1.38124 -0.382343 0.965466 0.774243 2.62388 2.11841 0.0113698 -2.52937 0.586008 
10.9993 -0.981565 -6.52946 2.11917 -4.14289 -3.45415 -9.08815 -1.39644 1.47086 6.34927 12.7444 -6.31194 19.767 -0.0888954 -2.22088 -0.513079 -2.22107 0.258997 0.670283 1.43838 0.823746 2.82288 1.37944 -1.49489 -2.69421 0.532513 
12.4492 -5.58364 -5.11127 -1.69492 -3.99791 -1.71833 -8.07496 -1.62217 7.84981 5.09107 10.6724 -11.0467 20.0795 -0.0602332 -2.14981 -1.08335 -2.45797 1.0434 2.01306 2.36126 0.499726 1.49925 1.23472 -2.85544 -3.19946 0.48703 
11.1606 -6.70405 -5.68342 -4.81491 1.23682 0.935783 -4.96865 -1.12108 6.32038 5.61007 6.12468 -11.561 20.4523 -0.440528 -1.66236 -1.37488 -2.25506 0.970916 3.9326 1.97651 0.237772 0.940696 -0.213595 -3.46364 -2.59375 0.453273 
11.1514 -7.86845 -9.98851 -5.53886 -1.04345 6.08834 -2.73273 -1.83133 5.61268 7.21452 2.87191 -16.9355 21.1274 -0.758909 -0.729069 -1.9888 -1.32973 0.409118 3.73524 2.36652 -0.363631 0.100141 -0.538404 -4.5162 -0.547762 0.355863 
9.44553 -8.15096 -10.9652 -7.23413 -0.765537 12.3055 -1.87672 -0.103006 7.29291 4.21958 -0.673573 -16.3363 21.5095 -0.758711 -0.323149 -1.16157 -0.899507 0.462163 2.25489 2.09368 -0.251444 0.138218 -0.840337 -4.06338 1.09712 0.179565 
9.51223 -8.50553 -12.4143 -7.13397 -0.951147 11.273 2.21169 -3.94937 7.86425 3.0943 -8.50945 -11.3979 21.3303 -0.826631 -0.213909 -0.112697 -0.795214 1.36467 0.289348 1.72182 -0.399411 -0.0266873 -0.802539 -3.56447 2.37681 0.0315676 
8.18664 -8.00125 -10.2783 -8.51489 3.50148 9.61788 3.02755 -1.31927 5.88568 3.46849 -8.50155 -8.84423 21.2487 -0.628348 -0.239899 0.0411634 -0.0957379 0.937695 -0.787361 1.54676 -1.10821 0.282696 -0.342312 -2.45047 1.48914 0.0314426 
7.64771 -9.01285 -10.8954 -8.87455 3.64641 8.87888 3.42424 -3.22025 6.18286 3.57736 -11.0364 -8.7975 21.4156 -0.803847 -0.152807 0.00613337 0.227592 0.507742 -0.373211 0.47053 -0.383905 0.492832 -0.508568 -0.818963 -0.433959 0.114338 
7.23605 -9.0968 -11.5189 -6.84253 1.62416 9.56576 5.25079 -6.00863 9.54708 2.26648 -11.6625 -10.1908 21.624 -0.744441 -0.226489 -0.0966334 0.690078 -0.306189 0.237253 -0.18642 -0.205522 0.895296 -0.359129 -1.0714 -0.446962 0.144677 
5.96829 -8.72178 -11.7634 -6.83219 2.52623 9.43304 3.45272 -3.52421 8.49771 1.15247 -11.0238 -12.8944 21.7143 -0.899369 0.0931207 0.497304 0.823518 0.0910654 0.267248 -0.563119 1.42892 0.547862 0.111013 -1.66554 1.19876 0.105423 
5.30415 -9.27923 -10.3275 -6.08568 2.53063 10.5271 2.08121 -2.1949 9.20474 2.8853 -13.8649 -9.03059 21.8227 -0.929115 -0.0833848 0.933259 0.235011 0.4049 -1.04666 -0.537231 1.90609 0.375536 -0.825961 -1.53214 1.83447 0.0316715 
4.11681 -8.45603 -9.0046 -5.13539 3.6485 9.73447 2.19344 2.01748 9.09334 3.82302 -18.2629 -3.38379 21.8434 -0.44797 -0.129896 1.15216 0.457379 -0.163799 -1.88872 0.817956 1.05435 1.64462 -2.18405 -0.361113 2.12219 -0.0625099 
3.51621 -9.6466 -8.23199 -6.51588 3.08752 4.18173 3.19427 0.750964 11.127 -3.1986 -15.7036 -5.77375 21.7179 -0.135938 -0.0796639 0.92308 0.323395 -0.953636 -2.8978 1.58224 0.49899 1.59873 -3.15599 0.660107 1.0089 -0.122974 
4.6224 -9.18758 -7.0504 -4.3302 1.42879 3.16209 6.98596 0.274612 15.7597 -6.72585 -11.91 -3.91187 21.4542 0.118524 -0.363501 1.42487 0.152128 -1.92123 -2.58015 1.28988 0.74963 0.963225 -3.05593 2.2083 0.182428 -0.110389 
4.37166 -9.31177 -6.68923 -4.8713 -1.12769 -0.675753 7.59616 1.17148 13.8652 -7.62022 -13.7408 -3.72204 21.4024 0.219461 -0.861229 2.57451 -0.0796533 -2.71036 -2.18515 0.697124 1.45463 -0.0298757 -1.49928 3.20137 0.531637 -0.0101234 
4.28171 -10.4409 -2.6516 -5.19704 -3.85007 -0.737543 6.44191 5.55537 12.5403 -9.24581 -8.20283 -3.49751 21.4491 -0.075572 -0.744111 3.41576 -0.179725 -2.97971 -2.78811 -0.398254 1.73147 -1.50524 -0.0591544 4.46067 0.404146 0.0478403 
4.78387 -13.3261 2.44114 -6.48072 -7.82483 -4.7942 6.95192 5.38372 12.5873 -9.43501 -1.55039 -3.32275 21.6698 0.03763 0.102166 3.96635 0.551861 -3.26261 -1.72725 -1.06812 0.472533 -1.88209 0.641386 5.75497 0.99975 -0.0779045 
4.03844 -10.901 5.46322 -4.42412 -10.1212 -8.71924 5.31681 6.82585 8.8725 -6.11423 4.29812 -2.09078 21.5597 -0.149746 1.19706 3.58708 0.755057 -3.72756 -0.72825 -1.89746 -1.48261 -2.77759 1.29933 4.60426 1.79078 -0.131284 
4.68145 -8.57092 9.08509 -2.49846 -14.3052 -5.32118 2.8181 2.89891 6.28868 -5.97909 8.7836 0.573349 20.9576 -0.557711 2.32736 3.27866 0.97872 -3.29357 1.1604 -2.88108 -2.01665 -3.40809 1.73203 2.97188 2.22716 -0.109084 
3.58419 -6.8332 11.9618 -3.41289 -19.2477 -4.1153 -0.978484 -0.615273 1.80168 -4.47711 9.65148 3.50833 21.1488 -0.839078 1.98862 2.77485 0.870098 -2.86721 2.83473 -3.35431 -2.07843 -3.15966 0.56802 1.09126 0.975152 -0.0414001 
2.22244 -3.72318 15.5851 -2.09274 -19.7294 -1.29416 -4.30584 -0.978964 -0.917782 -1.59343 10.6323 5.01352 21.3298 -0.976942 1.567 1.98481 0.700506 -1.30206 2.53908 -3.0904 -1.06195 -2.73479 -0.540449 -0.262747 -0.510718 0.00244503 
1.07256 -3.38175 16.0875 -0.276484 -21.7451 3.44089 -7.89275 -1.62739 -3.32257 -5.46696 8.83004 0.564892 21.1666 -0.730918 1.21604 1.13815 1.00662 -0.367336 2.20582 -2.72615 -0.210836 -2.09911 -1.34507 -1.41195 -0.987347 -0.115467 
1.05255 -2.46166 16.9463 -0.56413 -19.5667 3.59614 -9.17677 -1.90477 -4.82312 -8.18641 7.88058 -0.50852 20.9609 -0.132554 0.670264 0.718116 0.629619 0.0601038 1.56358 -2.21695 0.150854 -1.72201 -1.64324 -1.2682 -0.759437 -0.217081 
0.514536 -1.38378 16.972 0.855913 -21.1657 4.46863 -12.1737 -1.20655 -6.74118 -7.90595 3.96759 1.33261 20.7559 -0.276772 1.21099 0.511125 0.191277 0.864294 0.467885 -1.15788 0.171409 -1.62189 -0.209588 -1.24104 0.047652 -0.295528 
1.83868 -1.37084 18.7335 0.489151 -19.7186 6.0099 -13.2501 -0.435114 -7.81853 -8.59013 6.72256 0.832468 20.4498 -0.660584 1.77486 -0.258634 -0.275203 1.17637 0.00212394 -1.05769 -0.258164 -1.45992 0.1335 -0.841519 -0.238464 -0.397372 
-0.704366 2.12778 17.7495 0.153259 -17.3477 4.57343 -11.6455 -1.50517 -9.9343 -6.31304 3.20386 0.132658 19.9446 -1.22185 1.95384 0.134383 -0.71665 1.03005 -0.408814 -0.136389 -0.827695 -0.862293 -0.148752 0.640492 -0.409192 -0.330446 
-1.64091 4.65684 15.2644 -1.58882 -15.5939 3.55436 -14.7294 -3.04628 -10.5262 -8.31536 4.05485 -1.10086 19.3797 -1.59613 1.87826 0.39998 -0.763523 0.920302 -1.45456 0.9427 -1.26128 0.0315257 1.13994 1.80914 -0.271122 -0.38864 
-3.85491 5.37157 19.3784 -1.68835 -18.0778 3.65232 -12.116 -4.03944 -9.69882 -8.7871 8.5039 0.253317 19.6387 -1.1894 1.06101 1.04934 -1.10702 0.476753 -1.8766 -0.26646 -0.949173 0.212814 1.43971 2.66098 -1.02036 -0.479495 
-4.56669 6.39857 19.9189 -2.40766 -14.752 -0.802361 -8.30129 -5.4744 -7.77865 -1.65339 13.1182 -0.583471 18.6595 -0.954222 -0.346383 -2.10378 -0.0387128 2.34723 -3.69655 1.81054 -1.07499 -0.523581 2.53723 0.447742 0.0406765 -1.27048 
-5.18849 6.56195 20.669 -4.97243 -15.3849 -2.63119 -16.1918 -5.03697 -10.244 -2.4455 11.977 -5.22783 17.9072 -1.01768 -1.43831 -6.27725 0.706183 4.71032 -2.43301 3.60848 0.580567 1.57122 3.6226 -1.69038 1.13218 -1.90301 
-5.74523 2.32974 4.10022 -0.140344 -5.2042 -11.7867 -3.63875 -7.92248 -12.8715 1.19998 4.55699 1.8431 13.8931 -0.962142 -1.34905 -6.52739 1.6034 5.30102 -0.665369 4.05672 1.08562 1.73253 0.987526 -3.25305 1.51698 -1.78506 
-8.35406 0.214442 -4.09848 0.708905 0.699853 -3.02058 3.59507 0.0874314 0.703715 7.8992 4.33263 4.70093 12.5069 -0.754531 -1.45011 -5.5775 1.07795 4.06997 1.86342 5.50455 2.24035 3.27379 1.40475 -2.4935 2.07556 -1.27269 
-7.79462 2.82707 -0.33432 2.76866 3.71069 -3.93451 2.08888 -2.60852 -4.58986 -1.88811 0.675213 2.03707 12.4344 -0.655731 -1.58374 -1.97865 0.239289 2.46929 4.1018 2.69581 1.34085 1.79789 1.09788 -0.498719 0.772467 -0.130941 
-7.93645 -0.937249 -5.00123 -1.03718 0.507524 2.75986 8.46712 3.50778 1.98412 6.1223 1.45044 5.05299 12.2731 0.134667 -0.601476 -0.519966 -0.706126 0.549533 2.14092 0.324127 0.201482 0.392785 -0.346579 -0.722878 0.741768 -0.028423 
-9.23269 -5.0131 -5.34164 1.92914 7.2384 5.83214 7.40425 -2.92839 -4.52227 7.57781 3.50449 5.5294 13.3553 0.121571 0.380267 -0.20368 -0.845479 -0.647685 0.362137 0.157984 0.580527 0.861449 -0.88824 -1.75488 0.829884 -0.116765 
-6.96169 1.12715 -4.19465 -2.40197 1.68366 2.80071 2.55802 1.25478 2.63384 1.43334 -0.696397 6.6636 11.9043 0.0030303 1.14877 0.265689 -0.603758 0.0240474 -0.415307 -0.112685 0.556795 -0.0758564 -2.03294 -1.45908 0.114309 -0.194297 
-7.67414 3.69621 -1.75601 -0.77634 -0.115809 -2.14426 5.83335 1.42062 -0.60748 -3.98483 -7.02579 5.38119 12.0349 -0.161755 1.33939 0.311925 -0.271907 -0.0150958 0.0578562 0.787122 1.13287 0.70176 -0.579937 -1.5311 0.648277 -0.243428 
-8.70057 0.451972 -5.4656 -2.70322 4.30487 4.67152 8.68915 4.11725 -0.352557 1.73892 -0.579822 5.69864 11.9618 -0.718894 0.0275598 -0.344604 -0.0192711 1.00322 -0.157782 0.144948 -1.31051 -1.64126 0.287844 -0.730424 -0.974688 0.118766 
-9.17202 2.02141 -3.14654 0.720232 5.85232 5.18602 8.2743 1.3047 0.479732 4.52534 -4.2093 9.25327 12.1094 -0.94171 -0.673098 -0.308619 0.536393 0.800405 -0.612008 0.318162 0.218757 -0.257024 0.401399 0.392628 -1.00586 0.295251 
-9.80722 2.10234 -5.2224 -3.24661 3.71568 -1.65333 2.06229 -5.23982 -6.11604 -1.38252 -5.75676 -0.145881 12.4609 -0.753836 -0.567457 0.599961 0.618955 -0.219359 -1.99945 -1.42002 0.181901 -0.439573 -1.78544 0.303576 -0.0633343 0.305232 
-11.8294 -0.494467 -3.4207 2.17731 4.18081 -2.04187 10.7376 7.19293 0.98914 -0.417112 -2.47418 3.27417 13.2616 -0.424751 -0.734955 -0.00624058 0.573856 -0.321932 -1.09547 -1.6401 0.973417 -0.0818903 -1.50027 1.57917 0.195202 0.123678 
-11.1411 -1.12737 -2.32871 -0.336987 4.04383 -1.71178 0.357387 2.08263 -2.80513 -4.71704 0.0704945 8.37152 12.9118 -0.0873928 -0.484478 0.164945 0.461587 0.171052 0.346348 -0.747029 0.302407 0.828051 -0.127612 1.30655 1.14471 -0.102958 
-10.6288 -0.0385051 -4.62459 2.1347 4.07859 -0.262094 0.926258 2.51056 -1.58518 -1.30877 0.772926 5.97058 12.5023 0.490743 0.427799 -0.580993 -1.51303 -1.13544 0.215075 -1.26074 -1.42658 -0.993009 -0.521721 0.119885 -0.685034 -0.282706 
-10.8444 -0.548028 -3.79574 -0.917367 4.62205 -0.811477 3.23281 -1.38659 -0.688627 -1.57475 -0.847563 4.22946 12.3258 0.527475 0.418811 -0.405402 -1.10272 -1.30242 0.463321 1.712 0.549271 0.159155 0.376499 -1.15449 -0.0594161 -0.224272 
-9.52397 1.35486 -5.59215 -5.09766 -1.78551 -1.41664 2.99618 1.79466 -5.03416 -4.59686 -1.41573 1.92003 12.1411 0.783502 0.423665 -0.300652 -0.802558 -0.546621 0.0628973 2.32287 1.16336 1.01891 1.01504 -0.682081 0.872393 -0.178956 
-9.05614 0.270005 -3.87194 -2.23442 0.463788 1.1821 7.88243 5.18694 -0.284863 -1.1905 -4.60764 10.0997 11.971 0.522582 0.214863 -0.405742 0.463283 0.908305 0.476957 1.30279 1.48249 2.41323 2.64441 -0.331326 0.423217 -0.181228 
-7.60549 1.6708 -6.08974 -1.21956 3.42462 -0.944396 10.2158 5.04062 3.30751 3.5743 -0.757441 7.39742 11.7849 -0.0676773 0.0101574 0.119236 0.6968 1.25465 -1.08892 -1.75956 -0.914317 0.610544 1.34407 -0.468297 -0.81594 -0.0901143 
-9.19077 0.368313 -5.57565 -0.540004 6.55851 1.33718 6.13693 4.40288 7.20669 7.56169 -2.83334 3.60685 11.5977 -0.284537 0.062088 -0.216522 -0.150525 0.245423 -1.75171 -3.31147 -1.97457 -1.82434 0.0656886 -0.907872 -2.71563 0.00604315 
-9.79504 1.35649 -4.14412 -2.46087 1.44039 -6.9388 -4.92886 -2.3849 -5.72721 -2.2526 -4.64436 1.08676 11.8772 -0.493862 -0.167146 -0.000720215 0.0838446 -0.195801 -0.994845 -2.22632 -2.38078 -2.70512 -0.344394 0.583471 -1.00021 0.0857514 
-9.38405 0.737602 -5.92736 -2.36639 2.68302 -4.57925 -1.1026 -0.973147 -4.8892 2.05139 -7.20354 -0.32312 11.9551 -0.0222586 0.263991 0.190712 0.373438 0.36807 -0.427185 -0.150041 -1.09989 -1.50428 -0.17798 0.453377 0.02154 0.0879658 
-9.97816 0.650431 -5.91749 0.112859 4.38336 -2.96041 2.70396 -4.17527 -4.17013 4.60748 4.34502 4.36134 12.035 0.0128279 0.544933 0.663907 1.26723 1.00964 0.524307 1.70915 1.03561 1.42378 1.87657 1.23031 1.78332 0.0353807 
-9.21051 2.0413 -3.73541 0.0403194 6.92738 -2.78794 1.57031 -0.201385 -1.09326 3.24175 -5.06114 2.07726 11.9587 -0.0706755 0.816228 1.20105 1.26357 0.334978 -0.351988 0.63425 1.33434 1.24298 1.08949 1.137 2.26945 0.0211731 
-9.81767 3.42931 -1.92056 2.67191 4.36639 -5.21292 2.28042 2.40728 -0.50626 6.53506 0.435975 8.80319 12.0523 -0.0286186 0.694576 0.980869 0.77497 -0.259492 -0.693003 -0.0136973 1.57738 0.791473 0.714845 -0.232097 1.56096 0.0128311 
