-7.27452 0.947031 -5.6966 1.54784 11.8045 -1.19096 3.40857 -0.685684 -6.32118 5.05033 -5.41848 8.02384 11.107 -0.64095 -0.756493 -0.498143 -0.159942 -1.36899 -0.156233 2.36463 0.998089 2.57337 -0.270264 -1.54852 -2.26921 0.0264325 
-7.90985 1.33769 -8.29368 -0.789794 6.10637 -2.70463 7.276 0.427008 4.72451 10.3203 -10.2502 2.25186 11.2484 -1.02469 -0.895589 -0.449547 0.181605 -0.0710732 0.280138 2.52424 1.43123 2.22333 -0.223348 -1.22887 -1.4732 0.0515688 
-10.1616 -3.03077 -6.88877 1.91694 7.80862 -1.2153 13.298 3.74842 1.02282 1.06402 -10.7452 -0.43622 11.1685 -0.547962 -0.438255 -0.625607 0.101392 0.235763 0.0221835 1.83516 0.561312 0.631855 -0.750065 -0.661186 0.00909582 0.0650356 
-10.9544 -1.54202 -7.34824 2.27131 13.4471 0.221895 11.085 4.25343 1.12349 5.92674 -8.89947 4.88788 11.3341 0.00508766 -0.493198 -0.0295175 -0.199855 -0.457284 -1.51466 -0.681786 0.373897 -1.43493 -0.429614 1.28905 1.46312 0.0214605 
-8.49203 0.195607 -9.29735 0.524246 9.31296 -2.54331 10.6798 0.207664 -1.36139 3.49678 -9.39979 6.75131 11.3893 0.340635 0.0396148 -0.569118 -1.68305 -2.04237 -1.89746 -1.80945 0.40746 0.506684 0.644339 0.720825 1.87921 -0.00445185 
-8.7192 -2.74149 -7.23698 -1.09272 3.06778 -9.61394 5.17617 4.06687 -1.25806 6.95585 -4.47771 5.97368 11.2453 0.255129 -0.36156 -0.417767 -1.22986 -2.22355 -1.73693 -0.76873 -0.289919 -0.0365551 0.958645 0.910858 -0.144475 -0.0699398 
-9.57606 -2.23296 -9.79 -4.8163 2.78642 -5.78467 7.20521 5.879 4.74701 3.77117 -9.35195 8.41692 11.1907 -0.344713 -0.231979 0.0707394 0.118575 -0.511381 -0.24599 -0.747194 -0.392811 -0.955637 0.886147 0.342839 -0.736559 -0.0694845 
-9.13679 -2.13554 -9.19075 -1.2077 5.59258 -6.84207 8.9787 -0.0318251 -2.11349 10.5828 -4.3691 3.33271 11.0837 -0.0155069 0.263708 0.52297 0.931997 1.38666 2.52519 0.326234 -1.52492 -1.65156 -0.43863 -0.952012 -0.82311 -0.0237675 
-10.0068 -1.26727 -7.96677 1.17461 5.49366 -5.15919 5.0426 0.292956 -5.71186 6.11405 -7.7399 4.389 11.1227 1.27549 1.49835 3.40377 2.149 0.94751 2.84118 -1.61986 -1.75017 -1.66447 -2.07835 -0.524292 -1.1912 0.296359 
-8.58136 -1.90579 -5.53374 0.571808 8.64747 2.69929 7.88864 -0.764685 -4.28644 3.59125 -10.0438 3.87209 11.1604 2.18339 2.16742 6.88195 1.08878 -2.07074 3.83 -4.35398 0.0891688 -0.0729411 -5.58191 1.02284 -0.751053 1.37865 
-3.47632 5.1439 5.40034 5.03893 5.99653 3.65056 -0.349045 -2.50541 -2.48887 -3.12483 -9.13606 2.19121 12.6341 2.2933 3.74276 7.56311 -0.187205 -3.97784 2.47983 -5.19935 -0.409856 0.450618 -4.82332 2.60563 -0.997866 1.8465 
-1.48508 5.496 18.5355 2.30403 -5.01255 7.90306 -10.0954 1.8132 -4.08969 -12.7074 1.44319 0.676333 17.2213 1.47772 3.37548 6.18793 -0.452444 -4.27547 0.315739 -5.19126 0.572339 -0.859615 -3.23166 2.42218 -0.856927 1.74609 
-2.08843 13.7457 17.8142 -0.627531 -7.56551 4.63809 -11.9621 -3.04526 -3.55714 -9.85322 -0.455233 0.997542 17.3247 0.589782 1.1975 2.05267 -0.191128 -2.34212 -0.716475 -2.71058 0.144993 -1.45432 -0.0371765 1.6023 -0.479213 0.93912 
-1.88673 10.6707 19.199 1.14282 -5.94888 3.78422 -12.2611 2.36694 -8.05038 -9.20285 -2.2733 0.184287 17.5456 0.505305 -0.285389 -0.730488 0.58899 0.35005 -1.03635 -0.908614 -0.0722995 -1.18375 1.53921 0.180896 0.0525435 0.0418909 
-0.32659 8.54404 15.3319 4.6639 -5.2459 2.1276 -12.8191 -2.05731 -7.78016 -5.06297 0.733663 0.0411696 17.1676 0.47712 -1.83863 -0.660922 0.791076 0.583871 -0.470057 0.197505 0.782178 -1.16506 1.14206 0.58186 0.53524 0.0496433 
0.160522 6.66986 16.1241 2.60326 -4.4221 3.97658 -14.21 0.957727 -7.89694 -7.40644 1.75322 1.41724 17.5093 0.194887 -1.1568 -0.725131 0.363377 -0.43342 -0.387462 0.390971 0.389091 0.0383828 0.349472 0.468059 0.256767 0.0982687 
-0.72646 6.55293 16.047 2.59763 -5.40955 2.19162 -10.0002 1.57023 -9.45916 -5.04111 0.440808 3.05727 17.5911 0.0634847 -0.878787 -0.210686 -0.0951444 -1.3648 -0.621875 0.953575 1.0568 0.126733 -0.793187 -0.216832 0.0700073 0.161091 
-0.712358 5.88226 15.2158 3.99284 -8.03416 1.8149 -11.7157 2.49862 -7.01896 -7.46642 0.213422 -0.0399265 17.8252 0.380727 -1.01363 -0.359401 0.0875507 -2.26894 -1.04887 0.913715 0.0203491 0.485375 -0.326983 -0.675555 -0.525051 0.130419 
0.427274 4.54391 14.7327 3.49339 -10.2639 0.0990694 -9.29833 2.45622 -7.58548 -8.99891 0.419399 1.11979 17.8151 0.931403 -1.42247 -0.597344 0.0750612 -2.55572 -1.02058 0.94132 -1.01842 0.981212 -0.702346 -0.522275 -0.197857 0.139367 
1.48729 2.60623 14.9843 2.59314 -13.3397 -0.221515 -9.99233 0.61648 -6.40691 -7.06245 -1.61385 -0.239278 18.0494 1.20582 -1.41194 -1.12871 0.39549 -2.40197 -1.37875 1.40855 -1.69451 1.12044 0.00511274 0.412755 0.292123 0.190351 
2.83073 1.07858 13.176 3.67278 -15.5354 -1.89307 -6.15526 -2.5808 -4.85913 -8.75483 -1.25693 2.16766 18.1758 1.40213 -1.5184 -1.93246 0.660663 -1.23773 -2.2043 0.584209 -1.42599 0.66503 0.814028 1.36054 0.31584 0.303371 
4.11502 0.555244 10.3506 5.88059 -17.4082 -4.08278 -6.24451 -3.45542 -2.77993 -7.56289 3.11536 0.896756 18.5966 1.34474 -2.23645 -3.18471 -0.0802159 -0.335684 -3.08583 -0.457581 -0.179352 0.661465 -0.381559 1.46683 0.689396 0.453553 
6.12407 -2.0226 7.38722 5.15298 -14.4182 -8.99182 -8.25119 -2.63777 -6.07382 -4.67855 4.85748 2.13097 19.0584 1.0775 -2.34829 -3.96077 -0.989395 0.648896 -2.33384 -1.47216 1.31181 2.18775 -1.16556 1.0656 0.0779052 0.499556 
6.56433 -7.02546 1.95513 1.45196 -15.5767 -12.1013 -11.2323 -0.251796 -2.49223 -11.0084 2.6631 3.22604 19.8759 0.594973 -1.89097 -4.27417 -1.80519 1.81815 -0.33322 -1.58553 1.65375 3.40582 -1.73119 -0.304428 -1.32552 0.300665 
6.99356 -6.8725 -2.43012 0.940125 -13.2067 -9.55301 -11.0222 2.37645 5.93576 -12.8599 4.29721 1.39254 20.0339 0.271195 -0.784993 -4.05131 -2.03905 2.15925 1.81156 0.00728474 -0.339753 4.24525 0.0158232 -0.457462 -2.82171 0.0648617 
6.65514 -6.47465 -6.11159 -1.03892 -8.92326 -5.46828 -12.7866 2.30622 8.24438 -12.1282 1.87335 -5.36162 19.6121 0.281148 0.325145 -3.54115 -2.03659 2.85336 2.84702 0.996998 -2.07699 2.29101 3.15382 0.387491 -4.19347 -0.0716114 
7.43464 -6.22297 -8.83595 -3.79683 -6.94869 -3.25052 -7.43758 -5.61554 9.78413 -4.03954 2.96504 -7.68375 19.5145 0.37932 0.421647 -2.66944 -2.54237 2.55793 2.78523 0.954327 -2.06028 -0.635519 4.83177 0.861637 -3.70788 -0.00586643 
7.74953 -5.7245 -12.5477 -6.36249 -4.43889 -1.01743 -8.03959 -6.64077 7.03861 0.350541 5.26664 -13.2032 19.7775 0.257748 0.64003 -1.83109 -2.21142 1.13462 2.32823 1.15698 -0.733701 -2.36177 4.24109 1.25779 -1.66395 0.108434 
8.34296 -5.13934 -12.5592 -9.10992 -2.65924 2.14771 -8.62409 -3.45143 3.36106 5.05964 6.90875 -13.2261 19.9219 0.129103 0.392971 -1.16323 -1.3128 -0.544913 1.72346 0.471405 0.205086 -2.61673 1.74603 0.675007 -0.436254 0.123907 
7.48971 -3.81631 -13.4054 -9.43948 -5.39487 3.47377 -6.40847 -2.44434 -0.352906 4.52766 6.19047 -10.9102 19.9506 0.0718277 0.131722 0.0331285 -0.743629 -0.922602 1.13022 0.81342 0.176346 -1.69787 0.45203 -0.005546 0.734399 0.0627676 
8.21007 -5.21221 -14.2233 -8.82234 -9.19527 3.1212 -5.89611 -6.68832 0.396222 2.60204 5.87816 -11.0115 20.0475 0.025464 -0.293764 0.708845 -0.611015 -0.594844 0.122156 0.441278 -0.53098 -0.629444 -0.504776 -0.337719 0.32255 0.0166134 
8.17512 -5.02946 -11.5501 -10.2244 -5.78389 4.14694 -5.33647 -4.1406 0.0316682 3.8395 5.75421 -10.6385 20.0285 0.153413 -0.595236 1.42477 -0.155761 0.277485 -0.0574041 -0.611719 -0.559532 0.826221 -0.335961 -0.395133 -0.0542044 -0.0084177 
8.12758 -6.00159 -9.94268 -11.7725 -5.43895 2.4219 -6.9537 -5.2582 0.021549 2.87985 5.43829 -11.7492 19.966 -0.0401941 -0.616137 1.7632 0.545213 1.02693 -0.337477 -1.33398 0.0449918 1.21994 -0.0358468 -0.597939 -0.234392 -0.00691013 
8.29802 -6.3978 -8.42185 -8.74319 -5.8856 3.53639 -8.93827 -5.95706 3.96553 2.70895 4.43474 -10.8124 19.9493 -0.174072 -1.07881 1.37174 1.80081 0.289025 -1.87504 -1.63516 -0.528615 1.63231 -1.52116 -1.23886 -0.370159 0.00587883 
7.94764 -7.60872 -6.97135 -6.83689 -4.00975 1.73908 -10.7651 -5.55513 4.52901 2.98808 3.5482 -12.0965 20.0526 -0.271874 -1.04404 1.91727 2.87988 0.027779 -3.1927 -0.46939 0.227282 2.25611 -3.9088 -1.00369 0.5895 0.0382715 
7.39473 -9.61993 -6.17704 -3.68819 -5.05337 -4.88685 -11.6066 -6.6352 5.9395 -3.82043 0.504973 -12.3156 20.0146 -0.421805 -0.983343 3.06252 2.86999 -0.630326 -4.24134 0.748484 1.33601 0.813658 -5.77052 -0.331306 1.5584 0.063209 
7.21986 -9.61072 -1.47872 0.0993752 -5.71617 -9.32998 -7.9665 -3.78272 10.3151 -13.3995 2.38472 -8.05009 20.1247 -0.38301 -0.639597 4.29278 2.90743 -2.4765 -2.81994 1.33143 1.8471 -1.53198 -5.59292 0.381037 2.91484 0.0985779 
6.55289 -10.3135 4.14442 2.13861 -8.18402 -12.1358 -6.59515 -0.163233 5.14076 -17.9499 3.35994 -5.04359 20.2293 -0.659681 0.313128 5.20079 2.12636 -2.73957 -0.50786 1.99519 0.931305 -3.42128 -2.65795 0.961616 2.9985 0.132618 
6.45351 -10.4599 9.3318 4.78687 -14.8269 -8.73617 -6.61365 0.444402 -2.73152 -17.9118 4.0259 -1.1583 20.4382 -1.10463 1.27772 4.72446 1.1762 -2.1565 1.86574 1.53613 -1.12855 -4.05019 0.1801 -0.340715 2.27557 0.0367901 
4.47949 -7.62969 14.4217 4.59987 -14.1958 -7.72305 -2.30703 -4.09224 -4.64356 -14.854 4.49247 -0.768998 20.521 -1.28595 2.3808 3.66121 0.479261 -0.39019 3.46094 0.945847 -2.11132 -2.35551 0.897378 -1.25096 1.63309 -0.169494 
2.7334 -4.56402 17.0049 4.74973 -13.4928 -2.20765 -2.42991 -7.46098 -5.04364 -14.0469 0.114888 1.19047 20.1628 -1.20238 3.11295 1.87029 0.310781 1.64157 2.91687 0.476594 -0.86971 -0.771475 0.658466 -1.81942 1.04039 -0.439681 
1.98318 -1.35748 18.6139 4.55348 -10.8021 1.90467 -3.95778 -6.76713 -5.48072 -15.3955 -0.939375 1.9475 19.5195 -0.751798 2.8826 0.381812 0.225956 2.35656 1.32228 0.089227 0.962488 -0.721551 1.21014 -2.10841 0.595525 -0.595269 
1.68976 1.96874 16.5871 6.36397 -8.31595 1.0343 -3.40531 -2.56671 -6.17032 -14.3487 -2.35528 2.68538 18.7405 -0.181459 2.51665 -1.01863 0.145036 2.45241 -0.505137 0.745015 1.47575 -1.02912 2.93426 -1.42916 0.117978 -0.639716 
1.24232 3.51691 16.5396 4.92253 -5.00144 -2.73265 -1.37319 -1.72694 -7.68798 -8.65236 -4.81452 1.46117 18.2558 0.270754 1.65475 -1.40503 0.286884 0.709169 -0.895667 1.18055 0.821466 -0.52437 3.32195 -0.197027 -0.739869 -0.520459 
2.19653 5.58203 12.9489 5.29038 -4.13101 -2.41468 0.00287056 -2.60231 -9.08564 -2.74716 -5.09336 2.02352 17.5961 0.435214 0.777717 -0.816358 -0.314231 -0.501845 -0.118525 0.776237 -0.0572834 0.0998506 1.44535 1.77494 -0.652677 -0.251696 
3.08357 5.10963 13.4078 6.52469 -9.34868 -0.849176 0.240873 -2.64199 -6.64491 -4.58649 -0.555472 -1.42091 17.4894 0.636282 -0.162018 0.018223 -0.108655 -1.44318 0.0235856 0.034289 -0.164383 0.311453 0.00489845 2.70007 -0.209542 -0.0388962 
2.94521 5.06096 14.0712 3.99173 -8.65155 -0.500064 -0.331158 -2.3956 -6.1926 -9.15492 4.38989 0.863039 17.8652 0.752184 -1.47346 0.782227 0.192555 -1.44147 -1.37284 0.00458689 0.249429 0.199652 -0.804925 2.94129 0.324376 0.200397 
4.04939 2.96736 16.0696 5.02858 -9.95707 -3.57203 -1.03474 -2.65221 -7.57724 -5.42398 3.9442 0.993701 17.9267 0.897824 -2.34604 0.127028 0.112714 -0.858156 -2.17953 -0.703786 2.34273 -0.375941 0.393468 1.26273 1.69969 0.315313 
5.47454 -0.714152 15.5292 7.00121 -11.0342 -7.91743 0.66361 -1.35006 -7.62122 -6.35304 7.36328 2.43809 18.3794 1.11727 -2.6181 -1.42798 0.155814 0.248581 -1.39956 -2.17265 3.09046 1.43917 1.3294 0.141813 0.788587 0.159845 
6.30802 -3.73301 13.314 5.58352 -12.4482 -8.03812 -3.77544 8.54888 -7.81031 -4.02009 4.27147 6.29 18.8089 0.717476 -0.996372 -3.40616 -1.05874 1.84608 0.35542 -2.84415 1.85493 4.00314 1.38048 0.404022 -1.17362 0.0106964 
7.40227 -4.67935 8.30915 4.49333 -6.1631 -5.26484 -9.82408 7.45615 1.11977 -3.20988 4.93531 2.15783 18.2233 0.507569 0.372111 -4.19416 -2.67971 3.25987 1.90182 -2.8671 -0.393891 5.55809 2.18699 0.576581 -3.22104 -0.124559 
6.67291 -0.0319023 2.64885 0.988833 -3.16221 -3.12123 -10.0116 2.21932 8.06796 -0.0931745 7.17829 -4.73424 18.0582 0.443977 1.25216 -4.52612 -2.62202 3.64414 3.1437 -0.294131 -3.59715 4.10819 2.58658 2.14084 -5.07704 -0.256983 
7.82994 -0.704152 -0.109038 -4.09999 0.622218 -0.866789 -10.5538 -0.154734 12.2301 2.61847 8.79277 -8.15498 18.1319 0.341465 0.93965 -3.58407 -2.68434 1.95617 3.94661 1.40891 -3.21525 0.701518 2.70664 2.61516 -3.61005 -0.11926 
8.31407 0.54021 -5.10752 -3.22992 2.37987 5.48135 -4.88123 -5.63141 7.17546 5.99865 13.0469 -13.9388 17.5697 0.541846 0.274784 -2.63051 -2.07169 0.649784 4.20973 1.99726 -1.94798 -1.7383 2.25251 2.02351 -1.63676 -0.100386 
8.28902 -0.267159 -5.73304 -6.81899 0.846702 10.1669 -5.34475 -4.69475 5.07361 7.27742 15.0768 -11.2902 17.8713 0.299574 0.742471 -2.01771 -1.47587 -0.618617 3.42427 2.4402 -1.07819 -2.26071 0.792411 1.13025 -0.0192543 -0.110082 
9.1526 1.12352 -7.69172 -8.01013 -0.0255318 12.4106 -2.62987 -5.25058 2.95468 8.83992 14.1538 -11.3505 17.6866 0.285578 0.5967 -1.17897 -1.85753 -0.737703 1.48549 1.40069 0.12298 -0.817088 -0.033985 -0.52085 1.85339 -0.0812519 
8.90855 2.71655 -8.90549 -9.08922 -1.26817 12.7899 0.52149 -5.73612 3.03693 5.15989 13.8906 -9.54542 17.523 -0.071939 1.04591 -0.981605 -2.47328 0.0160034 0.552394 1.42166 -0.151928 -0.876958 0.603502 -0.882535 1.12545 -0.186017 
9.43219 2.03186 -9.41613 -11.3824 -0.251213 11.5973 -0.810902 -4.49582 4.10835 6.88749 11.0358 -5.54423 17.3376 -0.467081 1.34832 -0.445974 -2.23435 0.408233 -0.0553263 1.89563 -0.127348 -0.316842 0.740568 -1.43852 1.80992 -0.368352 
7.78953 4.5082 -9.77885 -17.4992 1.03956 13.3355 0.854058 -5.83177 0.111981 11.2711 12.2231 -8.56601 17.1158 -0.455798 1.32262 0.0495957 -1.33123 -0.776744 -1.4006 1.56092 0.537624 0.684333 -0.0266335 -1.69314 1.66783 -0.468138 
7.37671 6.96929 -9.48491 -14.9769 0.861769 11.8611 6.68201 -5.8395 2.83295 9.48713 7.79496 -2.79058 16.0485 -1.59397 0.877739 -0.00861149 0.817891 -0.26871 -3.87201 1.92397 1.51862 2.42049 2.03167 -1.96498 1.95112 -0.969956 
7.6573 6.86093 -8.62313 -13.9482 -5.70838 5.65504 4.57961 -2.37617 7.0963 3.7269 7.04533 -2.58308 15.8269 -3.38727 -0.780784 0.497139 2.99813 -0.00507755 -5.53582 0.874468 1.62542 2.17596 1.57745 -3.39121 2.55669 -1.42348 
1.52846 5.24419 -10.0371 -9.06851 1.7792 -3.92252 6.94619 1.36948 12.7186 20.818 3.79981 1.21992 13.1322 -4.41143 -1.60275 0.350809 3.95239 1.72048 -4.41755 0.353711 2.49643 -0.519278 -0.454848 -3.01041 2.22627 -1.35161 
-6.22268 1.46683 -7.01709 -5.46276 0.555454 -6.45174 5.09431 -1.30916 6.04893 13.4929 -2.73531 2.21222 11.4565 -4.41268 -1.82339 0.0593713 2.91418 2.47992 -1.70711 -0.511547 1.15815 -1.45569 -0.0871089 -2.83343 2.3923 -1.0527 
-7.74045 1.65261 -8.53388 0.542387 6.33223 -4.17321 8.19322 6.10913 0.760243 2.32987 -2.36677 5.94311 11.4756 -2.18689 -1.28569 0.0796801 1.62411 1.77185 1.09608 -0.0547349 0.796286 -2.51743 -3.20617 -2.51136 1.08432 -0.378663 
-9.77163 -0.460216 -9.07786 -4.18273 4.4147 -2.75519 1.39836 1.04475 5.79708 12.5354 -4.03855 7.01682 11.3917 -0.355819 -0.900691 -0.254071 0.901616 1.82968 1.19193 0.422138 0.592207 -1.23632 -0.947534 -2.56294 0.156499 -0.0415221 
-7.6315 -0.220715 -8.60827 -1.58796 8.70882 -0.290377 8.52049 4.17395 0.257445 5.26591 -8.10536 4.23919 11.2713 -0.0758146 -0.668964 0.0480232 0.251821 1.09859 0.746952 0.977204 -0.598535 -0.822625 -0.451858 -1.72062 -0.618572 -0.0191229 
-8.05625 -2.09996 -8.25025 0.110496 8.51558 -2.43352 7.04136 2.61947 0.118744 7.28726 -12.6807 3.84667 11.3511 -0.0695385 -0.451898 0.307594 1.00971 0.776893 -0.723663 1.11448 -0.22521 -1.06481 -1.45903 -0.409005 -0.424833 0.0406223 
-8.97722 -0.872338 -8.70757 -0.345124 9.77473 -0.599289 10.2577 2.3291 -0.513716 2.69465 -6.64881 4.43532 11.4003 -0.146304 -0.242953 -0.285459 -0.309047 0.22089 -0.422342 0.0676946 -1.25369 0.438126 -0.354632 0.872111 0.845104 0.00845833 
-9.44647 -2.3939 -7.49024 0.244386 7.7662 -6.21905 6.10213 0.841132 0.858619 6.5259 -6.81185 4.79459 11.5303 0.00639439 -0.287332 -0.681257 -0.865806 0.825973 0.515502 -0.568744 -1.81815 0.266583 -0.154897 0.887213 0.308239 -0.0355441 
-7.66791 -1.28851 -10.4156 -3.20014 10.188 -0.509321 9.32858 -1.20532 2.07814 3.87343 -6.67922 7.99075 11.224 0.198563 0.243626 0.0920582 -0.332972 -0.198933 -0.249622 -1.42591 -1.69036 -0.423673 -0.340589 -1.01702 -1.15361 -0.0622987 
-8.67893 -3.32853 -10.8025 -2.79102 12.4388 0.0990112 4.66223 -4.70405 0.155734 5.92339 -8.22942 3.61015 11.2615 -0.0959959 0.230637 0.198018 0.284542 -0.0160195 0.219762 -0.0272653 0.251729 -0.587781 -2.23459 -1.22025 -0.553623 -0.0776635 
-8.36817 0.813111 -6.59113 -0.49228 6.44375 -5.00643 3.84814 -3.35012 -2.28064 1.29296 -11.0251 -0.740528 11.2232 -0.336971 0.166519 0.679862 1.19786 1.02708 0.148705 -0.0765879 1.71278 -1.59039 -0.945395 -0.266646 -0.925669 0.00768223 
-9.57632 -2.29152 -8.41237 0.313167 9.55821 -2.87169 8.70603 3.17218 0.0991045 -3.35682 -10.7402 6.39211 11.1424 -0.252021 0.129247 0.577168 1.00739 0.810493 0.275907 0.255168 2.17495 0.0763728 -0.09238 2.06981 1.47431 0.0302018 
-8.90407 -0.97442 -8.21134 1.23708 16.7637 1.71956 6.92374 3.42047 -5.84548 3.78656 -6.75708 1.97142 11.322 -0.0922256 -0.0259784 0.357272 1.01139 1.40145 1.60037 0.254559 1.69801 0.606746 1.65949 3.9659 2.1191 0.0576421 
-9.67108 -1.78853 -7.10659 1.38123 11.3313 -1.88445 4.40027 2.78541 2.32002 4.21469 -0.0143576 9.62572 11.3632 0.493711 1.211 1.86147 1.1336 0.25205 1.53237 1.16848 1.95316 2.8798 2.28163 3.252 1.18912 0.0358882 
-8.78191 0.431725 -5.45766 4.03064 12.5644 2.50182 7.27381 5.33331 -0.357367 5.80466 3.44148 8.23816 11.401 0.769167 1.21427 2.21932 2.28928 1.05039 2.05773 3.7974 2.3628 2.64638 1.35948 0.156397 0.685153 0.0268174 
-7.16884 3.06039 -0.481863 4.58439 12.9181 4.39902 14.3734 11.9816 11.7541 7.04226 0.420549 9.20434 11.2823 0.896737 1.02294 1.60679 2.6545 2.60777 2.81901 4.54949 1.55348 -0.372014 1.16149 -2.05077 -1.08225 0.0273022 
-6.30936 2.67247 -0.42712 11.0819 21.2223 8.86646 20.9242 10.6364 2.66942 9.17019 -6.19255 5.60788 11.4965 1.26511 1.34325 1.31907 1.16365 1.39648 1.39914 2.11437 -0.0769076 -1.7709 0.347472 -2.45024 -1.10033 -0.00100241 
-6.42367 2.2058 -1.58791 11.1281 20.0413 9.02827 20.3225 7.90127 -1.05345 8.33939 -5.45121 5.52959 11.4519 1.02316 0.926729 0.178905 0.454413 0.564698 0.254377 -0.0648154 -0.38363 -2.26798 -0.811257 -1.1048 -0.652015 -0.0295156 
-2.82897 7.57525 1.69069 6.57703 15.9852 7.1829 14.8711 6.98892 -2.80809 6.89346 -5.87384 4.57391 11.3112 0.485631 0.442921 0.390753 -0.750324 -0.978666 -0.730347 -1.75064 -0.502829 0.449643 -1.41057 0.319818 -0.143754 -0.0953299 
-3.79324 5.24265 -0.646243 9.1089 18.3601 6.51269 17.0758 11.8871 3.1529 4.12434 -5.26279 6.46125 11.2273 0.0897122 0.328953 0.484129 -0.133283 0.188602 -1.04206 -1.32958 -0.291557 1.45594 -0.391263 0.440163 0.614616 -0.0328541 
-5.19642 3.36866 1.05581 8.33987 17.1695 6.47251 13.7943 6.12929 2.81446 4.22488 -4.68767 4.42328 11.1321 -0.288417 -0.40509 0.144997 1.06035 0.759326 -0.0383255 -0.381886 -0.082818 1.85677 0.946491 1.60695 1.29512 0.0645174 
-4.79139 5.95387 1.15018 9.58024 20.3921 4.17317 14.213 6.87331 3.415 7.71737 -3.84348 8.67799 11.3772 0.146697 0.172862 0.478908 0.837169 0.240774 0.49852 -0.476677 -0.265833 0.991389 1.70146 1.95669 1.24776 0.108971 
-3.77198 5.19419 1.51747 11.6431 18.7658 8.16103 14.3931 9.08175 6.34472 9.82939 1.45123 9.94114 11.5588 0.386829 0.28914 0.129061 0.866937 0.156626 0.73649 0.137756 0.811338 0.999024 1.33211 1.75725 1.22989 0.103506 
