-6.8515 -2.08966 -6.6533 3.14784 2.44311 1.0979 9.71645 3.06819 2.47654 7.86201 -5.03657 3.69729 11.2987 -0.220323 -0.228194 -1.20657 -1.21097 -0.888653 -0.11316 -0.551999 -0.854115 1.60602 -0.543712 -0.0338677 -0.276969 -0.0420249 
-7.24222 -2.70689 -9.21573 1.44188 2.34093 2.84724 9.32114 2.49057 6.24893 6.84881 -3.23543 5.23179 11.1551 -0.337617 -0.29564 -1.54082 -1.63384 -1.07871 -0.857699 -0.413869 0.804283 2.06689 -0.275258 0.694835 0.132963 -0.0333825 
-7.75775 -2.92202 -11.4049 -2.05401 -1.94907 -0.342578 7.15411 -0.913575 8.62047 5.65005 -6.10648 1.5452 11.1604 -0.189134 0.015907 -0.310638 0.0716327 -0.188153 -0.771591 0.694166 1.86001 1.73693 0.450663 -0.0580256 -0.137554 -0.0203552 
-8.08646 -3.15169 -11.9816 -2.42042 -0.754369 -2.47036 8.92827 9.08049 9.73901 7.5917 -1.02744 5.43816 11.2009 0.139831 0.592196 0.111579 1.03056 0.783343 0.913707 1.27113 0.933063 0.750743 1.71914 0.461141 -0.135516 0.0339353 
-7.37505 -1.78773 -6.82356 5.43716 3.04999 -0.101254 13.3837 9.07327 9.41615 9.74389 -6.43069 2.90634 11.174 0.330917 0.871512 0.660467 1.2868 1.41517 1.93993 0.573057 1.29325 -0.349951 0.128143 1.12871 0.385863 0.0603888 
-6.73442 -0.313057 -10.9485 2.84907 3.75811 7.29512 12.562 2.16247 9.6048 13.3976 -0.767619 3.87364 11.318 0.50207 1.00713 0.748861 0.632505 1.41617 2.28436 -0.990615 -0.832503 -2.0198 -2.01631 -0.471763 0.141288 0.0744111 
-6.77919 0.0162253 -8.61914 1.74525 2.87056 4.47432 8.20253 9.01167 6.93782 3.38782 -0.592856 4.25677 11.4038 1.03618 1.90031 2.25021 0.981567 0.984677 0.941107 -2.19968 -1.6945 -3.03289 -2.94513 -1.45253 -1.01943 0.0664745 
-5.87404 0.981986 -7.33949 2.58805 6.4162 6.66364 6.56579 4.94877 0.879175 0.688189 -6.30517 5.46938 11.4581 2.11652 2.70985 4.09995 2.21064 0.950406 -0.82675 -1.57392 -2.8405 -3.22701 -2.85035 -3.27362 -0.97934 0.11771 
-2.62436 7.06632 2.62296 10.4755 6.64433 4.92002 5.38341 -0.792385 -1.3855 1.37293 -10.9245 -2.98871 11.4363 2.54739 2.14919 1.27807 1.95666 2.57552 -0.160462 -0.160019 -4.5831 -2.6166 -0.759928 -2.32984 -0.530506 0.42148 
1.77078 9.71113 3.93015 9.53714 6.62325 2.93852 6.10197 -7.13802 -2.36859 0.15332 -11.9699 2.59968 11.8903 2.46159 1.34585 -0.862535 1.10835 2.59957 -0.619867 -0.833916 -3.72934 -1.73876 -0.792973 -0.438839 0.877489 0.86452 
2.13535 6.3976 -7.86362 8.05402 15.6446 5.53457 7.63434 -7.86045 -4.52129 -0.144381 -9.40972 3.0391 13.2951 2.44503 -0.4172 -0.685722 0.0355158 1.4406 -1.46352 -3.2309 -1.47065 -0.745937 -1.52298 1.66946 2.64724 1.09782 
4.05407 8.04559 -6.40888 9.34052 14.9139 3.25703 1.27074 -10.1639 -6.24672 -2.51802 -9.25678 6.84292 14.8513 2.25706 -1.1868 1.32723 -0.125783 -0.0898039 -1.93629 -5.25739 0.348872 0.0363517 -1.91962 2.5393 1.15464 1.13813 
8.45915 5.81309 4.36386 10.7514 9.70199 -2.55684 -8.35546 -6.63269 -3.17612 -4.90632 -3.93376 8.12589 15.4449 2.26068 -0.965553 3.31312 -0.647211 -2.1005 -2.03885 -5.37265 0.595409 0.300045 -1.69232 2.63375 0.0515362 0.897794 
9.89419 4.0694 4.45254 7.55954 9.14554 -2.69721 -12.1901 -6.00754 -2.85942 -7.0638 -2.01132 5.82947 16.506 1.37392 -1.21543 1.97073 -1.65983 -1.61914 -1.2669 -2.51165 0.426909 0.367221 -0.83739 3.03762 -1.50721 0.616585 
10.5187 3.55793 3.27127 5.70845 8.02627 -1.68253 -12.4985 -6.96158 -4.71472 -6.33312 0.13632 3.8035 16.9567 0.296015 -0.769745 -0.372628 -1.9294 -0.937295 -0.509939 -0.0618898 -0.509683 -0.398392 0.023857 2.1102 -1.39481 0.499214 
9.89392 3.09602 3.99104 3.56285 7.65606 -3.51464 -9.21599 -7.8649 -3.64132 -5.99158 3.89629 1.46809 17.1783 -0.104029 -0.284935 -0.804043 -1.55666 -1.17623 -0.489243 0.944116 -0.357083 -0.506129 0.17497 2.48512 -1.28804 0.339934 
9.93936 2.45106 2.73147 3.10274 5.76026 -4.69782 -10.1519 -8.25242 -4.77713 -5.32315 3.66342 3.33251 17.6048 -0.190146 -0.128944 -1.04848 -1.39528 -1.07637 -0.764466 1.08594 -0.000311852 -0.966548 0.73627 2.57677 -1.23199 0.304444 
9.6637 3.19816 0.702224 1.07911 4.39738 -3.63578 -8.64277 -7.14753 -5.35885 -6.69394 8.65075 -0.375249 17.8816 -0.09283 -0.218897 -1.49865 -1.12967 -1.29096 -0.421834 1.04965 -0.491939 -0.870334 1.40593 2.09076 -1.07259 0.287609 
9.68306 2.86213 -0.326719 -0.0260801 4.27375 -5.4443 -7.35546 -7.32182 -8.68869 -2.30059 10.6429 -1.43476 18.1273 -0.290714 -0.536844 -1.33053 -1.53177 -1.17857 -0.492344 1.57116 -0.795269 -0.134349 1.87432 1.6074 -1.10715 0.290672 
9.55792 1.796 -1.97309 -0.521113 1.9445 -5.25057 -5.36597 -10.7899 -6.03721 -0.473222 10.8603 -1.51125 18.3551 -0.395112 -1.15565 -1.18102 -1.47172 -1.69951 -0.0762025 1.26227 -0.971392 1.14392 2.15588 1.01876 -0.786993 0.383132 
8.53868 0.467923 -2.58351 -3.75601 1.09383 -6.35214 -3.93451 -10.4076 -5.1097 0.938095 10.5956 -1.63525 18.8214 -0.33746 -1.73827 -1.38717 -1.36126 -2.60178 1.09134 0.850617 -0.660298 2.64253 1.44349 1.09579 -0.574738 0.529158 
8.26034 -1.38297 -4.07447 -4.41452 -2.51021 -3.56287 -4.0419 -10.4616 -1.42874 2.46611 13.7682 -4.20997 19.4502 -0.0548223 -2.1273 -1.73485 -1.43507 -2.95854 2.04431 0.826191 0.667675 2.7635 1.21314 0.923917 -1.21543 0.625191 
8.64456 -4.23971 -6.2119 -4.8857 -6.50782 -0.831424 -3.76442 -10.7875 2.21973 3.44722 14.668 -2.95909 20.2255 0.0874899 -2.04981 -1.77684 -0.967822 -2.52533 3.21358 1.12305 1.42458 3.17147 0.339414 0.523945 -1.81888 0.524716 
9.23087 -6.48669 -8.83312 -7.13162 -9.04737 2.2106 -1.32006 -7.26158 4.11558 4.33794 13.4438 -6.92647 20.779 -0.0514047 -1.62605 -1.51681 -0.760289 -1.2155 3.1158 1.57013 1.26283 2.24381 -0.553724 -0.765986 -1.888 0.328881 
8.49086 -7.22926 -9.08838 -7.23657 -8.26422 6.829 0.319821 -4.8847 7.97552 1.69925 13.3776 -9.37142 20.7806 -0.39131 -0.996281 -1.16234 -0.669077 0.00952568 2.23258 1.87262 0.592684 0.825957 -0.638327 -1.73223 -1.95929 0.165717 
8.08016 -8.01846 -10.2203 -7.04052 -7.70952 8.18589 1.76663 -7.09883 6.91241 0.571476 10.5835 -10.4438 20.8171 -0.480818 -0.512905 -0.583173 -0.0366428 0.727339 1.38486 1.52706 0.115093 0.102876 -0.0491776 -1.51151 -1.18093 0.108692 
7.26336 -8.45523 -11.33 -8.27663 -7.12912 7.34383 4.05535 -7.90541 4.95109 2.13881 7.43695 -10.9969 21.0351 -0.386791 -0.482579 -0.547166 -0.208071 0.745734 0.134509 0.73043 -0.0608237 -0.348928 0.562611 -1.34369 -0.992485 0.140635 
7.44053 -8.43824 -10.6282 -6.7948 -5.97822 8.8775 4.44747 -5.17577 6.14217 3.87227 8.8565 -12.0184 21.1953 -0.411647 -0.38161 -0.290676 -0.220026 0.702297 -0.816696 -0.200838 0.579245 0.109145 0.86089 -0.991166 -1.44602 0.113263 
6.87672 -9.43227 -11.6203 -8.39979 -5.4012 7.15574 2.63155 -6.15035 6.616 2.86191 7.52264 -13.5465 21.2947 -0.319301 -0.172072 -0.0246419 0.0284882 0.473737 -1.45124 -0.901116 1.23707 0.561454 0.749582 -1.34435 -1.30802 0.00195427 
6.21525 -9.43799 -11.5285 -8.07908 -5.06199 4.19647 1.47434 -5.08013 6.62569 4.51438 5.58479 -16.3991 21.2536 -0.254536 -0.0572914 0.232455 0.301726 0.222495 -2.04049 -1.15758 1.54766 0.760398 0.513726 -1.67592 -0.974638 -0.0862061 
6.2795 -8.81571 -11.0031 -7.49205 -5.21855 2.42815 1.03633 -1.76785 7.5166 5.56567 2.35103 -15.3466 21.0157 -0.150403 -0.0918052 0.851289 1.10908 0.16399 -1.99172 -1.50955 2.47924 1.02226 -0.240877 -0.946981 -0.626747 -0.12328 
6.46646 -9.03297 -9.77448 -5.74004 -4.95707 1.03886 -0.542797 0.371299 9.49386 5.08902 3.0627 -15.9915 20.9037 -0.0856941 -0.0464344 1.65043 1.17667 0.152404 -2.40474 -1.41913 3.05382 0.557849 -1.67563 0.248712 0.548607 -0.159222 
5.9991 -10.0938 -8.24085 -4.02392 -4.63371 -1.22407 -3.90765 3.52012 10.2932 1.37021 4.04879 -16.884 20.8532 -0.311046 0.0700298 2.41388 0.922571 -0.00957918 -2.89242 -1.67262 2.87726 0.0491567 -2.65123 0.980187 2.09991 -0.137015 
5.92698 -9.03112 -4.6575 -3.92977 -4.59239 -6.00113 -3.14933 7.54499 8.02662 -1.76604 5.97948 -12.8873 20.5387 -0.425218 0.527681 3.28973 0.186049 -0.938829 -2.87863 -1.4737 1.27047 -0.854037 -2.44282 1.07205 3.46716 -0.150944 
4.99401 -8.46649 -1.49215 -3.78433 -5.44878 -8.51396 -6.02348 9.03158 8.49601 -4.26296 5.79358 -6.39922 20.5131 -0.412646 0.780701 4.26726 0.111078 -2.39926 -1.62069 -1.19224 -0.55598 -2.52857 -0.825072 1.08988 3.50286 -0.153671 
4.84291 -7.20823 3.29985 -4.92959 -9.24368 -9.70937 -6.8534 3.96794 6.12229 -4.30849 7.55056 -3.89815 20.3191 -0.866579 1.01365 4.75898 0.201626 -2.94338 -0.120928 -0.718787 -1.90712 -4.35898 0.0328192 0.203485 2.77691 -0.0285511 
4.4779 -7.10174 9.11677 -2.96862 -14.3044 -7.47341 -8.01682 2.52875 -1.39747 -1.48393 8.71264 -3.86432 20.1947 -1.29357 1.51764 4.70944 0.411512 -2.31812 1.03261 0.148118 -2.03497 -5.54009 -0.0155035 -0.708298 1.91039 0.0426733 
1.85214 -4.64523 13.833 -3.32949 -14.8815 -7.12604 -5.74659 1.26079 -8.82156 -2.99146 5.53737 -0.270257 20.5552 -1.52821 1.98415 3.84706 0.66665 -0.669173 1.74845 -0.23408 -0.882476 -4.66705 -1.27359 -2.00866 1.64491 0.0912344 
0.0215244 -2.15977 16.7885 -2.52682 -14.2205 -4.64259 -5.83629 0.210304 -11.7325 -4.999 3.25868 1.3388 20.6084 -1.41744 2.28448 2.9805 0.844455 1.18333 2.13243 -0.955955 -0.412014 -3.17975 -2.78393 -2.33542 1.46248 0.0143726 
-0.569972 0.241546 18.6993 -1.81724 -12.6315 -2.38252 -9.11407 0.714778 -12.0454 -8.9189 0.234222 1.72482 20.5684 -0.790702 2.0236 2.43463 1.01815 1.77209 1.99115 -1.6803 0.35125 -1.8008 -2.38854 -1.65901 0.739684 -0.260996 
-1.39826 1.87726 21.5861 0.497535 -9.51273 0.816981 -11.1129 0.741683 -15.6843 -12.4399 -0.312896 2.45054 20.26 -0.295777 1.88793 1.31435 0.0576367 2.16177 1.291 -0.396426 0.911007 -0.570207 -0.951915 -0.0677646 0.889024 -0.551751 
-1.39148 3.45425 23.6073 0.249089 -8.3749 0.0999289 -11.5098 2.75135 -15.8497 -11.2137 -0.971885 2.87229 19.4244 -0.151025 1.74749 0.47627 -0.360203 1.76761 0.397752 0.448649 1.33789 0.605033 0.259743 0.692878 0.937872 -0.673513 
-1.04661 5.67354 20.9062 -3.2718 -5.53996 0.571192 -6.62054 3.74705 -12.6814 -8.61115 3.52291 5.21018 18.4217 0.1108 1.30792 -0.270542 -0.64486 0.987549 -0.539709 1.09565 1.25867 2.04108 1.00899 0.608305 0.433098 -0.671901 
-1.50093 7.08087 21.4206 -1.73359 -5.77979 -0.270865 -9.11698 5.90152 -10.5217 -9.53455 1.78071 5.03436 18.12 0.112246 0.60812 -0.861671 -0.275833 0.81004 -0.542512 1.54261 0.605355 1.70076 1.0941 -0.0108812 -0.156695 -0.54714 
-0.789536 6.60353 21.3268 -1.73543 -5.87255 -1.69617 -6.83101 5.45996 -8.14287 -8.23454 1.35233 3.535 17.5527 -0.314537 -0.0999733 -0.657599 0.311007 0.753939 -0.132615 0.610175 0.394676 0.778101 1.09409 -1.15932 -1.11476 -0.379955 
-0.958783 6.02985 19.0887 -1.89826 -4.15841 -1.47895 -3.69155 4.92167 -9.61518 -5.93153 0.0589974 2.9264 17.1232 -0.618046 -0.535211 -0.837885 -0.100091 2.05614 0.0792465 0.223641 0.423153 0.1714 1.14178 -0.591461 -0.820781 -0.295825 
-2.89036 5.69918 18.7842 -1.63443 -2.58096 0.512161 -6.28238 6.21036 -9.24417 -4.94219 -1.41283 0.690368 17.0202 -0.586169 -0.15991 -0.916216 0.287501 1.96669 0.0769166 -0.448562 0.200445 -0.293571 0.953959 -1.09802 -1.37539 -0.407544 
-3.54075 4.85699 18.5024 -2.28454 2.8551 -0.978797 -8.27309 7.64209 -9.11403 -5.4718 0.205984 2.35277 16.907 -0.325801 0.088677 -0.333669 0.59302 1.45986 -0.22401 -0.834346 -0.64033 -0.217538 0.69249 -1.17923 -1.58697 -0.439585 
-2.4294 6.39041 17.0388 -0.104782 0.454129 -1.56166 -6.78304 5.10198 -9.8613 -3.69461 -4.21124 -3.05515 15.623 0.152626 0.368967 -0.371461 1.35111 0.461344 -0.321159 0.710385 -1.38589 -0.547449 -0.884799 -0.961737 -0.561246 -0.61603 
-2.81827 6.12762 18.293 0.302013 1.62336 -1.56209 -7.61295 2.27421 -10.3943 -3.09287 -4.43792 -3.13569 15.6239 0.340159 0.751015 -0.691655 1.55537 0.838872 -0.878673 0.624305 -1.53491 -0.52111 -0.24517 -1.16027 -1.98567 -0.639852 
-2.48847 6.9087 17.0316 3.82785 0.341631 -0.801987 -3.06053 1.96483 -11.3413 -10.5556 -3.89956 0.628372 14.5817 0.161052 0.581842 -2.36928 0.473079 0.791895 -0.234853 0.628952 -1.9289 0.582325 -0.353571 -0.569917 -0.172652 -0.729049 
-1.81041 8.35292 15.0478 3.52599 7.10571 -5.752 -7.01282 1.53612 -10.9796 -3.26713 -5.75122 -9.41733 14.2285 0.363852 0.290956 -2.71149 -0.414259 -0.0672917 0.125231 0.0388175 -1.80789 0.845621 -1.03392 -1.02099 0.193978 -0.662161 
-2.12807 8.18697 6.81504 0.648625 1.67244 -0.640972 -3.93835 -4.17346 -6.65704 -5.37534 -6.40417 -0.777588 12.6755 -0.231202 -1.25979 -4.22161 0.396077 0.0950381 0.735181 1.92659 -1.10528 2.71943 1.34853 -2.43088 0.357162 -0.727213 
-1.17921 6.94327 9.84386 -0.179667 0.621503 -1.01644 -6.97995 -3.69609 -8.50832 -10.8526 -8.29059 -1.46282 13.2662 -1.20986 -2.50661 -5.42556 0.791084 -1.32786 1.55352 3.69735 0.861449 4.45869 2.51929 -1.10734 2.94062 -0.693471 
-3.96008 1.31456 -1.47451 7.66107 4.05892 0.506141 6.55597 -0.945444 1.02025 -0.0202265 -14.7843 -1.56307 11.4268 -1.42282 -2.76406 -5.05577 0.676217 -0.691935 0.937786 3.17003 1.35218 3.90318 3.86284 0.914914 2.53252 -0.456132 
-6.94371 -0.743929 -7.93525 3.97519 -0.726819 1.44207 6.22679 4.22936 7.4752 6.65175 -7.09786 5.67852 11.3855 -1.43291 -2.36105 -4.9565 -0.297057 -0.296562 0.565857 3.00922 2.1637 4.2687 4.47987 2.5222 2.88339 -0.390771 
-6.35991 -1.78974 -9.57426 1.95228 -1.11308 2.8187 5.30843 -1.3753 4.86708 5.1867 -2.42597 8.31432 11.3352 -1.61113 -0.412294 -1.40056 -3.03692 1.53314 -0.885559 -0.305212 0.743432 0.894028 1.02638 3.18951 2.50003 0.361044 
-7.14386 -3.30984 -10.8888 1.18945 1.72469 0.656561 8.6899 7.33735 10.9118 8.94325 -1.85875 8.01543 11.3581 -1.76709 1.17101 0.983618 -3.46925 3.6392 -1.00355 0.474867 0.930848 0.522075 0.216234 1.02848 0.518182 0.755577 
-11.9157 0.536052 -7.00053 -6.13066 10.4989 -3.5289 3.79836 1.21772 3.77211 3.96595 -1.45628 9.76861 13.2457 -0.758012 0.555501 0.481854 -0.937672 1.69056 -0.974909 1.16003 1.20212 -0.470788 -0.276593 -0.467061 -0.297567 0.276085 
-13.0013 3.94824 -4.30402 -9.32961 11.6632 -0.40188 9.35616 7.58709 10.6331 8.3433 -2.44029 7.54229 14.2081 0.362413 0.340423 0.277621 1.2026 -0.24629 0.377979 0.357178 -0.556333 -1.86086 -1.93881 -0.483351 0.108101 -0.167166 
-7.22124 -2.64127 -10.4574 2.52345 2.37045 -1.52662 10.7755 4.51042 2.65249 4.10371 -4.4705 7.06306 11.2906 1.41674 -0.647179 -0.22411 2.76028 -2.11707 1.46994 0.183603 -0.443485 -0.840609 -1.05068 -1.21902 -1.4952 -0.60087 
-7.679 -0.0190654 -7.77224 2.87541 4.55744 1.54532 6.98723 2.90933 2.16726 -0.819695 -2.76839 9.90871 11.4998 1.0346 -0.898798 -0.765533 1.91763 -1.5183 1.42726 -0.851049 -0.530866 -0.140625 -0.203444 0.117438 -0.956889 -0.522176 
-7.4931 -0.716194 -6.38698 1.56823 3.46637 2.84721 5.90084 1.33917 3.80197 3.29404 -7.38734 1.10942 11.5955 0.0992355 0.0576527 0.0567295 -0.114725 0.321508 0.375898 0.124644 1.38071 0.939557 1.13728 1.80712 -0.879159 0.00819855 
-7.69238 -1.50829 -10.1669 0.736127 3.52378 4.54752 7.53823 6.51838 9.3552 7.73091 -0.394678 5.73467 11.4448 -0.0457987 -0.262988 -0.461816 -0.0826861 -0.44301 -0.756141 1.05018 1.49695 1.12411 1.47501 0.165863 -1.02508 -0.02396 
-6.71837 -1.60839 -8.97639 3.01947 4.49482 -1.14824 11.1232 9.60945 3.7563 5.51478 3.37826 4.75429 11.3591 0.00932198 0.163604 -0.217114 -0.0922263 -0.698437 -0.97901 0.115781 0.654895 1.60952 1.19238 -0.326104 0.294822 -0.0474765 
-8.29535 -0.887907 -8.78661 1.73637 1.82817 -0.237662 9.62698 6.25895 7.81062 5.44501 -7.32188 2.96087 11.4982 0.894107 1.26909 1.32304 0.265631 -0.786148 0.315082 -0.518074 -1.94154 -0.413074 0.018111 -1.2868 -0.496607 -0.0371869 
-7.145 -0.208364 -8.16268 0.60698 0.821991 0.344753 5.43537 4.74337 12.6219 10.3989 -5.55426 3.97042 11.3314 1.39585 1.71221 1.74227 0.820218 -0.0725738 0.779988 -0.680686 -2.40395 -0.81079 -1.17248 -1.94389 0.633473 -0.0138378 
-3.00853 4.13717 -3.95856 3.27052 1.42945 5.37644 7.79178 -0.756271 2.85705 5.37941 -2.36244 3.64356 11.2727 1.03244 0.466417 0.520697 1.0941 0.513909 0.272129 -1.3656 -2.00269 -1.7214 -1.69286 -0.77792 0.967203 -0.0285263 
-2.38252 4.4401 -2.67906 6.35348 4.33131 -0.0553474 8.63737 1.09732 2.17914 -0.314824 -8.8209 7.58031 11.4027 -0.168015 -0.734767 -0.624293 0.514558 1.01963 -0.0403747 -0.156987 -0.44434 -1.73357 -1.98651 -1.42939 -0.257263 0.0141315 
-5.5144 -0.880053 -8.92494 4.33363 2.64305 1.32303 1.19798 -1.93146 4.42498 2.33759 -9.57815 5.99194 11.32 -1.17968 -1.68352 -1.58067 -0.494988 0.874987 -0.418878 -0.0378923 0.974301 0.161697 -0.448223 -1.37343 -1.03377 0.0187271 
-6.73214 -1.37359 -8.80095 2.64822 5.31336 2.16958 7.94733 3.10926 3.17007 1.98725 -9.09335 1.50992 11.3784 -0.991699 -1.21209 -1.21198 -0.909594 0.463441 0.529641 0.536928 0.90646 0.0726948 0.425382 -0.00600781 -1.66228 0.00100822 
