-5.26553 3.66264 -9.43796 3.87452 -3.12655 -3.09661 5.08105 9.49759 8.95477 3.77853 3.68319 -1.72957 11.8033 -0.712364 0.151143 -0.78074 1.07462 2.67445 2.20872 2.46323 0.881341 -0.570716 -1.01526 0.280293 1.2757 0.241504 
-7.6462 5.30666 -10.3109 9.62269 3.93043 0.540359 10.6408 7.90598 4.73823 1.53007 3.56065 1.43487 12.6048 -0.574909 -0.0149081 -0.633342 0.325589 1.86648 2.46365 0.984606 0.147049 0.944011 -0.598393 1.25514 0.624038 0.208666 
-7.63701 3.59634 -12.9052 6.37354 6.7172 6.12849 14.6173 14.7001 8.20945 -0.173547 5.14593 3.06669 12.61 -0.291563 -0.0870302 0.254281 -0.174979 0.636323 2.34723 0.726183 1.31372 2.59625 1.20546 2.11107 1.21432 0.0426067 
-6.95433 3.62125 -10.8711 4.25295 1.28399 4.6091 5.23595 7.63158 14.0475 2.76261 9.22751 -1.00751 12.4432 0.157764 -0.457487 0.184729 -0.905688 -0.377188 1.19713 -0.802522 0.473511 1.13214 0.481341 0.79121 -0.237237 -0.0938685 
-7.06928 4.0702 -7.88648 5.68449 1.37829 6.60516 11.4144 16.2034 17.2814 9.18955 11.4051 5.56324 12.0971 -0.0940605 -0.229376 0.364591 0.35188 0.508576 -0.0775332 -1.65164 -0.837268 -1.35455 -0.850564 -0.59822 -0.903761 0.0178643 
-7.14125 2.7823 -11.8966 5.43877 4.71394 6.28768 8.22963 9.5219 5.86296 -0.744771 4.38711 -0.999586 12.3919 -0.0421972 -0.0661063 -0.106483 0.490353 0.517938 -1.37401 -0.803931 -2.10681 -2.92821 -1.65561 -0.756991 0.474201 0.033726 
-8.01385 2.86893 -10.5695 7.54003 7.54511 4.90154 4.86225 9.56861 5.52898 -2.67267 4.57503 -1.45608 12.725 0.553493 0.156246 -0.323906 -0.00797396 -0.736972 -1.76223 -1.38541 -3.3897 -2.22168 -1.07097 -2.15256 -0.538736 -0.0366877 
-6.69303 3.89135 -10.062 5.77694 0.790265 -1.40912 4.49236 0.414894 5.28261 0.415689 8.85759 4.87316 12.2979 1.47358 0.579859 0.459948 0.414888 -1.13752 -1.22787 -1.02451 -2.23548 -0.220413 1.83976 -0.540543 0.364979 -0.187757 
-4.52593 4.2969 -10.4233 5.47554 -0.344733 1.64243 6.35598 3.80838 6.46317 3.25445 -1.59291 -0.0668144 11.9606 2.62582 0.766457 0.914919 0.817675 -0.415801 -0.0900309 -0.764594 -1.61146 -0.288335 1.20883 -0.847223 0.159425 -0.162097 
-1.51729 4.96761 -9.66994 8.54546 2.97128 1.77787 2.36023 1.22462 4.2938 5.49046 4.76836 0.130677 11.8353 4.58728 -0.0136199 2.17189 0.497618 0.0846611 1.41302 -2.85751 -2.42138 -0.591414 -0.275738 -0.501585 -1.17917 0.684008 
2.52738 6.16309 -6.19088 10.2442 4.37559 2.85789 2.10535 1.10642 4.58171 0.834111 2.38353 1.71229 12.1458 5.13108 -1.3242 3.80044 -0.913933 -1.19367 0.833618 -4.67723 -3.41585 -0.874352 0.230128 1.56909 0.0991286 1.48936 
12.7167 2.89016 -1.31878 5.88073 -1.14659 5.04823 -7.66986 -10.341 3.26627 0.247171 4.36145 -1.91225 15.6253 4.23998 -2.48964 4.36294 -2.56899 -1.60706 0.647479 -5.01114 -2.45627 -0.580429 1.72543 0.214092 0.667675 1.81711 
14.0125 -1.28538 4.40329 2.23824 -4.25413 4.17534 -12.0151 -7.48807 2.60517 7.02674 6.45598 1.45029 17.5124 2.51758 -3.04838 3.45124 -2.85372 -0.840367 -0.234308 -4.3856 -0.760736 -0.74446 2.93598 0.414195 0.524037 1.60051 
13.9401 -3.75637 6.84768 -0.296517 -0.749157 4.35654 -15.6352 -6.7595 2.37992 11.0213 3.8026 3.60005 18.2375 0.208145 -2.43318 2.01033 -1.87964 -0.379925 -0.358728 -2.27733 0.868392 1.07002 1.12272 0.325759 -0.0756636 0.918783 
14.5036 -5.75553 6.9821 -0.935811 -0.02496 2.03219 -15.84 -4.48802 1.30258 10.1269 4.73393 1.57633 18.8423 -0.141887 -1.84662 0.340694 -0.136248 -1.84156 -0.195735 -0.268678 -0.425574 2.22751 -1.00208 -0.208569 -1.52493 0.619224 
13.5119 -7.04067 7.44344 -1.93045 -5.1608 4.32617 -17.1441 -7.49908 9.26768 4.31067 6.85127 -2.35358 19.5543 -0.358702 -1.39713 -0.913629 2.37831 -2.67713 -1.49861 2.02706 -1.71028 2.66742 -2.192 -0.0722485 -1.87028 0.406199 
13.5171 -8.87633 5.80888 2.37396 -11.2561 3.21186 -12.6041 -9.24614 10.2989 5.37166 3.8888 -3.19753 19.9501 -0.948429 -0.419729 -1.60133 4.39263 -1.41089 -2.04784 2.48322 -2.20106 2.02334 -2.09378 -0.337111 -0.512085 0.0786146 
12.6398 -9.18162 2.86614 9.94015 -8.51924 -3.72635 -7.11789 -12.9318 11.2189 2.43892 3.86392 -3.3644 19.7146 -0.715188 -0.084305 -1.74531 2.09542 0.613662 -2.17653 1.0483 0.88018 0.861981 -1.64132 -0.321725 -0.157891 -0.0441286 
10.1975 -6.7837 1.26408 15.0921 -5.4002 -4.18074 -8.43696 -12.7769 10.4437 0.593925 4.54205 -0.478694 19.1552 -0.263004 -0.681148 -0.695137 -1.97264 1.56628 -1.07733 -1.21166 4.82987 0.227597 -1.06263 -0.889785 0.105249 0.192636 
11.5958 -8.50851 0.989287 2.18759 -5.02044 -2.86019 -13.9862 -1.33279 13.5052 -1.50706 4.91602 -4.50246 19.7311 -0.0106214 -1.40245 -0.0176224 -5.1438 0.782778 -1.46773 -1.23558 6.40097 -1.20981 0.430315 -2.63267 0.488682 0.498353 
12.7241 -12.6186 3.27162 -3.61294 -5.1741 -2.60788 -15.2283 9.1037 10.2937 2.03148 -1.08617 -2.10225 20.905 0.109392 -1.42098 0.482393 -5.11431 0.84902 -3.1186 1.25839 6.30022 -2.2109 1.19701 -2.90615 0.49941 0.622921 
11.3234 -13.2764 1.77426 -6.42637 -4.7184 -11.8515 -9.90014 8.13271 5.2448 3.87172 -6.48533 -0.109209 21.3314 -0.87636 -0.552182 0.676594 -2.64009 0.948861 -4.13834 3.33774 3.6291 -3.93797 0.733207 -2.87278 0.983536 0.47408 
10.8807 -11.5047 3.28356 -6.17253 -1.30612 -15.2781 -4.18801 13.9914 3.51941 3.8896 -4.28801 -0.178266 21.4697 -1.96269 0.746988 -0.350473 -1.39664 0.655379 -3.31166 3.03974 0.859344 -4.20371 -1.37912 -0.926097 0.579285 0.304716 
8.13571 -11.8264 4.36629 -9.73308 -2.21012 -17.2168 -2.81761 14.3688 -2.79756 1.22992 -7.84697 -0.546768 21.8192 -2.47561 1.20754 -1.15308 -0.448801 0.0989677 -1.36137 1.30327 -0.543967 -3.74087 -2.48778 0.527948 0.619517 0.297957 
4.50455 -9.60868 0.223242 -8.94278 -3.15134 -16.4835 -3.57082 10.2824 -6.70368 -3.54323 -5.03584 1.01295 22.1847 -2.29287 1.48228 -1.70012 0.703025 0.0852926 -0.282942 0.909453 -1.71616 -2.41473 -1.52107 1.50369 1.63364 0.294052 
2.13339 -8.18673 -2.46096 -7.28525 -3.30095 -18.0556 -3.6924 7.26741 -8.34801 -4.85076 -3.47168 2.39277 22.4637 -1.46308 1.35064 -1.79122 1.55748 0.0848142 -0.133704 1.32924 -2.17182 -0.669726 -0.314779 2.11577 1.6887 0.217579 
2.41749 -5.9131 -1.80341 -3.88131 -0.334242 -16.2734 0.796657 8.96135 -5.77904 -0.675386 1.04282 6.52017 22.6177 -0.658755 0.502674 -1.00928 1.20625 -0.299124 -0.0168579 1.93435 -1.81086 0.412312 0.873833 1.27572 0.997833 0.141533 
1.86385 -6.921 -3.57647 -4.47641 -3.1946 -17.9904 1.64485 4.17025 -6.60851 -1.7779 -0.307423 5.14314 22.6906 -0.29198 -0.148721 -0.556388 0.812189 -0.585311 0.951052 2.32576 -1.02627 0.689867 1.43964 0.632369 0.0295596 0.0962543 
1.34554 -7.72817 -4.2654 -4.31594 -4.70014 -16.6004 3.43231 2.77662 -5.51187 -0.710501 -0.23934 4.62694 22.7789 -0.102664 -0.759004 -0.317045 0.275509 -0.346659 1.51617 2.27532 -0.54386 0.461894 1.54071 -0.140481 -0.969327 0.0506781 
1.20947 -8.02279 -4.01191 -3.00699 -4.04456 -13.1368 6.61858 5.22843 -5.03226 2.36499 0.331247 3.48718 22.8644 0.301724 -1.23366 0.0150329 -0.16572 1.10166 2.01376 2.21324 0.171583 0.492682 1.49275 -1.15381 -1.31142 0.00446739 
2.23137 -9.15722 -3.17092 -3.23848 -1.64256 -11.1193 9.6864 5.71296 -4.25769 4.95672 0.0210748 2.50151 22.7842 0.699424 -1.72107 -0.415911 -0.795278 2.06057 1.87842 1.01601 0.414056 -0.324919 0.918152 -3.27842 -1.14963 -0.0589048 
2.92956 -12.3748 -4.04855 -5.84374 0.784926 -10.6621 9.58397 3.55999 -4.7722 2.85226 -6.20667 -0.351266 22.7103 0.578982 -1.68909 -1.48042 -1.55067 2.28977 1.2532 -0.433473 0.0696178 -1.15618 0.0394515 -4.99196 -0.919553 -0.0936424 
3.98261 -14.1576 -6.32663 -6.87396 3.18796 -8.44566 7.02966 5.68111 -7.2665 3.63662 -13.3625 0.798017 22.5614 0.290529 -0.622007 -2.26037 -1.12616 2.62125 1.99174 -1.62372 0.833092 -1.10901 0.327497 -4.42909 -0.609086 -0.0571424 
3.22875 -13.9681 -9.83613 -8.94262 4.98904 -8.20764 5.77959 5.59244 -9.30878 3.22229 -17.9368 -0.258832 22.5076 0.0904215 0.485961 -2.61708 -0.716021 2.91612 2.17531 -1.66059 -0.466402 0.235153 0.192064 -1.84017 -1.15982 -0.0410818 
3.53441 -11.4706 -11.579 -7.31986 9.36163 -2.38786 3.46998 8.8622 -7.53443 6.40919 -16.2593 -0.590134 22.5999 0.126591 1.20873 -2.25042 -0.387493 2.81116 2.1501 -0.747595 -2.48074 1.77145 -0.567255 1.32433 -2.36774 -0.0692429 
3.60577 -11.2884 -14.5078 -9.20089 12.2787 -2.81448 3.06085 -0.362557 -3.46246 2.4263 -13.9591 -5.45631 22.4856 0.509208 1.90753 -2.19829 -0.432469 1.77589 2.32321 -0.61798 -2.99246 1.56293 -0.550605 3.14826 -1.79085 -0.176307 
4.42706 -9.45372 -15.2429 -8.68229 13.5989 -0.391748 4.65105 -3.74507 -1.33238 1.19835 -8.72967 -8.44196 22.2261 0.838742 1.86757 -1.96062 -0.855977 -0.250131 0.803287 -2.01562 -2.40434 -1.42882 -1.12876 3.49423 -0.5781 -0.444476 
5.32847 -5.43889 -18.9956 -10.4237 11.7498 2.41033 2.09915 -3.06622 -4.59515 3.07469 -5.9603 -5.28719 21.8129 1.07071 1.96485 -1.02447 1.1301 -2.20291 -0.553192 -2.88421 -0.819843 -4.10434 -0.876091 4.29752 0.367907 -0.807362 
6.86677 -5.05752 -19.1382 -10.9883 8.37542 -0.983833 -6.12727 -1.80766 -14.1122 0.441188 -2.78756 -3.56519 20.7139 0.547215 1.30873 0.406086 3.52577 -2.44043 -1.59902 -2.47287 -1.63346 -5.2492 -1.4787 3.39276 -0.237873 -1.0602 
7.73944 -3.66226 -17.6825 -2.39735 3.87594 -5.28439 -5.97102 -5.43048 -17.5943 -1.57557 4.55744 -6.05515 19.205 0.554421 0.702391 1.0512 3.71281 -1.74208 -1.31261 -0.736992 -1.41631 -2.61556 -1.15208 2.10842 -0.197623 -0.847188 
5.95765 -3.79838 -13.869 4.93335 5.33373 -4.53949 -3.67823 -10.7302 -21.0788 -3.87004 2.97523 -9.24734 18.2291 0.606228 0.646948 0.230339 0.950823 -0.250857 0.497785 0.94083 -0.254027 0.537533 0.394224 0.131763 0.857573 -0.169284 
8.55513 -2.5565 -16.3742 0.179457 4.56028 -2.37488 -2.81033 -5.68651 -14.1896 -0.530074 1.70038 -3.43423 18.8194 0.421866 -0.0431502 -0.564226 -3.13271 0.702962 1.51034 1.24717 1.2037 1.62891 1.60242 -2.69651 1.70823 0.549564 
9.49006 -2.37566 -18.6406 -7.52261 6.77896 0.0503325 -3.00346 -2.94978 -13.1268 1.88956 -0.700221 -0.587788 20.0603 0.215444 -0.307761 -0.386147 -4.14721 1.06326 0.884018 1.81553 2.50461 2.92825 2.64461 -3.49393 1.58218 0.911681 
8.08256 -4.58937 -18.1178 -11.8329 6.66813 -0.0276313 -0.0725365 -3.30222 -13.4257 3.55672 -7.08737 -1.84376 21.0372 -1.15512 -0.613304 0.754082 -1.81462 0.249985 -1.58311 2.36704 0.356261 3.6323 1.19775 -4.15496 -1.70549 0.829086 
7.27116 -4.32075 -14.928 -9.7965 9.59613 -1.29303 4.03051 0.600681 -6.81955 7.30961 -10.1005 -2.13169 21.6786 -1.60054 -0.0749049 1.652 0.637138 -1.11008 -3.00088 2.37377 -0.478784 5.17497 0.0364803 -3.9996 -2.06387 0.564345 
3.88898 -4.65048 -14.4601 -7.7567 4.40162 -9.61877 5.50787 -5.68044 0.818227 2.74867 -14.3742 -11.1897 22.1556 -0.495568 0.497722 2.04498 1.16686 -1.05686 -3.42085 1.44575 -0.865303 3.90604 -2.10662 -3.12278 -0.983633 0.0730127 
3.58417 -2.71963 -12.2095 -6.37504 2.3618 -10.1585 6.07516 -4.1546 5.62605 2.47598 -17.0548 -6.23415 22.3228 -0.126344 2.34626 3.37901 1.68027 -1.43787 -1.39758 -0.632334 0.101683 1.29544 -2.99432 -0.558096 0.492414 -0.479159 
7.44822 -2.90132 -9.25216 -7.70936 5.00097 -12.6991 6.13391 -5.2511 -0.11832 -4.55959 -19.2241 -4.7107 21.0802 -1.08707 4.96214 3.72591 2.59602 0.45798 2.19626 -0.255949 1.66514 -0.44687 -1.97741 2.39516 2.31791 -0.674231 
4.85982 6.53595 -0.636874 -1.41884 2.10709 -6.74075 0.555817 0.89443 0.125907 -4.00785 -10.4661 -2.90913 19.8205 -3.87506 4.75863 2.82731 4.75932 2.90402 4.55674 1.12704 0.361716 -0.469251 -0.721866 3.85579 1.54942 -0.456953 
-2.18417 15.5324 -1.61691 2.74529 6.81888 -0.346355 6.9878 0.120745 1.33395 -3.89644 -5.69279 -1.26266 20.0356 -5.60724 3.74148 1.92331 4.97008 2.25858 4.99191 1.16184 -0.306043 1.84044 1.78669 3.80188 1.55654 -0.000609398 
-10.9749 11.8567 -1.89055 12.1942 15.9729 6.4488 11.2834 -5.03194 2.55366 -1.46492 -4.54151 -0.211053 20.5603 -4.63668 0.836225 0.295559 2.77066 2.13462 4.10668 1.88015 -1.79367 0.689101 0.773008 1.82817 1.98394 0.223099 
-12.6706 13.1457 0.991243 10.3345 9.36093 5.66566 6.57931 -3.81813 7.86998 3.10238 -3.17702 1.72298 20.7072 -1.80229 -1.14806 -0.0667274 0.350423 -0.171775 2.08378 0.0518928 -0.162409 1.36571 1.18074 2.15552 2.58481 0.0547432 
-13.0804 11.9104 -0.46316 8.63986 11.5091 10.7866 10.1608 -6.1045 0.303398 -3.64222 -2.58312 5.51776 20.6002 -0.250184 -0.823633 -0.940324 -2.4118 -2.07785 -0.121497 -1.43799 0.358221 0.492077 1.35942 2.38111 2.33572 -0.0658722 
-10.1429 9.76522 -2.66425 6.27459 8.1919 7.90363 7.80856 -0.15502 9.28765 3.0959 4.10562 8.79699 20.2894 0.0925159 -0.765306 -1.19403 -2.68671 -1.58346 -0.352936 -0.448035 -0.80426 -0.980532 0.530418 -0.122556 1.2795 -0.0322126 
-13.4897 9.42875 -4.76442 2.16517 6.16822 4.72233 3.47884 -5.07239 4.30521 5.33544 3.72273 7.93052 20.4399 1.61734 -0.020525 0.809907 -2.59527 -3.69774 -3.28251 -2.09863 -1.73127 -1.90995 -1.24649 -2.65051 -2.02175 -0.126917 
-12.0034 10.56 -2.82825 0.13832 4.11407 6.93314 7.68012 -8.35549 0.966412 1.26564 -6.94273 6.91409 20.6263 2.53654 -1.61519 2.78679 -2.03889 -4.12158 -3.39864 -2.14758 -1.4257 -5.04817 -4.50952 -4.06263 -4.20841 -0.0246578 
-4.06344 11.4104 3.66838 -1.26837 -4.94063 -5.14064 -0.268132 -10.6606 -5.08571 -8.95955 -10.3115 -3.64957 19.7971 3.09788 -3.2264 4.92882 -1.58277 -3.14136 -3.39767 -2.39785 0.499455 -4.94442 -3.58505 -2.2424 -2.66564 0.261647 
-2.17333 0.698452 7.05329 -2.2031 -6.86158 -4.15808 -1.05583 -4.48942 -11.2577 -12.3042 -9.1904 -6.45501 20.4874 2.14994 -3.80127 5.15683 -1.59981 -2.472 -2.97693 -3.5998 1.37633 -3.78243 -0.665203 1.24908 -0.837896 0.403011 
-2.91532 -1.77245 14.9389 -4.57797 -4.05076 -6.72042 -4.14245 -4.50815 -14.3048 -5.80489 -6.36544 1.28685 21.8175 0.310017 -2.6497 3.43085 -2.22316 -1.69487 -0.786791 -2.87487 0.485202 -1.73122 1.54186 2.28484 0.788435 0.404282 
-1.82774 -1.85489 17.3207 -6.20596 -8.69086 -7.1616 -8.38174 -4.55005 -13.3362 -3.63771 -2.67036 0.256402 21.6312 0.0141096 0.15675 2.3722 -1.92633 -1.60131 0.107782 -2.55468 -0.578103 0.779948 2.04563 2.76075 0.563268 0.0883722 
-2.68615 -0.56142 15.6889 -10.3827 -12.5003 -7.57283 -10.9795 -8.20429 -12.7026 -5.5835 -2.14731 -3.0631 21.2467 0.252463 1.2241 1.18032 -0.261553 -1.21908 2.01135 -1.03323 0.443433 2.38624 1.24588 2.7654 -0.329892 -0.211114 
-2.21737 0.876688 18.5393 -8.93235 -10.6433 -3.19296 -10.4107 -5.53187 -8.1591 -2.18674 2.50427 -1.4637 21.2147 0.0111888 1.4086 1.12429 1.01151 0.051705 2.33064 -0.143747 0.189537 1.81084 0.470443 2.39327 0.278327 -0.148466 
-1.45819 2.98225 20.2312 -4.52254 -9.16993 1.35199 -8.29413 -1.80008 -4.96215 -0.300985 4.87422 0.497441 20.9702 -0.0295365 1.08843 1.64593 1.80983 0.467145 2.23318 -0.590833 0.250754 0.347001 -0.0329836 1.95115 0.598022 0.00584526 
-2.38577 3.41626 20.671 -4.0785 -10.0975 0.0291705 -10.4432 -6.80448 -8.15219 -3.92675 5.78523 -0.132232 21.0271 -0.429138 0.736773 1.57144 1.48147 0.0436817 1.41482 -1.34628 -0.83441 -0.953257 -1.25397 0.848275 -0.0581375 0.159156 
-2.74963 3.61094 22.8527 -3.76052 -10.4375 1.982 -13.9174 -6.31422 -10.971 -4.87842 5.96794 -0.738716 21.3697 -0.614503 0.190502 1.28246 0.649865 0.254375 1.28835 -1.45015 -1.26934 -1.26357 -1.6104 -0.059881 -0.774121 0.289627 
-3.71734 4.24621 25.0857 -1.906 -9.79113 3.56615 -14.3304 -7.44685 -9.92094 -6.16788 6.19879 -1.13631 21.8108 -0.370919 -0.0107786 1.16776 0.523535 0.564421 1.75624 -0.671671 -0.202131 -0.732709 -1.13343 -0.546701 -0.773744 0.252354 
-3.86492 3.51978 24.4361 -2.35946 -8.05127 6.02524 -13.6013 -7.82558 -10.3956 -7.23242 4.36804 -2.87113 22.0265 0.0845881 -0.0324485 0.401585 0.474677 0.519462 1.3219 0.387863 -0.506277 -0.145741 -1.20758 -0.429067 -1.16765 -0.055098 
-3.68272 3.40794 25.7181 -2.16135 -8.46857 6.78875 -13.9596 -7.05945 -12.1035 -8.4169 3.85167 -2.93475 21.9605 0.620488 0.12688 0.00865974 0.0580317 0.546582 0.578377 0.903429 -0.110792 0.204921 -1.04879 -0.0953513 -1.33181 -0.346972 
-2.344 3.86783 24.5444 -1.25946 -8.50148 6.9802 -12.1635 -9.0393 -10.6085 -9.79178 4.99616 -5.67773 21.0194 0.873939 0.697053 -0.198243 0.263596 0.829632 -0.232532 0.565134 0.206072 0.410704 -0.0728289 0.478465 -0.839948 -0.563801 
-1.37536 4.70659 25.0748 -2.16584 -6.83311 5.98056 -10.5321 -7.39395 -8.78989 -10.1321 5.40797 -6.39205 20.5795 0.731128 1.02961 -0.478142 -0.406995 1.16539 -0.529073 0.557806 0.793334 0.703484 0.970996 -0.112 -0.589662 -0.554828 
-0.64891 6.35573 23.7665 -1.03924 -4.72083 5.26668 -12.4893 -6.62797 -9.99887 -6.73895 5.98221 -5.34221 19.898 0.231408 1.15484 -0.081666 -1.06815 0.530856 -0.401281 0.605576 1.91447 -0.225976 2.04638 -1.05325 -0.0121216 -0.357848 
-0.874628 7.31203 23.7163 -4.30643 -4.53195 5.00015 -11.0077 -4.29844 -8.89084 -5.08834 2.79865 -6.05082 19.747 -0.0327638 0.502688 0.386881 -1.02095 -0.192952 -0.372415 0.990644 2.11328 -0.842787 2.19214 -1.22181 0.2192 -0.272807 
-1.43733 8.33932 24.8154 -5.52991 -6.99778 5.464 -8.89788 -1.01471 -11.6879 -2.08177 1.03457 -5.90896 19.6464 0.0520057 0.0819646 -0.110839 -0.746808 -0.554515 -0.0515844 1.64564 1.59963 -0.476776 1.5954 -1.2147 0.197369 -0.410926 
-1.14497 6.22823 26.4848 -5.02528 -6.6594 4.01983 -7.37465 0.365812 -12.1593 -1.50001 1.77276 -5.01268 19.3413 0.521154 -0.07448 -0.59338 0.682795 0.328123 -0.497656 1.27165 0.0602579 -0.284602 0.554716 -0.771474 0.956543 -0.750094 
-0.253711 7.30745 21.8281 -4.41385 -6.42969 5.49892 -6.07764 -0.961967 -10.7485 -0.556102 0.421638 -4.87444 18.0463 0.485182 -0.150916 -0.154619 0.867452 0.323689 -1.73569 -0.216164 -1.28417 -0.595944 -0.459445 -1.00075 0.451714 -0.70378 
1.13933 7.45557 22.2431 -1.45049 -3.17538 2.49441 -6.05954 -4.02352 -10.7835 -3.0776 -0.752254 -1.78536 16.7966 -0.750282 -0.798195 -0.252739 1.01198 0.449092 -0.659075 0.293687 -0.890456 0.376054 -1.28034 -1.27717 0.741081 -0.666035 
-0.153568 6.97107 26.1631 -2.98005 -7.12134 -2.45174 -10.6363 -5.24087 -15.3555 -3.59021 -2.70669 -5.26405 17.3998 -1.77165 -1.8269 -2.75847 1.31238 1.01888 1.04575 2.62254 0.830713 2.37304 -1.60943 -0.953921 1.09296 -0.926797 
-4.94645 2.40544 23.0536 -0.682303 -4.06811 4.69978 -3.6269 -1.94702 -7.97555 -6.38467 -3.04893 -1.11247 16.3343 -1.75392 -2.12258 -6.56622 1.05318 0.718183 2.70503 4.2003 1.29142 5.45981 -0.0557833 0.347864 0.488743 -1.21343 
-6.06909 0.698016 7.63048 1.76395 -0.88893 9.62498 5.81874 2.15335 -0.287331 -6.94972 -3.19963 0.253937 13.6434 -1.17609 -1.26451 -8.09359 1.50722 1.27051 2.12545 4.22955 1.7331 6.59593 1.53198 1.36767 0.843012 -1.42413 
-4.6725 -0.0208263 -1.32167 1.4434 -2.70067 9.98119 6.71445 -1.26351 8.9814 -1.67676 1.23354 -2.10064 12.6077 0.159571 -0.230841 -6.83812 1.32415 1.50543 0.052111 1.38993 0.248901 3.77582 1.55982 1.15407 0.721196 -1.05815 
-6.17101 1.86164 -2.11715 3.49321 -1.45252 5.53479 5.34079 3.08288 9.1457 1.71571 1.99044 -0.554903 12.1425 0.453514 0.17811 -3.58155 0.762905 1.09126 -1.93947 -1.08744 -0.349552 1.7503 2.06767 1.11124 1.49885 -0.507087 
-4.09764 0.669427 -6.26316 5.07383 3.74083 7.00543 3.56171 -1.16728 6.18705 -2.9183 0.126381 2.89793 11.794 0.167262 0.263057 -1.71656 0.258005 1.3655 -1.0876 0.0133894 0.357947 0.690865 0.423773 -0.00717898 0.54885 -0.281671 
-4.08895 1.24344 -7.80653 3.76326 1.34661 1.41549 1.95789 0.35747 9.86132 4.00939 2.91014 5.24892 11.5148 0.286693 -0.272684 -0.559145 -0.588563 -0.222914 0.372002 0.909575 -0.00674006 0.693147 0.467084 1.22557 -0.0836885 -0.10219 
-4.87721 1.60356 -7.05978 2.5984 2.72728 6.60282 8.47284 1.88893 12.0779 -0.704731 0.737789 -2.2583 11.5131 -0.297057 -0.306438 0.560484 0.0619184 -1.51049 0.673444 1.02983 0.588172 0.905692 0.457955 1.45171 -0.164533 -0.00675268 
-4.34775 0.0311522 -4.51456 1.78811 -2.06031 7.5961 7.4331 1.52108 9.666 2.94435 7.81258 1.60477 11.772 0.100409 0.061758 0.212473 0.671158 -0.521018 1.24805 0.255513 -0.322034 0.102759 -0.402336 1.23294 0.676567 -0.0313553 
-5.45352 -0.256619 -5.10672 6.371 -2.10815 7.28234 5.97328 1.19178 10.8132 -0.0960026 4.93372 3.89734 11.6317 0.205116 0.712161 -0.3635 0.888733 0.1453 0.535522 0.112888 -0.520661 -0.495322 -0.0398495 -0.558042 2.26549 -0.0899756 
-3.29875 2.48232 -7.7207 5.23275 1.15923 7.31599 4.48524 -0.904121 11.0075 1.69335 6.97689 5.55393 11.2988 -0.00781059 1.42788 -0.137181 0.674195 0.83892 -0.791973 -0.832899 -0.138015 -0.0633136 -0.0583488 -2.17717 1.32724 -0.0912172 
-4.37613 3.93878 -7.27421 5.31974 1.84401 9.42048 10.5112 0.498228 8.93056 -0.278477 -1.63457 7.09457 11.2999 -0.0865466 0.817029 -0.409625 -0.623311 0.853083 -1.54498 -0.073728 0.712988 -0.255393 -0.0385233 -0.923783 -0.400278 0.00959158 
-4.9255 5.07285 -4.11673 5.68471 0.15821 2.56717 0.999633 1.17778 10.2907 2.74384 0.210906 6.64234 11.4818 -0.372121 -0.44462 -0.509626 -1.1671 -0.81016 -2.10183 0.815954 1.75698 0.147921 -0.613626 -0.0412355 -0.306889 0.0769519 
-5.07288 2.53326 -8.95683 3.02846 2.65778 1.93186 7.34744 3.71577 9.89458 -0.813868 3.6978 1.35175 11.5881 -0.0795174 -0.659682 -0.483392 -0.873236 -0.826694 -0.708559 2.05903 2.67311 1.29596 -0.415735 0.70279 -0.903118 0.0161139 
-4.81099 0.961976 -9.42752 0.5429 -3.29845 0.551138 10.1469 6.27202 11.2651 -1.10709 4.10452 6.89089 11.5394 -0.0689636 -0.0792475 -1.33265 0.670869 -0.352938 1.56962 2.3174 1.44135 0.485716 0.536763 0.662666 0.377778 0.144036 
-4.83098 2.6958 -7.03578 3.52446 -0.561131 6.8857 16.2327 11.3167 14.9232 -0.431688 -0.0674312 2.4547 11.3516 0.0910921 0.318157 0.0856395 1.48249 0.229894 1.96141 -0.488629 -0.591256 -1.24064 0.702922 0.798962 1.38567 0.0552165 
-5.39127 4.59534 -11.7405 8.79106 0.00297594 7.93835 8.14399 4.5841 10.205 5.23657 5.40685 7.97976 12.3202 0.247419 -0.129761 0.228721 1.45788 0.818828 1.01888 -2.24049 -1.61335 -1.40402 0.765455 1.75796 -0.319348 0.0264133 
-4.32728 2.30737 -7.37214 6.31686 2.15654 8.0453 5.90574 1.60344 4.22142 -0.471089 7.04144 7.73565 11.4738 0.661898 -0.520115 0.570761 0.771792 1.49281 -0.0817409 -1.64202 -2.11196 -1.42471 0.733652 1.93855 -0.00867211 -0.0889181 
-3.82574 0.50739 -8.11573 6.43612 -0.563146 5.06576 4.10795 3.06188 9.59586 2.73989 9.33986 2.65368 11.6104 0.587572 -0.363576 1.38166 -0.26763 1.38625 -0.825003 -0.0688512 0.189039 0.786228 -0.459023 -0.0894766 -0.496535 -0.196278 
-2.30425 2.1392 -5.99436 8.56089 7.18598 7.91329 10.0406 1.51797 8.1042 4.48492 7.65881 5.07438 11.262 0.285987 0.144652 0.773935 0.49545 1.26273 -1.2198 0.460008 2.75877 2.38507 1.19937 -0.593017 -0.708432 -0.0352715 
-3.46492 2.86154 -5.5211 6.33089 4.41952 3.87933 5.7323 5.57203 12.1948 0.463456 4.65079 6.82772 11.4447 0.185901 0.229548 0.216336 -0.0586693 0.529483 -0.93984 1.18426 1.9488 0.806955 -0.64895 -1.19042 0.386274 -0.0646486 
-3.07775 1.85355 -4.79978 8.84672 5.97886 2.53952 7.39361 14.1422 14.8473 6.66396 6.4209 2.10647 11.3803 -0.229152 0.141143 -0.0599378 0.153548 0.0370248 -0.756995 1.14517 0.836016 -0.182396 -0.680233 -0.695394 0.389509 -0.0138769 
-2.50949 1.79795 -7.63134 5.99986 2.68783 3.05345 11.3528 6.49374 10.2591 -1.59438 4.00672 6.069 11.228 -0.177559 0.25535 0.0125195 0.697393 0.989296 0.332559 2.00105 -0.957469 -1.47567 -0.125286 -0.221086 0.644193 -0.0366889 
-3.92773 3.37671 -5.23893 9.49414 8.23695 4.54126 12.9562 5.2372 8.16007 2.11267 4.50387 7.40128 11.3009 -0.31182 0.462507 0.151411 0.478913 1.00653 0.549129 1.27288 -1.90666 -1.54735 -0.539552 -0.333691 1.19219 -0.00856915 
