-7.769 -1.58583 -7.18041 4.41609 1.26051 -0.179861 7.17558 4.53736 10.6854 -0.707722 -4.39927 -3.55959 11.6772 0.154609 0.622415 0.69472 -0.323741 1.92309 1.90992 0.233916 -0.646646 -1.60025 -0.871214 1.06252 1.31258 -0.0959988 
-6.81214 -0.467509 -7.84942 3.3672 4.48803 1.33512 4.00266 0.625297 3.85708 -3.44871 -2.21113 1.453 11.3061 -0.133884 0.515268 1.15059 -0.1018 1.73609 2.00634 0.745929 0.312797 -1.16219 0.782275 2.65957 1.69496 -0.0929293 
-7.47439 0.967084 -3.3723 3.32183 9.26218 8.61224 9.93162 3.26016 6.09831 -3.6933 -0.180757 0.496996 11.3828 -0.0812143 0.308118 0.601392 0.344936 0.891262 0.995525 0.661396 0.399369 -0.382679 1.79792 3.45268 1.63827 -0.0484411 
-8.58573 -0.285946 -3.33149 4.45422 5.94012 5.4558 9.5272 6.73994 7.16802 4.69644 6.78931 2.88689 11.3598 0.129968 -0.197251 -0.457004 0.483598 -0.608805 -0.447625 -0.081702 0.544545 0.70245 2.42266 2.40619 1.31031 0.00550871 
-7.28828 -0.13602 -6.43241 5.59726 4.99078 2.73742 7.72028 3.47688 7.11655 4.20929 8.36393 3.9148 11.4082 0.664257 0.281579 -1.17158 0.489925 -0.787324 -1.44083 -0.925981 -0.227202 0.831458 2.26734 0.451613 0.499012 -0.00291386 
-6.25535 -0.90221 -8.60438 4.64748 3.57971 2.0344 4.69982 3.23967 6.86022 4.71329 5.54748 6.29564 11.3209 0.954077 1.13903 -0.562407 -0.381448 0.0179752 0.099987 0.264612 -0.837382 -0.51847 -0.39027 -2.26516 -2.17157 0.0453002 
-5.31829 2.68311 -6.59377 5.67482 6.50577 3.11877 7.71541 3.87429 10.4095 7.635 2.69822 1.28768 11.3877 1.09425 1.46106 0.844372 -0.158543 -0.40362 0.313928 1.3558 0.695489 -0.848879 -1.30289 -2.60909 -2.44143 0.00939484 
-4.80034 3.99964 -6.06285 2.5082 5.2725 5.76506 10.8527 2.35433 2.92919 1.03223 -1.70363 -6.65742 11.5965 0.519727 0.569469 1.46328 -0.44467 -1.04449 0.289117 0.583201 -0.616797 -0.67618 -2.2054 -0.546262 -0.485308 0.00313559 
-2.54453 4.71837 -3.48132 5.87419 2.12628 2.44173 11.4228 7.39699 4.83767 -0.464657 -1.05598 -1.81581 11.3173 0.768363 0.0272363 1.048 0.0189751 -0.495302 1.13877 0.786142 0.376986 -1.12595 -3.46477 -0.742649 0.144864 0.000595474 
-5.0436 0.927505 -2.84423 2.32445 0.547016 3.8185 5.7621 -1.60567 6.26523 -2.26391 4.69328 5.42085 11.3718 3.63675 0.288921 0.818335 -2.77893 -3.77014 1.37389 -0.122032 -0.907041 -0.227015 -2.02995 -0.667076 0.988029 0.935947 
-1.35485 4.35536 -2.96306 5.86157 6.39201 9.78589 14.1914 7.73922 3.11171 -8.04078 -4.21348 -4.02713 11.503 5.00815 0.570979 0.514312 -5.13379 -5.30903 2.1426 0.275903 -1.37634 -0.589672 -0.93994 -1.55431 0.0476712 1.58073 
12.7886 5.62575 -2.2303 -11.3801 -15.711 8.96245 8.85826 -2.35199 2.65709 -5.32945 -3.46026 -0.611617 16.1834 5.65285 0.508475 0.888599 -5.3478 -6.15979 1.39021 0.0948272 -0.28072 -0.0236157 -0.282368 -0.795328 -0.869835 1.91514 
13.5801 5.22414 -1.21673 -12.9425 -16.2899 10.5827 11.2543 0.88846 3.69338 -3.63158 -4.75079 1.43877 16.8152 3.56562 -0.193048 0.832351 -4.1989 -5.64217 -0.111559 -1.75866 -0.811043 0.731813 0.671492 1.71763 -0.060114 1.56723 
15.7532 3.03549 0.725596 -15.0125 -18.911 10.3711 7.70481 0.416111 5.85632 -5.88035 0.985291 -1.66128 18.2914 0.689206 -0.214681 0.39547 0.13809 -1.17014 -1.0429 -1.19183 1.00184 0.769929 0.0825272 1.66772 -0.569545 0.585695 
14.991 4.68525 -0.279254 -13.3167 -20.2188 8.52375 5.97485 2.29995 5.17116 -4.40787 2.15192 -3.80286 18.2852 0.487571 0.799919 -0.123975 1.2919 -0.600562 -2.30371 -1.43891 -0.349314 -0.0335543 -0.151189 1.82197 0.1544 0.287045 
15.5292 4.82179 -0.721684 -10.5026 -19.5972 4.77744 5.53885 1.95148 5.76784 -4.52867 1.427 -0.838523 18.3769 -0.0222186 1.65007 -0.260141 3.09256 0.475498 -3.22795 -0.847854 -1.1061 -1.06341 0.910636 1.34895 0.854531 -0.132711 
16.13 8.33059 -1.11296 -8.73791 -18.9496 1.86104 5.14269 -1.62579 3.56985 -5.06337 4.13819 1.7994 18.2077 -0.29699 0.849813 0.0282401 3.80002 1.42762 -2.61273 -1.0636 -2.95627 -1.66424 1.58076 0.928713 0.541184 -0.370348 
15.0726 9.46318 -0.158253 -1.83912 -17.1682 -2.43725 3.88162 -3.15154 1.33993 -0.999423 6.73689 -0.189754 17.6666 -0.881468 -0.8487 0.408684 4.32714 2.5545 -0.34553 -0.928087 -4.10245 -2.59847 1.48743 -0.759683 0.339686 -0.677337 
13.7343 6.61362 -0.419768 1.35167 -14.2953 -0.93255 1.48548 -9.9299 -0.936073 1.73131 4.14054 -1.42133 16.7886 -1.219 -2.31493 0.30919 4.21406 3.37586 1.68687 -1.0699 -4.56358 -1.70764 0.127043 -2.83335 -0.349563 -0.69471 
12.3197 1.43678 0.975139 6.08833 -9.15185 4.44659 2.72702 -14.4087 -4.97153 -0.488883 -2.37258 2.47027 15.6998 -0.952284 -2.34859 -0.532361 1.50381 2.32782 1.76513 -1.16272 -3.90135 -1.55474 -1.05316 -4.01889 -0.0543767 -0.395931 
11.4114 0.769121 -0.133709 8.36865 -6.07842 6.8535 0.370511 -18.8151 -1.81263 -4.68342 -5.4738 -1.27843 15.7175 -0.44996 -0.940396 -1.50571 -0.549281 0.137384 -0.141049 -1.55849 -1.38692 -1.14695 -0.838362 -2.4601 -0.69002 0.10262 
11.4726 0.642496 -2.96309 2.17144 -9.63749 2.49538 -1.37451 -18.2157 -5.99548 -3.05783 -8.55038 -0.533086 16.2225 -0.0639433 1.0121 -2.5943 -2.79967 -0.223387 -2.68977 -2.14034 0.802201 0.0450331 0.303673 -0.0605986 -1.03762 0.594493 
11.9081 2.30878 -5.97922 0.563711 -13.3655 -0.662189 -4.2562 -14.961 -6.15885 -1.17602 -5.07105 -3.36975 17.0403 -0.0378677 2.06517 -2.15668 -3.86497 -0.059705 -2.73398 -1.40266 3.24477 0.244676 1.68668 0.997483 -0.0203757 0.821742 
11.7516 5.72747 -9.07362 -4.00755 -6.62523 -5.2444 -5.66133 -12.3247 -2.57326 -0.724216 -2.87696 -1.67216 18.0108 -0.627042 2.00918 -1.13391 -4.25116 0.150802 -1.37689 0.253307 5.45351 0.703645 0.40071 0.741398 0.231583 0.947848 
11.0826 8.55247 -7.86183 -7.86672 -7.88307 -2.94653 -4.49939 -5.53674 -2.30036 2.58315 -3.3231 -0.810776 18.9321 -1.0102 0.38638 -0.726296 -4.6153 0.202454 1.47233 2.19404 5.05665 -0.323583 0.14478 -1.20771 1.12346 0.98208 
8.75013 7.56655 -7.69131 -14.8691 -11.6247 -3.2469 0.0136199 4.33973 -4.40649 -2.93387 -5.71737 -0.654658 20.0159 -1.36258 -1.90066 -0.839761 -3.58793 0.154634 3.68839 2.52999 2.10051 -0.83167 0.514024 -1.02815 1.83255 0.858408 
8.35785 3.32114 -10.3019 -17.082 -9.85353 5.70071 3.87654 1.99 -6.86015 0.652701 -9.68938 1.7388 20.9482 -1.70832 -3.76007 -1.17124 -0.816297 2.21875 2.70167 0.993382 -1.2496 -0.815261 1.1225 1.47135 1.04219 0.753702 
6.30109 -1.16018 -12.0524 -17.3396 -4.86683 8.87394 2.80065 -5.58558 -4.45172 2.81113 -4.83454 6.21579 21.2948 -1.19708 -4.38254 -0.494452 1.23045 3.55111 1.30343 -2.00235 -2.73477 -0.726507 3.04975 2.6078 -1.38222 0.47719 
3.76551 -5.8845 -11.5375 -10.713 -0.168262 4.5014 -0.925993 -6.82209 -6.35406 5.32313 3.59224 0.96497 22.0611 -0.399234 -3.55939 1.44269 2.3419 2.85278 -2.00214 -3.98837 -0.216718 -0.637234 2.06276 1.15098 -3.18627 0.171797 
5.06088 -9.74331 -9.54576 -11.9014 1.28821 3.86992 -7.59688 -4.92809 -8.29207 9.97965 0.680847 -7.17886 21.8454 0.293879 -1.30173 2.44987 3.04163 0.624458 -4.28678 -3.45547 1.12073 0.214134 -1.17335 -2.05701 -4.64786 -0.198388 
6.98178 -10.1843 -4.34173 -8.09159 1.33285 -1.80797 -10.8666 0.577665 -8.12614 7.38225 -6.69218 -7.49524 21.5319 -1.3335 3.09142 2.81661 2.69095 0.360954 -3.39935 -2.58169 0.26635 1.14952 -4.26715 -3.65639 -1.77585 -0.486147 
6.16235 -5.51896 -3.40093 -3.44211 -2.49509 -9.40529 -9.50641 -3.68183 -2.49501 -4.0852 -9.9774 -12.7934 20.5675 -3.96184 5.9538 3.47821 5.04064 1.79542 -0.98956 1.01241 0.888668 0.820067 -4.90135 -0.530676 2.81066 -0.464152 
-3.45273 7.46045 -0.526841 -1.48787 3.52816 -5.85775 -12.8797 -6.11347 -3.505 -8.9802 -9.36058 -5.10702 20.2693 -5.89379 5.15895 1.62533 4.38407 2.74839 2.26867 3.06766 1.05018 1.82159 -1.23927 2.60092 4.14599 -0.29756 
-9.53106 11.2034 5.93785 9.99993 9.16766 0.947007 -1.52829 2.86082 -6.50231 -6.34585 -0.638334 5.68035 20.1559 -5.23376 3.50272 0.805903 2.53643 3.14719 4.13055 4.31656 1.93765 0.761618 1.95403 3.09812 4.68294 -0.0027811 
-14.6405 7.24935 -0.884473 7.10774 9.24342 4.35925 0.482707 2.55722 2.98545 2.31623 1.6429 3.99784 20.2499 -3.09001 0.612021 -0.726819 0.749063 0.605438 2.17022 3.93428 1.7168 1.05537 2.41948 0.656418 1.27031 0.140573 
-14.4126 12.1002 0.807402 4.94224 10.3832 6.13898 5.39518 1.67107 -1.93215 0.0367483 0.0114522 6.0689 20.5633 -1.53859 -0.345124 -1.40306 -1.09227 -0.167986 1.26087 1.45895 -0.197362 0.256727 0.211883 -0.574042 -1.19908 0.125236 
-16.462 10.0721 -1.59571 4.78629 5.94757 2.39734 3.33001 3.06541 -0.513218 -0.0741026 -6.40339 1.05026 20.7685 -0.606072 -0.347132 0.32827 -1.21614 -0.611931 1.08258 1.26789 -0.834206 -0.501473 0.297934 0.454284 -0.567834 0.118301 
-16.3132 8.06634 -0.721829 5.69933 9.97565 8.23229 4.34281 1.61991 -3.46934 -4.09128 0.514601 1.15876 20.5228 1.18199 -1.13026 0.762141 -0.445129 -2.07442 -2.00822 -1.53163 -2.96607 -2.0271 -0.652797 -0.846034 -0.868503 -0.00420303 
-16.7205 7.53062 1.52149 0.648501 6.38755 8.72551 7.34836 -1.58823 1.24669 5.86991 3.66275 3.61374 20.8617 3.83126 -2.70165 2.51985 -0.647843 -3.10104 -3.99431 -3.91092 -1.55157 -3.79063 -1.33856 -1.42296 -0.904298 0.0915691 
-8.37341 7.71965 3.0595 4.78549 -0.208893 -7.0662 -4.27215 -10.8325 -12.9476 -6.19924 -9.25179 0.444644 20.4957 4.97032 -4.56796 3.07014 -0.705667 -3.63795 -6.13136 -5.87653 1.37077 -3.7692 -1.50856 -2.36654 -1.73766 0.266597 
-1.27566 -3.26278 9.11286 2.00399 -4.46536 -9.92495 -11.9171 1.53377 -14.7272 -5.71294 -8.635 -3.11418 21.2399 4.70098 -5.84049 2.08186 -0.817679 -2.875 -5.77784 -6.59789 3.46539 -3.20023 -3.41741 -1.06258 -3.35161 0.190753 
0.815945 -9.37677 10.8332 1.49325 -2.78766 -13.0993 -15.4071 6.91278 -14.3284 -5.84263 -5.16922 -4.16561 21.6666 3.16224 -4.8808 0.632911 -0.394157 -0.981691 -2.11332 -2.05428 4.21538 1.17455 -1.2527 2.5134 -2.43948 -0.031934 
2.18968 -13.1236 8.04393 -1.79377 -6.69809 -17.1472 -20.0736 6.8661 -14.0641 -11.3954 -3.69143 -10.8392 21.2299 2.19184 -2.06751 -1.75413 1.912 1.24635 -1.1448 1.74643 -1.40206 2.8511 -0.581856 2.79901 -0.728211 -0.49481 
5.70512 -11.7539 6.75852 4.71358 -4.00098 -14.0217 -10.4653 7.57825 -7.40641 -9.62148 0.843439 -7.89028 20.341 1.94212 -1.01432 -1.12805 1.60737 1.6142 -0.197098 1.9998 -3.67451 4.14665 1.1075 3.42982 0.251986 -0.38746 
7.23897 -12.4117 2.37957 9.95383 2.37304 -15.1878 -5.65586 -5.80926 -3.9327 -6.73279 2.35374 -4.89289 19.4287 1.10864 -0.147655 -1.60234 -0.601824 1.6168 1.33193 0.219124 -3.32941 3.59352 3.96175 3.46021 1.64513 0.114915 
8.0019 -14.8043 8.02513 3.65629 0.747765 -15.0645 -12.617 -5.12209 1.33918 -2.63646 8.95729 -5.87882 20.63 0.0774997 -0.25988 -2.89167 -4.01588 0.617893 1.43277 -1.85543 -1.54592 1.07689 3.66247 2.49904 1.15802 0.546751 
6.58447 -12.3367 -0.601091 -4.27424 -0.988478 -9.96614 -17.9021 -3.43076 -0.469319 4.92082 9.55271 -3.61923 21.66 0.3564 -0.324685 -2.14746 -5.13491 0.670528 3.20087 -1.62527 2.76178 -1.7424 3.7724 0.88668 1.47528 0.542345 
6.41987 -13.0908 -6.20949 -8.25176 0.769242 -9.46868 -13.6193 -1.34058 -3.75366 2.86404 9.73914 -2.73701 21.9591 0.370896 -0.521192 -2.38003 -4.03929 0.937644 2.77055 -0.300474 2.19173 -3.98941 2.55285 -1.98325 0.434337 0.138098 
9.81199 -14.8919 -1.24041 -9.76669 5.71495 -1.98129 -13.2811 6.10888 -10.0983 9.37896 6.39622 0.912622 21.4758 0.601765 -0.409008 0.126266 -1.52466 1.44281 1.60629 1.04901 2.23427 -1.92297 1.99328 -2.54387 -0.694354 -0.154415 
8.24262 -16.1327 -3.55537 -13.794 2.08427 -5.20413 -16.4299 1.06673 -13.7934 7.89871 0.619301 -5.97306 21.4125 -0.102931 0.392343 0.891593 -0.21234 0.723783 -0.854545 0.540981 1.2428 0.639279 1.80132 -2.93566 -1.3481 -0.187098 
8.68192 -12.8608 -1.29682 -9.12643 5.56805 -4.06695 -11.2518 6.53695 -5.06431 12.3699 1.39326 -5.47298 21.1612 -1.18327 1.44932 0.879384 0.827563 -0.299019 -3.1798 0.824097 0.379735 3.04977 0.103034 -1.96204 -0.741514 -0.114756 
6.47025 -12.1447 -1.72332 -9.63359 4.46161 -12.6986 -11.929 4.65941 -3.07425 10.3752 -2.43768 -6.28472 21.1809 -1.58108 1.7021 2.46126 1.54734 -1.2252 -2.71255 0.944171 0.611052 1.98304 -1.26376 -1.15739 1.61534 -0.075713 
4.78181 -9.63931 2.24048 -7.70906 3.03118 -14.1331 -11.411 6.21122 -0.208991 8.65591 -1.8855 -2.63912 21.0179 -2.10028 1.20091 3.79946 1.16388 -3.16472 -1.3356 0.258913 -0.825915 -2.05615 -3.06679 -1.16674 2.67818 0.0444485 
2.2873 -9.23295 6.98229 -6.76597 -2.77328 -13.7338 -11.6294 4.28486 -6.3058 3.4369 -3.52826 0.686703 21.1056 -1.88259 1.46258 5.13007 1.63249 -3.31048 1.36041 1.14001 -1.47034 -3.15291 -3.49698 0.286094 2.79322 0.0881235 
0.27201 -8.31212 13.3477 -4.74086 -6.63812 -10.2273 -10.107 2.59465 -13.7293 0.505075 -3.89517 4.43221 21.4211 -1.55956 1.74862 5.02023 1.37317 -2.09135 2.02267 1.35945 -2.3631 -3.17375 -3.28138 0.529923 1.56606 0.00566998 
-0.687806 -5.49537 18.3735 -2.95526 -7.25614 -7.8494 -6.88099 -0.883995 -12.0787 -3.03431 -0.0023737 4.14573 21.4199 -0.91433 2.66014 4.17942 0.876006 -0.290812 2.01532 1.20888 -1.95246 -1.18533 -2.84285 0.687986 0.183078 -0.325014 
-1.52846 -2.765 21.646 -2.74856 -5.18417 -6.96195 -6.98798 -3.01987 -13.1913 -4.5154 -0.998832 3.46166 20.8891 -0.742844 2.76581 3.1181 -0.240007 1.28162 1.7618 0.561108 -1.13601 -0.0411109 -2.19522 0.341225 -0.818505 -0.49439 
-1.38411 1.29419 23.7302 -3.38209 -4.95432 -5.28992 -7.14454 -2.67017 -12.5014 -8.26711 -1.5365 2.08737 19.7466 -0.461896 2.42245 2.18275 -0.27895 2.46399 1.8475 -0.165652 -0.508486 -0.832342 -1.49124 0.0609184 -0.833782 -0.835231 
-3.09406 2.12214 26.2598 -5.72748 -1.38092 -2.69805 -7.16969 -2.1923 -13.7235 -7.85463 -1.42198 1.36887 19.7858 0.225208 2.35436 -0.233168 0.922125 3.19693 1.065 0.594557 -0.0253489 0.0900919 -0.66454 0.304727 -1.42893 -1.41854 
-2.21449 4.17332 26.9803 -2.86055 3.16218 -0.743858 -7.61839 -3.84021 -15.9743 -8.8209 0.513793 1.02322 17.7954 0.415369 2.17495 -2.35668 2.34206 3.05068 -0.0964601 0.350994 -0.27407 -0.225184 -0.554776 -0.409452 -0.950647 -1.66654 
0.0127659 7.56722 18.8552 1.6013 6.74223 -3.90999 -3.77827 -2.56159 -11.0044 -7.56121 -0.500343 -3.15094 14.772 0.0961469 0.906093 -6.29934 3.7121 2.58044 0.888221 1.1974 -0.781736 2.61055 -1.0277 -1.97124 -1.29877 -2.038 
-0.86068 9.44639 15.6491 4.66383 6.23753 -5.16625 -7.08528 -3.85587 -14.9869 -11.1877 -4.04458 -0.405965 13.9208 -0.96631 -0.796794 -8.67055 1.58154 0.598246 1.16871 2.48183 0.41489 5.02271 1.36933 -1.13306 -0.516375 -1.60555 
-3.29023 4.01607 0.428679 9.07082 9.98362 3.95425 -1.44927 -6.09315 -1.1644 -11.8097 -8.999 -4.4104 11.5331 -2.40627 -1.92051 -3.54631 -0.328406 0.147761 0.421239 1.81162 1.3266 4.3294 2.89102 1.07724 0.698078 -0.367094 
-5.39454 1.96493 -7.15918 1.31238 4.53271 1.16757 3.62624 1.61529e-05 4.21922 0.150016 -0.902193 -0.92893 11.3871 -2.12823 -1.73545 -0.659338 -1.25553 0.537192 -0.0138521 1.69467 1.27735 3.07963 3.0825 2.3542 0.615002 0.130734 
-9.75163 1.7054 12.5278 1.635 8.33344 -4.9707 -0.0759358 2.14345 1.03956 1.22504 3.31467 0.600931 14.2034 -1.20995 -1.05672 -0.277603 -1.71753 -1.71 -1.16903 1.05202 1.20854 2.07859 3.59135 2.64499 1.65579 0.182333 
-8.27114 1.92447 6.30291 2.10409 9.74858 -0.773033 0.701385 -1.58744 -0.690686 -2.2926 1.56958 0.163381 13.2393 -0.274364 -1.01214 -2.07786 -0.0134139 -1.16169 -0.14031 0.407133 0.601601 2.37428 1.72207 1.02288 0.456603 -0.247722 
-7.90169 -1.2473 -7.69039 0.0873241 -1.17432 -0.920584 5.27327 0.743273 11.6835 7.36832 2.99009 3.3224 11.5186 0.920072 -0.596933 -5.27904 0.508441 -1.78606 1.25531 2.0247 -0.116582 3.42046 1.58422 -0.341297 0.422198 -0.736852 
-7.69134 -1.61944 -7.4394 2.01914 3.47814 -1.55904 2.9873 3.70811 10.7686 5.68871 4.37449 -0.0066514 11.4908 0.446242 -0.159193 -2.90922 0.19105 -0.507462 1.14739 0.927682 -0.394676 2.26817 0.902154 0.134822 0.55708 -0.345895 
-5.44117 0.492687 -6.99627 4.21968 2.53833 1.69884 8.90461 -1.08724 12.4122 5.15549 0.205729 2.79694 11.3933 0.205284 0.416798 0.691829 0.98629 1.66169 1.3503 0.0239926 -0.47277 -0.951749 -2.46023 -0.503273 0.76559 0.0661825 
-7.27019 0.258509 -8.59026 0.993166 5.35494 3.65419 3.52413 -2.64556 10.2858 3.32458 3.63586 3.21151 11.5725 -0.0465984 0.361188 1.92652 1.07032 0.986094 1.13398 -1.75838 -0.994288 -1.13249 -1.87921 -0.633443 1.00239 0.0862872 
-7.08584 -0.102286 -3.65581 5.53176 6.1957 3.22431 5.12482 1.55626 7.16617 -3.75077 0.843036 5.54127 11.8087 -0.0559072 0.0130916 1.97982 0.750243 0.0522904 0.137275 -0.574326 1.01777 -1.31474 -0.684112 0.268516 -0.434661 0.026422 
-7.10199 0.483987 0.522974 6.71467 6.57993 3.34812 -3.91473 -2.58508 7.72918 0.745769 0.888622 3.63311 11.7146 0.425804 -0.320382 0.762452 0.898818 -1.02277 -0.946586 1.24666 1.10335 0.146944 0.705786 0.639232 -0.205912 -0.0849945 
-5.8048 0.445406 -1.6538 5.11013 2.18729 2.53825 9.75241 3.97137 7.11678 3.02434 2.92193 0.412831 11.4544 0.114761 -0.301643 -0.972219 0.303296 -0.747249 -0.234737 1.81176 1.6846 1.73448 1.72351 1.3112 -0.203152 -0.131711 
-5.78169 -1.61724 -5.77901 5.69807 2.24529 -0.735709 7.44364 1.66361 11.0452 3.46595 5.79258 4.74617 11.3247 -0.258116 0.515145 -2.06667 1.06289 -1.20159 2.0867 2.58715 2.49355 2.23399 1.24304 1.55626 1.52542 0.166822 
-7.17219 -0.559885 -5.36592 7.55655 4.62677 4.09254 8.50445 7.85494 14.1806 3.5067 4.94707 3.96898 11.3451 0.0323032 1.24671 -0.340214 1.64991 0.330683 2.68378 0.386276 0.809164 1.69397 0.837557 1.13633 1.94081 0.169186 
-7.70888 3.56236 -7.9543 10.8059 -0.647779 13.0045 9.64499 7.94088 15.3672 6.71977 7.65733 9.48214 12.6033 0.174433 1.13745 1.16071 1.12631 0.990328 1.82451 -0.239806 0.272543 -0.407917 1.247 0.225574 0.773386 0.0905621 
-4.67969 4.08916 -2.26723 10.8058 5.28725 9.08709 10.5831 4.87856 13.4256 5.58522 7.67121 7.74891 11.661 0.533267 0.0158124 1.2574 -0.200981 1.33022 -0.55628 -0.450797 -1.02057 -1.22744 0.407598 -1.59472 -0.793623 -0.094397 
-6.15577 1.74549 -1.5248 9.705 6.8667 5.88959 5.20527 4.51451 9.38313 8.66169 5.55838 6.72314 11.6195 0.558073 -0.8076 0.84573 -0.748763 1.82554 -1.62641 0.20171 -1.01767 -1.4706 0.401896 -1.64345 -2.16505 -0.301959 
-5.28241 0.427611 -2.29366 7.10211 7.52062 4.86857 8.47032 4.46527 11.0354 4.57374 -1.97707 1.38037 11.365 0.039854 -0.739906 -0.904581 -0.619146 -0.0308755 -0.666406 0.333005 -0.345133 0.416203 0.504019 -0.555811 -1.50893 -0.0776996 
-4.61715 1.35514 -3.71244 8.91394 7.36322 6.98169 11.7099 3.05916 9.20931 9.235 4.26421 1.84115 11.2415 0.209041 -0.0955114 -0.89667 -0.8098 -0.00245179 0.168427 0.59516 0.235114 0.0911422 -0.973653 -0.308529 -1.01097 -0.0279404 
-5.24973 0.584811 -5.69631 8.10555 4.88461 5.20901 8.99581 3.88057 15.5935 7.81866 5.53924 2.64527 11.4615 0.0121296 0.538369 0.253301 -0.0813624 0.49551 0.780208 -0.371914 0.245348 -0.482001 -1.77647 0.0973204 0.319661 0.0367748 
-5.12691 1.18933 -4.30682 5.15428 8.17245 6.5615 7.91833 5.98243 7.55979 2.17096 0.257581 1.03585 11.4316 0.0562267 0.675068 1.01539 0.30328 0.607279 0.0418728 -0.638384 1.17824 -0.608569 -2.04357 -1.20687 -0.547373 0.0300083 
-4.96689 3.20236 -0.729961 8.57513 9.59356 8.9797 8.50655 4.23037 9.45018 -0.776602 0.512847 3.38132 11.4539 0.219404 0.790615 1.23435 0.922128 0.619375 -0.10624 0.0377985 1.25828 -1.10324 -0.7864 -0.910691 -1.01176 -0.0168412 
-4.47744 3.4217 -1.11866 10.1956 8.04514 5.3057 8.76264 8.77546 9.23814 3.31476 0.743052 -1.26374 11.3954 0.178837 0.468408 0.598763 1.1703 -0.180304 -0.618558 0.194473 1.01312 0.314466 0.637896 0.120115 -0.924424 -0.0130854 
