-3.43167 -2.59328 -17.7442 3.52803 2.43079 -2.50713 7.49045 7.05958 11.317 8.97628 5.92024 1.11706 11.4217 -0.473495 0.204341 0.997344 -0.835389 -1.68289 -1.1421 -0.679565 -2.66673 -1.11673 -0.598628 -1.16681 0.0817306 0.0515047 
-5.58888 -3.39637 -15.1671 1.66983 -2.40481 -8.36651 3.53242 -1.27865 11.0636 10.5158 -1.49522 -0.819896 11.4813 -0.0779638 0.652104 1.53303 -0.17995 -0.286857 -0.3266 -0.0835972 -2.74402 -1.92149 -1.47774 -1.66318 -0.522707 0.0284246 
-4.72055 -1.17003 -14.046 0.28019 -3.56588 -5.28795 6.07163 -2.10496 5.86004 5.21336 3.79395 2.49419 11.6494 0.348885 0.830887 1.21124 0.336701 0.663841 0.62287 0.596496 -0.822292 -2.27852 -2.6931 -1.8826 -0.295009 0.0118502 
-3.17706 -0.0443907 -11.9281 4.25221 3.99484 -2.74972 7.78187 -2.07823 4.43806 3.46905 -1.33251 -2.18504 11.45 0.546978 0.834641 0.36843 0.47779 1.9685 2.23078 1.25077 0.436345 -2.08605 -2.40902 -0.947259 -0.279083 -0.0133337 
-2.89316 -0.11484 -13.3075 3.92035 2.55017 -2.20117 8.3482 3.34792 3.23723 -0.965858 -3.57411 0.324586 11.4966 0.038291 0.223038 0.168077 0.144369 1.2875 1.6824 0.707505 1.3657 0.226237 -1.10429 -1.55095 -0.0234645 -0.0403384 
-3.76768 0.249238 -13.6942 2.2387 4.37968 1.24402 8.64801 -1.82336 1.94481 1.56034 -2.54748 -1.13051 11.4911 -0.399921 -0.0151176 0.292945 -0.29757 -0.0803254 1.14615 0.738052 1.52336 1.90778 -0.616421 -1.08884 1.22855 -0.0278912 
-4.23378 -0.201658 -12.3226 2.00879 2.67921 1.12716 9.17609 4.59609 8.23785 0.646251 -3.35331 1.8496 11.4272 -0.372763 -0.350118 0.653569 -0.0661611 1.22851 1.77824 0.0373775 0.388494 1.86836 0.495102 -0.246195 0.578074 0.0115609 
-4.50635 -0.0765696 -10.9558 3.72014 3.52869 1.31689 11.0582 4.91447 11.4767 -0.419104 -6.88713 3.1952 11.3452 0.884335 0.23419 4.36636 -0.119388 -0.607919 0.206284 -3.29886 -1.16681 -0.402923 -0.372458 0.429761 0.979621 0.592211 
-4.38764 -1.70253 -11.4088 2.84883 9.11821 6.65358 7.33 1.92147 7.81312 2.49938 -2.63526 1.0521 11.6274 1.49727 0.257534 7.52084 -1.15222 -1.8224 -0.279013 -5.62146 -1.21944 -3.7965 -1.43873 1.09149 -0.890503 1.32394 
0.730925 2.17062 7.68076 1.22174 -1.87941 -0.487775 -6.92326 -6.32012 0.142565 -1.22851 -0.757708 4.16634 14.352 1.9065 0.567641 8.42346 -1.56369 -3.23524 -0.549915 -6.53821 -0.688738 -5.17503 -2.24061 2.1997 -1.90734 1.66868 
0.633937 -0.0375848 15.9634 -2.50313 -3.72875 0.634423 -9.94046 4.11619 -5.07762 -6.14268 -0.960564 -3.08849 16.5435 1.64148 0.119655 7.32013 -1.68253 -3.44614 -0.533769 -4.60979 0.764518 -3.90008 -2.82808 0.993045 -1.68372 1.67408 
2.51535 1.92917 17.4754 -1.42233 -6.22405 1.57689 -12.9976 0.373419 -7.95312 -7.30111 3.27403 -4.27118 17.2305 0.524718 -0.550552 3.40315 -0.872137 -1.24037 0.854195 -1.49084 1.84901 -1.61417 -2.00628 0.692129 -1.17636 1.10105 
2.92754 -0.983519 20.2945 -4.24179 -5.94016 2.9524 -12.6818 2.39729 -7.63944 -8.60472 0.314095 -3.14775 18.5585 0.378445 -0.369184 2.44184 0.263819 -0.0920691 0.15306 -1.0191 0.549137 0.220364 -0.623498 -0.0976179 0.951623 0.639241 
2.20771 -0.109172 22.5309 -2.26962 -6.97554 2.62421 -13.0068 3.78436 -6.64736 -10.0289 2.06561 -1.68583 18.8498 -0.0485857 -0.358044 1.65253 0.803892 1.40697 -0.0119652 0.42516 0.657067 0.781895 -0.358781 0.0157322 1.27522 0.32941 
2.67998 -0.864335 25.6448 -0.76039 -3.81335 0.87606 -15.0314 5.1564 -4.62868 -7.89629 -0.844442 0.376946 18.9301 -0.475444 0.837056 0.310174 1.43533 2.5085 -0.433223 2.12145 -0.572843 0.876545 -0.316403 0.635838 1.87088 -0.0888399 
2.3962 0.0793526 23.0629 0.85643 -0.252581 2.55523 -9.69703 2.2792 -5.54903 -9.44923 3.93196 0.34255 18.6918 -1.22617 1.99461 -1.27345 1.33318 3.18522 -0.449568 4.20814 -1.39728 1.62302 -0.303492 0.249046 2.03401 -0.387857 
0.456077 3.1075 21.5794 1.37185 3.24088 0.820776 -3.72939 0.28566 -3.80588 -10.4766 2.56011 5.19244 18.1933 -1.74688 2.60065 -3.07929 1.52064 3.14509 0.246205 5.41793 -0.945993 3.35187 0.0790048 -0.391127 0.867554 -0.833644 
-2.81119 7.87794 18.1964 3.33015 5.42347 0.404017 2.38291 -0.766657 1.05635 -10.2562 1.60856 6.07646 17.2789 -0.95042 2.25465 -4.89935 2.34194 2.79873 1.16706 5.12632 0.559929 3.27678 1.42936 -1.10871 -0.103186 -1.55944 
-3.45074 8.23961 12.6816 5.60597 9.0741 3.1827 6.01831 1.94937 8.828 -7.09778 -1.63838 1.84776 15.4683 -0.440208 0.409923 -7.44966 1.79972 1.34216 1.41136 4.34761 1.92396 2.90965 2.78222 -0.765794 -0.624471 -1.76757 
-0.402489 8.78655 3.01508 10.4491 10.8245 7.20955 11.0607 4.24699 4.51794 -3.99181 0.487663 1.49896 12.2571 0.0842184 -1.47245 -7.6297 1.17822 0.318616 0.572254 1.25553 0.27457 1.3817 3.42452 -0.66605 -2.25409 -1.50315 
-2.94932 4.70281 -8.07828 6.811 7.2512 4.47481 13.6698 7.39865 9.01159 0.302375 -0.708409 4.35884 11.8664 -0.910795 -2.30294 -5.04157 -2.34492 -0.80002 -1.14287 -1.45355 -0.262278 -0.259338 3.5012 0.0338979 -1.39419 -0.515398 
-2.64081 2.28409 -9.57219 8.61872 7.928 2.61923 4.83485 -2.11845 7.87306 3.16632 -2.18667 -6.44954 11.5641 -3.59963 -2.27807 -1.48586 -4.8495 -0.303894 -2.25682 -2.99253 -1.11731 0.0356741 2.50984 0.0358901 -1.05162 1.33265 
-6.88555 -0.0238633 -6.23262 -5.20343 6.52223 -0.236492 1.86347 3.8207 5.85375 6.82916 -0.13172 -1.14895 13.2378 -3.50624 -1.16728 0.235573 -5.00408 0.608914 -1.64418 -3.1988 -1.77631 -1.55174 1.00473 0.333658 -0.161599 1.95858 
-16.4325 -0.240466 -5.33706 -7.79121 9.66947 -1.71891 2.00119 0.449412 6.27523 5.29399 0.378769 -1.00523 18.2346 -3.02568 -0.388445 -2.51701 -3.7969 0.773298 -1.94908 -1.50868 -0.819318 -3.30736 0.377871 0.716581 2.45076 1.88556 
-13.5847 0.128687 -9.01798 -10.0044 9.42503 -1.57701 -0.907396 -2.76681 2.05179 4.26219 -0.322842 0.828683 18.3241 -1.04073 1.38172 -2.13833 0.8059 2.28351 -0.0977487 -0.777082 -0.846074 -2.2472 0.212938 0.308395 2.21078 1.09955 
-14.4196 0.265585 -20.7646 -7.96527 10.3431 -6.45591 -1.32312 -2.92128 -6.76273 6.33916 1.4918 4.81546 18.4488 1.14554 1.80689 -0.269828 1.97813 2.08279 1.79308 0.303144 2.18017 -0.409927 -0.416801 0.0961346 1.60718 0.0943476 
-13.0956 6.63171 -9.21051 -1.08691 17.603 1.64326 -0.359784 1.27568 1.13673 7.37126 0.853743 6.99463 18.6285 1.36742 3.18024 4.0039 2.7733 1.66378 2.51485 1.077 3.2891 1.03639 -1.26003 -0.21984 0.820782 -0.0150459 
-10.9493 5.54245 -6.58993 -2.35935 15.9945 5.63636 3.2431 9.32899 4.68312 1.65544 0.27115 3.94771 18.5541 2.53113 2.52325 8.09025 2.35397 -2.4661 1.92928 0.58405 2.09049 1.12246 -4.04281 -0.854158 -1.09939 -0.0387051 
-8.48273 13.3914 3.9142 1.0591 14.9183 4.9511 2.19448 7.55352 1.51081 0.303914 -0.811719 5.36647 18.1962 2.5859 0.103165 6.98302 1.2637 -5.19311 -0.296668 -1.32152 0.195218 -1.42535 -3.86803 -0.727429 -2.01153 0.157764 
-4.07045 9.50196 13.1243 2.73158 -0.645074 1.53659 0.320004 4.39226 -1.3375 -10.3412 -1.94627 0.132601 18.4714 2.01477 -1.53599 6.08122 0.981505 -5.27036 -0.856778 -3.34451 -1.44668 -2.65999 -2.96852 -0.591646 -1.80822 0.413167 
-3.60557 5.16778 15.8474 2.68616 -0.0428066 2.20981 -5.50585 4.72013 -2.97972 -5.97055 -1.6747 -1.15547 19.4586 1.23713 -3.02825 2.88149 -0.0921897 -4.15062 -0.545036 -3.44001 -0.935092 -2.2731 -1.76335 -0.477985 -1.52801 0.562558 
-3.31406 1.97433 17.8495 1.73465 -2.8768 2.72312 -9.62927 3.51231 -6.37157 -10.0499 -2.25559 -1.83244 19.9887 0.3114 -1.70653 0.72689 -0.507959 -1.50553 -0.560211 -2.56234 -0.26417 -1.8486 0.156454 -0.538005 -0.331197 0.4115 
-2.67525 2.01402 15.9591 1.09662 -4.71897 1.63266 -10.0309 3.31804 -7.33765 -8.65848 -3.04698 -1.29104 20.2503 0.231379 -0.382861 0.0108698 -0.552676 -1.2918 -0.786515 -0.636487 -0.105005 -0.952843 -0.173703 -0.567726 0.30438 0.1315 
-2.97861 2.54622 16.703 0.986549 -5.83463 -0.975887 -10.2292 3.77246 -8.40152 -8.21499 -3.95015 -1.4556 20.1331 0.247284 0.188665 -0.339532 -0.334714 -0.762896 -0.269727 0.521934 0.0679158 -0.260914 0.573131 -0.288162 0.884053 -0.0264347 
-2.6164 2.96752 16.4751 0.296827 -5.0229 0.126736 -8.38833 4.06504 -6.72896 -7.75653 -3.66605 0.178006 20.0439 0.164061 0.0111191 0.0622147 -0.429271 -1.21413 -0.210868 0.754286 -0.261337 -0.0378517 -0.330106 -0.284981 0.913854 -0.082486 
-2.10706 2.4409 15.8939 0.460972 -6.53932 2.12744 -7.8409 3.47839 -7.98049 -7.63522 -3.38687 1.8533 19.9598 0.371123 -0.458638 0.0619322 -0.0614697 -1.58546 -0.10133 0.528172 -0.850393 0.509969 -0.0934741 -0.208109 0.956553 -0.0593101 
-2.29072 2.12227 16.6747 -0.786948 -10.4373 -0.973349 -7.45365 2.15839 -7.73742 -10.5989 -4.75352 1.62378 19.9246 0.529472 -0.978264 0.027516 0.39489 -2.0535 -0.808586 0.495104 -1.39204 0.383403 0.402932 -0.630622 0.857274 -0.0679224 
-1.28584 0.67565 16.9128 1.22109 -11.0548 -0.932496 -8.05565 0.473819 -5.34744 -7.26118 -4.44696 2.60428 19.8962 0.868438 -1.55781 -0.372606 1.03584 -2.40171 -1.64977 0.500437 -1.3704 0.0907436 1.5446 -0.632162 0.362707 -0.0704716 
-0.379658 -1.04117 16.1032 1.89122 -13.0327 -2.38622 -5.80543 -1.39286 -6.12847 -5.92889 -6.28911 4.08889 19.7361 1.48225 -2.056 -1.31273 2.07421 -1.83343 -2.48413 0.569959 -0.621143 -0.243523 2.31648 0.633038 0.372472 -0.0618618 
1.2796 -3.76644 14.3166 4.30109 -17.2502 -5.41497 -6.16283 -1.598 -8.33125 -2.24722 -5.77988 2.43428 19.7016 1.95545 -2.06661 -2.69438 2.25111 -0.272944 -3.94798 0.16776 -0.388086 0.343949 1.28126 2.1078 0.039017 -0.0445826 
3.8378 -5.93667 11.4092 8.0441 -16.5067 -11.1528 -5.55027 0.0885845 -7.46313 -1.52346 -0.92187 3.57114 19.7126 2.16021 -1.64231 -4.42575 0.889456 1.82462 -3.21422 -1.00716 -1.24597 1.59189 0.383004 2.47789 -0.265602 0.00770264 
6.38269 -7.20967 5.78792 9.40021 -10.6825 -16.2891 -7.34443 -2.20734 -2.96036 -3.0576 3.40843 3.05824 19.6851 2.13838 -0.67936 -5.20904 -2.4207 3.30846 -0.0384949 -0.544249 -3.04143 2.16366 0.49937 2.94741 -1.09247 -0.0164684 
7.86985 -7.5311 -1.76125 3.78894 -7.19346 -13.0202 -10.2504 -7.31805 -0.854479 -3.60868 1.50618 2.4489 19.7829 1.9001 0.405387 -4.99843 -5.06065 2.67228 3.84309 0.879987 -3.6029 1.31861 0.456612 2.33989 -1.42189 -0.125343 
9.95549 -6.36602 -5.14343 -5.67483 -5.36452 -4.67371 -6.53399 -13.1018 -0.817271 1.29225 7.74316 -2.46695 19.5841 1.59681 1.09788 -3.82336 -5.33588 0.907227 5.59442 3.44175 -2.7777 0.0116128 0.950719 1.42279 -0.907983 -0.200117 
11.5519 -4.33156 -8.11729 -9.72163 -5.80429 2.25497 -1.55556 -12.4787 -1.94165 -1.41532 8.61021 -0.775699 19.1363 1.11489 1.13734 -2.62631 -4.12518 -0.902373 4.47662 4.41117 -1.21895 -1.04558 0.0246737 0.191814 -0.795646 -0.167703 
12.5257 -3.32003 -10.1509 -10.5239 -6.84091 4.04537 5.51689 -13.5155 -2.35871 0.599319 6.97038 0.130627 19.0078 0.618744 0.796794 -1.64697 -1.91487 -1.83452 3.16969 3.56881 0.489865 -0.744729 -1.19523 -0.867567 -0.07106 0.0137444 
12.1592 -3.36738 -12.3891 -14.4124 -10.9671 5.00333 5.77996 -13.206 -5.31165 -3.13885 2.85164 -2.82812 19.2325 0.1652 0.281331 -0.873606 -1.33033 -2.35437 2.20596 1.49074 0.274952 -0.61008 -1.56869 -0.824914 -0.377355 0.159961 
12.7456 -2.86414 -11.2424 -12.9038 -11.9557 9.80057 7.64228 -10.2888 -2.85592 -3.82212 6.28461 -1.79604 19.6047 0.200663 0.297289 -0.0695825 -0.847262 -1.59557 1.70024 -0.151281 0.453252 0.00677299 -1.94029 0.214012 -0.0228606 0.058783 
12.268 -3.15285 -11.9396 -15.1833 -15.0187 10.4072 4.83546 -12.7172 -4.74345 -7.04805 4.82852 -1.69914 19.6376 0.424923 0.309109 0.71895 0.213569 -0.277881 0.0370273 -0.623217 0.456672 0.779766 -0.483613 0.406732 0.517493 -0.186012 
13.4746 -1.94085 -10.7235 -14.3748 -12.7929 9.84466 5.23274 -11.4936 -2.60895 -7.14755 7.052 -0.548167 19.0991 0.503623 0.0752739 1.07918 0.557709 1.22033 -1.3993 -1.11399 0.3602 0.462071 1.68324 0.51661 0.419472 -0.308961 
13.9193 -2.28348 -9.05374 -12.6091 -11.9379 5.16643 3.86865 -10.3202 -1.53631 -3.8942 4.50161 -0.864596 18.5553 0.454235 -0.441158 1.07718 1.15031 3.08019 -2.38967 -1.46213 0.442631 -0.0959014 3.95001 1.52282 -0.108805 -0.228651 
14.438 -2.92245 -7.2894 -11.4024 -7.39443 5.42445 2.55575 -9.68635 -2.14913 3.01715 9.03112 -0.115957 18.6011 0.0495149 -1.12962 0.87981 0.926769 4.01681 -2.58769 -3.0788 0.71891 -1.27473 5.05745 1.7385 -0.798919 -0.0198044 
14.0575 -4.86784 -8.27072 -10.918 -2.31704 0.668942 -1.13668 -11.4077 -5.45286 7.61963 11.4531 -2.45927 18.7434 -0.390789 -1.36889 1.09377 0.466611 4.05311 -2.24628 -4.22801 0.969085 -1.16609 4.83553 1.23691 -1.5057 0.127256 
13.6531 -6.2968 -6.71599 -10.5865 2.48069 -0.845059 -7.65862 -7.35532 -7.02434 12.3828 12.2688 -3.74543 18.9061 -0.929975 -1.53299 2.32637 0.736382 2.59735 -3.23731 -3.64492 2.24818 -0.794177 2.77403 -0.857592 -1.63275 0.141421 
12.3578 -7.44078 -3.87157 -10.684 3.39005 -2.93023 -12.1642 -6.6403 -4.92917 15.6006 9.06732 -6.57837 19.0391 -1.42878 -1.1844 4.14362 1.73299 -0.0139996 -3.51235 -1.82331 4.34908 -0.665668 0.126564 -2.4036 -0.199643 0.153436 
10.638 -9.30091 2.14289 -7.83743 2.7388 -8.96252 -10.1551 -0.829143 -6.38186 12.8968 5.93603 -6.22015 19.1604 -1.97024 -0.512251 4.96381 2.93898 -2.29696 -3.43702 0.610928 4.88213 -2.17166 -2.23597 -2.53855 1.03521 0.145373 
8.42111 -9.28778 8.01797 -3.62756 -2.51609 -12.8341 -9.00497 7.0746 -9.10245 7.99544 2.60143 -2.22012 19.3834 -2.15606 0.406322 5.28845 2.96479 -3.01115 -1.64279 1.92124 3.6983 -4.03009 -3.01657 -2.03774 1.53621 0.0859043 
5.77025 -7.93455 12.1583 0.58018 -6.05104 -13.0782 -6.1836 10.1979 -15.796 5.00557 2.80899 -0.748522 19.4607 -1.92992 1.37164 4.37885 1.71602 -1.99762 1.07273 1.52266 0.554484 -3.00891 -2.62235 -1.74373 0.885706 -0.119624 
4.01136 -6.09235 17.563 -0.0688639 -7.27079 -9.08634 -4.54378 6.33768 -20.3726 4.46342 0.442148 -1.63311 19.3184 -1.56439 1.89201 3.30748 0.0558989 -0.231366 3.12444 0.615721 -2.00059 -1.28177 -2.19706 -1.50998 0.188568 -0.335095 
3.19328 -4.04042 19.2646 -1.03668 -4.87196 -5.47278 -4.77237 2.31174 -15.7914 1.5511 -1.70297 -2.08513 18.5948 -1.02641 2.20232 2.41072 -0.941021 1.19594 3.2505 -0.142179 -2.05166 1.2342 -2.41276 -1.77755 -0.162859 -0.504614 
1.88766 -1.77481 21.0022 -2.53963 -4.26246 -1.0146 -6.63198 1.01474 -15.5136 -1.26263 -2.69251 -0.608984 18.1409 -0.625281 2.62405 0.0928928 0.201112 1.91778 1.49753 0.567909 -1.42067 3.45915 -2.16434 -1.0949 -0.314961 -0.801764 
1.70005 0.918255 22.4923 -2.88954 -1.57552 -0.861608 -5.85039 2.60107 -12.0545 -4.19519 -4.51146 -2.07488 17.5264 -0.638872 2.66537 -1.91872 1.06375 2.77534 0.697959 0.905166 -1.00114 3.99066 -0.460086 -0.49413 -1.17051 -0.953701 
1.63157 4.54858 16.4136 1.86313 0.669874 -3.90428 -1.16523 -0.910315 -4.94528 -3.48515 -3.62812 -3.21303 15.8438 -0.322389 1.90568 -3.31764 1.32504 2.7076 0.490559 1.54877 -0.631752 2.86842 0.77897 -0.46756 -0.764164 -0.968838 
0.126963 6.12474 11.9653 2.08067 6.53857 -0.538143 -2.97992 -1.73145 -1.12224 0.361933 -3.70582 -6.63566 14.9748 -0.39792 1.23365 -4.0631 1.61727 2.40357 0.421097 1.44883 -0.769403 2.35648 0.288314 -1.28818 0.0515917 -0.895229 
1.06225 5.15037 9.6775 1.60046 5.21849 1.27646 -0.323379 0.0222375 -6.63765 0.353658 -5.43313 -2.14941 14.5725 -0.00727959 0.978914 -3.70637 1.50143 1.4203 0.57327 1.07368 -0.382045 0.832257 -1.6137 -2.45987 0.370721 -0.814978 
-0.00489616 6.78562 5.54482 5.32817 8.16803 -1.34649 0.972818 -1.71222 0.574139 -4.67302 -10.0498 -2.34873 13.6859 -0.29705 0.773866 -2.88465 0.766411 0.399191 0.0152633 1.03508 0.453097 0.658108 -1.72366 -1.88435 -0.673469 -0.592256 
1.6611 9.11271 1.09199 7.74652 6.95665 -0.633754 2.22678 -2.83015 -1.63218 -9.03619 -12.7555 -3.50289 12.4134 -0.149196 0.401929 -1.94027 0.39938 -0.315245 0.0675879 -0.46901 0.354255 2.07671 0.0499204 0.0464475 -0.923775 -0.387572 
-1.65771 8.0129 1.83482 2.83969 7.66545 0.493282 0.920397 1.96023 -0.334433 -3.56144 -9.46643 -9.32626 13.0932 -0.0571472 -0.785025 -2.72456 -0.411341 -1.10007 1.25954 -0.242588 -0.256097 1.50592 1.35448 1.47773 -0.203316 -0.376791 
1.14268 6.54637 1.83113 4.84159 3.89355 0.694514 -2.64222 -0.0427125 4.20021 0.0474701 -5.4926 -3.27952 12.9311 -0.719051 -2.06424 -3.79335 0.0418071 -1.07003 1.24018 1.60507 0.79188 2.59698 2.61725 2.40469 0.197059 -0.374986 
-0.0314217 4.14366 -8.44754 4.72392 4.19923 4.28706 2.19438 -4.38643 5.18755 -2.44247 -6.29265 -3.477 11.5431 -1.28841 -2.66292 -4.59186 1.01215 -0.756401 0.256198 2.56087 1.08237 2.67861 3.31546 3.5498 2.43772 -0.527606 
-2.7473 0.726145 -12.7336 7.01344 3.33958 3.67027 9.61514 4.30258 8.59174 3.49059 -2.31889 -5.44223 11.3135 -1.71459 -2.35091 -3.64149 0.257071 0.75073 0.145644 2.49383 1.91181 1.63792 2.93086 2.98226 2.46335 -0.376856 
-6.15479 -2.39157 -13.8421 6.81451 4.16043 0.286396 7.59607 5.19945 10.8628 11.2943 6.69573 3.94371 11.2639 -0.790066 -1.27811 -1.14216 -0.242173 0.347803 -0.712222 -0.197068 2.37991 1.22065 2.28669 1.85 2.56361 -0.0786288 
-4.36857 -1.94055 -13.679 5.08165 7.66661 3.42306 7.12609 4.7234 9.55216 7.83338 2.92451 5.32688 11.1864 0.00608139 -0.260504 -0.774589 -0.247217 0.702415 -0.67529 -1.13579 -0.0840356 -0.100507 -0.0652435 0.0417024 0.919294 0.0354789 
-3.17112 -0.913538 -13.6856 4.47895 3.77474 0.849547 2.45357 7.30272 10.8106 6.81959 0.335661 3.95652 11.2135 0.476239 0.257214 -0.830852 -0.833966 -1.13551 0.680165 0.291105 -1.46988 -0.346862 -1.09693 -1.90973 -1.70474 0.0460083 
-4.20873 -1.31539 -16.6848 6.94514 7.04451 0.0122385 6.50742 2.83077 8.11532 5.40172 1.06966 -0.852163 11.5161 -0.0847097 0.050064 -1.03606 -0.856435 -1.30782 -0.374385 0.354463 -0.910026 0.700346 0.228763 -0.0163023 -0.844309 0.0390247 
-3.85351 -1.41808 -16.4935 1.71294 -1.20607 5.39263 9.36094 -1.20361 9.84695 7.02545 -1.92547 -1.49047 11.3291 -0.576574 -0.177183 -0.11471 -0.753124 -1.25161 -0.331879 0.769612 0.141929 1.32324 0.413394 -0.533566 0.7111 0.0172417 
-4.45092 -1.43796 -17.4554 2.18248 3.61792 -0.720402 5.44472 4.42644 13.5357 8.87426 3.97356 3.82883 11.3237 -0.255206 -0.163831 0.868082 0.134405 -0.554932 -0.373524 -0.137839 0.997835 -0.0624348 0.640625 0.0778058 1.68564 -0.00772715 
-5.9329 -1.73817 -13.8739 3.09466 -0.769999 -0.443528 6.83298 7.21452 14.7166 7.15029 -3.78412 5.17152 11.3959 -0.229948 -0.0343262 0.780594 1.16112 0.931729 -0.320269 -0.254936 -0.319964 -0.871557 -0.666059 0.360669 0.654452 0.0387032 
-4.44507 -1.9745 -13.6542 6.9263 4.05181 1.0627 7.0822 3.61087 5.36832 8.54243 2.38801 4.24503 11.444 0.154536 0.0511845 0.393208 0.501638 0.427883 0.74395 0.756156 -1.44956 -0.636021 -0.77731 -0.956093 -1.40736 0.0179849 
-5.00618 -1.32144 -14.4911 5.14665 3.23563 2.89974 7.26751 -2.39565 9.57287 3.86107 0.67065 1.5737 11.4624 0.552376 0.118601 -0.435767 -0.167486 1.29348 1.07205 -0.275809 -1.96426 0.143461 0.263597 0.334549 -0.668268 -0.0231737 
-4.1416 -1.3904 -15.1807 3.66468 3.75452 1.32772 9.00823 1.98372 12.9275 6.63232 -3.03429 -1.40905 11.3803 0.0150957 -0.449372 -0.289372 -0.886376 -0.125546 0.744218 -0.294611 -1.25447 0.689493 -0.454226 -1.49447 -0.52401 -0.0298399 
-3.32275 -1.43722 -15.2895 3.88804 5.84603 4.78419 4.49092 -1.79318 11.6543 9.42333 0.599769 4.65722 11.3119 0.0710846 -0.0439163 0.311979 -0.100459 -0.178842 -0.645834 -0.314591 -0.0422729 -1.58603 -0.109511 0.527362 0.384512 -0.030275 
-5.2113 -4.16348 -14.7019 3.12373 2.11888 3.84156 6.99744 -2.9627 7.77506 3.49017 -5.04888 0.0832136 11.3701 -0.0228786 0.367912 1.13312 -0.2837 -0.190853 0.0202272 0.584575 0.380602 -2.0925 -1.59386 1.10275 0.365825 0.0144772 
-4.1159 -0.154487 -13.1706 4.91483 3.15924 -1.58636 6.69995 -0.133803 4.21891 4.88459 4.31476 2.75012 11.3162 0.109553 0.594754 1.45221 -0.390135 -0.805138 -1.42452 0.69786 2.04686 -1.0072 -3.22317 -0.305581 -1.12607 0.0420452 
-3.85942 -0.192207 -10.5745 1.73279 4.14365 4.61413 10.8266 3.05704 6.18267 0.932373 0.621954 1.37362 11.4506 0.418571 0.71342 1.22981 -0.326377 -0.497312 -1.42709 -0.249791 2.2353 0.247449 -2.81058 -0.550766 -0.777162 0.0389254 
-3.45093 -0.44908 -10.0921 2.63284 0.807961 -2.72469 6.06564 5.43125 7.41451 -5.41364 -3.76355 -1.61835 11.4819 0.173842 -0.0846059 0.663948 -0.366393 -0.803825 -0.96155 -0.602956 1.35043 0.762303 -2.69425 -2.05421 -1.17289 0.0362751 
