-6.73328 2.27287 -5.78072 5.10943 5.45409 5.39593 9.80019 6.99852 8.22319 4.73587 5.09831 5.24412 11.3884 0.4122 0.708695 0.817485 0.834357 -0.319762 0.21777 -0.0208764 -1.90231 0.528843 -1.35101 -1.52653 -0.233623 -0.0172263 
-5.38103 1.34877 -7.22919 5.9304 3.98124 4.29831 9.30119 -0.337573 10.0026 2.74186 -1.0408 2.76009 11.2643 0.560619 0.940335 1.74007 1.40503 1.07796 1.25794 -0.584282 -1.29628 1.10072 -0.494469 -1.26269 -0.070644 0.0154795 
-5.34841 6.27839 -0.969057 8.87073 4.5917 7.0336 9.94531 1.15502 9.97772 -1.02216 0.535202 5.31801 11.3643 0.749495 0.853141 1.89011 1.6489 1.25331 1.80116 -0.35883 0.462657 1.55078 0.685843 -0.392139 0.673023 0.0125474 
-4.62263 4.97178 0.513792 10.2539 11.2751 10.8668 6.80622 3.43889 12.8495 5.14253 1.06641 4.85395 11.4778 0.237369 0.221665 0.764617 0.208716 -0.270305 0.78301 -0.0302064 2.90419 0.485332 1.54638 1.70756 1.33215 -0.0136514 
-3.36501 4.72707 -0.201658 11.1922 8.07371 11.1175 9.25352 7.42358 14.5536 6.96474 2.08401 7.56231 11.3444 0.271545 -0.779651 -0.770818 -0.244743 -1.23831 -0.505825 0.881351 2.68481 0.47338 0.740118 -0.214676 -0.747142 -0.0424553 
-5.18588 3.23275 -3.78981 5.81327 0.888708 6.1714 9.49605 11.0491 10.1413 6.4803 6.72258 8.29869 11.206 1.33348 0.969143 -0.0590749 0.183483 -1.15386 -1.73765 -0.992202 -1.05614 -2.58087 -3.6444 -1.48322 -1.41803 0.0449143 
-3.70906 3.24965 -2.67135 9.86734 3.59332 6.85217 13.0071 10.774 13.6987 2.00955 -3.36626 -0.140062 11.2879 2.63061 1.93272 1.62082 0.859517 0.123822 -2.30783 -2.03961 -5.01436 -5.02308 -5.48831 -2.08036 -0.562314 0.344326 
2.21682 10.5562 1.45326 11.8337 7.74595 4.31122 -0.0316038 -3.517 0.372593 -10.6019 -3.62455 1.61498 11.7306 3.0566 2.30239 1.61515 2.1235 1.58002 -1.74315 -0.773199 -4.78248 -5.58029 -4.72534 -1.96911 -0.416365 0.34958 
6.08668 10.7289 5.28091 12.4795 5.2642 0.508465 3.81928 -10.3651 -5.67748 -11.9357 -3.14423 8.09259 12.8037 1.49836 -0.0222526 -1.43076 0.0237315 2.42463 -1.68144 -1.23651 -2.42719 -3.03349 0.0091362 -0.111271 1.29 0.702709 
5.19923 11.0051 0.309832 15.1247 7.95335 0.627525 10.224 -2.29372 -8.07205 -10.1737 -3.23398 2.10053 12.1961 -0.29263 -1.47587 -3.02149 -0.257537 1.82627 -1.39445 -1.30404 0.517638 0.784341 2.71202 -0.584055 0.786229 0.993997 
2.29152 2.91394 -9.25343 8.34051 15.6127 0.286821 1.69682 -1.97362 2.7536 1.84117 -4.1179 6.06714 14.5688 -0.340194 -0.922019 -0.745294 0.0561945 0.225384 -1.80517 -4.3087 1.51866 1.20891 1.50319 -0.410309 1.21252 1.06877 
2.65125 7.08435 -6.38704 12.6155 11.703 -2.55022 -5.49056 -5.12457 0.0787566 -3.9302 -6.05799 6.55885 15.8181 0.939538 -0.873476 2.53972 -0.898767 -2.13437 -2.46904 -5.54505 0.721935 -0.398645 -0.245069 0.523526 1.66487 1.2103 
5.6597 8.0792 4.90287 14.0151 4.51628 -6.92852 -9.86692 -1.35644 -3.70836 -7.54155 -3.78377 11.926 16.3365 1.9464 -0.703538 4.28324 -1.26521 -3.06861 -2.84031 -3.21883 0.406383 -1.95421 -1.5124 1.58274 -0.653056 0.840396 
8.21283 4.05507 5.93028 7.79359 2.82974 -8.10999 -11.7194 1.00736 -6.8343 -6.70773 -0.783418 7.49543 17.3637 1.73444 -1.79639 2.10938 -3.15091 -1.93435 -1.689 -1.22938 -0.161 -1.01068 0.901689 2.14229 -2.29782 0.666413 
9.24274 0.910891 6.0041 4.42545 4.70634 -11.1348 -11.2829 -3.00767 -3.5609 -4.33206 1.15853 2.33357 17.998 0.826127 -1.60742 -0.668852 -3.77363 -0.510699 -0.0750244 0.0442654 -1.42357 -0.0748215 2.41371 1.86117 -3.47669 0.567879 
9.53194 1.68657 3.60926 1.6558 1.93627 -8.89204 -10.9295 -5.10396 -5.04839 -1.0265 2.18232 -0.134022 18.3194 0.306729 -0.547547 -1.38171 -3.0754 -0.402597 0.855436 0.907022 -2.24855 -0.00512228 3.01085 1.31605 -2.63769 0.378963 
9.13078 1.22634 2.71912 -1.78418 2.40951 -6.91262 -10.0406 -5.41864 -4.97542 1.68637 4.03923 -1.64267 18.698 0.210695 0.117568 -1.7992 -2.51077 -0.597284 1.52603 1.03337 -1.12139 -0.85539 3.14465 0.973343 -1.69405 0.294009 
9.80245 1.15962 0.664242 -4.47858 1.96517 -5.94392 -7.80547 -9.02992 -6.15265 5.3373 4.35648 -3.70488 18.9084 0.206247 -0.33747 -1.47515 -2.09611 -0.300559 1.14162 0.724133 -0.477843 -0.718292 2.93826 0.491782 -0.877699 0.268243 
10.161 1.76221 -1.5194 -5.06119 1.70547 -4.97875 -7.67805 -6.65164 -7.28572 8.20927 4.93817 -4.35126 19.1735 0.12834 -0.995322 -1.45119 -1.54772 -1.04608 0.882771 0.332797 0.180462 -0.665746 2.20074 0.432313 -0.489489 0.292972 
10.0481 -0.268713 -1.64725 -7.18625 0.7855 -4.15086 -8.49006 -6.87668 -7.4847 10.4034 4.19176 -3.16823 19.4229 -0.23723 -1.63918 -1.4009 -1.13341 -1.49979 0.988221 -0.370348 1.08198 0.0784124 1.63584 0.735781 -1.2983 0.396457 
9.64966 -3.03611 -3.3811 -8.16895 -2.23107 -3.39529 -8.03429 -5.59296 -7.63813 10.157 6.28315 -4.35845 19.9057 -0.347117 -2.22581 -1.4762 -1.16959 -1.44447 1.40087 0.0311315 1.06947 1.28997 1.04529 0.0988885 -1.93168 0.489701 
8.87195 -4.63711 -5.40941 -8.59176 -3.56552 -1.79454 -9.47909 -4.14935 -5.58438 12.5426 7.36289 -10.1928 20.5247 -0.411092 -2.2616 -2.08719 -1.17113 -1.2409 2.02167 0.513224 1.32866 1.76608 -0.678372 -0.602634 -2.85326 0.486254 
9.01344 -7.18263 -7.01932 -10.2064 -3.34135 0.847428 -7.02788 -2.66796 -1.78604 12.3661 3.84704 -10.4974 21.0712 -0.454079 -1.80277 -2.00826 -0.814483 -0.484496 2.57845 1.24686 1.22806 1.79625 -2.07535 -1.19162 -2.48874 0.33842 
8.31074 -9.50344 -10.2641 -12.0232 -4.86388 3.83612 -6.42714 -1.69586 -1.58036 5.90696 2.39664 -14.3651 21.2714 -0.550871 -1.33499 -1.5676 -0.408985 0.100897 2.40767 1.79557 0.938419 1.15279 -3.37003 -1.09135 -1.59375 0.168915 
7.65987 -9.61678 -10.9951 -10.5256 -4.00437 6.68162 -3.32595 -0.679382 -0.658902 3.0981 2.80815 -14.716 21.2244 -0.517303 -0.787605 -0.828667 0.239292 0.58474 1.81008 1.37338 0.739859 0.401252 -3.24003 -0.340558 -1.72639 0.0737526 
6.79438 -10.095 -11.2595 -10.477 -2.72952 7.32673 -2.35221 -0.451547 -0.384028 0.326469 2.4256 -16.0522 21.2926 -0.481285 -0.568583 -0.137719 0.67487 0.980869 0.714688 0.899818 0.896297 0.104027 -1.79228 -0.490098 -1.11018 0.0650206 
7.18511 -10.8249 -10.6649 -9.78298 -1.48483 8.15254 -2.19845 0.409178 -0.377949 -1.04382 2.12977 -18.2857 21.4293 -0.303721 -0.657176 0.417902 0.827968 1.21034 -0.129332 0.643474 1.50212 0.0737775 -0.429117 -0.845173 -0.196248 0.0761538 
6.1417 -11.7423 -11.1177 -9.02018 -1.2193 6.6741 -2.4918 2.24134 -1.20071 -0.983488 0.285344 -18.1311 21.4941 -0.145437 -0.77142 0.615103 0.758242 0.873185 -1.20243 0.46433 1.58187 -0.495688 0.460256 -1.87926 0.935246 0.0424383 
6.46761 -12.079 -8.97648 -7.11424 1.29221 6.36127 -0.0387826 5.48479 0.118325 1.60749 -0.347583 -14.6578 21.5044 -0.21472 -0.8652 0.32425 0.298543 0.191065 -2.73928 0.0221738 1.03367 -1.20803 0.446791 -2.87272 1.57083 -0.0260866 
6.42594 -13.325 -9.02824 -8.02021 0.247881 2.21022 -1.1104 4.92001 -3.11061 1.3021 -5.732 -13.19 21.4673 -0.193465 -0.36949 0.331674 -0.00452118 -0.316328 -3.36086 -0.332664 1.07989 -1.48541 0.252302 -2.65964 2.02749 -0.0940006 
5.96938 -14.3595 -10.0884 -8.79026 -1.2631 -3.31191 -2.77828 4.2382 -5.46313 0.0473474 -9.22516 -12.9022 21.3123 -0.183823 0.0275986 0.733913 -0.0924013 -0.939645 -3.09688 -1.27782 1.62137 -0.82884 0.0683512 -1.9039 2.60354 -0.12316 
5.42349 -12.4495 -8.90341 -8.20478 -1.52329 -5.29359 -2.78537 8.26408 -5.83705 1.05809 -8.57408 -8.87151 21.1201 -0.165364 0.501547 1.80833 0.291683 -1.60007 -1.95191 -1.57193 1.62688 1.16437 0.341189 -0.200955 3.08303 -0.120765 
6.04972 -12.3788 -5.36933 -7.48396 -2.52043 -5.37124 -5.59038 11.9196 -2.66265 2.07125 -8.44606 -3.79934 21.0622 -0.147306 0.527487 3.11645 0.377479 -2.97292 -1.32308 -1.81134 0.250208 1.34426 0.660534 0.854679 2.56841 -0.0960407 
5.55896 -11.8077 -2.34614 -7.21494 -7.1238 -6.51968 -7.56399 9.21368 1.311 1.99609 -7.12633 -2.32623 20.9885 -0.387652 0.679831 4.21672 0.587614 -3.50959 -0.547099 -0.415378 -1.19859 0.328628 0.612259 1.6839 1.75714 -0.0411654 
5.16512 -12.043 2.21518 -7.39778 -13.3275 -9.31426 -9.44569 5.01444 -2.31586 2.88102 -5.67564 -3.33273 20.8979 -0.995852 1.27397 4.52226 0.242888 -3.10075 0.0182439 0.882078 -2.4202 -1.99996 -0.208005 2.24026 1.1639 0.0251194 
3.92753 -9.21823 8.38795 -5.3098 -13.6677 -6.05758 -2.93461 5.72371 -4.3673 3.71451 -1.53978 -0.319094 20.9964 -1.33509 1.68775 4.46368 -0.169546 -1.65806 0.439438 0.948362 -2.27817 -4.01422 -1.19961 1.91116 1.37643 0.0724613 
1.88617 -7.30362 11.8749 -7.22209 -14.7522 -5.51107 -3.49469 1.56362 -9.82333 0.172016 -0.0380098 1.01661 21.1838 -1.3673 2.27087 3.57589 -0.166798 -0.0377676 0.675143 -0.200461 -1.82437 -4.12086 -2.56569 1.2094 1.82792 0.0161821 
0.522962 -5.7386 15.1424 -8.15052 -14.7017 -6.22408 -5.79768 -0.451773 -15.0064 -2.64744 -0.389363 2.38127 21.2078 -1.2447 2.43754 2.79809 0.204931 0.722215 0.267268 -2.30043 -1.84877 -3.32728 -2.92961 0.35775 1.55278 -0.155541 
0.030901 -2.42848 16.7174 -6.81141 -12.9993 -5.85529 -9.01645 -1.01968 -17.6007 -6.76647 -0.203875 4.4567 20.8731 -0.921799 2.73747 2.16751 0.741764 1.22217 0.460131 -1.39788 -0.528695 -0.824168 -1.8466 0.381409 0.781381 -0.387979 
-1.36832 0.53189 19.9572 -4.49048 -10.9331 -4.54913 -11.6759 -2.2285 -17.115 -7.46428 0.331903 5.72476 20.3741 -0.624098 2.48097 1.38107 0.497675 1.25198 0.916297 0.32125 -0.147418 1.18673 -1.14754 0.633178 -0.642038 -0.454169 
-1.77718 3.24846 20.3051 -5.34329 -10.5257 -4.04789 -7.54498 -0.191495 -12.8898 -6.65257 1.5084 3.25177 19.6608 -0.523946 1.55053 0.799661 -0.09152 1.35348 1.05855 1.65563 -0.499013 2.01334 -0.260441 0.144313 -1.56445 -0.37287 
-1.69349 3.8278 20.2539 -6.39621 -9.67864 -2.5463 -4.92717 -1.60296 -11.4281 -8.44207 1.92039 -0.226449 19.5432 -0.377272 0.8617 0.111725 -0.670128 1.4047 0.515106 2.19896 -0.694735 1.91663 -0.32667 -0.101429 -1.67946 -0.266723 
-2.42625 3.6762 20.5673 -6.31615 -6.85909 -1.56396 -4.11268 -3.82752 -10.3774 -7.57977 -0.276554 -0.389931 19.4242 -0.486333 0.691616 -0.0480143 -0.64897 1.40163 0.129648 1.57712 -1.27824 1.10888 -0.28328 -0.12142 -1.09141 -0.234124 
-2.93015 4.62652 20.3847 -7.35469 -5.74291 -3.21557 -2.39727 -3.88416 -8.7881 -8.63402 0.717233 -0.851667 19.1588 -0.663321 0.884306 -0.585649 -0.606895 0.961784 -0.346064 0.890413 -0.794862 0.268754 0.214736 -0.267126 -0.781 -0.302913 
-3.59051 6.30718 19.9996 -8.1089 -5.48537 -3.06502 -0.924337 -5.4421 -8.66546 -7.973 1.50288 -1.89265 18.6824 -0.670305 0.791291 -1.18945 -0.105643 0.885657 -0.0818602 -0.0788619 -0.879566 -0.00605211 -0.138803 0.0128005 -0.64459 -0.3407 
-4.42796 6.93384 17.6095 -8.53431 -5.55658 -3.52609 -2.06928 -4.76997 -10.9403 -7.17178 -0.304958 -3.38009 18.3995 -0.743689 0.0756471 -0.841721 1.01296 1.17756 -0.629714 -0.457219 -0.887993 0.524939 -0.115067 -0.868416 -0.59268 -0.365032 
-5.02887 6.479 16.0077 -6.25456 -2.52397 -1.818 -4.67099 -7.78244 -9.33158 -9.00491 0.298544 -2.34867 18.1003 -0.103865 0.261134 -0.516804 1.18405 1.69906 -1.1212 -0.864315 -1.43213 0.240143 -0.416807 -0.885998 -0.111707 -0.578925 
-5.92942 4.91884 18.1721 -3.21708 -1.33582 -6.98765 -2.81004 -7.15396 -5.83034 -8.6934 -3.02268 -3.58706 17.6246 0.460576 1.1768 -0.0185644 0.854959 2.30257 -0.184597 -0.0171546 -1.22244 -0.165643 -0.307063 -0.120624 0.260694 -0.771621 
-3.35911 8.62035 17.1343 -4.84728 0.899531 -6.94022 -4.87553 -11.4108 -10.0197 -9.29623 -1.56825 -2.3477 16.1752 0.831453 1.31812 -0.534612 1.31196 1.36531 0.869531 0.370791 0.211136 0.615532 -0.692101 -0.644115 0.748267 -1.0425 
-2.95996 11.7472 16.9534 -4.96316 4.2445 -1.88796 -2.05278 -9.06802 -11.4245 -8.56144 0.0253177 -2.0771 15.504 1.08628 0.728041 -2.11543 2.13171 0.305234 1.5379 -0.252547 0.121196 1.47304 0.679862 -0.0335102 0.0953467 -1.22287 
-2.35633 9.65542 13.9439 1.17827 1.51242 -0.0201888 -3.19566 -5.76973 -3.45686 -12.5314 -4.44603 0.637688 13.9481 0.230721 -1.12015 -4.40694 2.32829 -0.565534 1.8191 -0.474715 0.400985 3.57548 1.43193 0.695121 1.10913 -1.12118 
-0.999397 8.04152 9.19012 4.42868 -0.116086 -2.75819 -4.91271 -9.36849 -1.74656 -3.6765 -1.75134 -4.60302 12.6238 -0.411189 -2.42062 -6.31373 2.42277 -0.0443547 0.492745 -0.0515458 0.894947 3.44545 3.00119 1.04079 0.644756 -1.03546 
-3.18578 4.87242 -1.01874 2.09826 0.252154 2.59037 -5.81914 -9.2556 3.01871 -4.57905 2.79568 4.46091 12.0094 -1.19714 -2.34877 -5.72223 0.824964 1.34031 0.676847 2.5475 2.70452 3.43028 4.37325 1.66419 1.52981 -0.661496 
-4.60118 2.03557 -7.13395 6.69069 4.65286 -0.729509 -0.998769 -2.85035 2.56498 2.46835 1.60843 -0.764933 11.2961 -1.48456 -2.01753 -4.36865 -0.201919 0.847857 1.00833 2.93595 2.65601 2.73336 3.04327 1.0892 1.39216 -0.322109 
-6.54114 0.914532 -6.50518 4.17209 5.82949 2.34971 7.58488 4.4938 11.5388 6.26241 2.19502 6.36772 11.3045 -1.05681 -1.50909 -1.92967 0.1109 0.0908615 0.291248 4.10974 3.01742 1.76803 1.87701 -0.280732 0.144647 -0.108778 
-6.74452 -0.0672159 -9.90989 2.38216 1.33453 2.4038 3.06502 -2.96312 7.66023 6.11911 3.99497 1.40439 11.3657 -0.359381 -0.71676 -0.575789 -0.0410704 -0.489969 0.456185 1.82684 -1.22984 0.427896 -0.293537 -0.596603 1.18878 0.0321694 
-7.39818 -1.62165 -9.2791 4.80702 2.36563 2.47995 12.6977 5.88786 9.31124 2.98062 0.198753 4.09948 11.4307 0.266637 -0.179691 -0.382425 0.269923 -0.598262 0.178935 0.38431 -0.518011 0.15756 -0.847178 -1.29356 0.952054 0.0350523 
-5.96957 -0.280138 -8.62593 6.16787 3.93495 1.4863 5.57902 -9.69657 5.81823 2.64156 -0.376449 6.3131 11.3938 0.263234 0.346074 0.576952 0.369465 0.40957 -0.184268 0.283549 1.11654 0.910545 -0.687925 -1.68186 2.07924 -0.00806866 
-5.59543 0.122537 -9.05928 3.62885 1.53797 3.70313 8.24943 5.27046 13.2476 3.7653 -2.08706 8.67363 11.4657 0.0394281 0.28577 0.485903 0.197152 -0.0881451 1.07337 -0.503856 1.69179 0.671467 0.0373962 -0.521036 1.25145 -0.0304776 
-6.32973 0.791063 -7.13504 4.81858 3.79621 0.870868 6.70688 2.92829 10.2448 2.28715 -3.27144 9.5135 11.3078 -0.134031 0.141559 0.157825 -0.196937 -0.259474 1.34321 1.14567 3.03236 1.21431 0.187251 1.02594 0.415751 -0.0187227 
-7.02095 -0.728398 -7.59503 6.46743 1.99427 8.15454 9.61445 8.03438 10.4553 3.34481 -0.958932 8.75653 11.3213 -0.18717 -0.019418 0.0457057 -0.297936 0.221647 0.422037 0.941431 0.813583 0.869869 1.33682 1.6328 -1.69939 -0.00838404 
-5.92696 0.853122 -8.56893 3.7639 2.40943 5.97664 10.6248 4.08328 13.2859 3.78806 4.1892 8.35041 11.3724 -0.00135326 0.380403 -0.270565 -0.712921 -0.351694 0.350539 0.531043 0.84262 0.721924 0.517871 1.38833 -2.32108 0.0411792 
-6.73266 -0.00558281 -8.11381 2.66651 3.3396 3.26044 10.9976 8.76089 16.0764 9.69892 2.3466 0.758244 11.3915 -0.0319687 0.446333 0.0639789 -0.129382 0.570845 -1.11687 0.127953 -0.120479 -1.12899 -0.819945 0.453773 -0.77101 -0.00572243 
-6.48064 2.33167 -8.22848 3.15443 1.36507 5.07061 8.67052 6.77814 11.0439 1.69945 2.01745 1.90723 11.4786 -0.0421858 -0.152406 0.0745987 0.762581 -0.593998 -1.50412 -0.602598 -0.906556 -1.79788 -1.05017 -0.374825 0.775673 -0.00663452 
-6.90396 0.763993 -7.44537 6.12525 5.37067 3.0232 11.2314 6.08456 5.93136 0.28939 2.39581 8.12307 11.2396 0.298574 -0.00269465 -0.0794994 1.16664 -0.94756 -0.805151 -0.498279 -1.88773 -2.49325 -0.772029 0.372994 1.63469 -0.0301026 
-6.05224 -0.293694 -8.53016 5.84743 -1.5761 -1.42533 7.49496 0.888667 9.36897 3.24198 2.29047 8.54637 11.4152 0.392493 -0.204521 0.171022 0.928742 -0.838957 -1.04497 -0.684858 -1.14062 -0.388628 0.0681187 -0.588844 -0.111829 -0.0404261 
-5.45399 1.29363 -8.36047 7.15318 0.0723815 2.48265 9.09399 2.26699 4.44754 5.06751 4.07506 5.61214 11.2727 -0.000668621 -0.149746 -0.359007 0.245272 -0.170641 0.432158 1.47582 0.528381 1.25306 0.280686 -1.47206 -1.27092 0.0271302 
-5.24316 1.04425 -6.91582 7.28418 -0.180568 0.116051 6.31492 2.9838 9.84264 -0.34902 -1.76639 2.60354 11.26 -0.589875 -0.232714 -0.52097 -1.04996 1.56428 1.3431 1.72866 0.847514 0.253979 -0.529292 -0.931153 -0.786167 0.0249029 
-7.31184 -0.653709 -10.0476 6.63323 3.8197 4.4133 19.2005 7.6789 11.9598 3.48832 -2.93608 4.73987 11.4529 -0.734487 -0.141691 -0.423709 -1.01803 1.18214 0.945606 -0.585321 0.348403 1.32829 -0.308872 -0.58064 -0.10311 0.107738 
-8.07269 -0.483598 -10.2915 0.857606 4.37162 4.32485 11.085 2.42028 6.88273 1.38512 1.14027 5.05167 11.4496 -0.755576 0.378763 -0.566557 -0.806646 0.123094 1.23785 -2.23033 -0.667448 -0.535146 0.654295 0.625631 0.344262 0.218556 
-7.71166 1.34909 -8.79119 5.27631 3.70701 5.10628 3.78235 4.29076 12.5689 2.65608 -0.281475 3.87253 11.7165 -0.3767 0.7601 -0.0743783 -0.233586 -1.05373 0.472494 -4.08689 -1.37562 -1.02153 0.165397 0.483527 -0.0255832 0.230731 
-8.82113 1.93666 -10.3768 3.92941 0.491246 5.9588 2.87235 1.34063 6.86236 3.33857 0.034462 4.75853 12.2209 -0.260633 0.542808 -0.175628 0.479669 -1.09765 0.412041 -1.73353 -0.510945 -0.574729 0.458941 -0.189568 0.0299708 0.204686 
